EESchema Schematic File Version 4
EELAYER 30 0
EELAYER END
$Descr A4 11693 8268
encoding utf-8
Sheet 5 6
Title "DL-2027"
Date "2020-04-28"
Rev ""
Comp ""
Comment1 ""
Comment2 "Licence: CC-BY"
Comment3 "Author: Loic *WydD* Petit"
Comment4 "Project: CPS2 Reverse Engineering: DL-2027"
$EndDescr
Text HLabel 3100 1150 0    50   Input ~ 0
IN-A31
Text HLabel 3100 1850 0    50   Input ~ 0
IN-A30
Text HLabel 3100 2550 0    50   Input ~ 0
IN-A29
Text HLabel 3100 3250 0    50   Input ~ 0
IN-A28
Text HLabel 3100 3950 0    50   Input ~ 0
IN-A27
Text HLabel 3100 4650 0    50   Input ~ 0
IN-A26
Text HLabel 3100 5350 0    50   Input ~ 0
IN-A25
Text HLabel 3100 6050 0    50   Input ~ 0
IN-A24
Text HLabel 6650 1150 0    50   Input ~ 0
IN-A15
Text HLabel 6650 1850 0    50   Input ~ 0
IN-A14
Text HLabel 6650 2550 0    50   Input ~ 0
IN-A13
Text HLabel 6650 3250 0    50   Input ~ 0
IN-A12
Text HLabel 6650 3950 0    50   Input ~ 0
IN-A11
Text HLabel 6650 4650 0    50   Input ~ 0
IN-A10
Text HLabel 6650 5350 0    50   Input ~ 0
IN-A9
Text HLabel 6650 6050 0    50   Input ~ 0
IN-A8
Text HLabel 8450 1150 0    50   Input ~ 0
IN-A7
Text HLabel 8450 1850 0    50   Input ~ 0
IN-A6
Text HLabel 8450 2550 0    50   Input ~ 0
IN-A5
Text HLabel 8450 3250 0    50   Input ~ 0
IN-A4
Text HLabel 8450 3950 0    50   Input ~ 0
IN-A3
Text HLabel 8450 4650 0    50   Input ~ 0
IN-A2
Text HLabel 8450 5350 0    50   Input ~ 0
IN-A1
Text HLabel 8450 6050 0    50   Input ~ 0
IN-A0
Wire Wire Line
	2500 1400 2500 2100
Connection ~ 2500 5600
Wire Wire Line
	2500 5600 2500 6300
Connection ~ 2500 4900
Wire Wire Line
	2500 4900 2500 5600
Connection ~ 2500 4200
Wire Wire Line
	2500 4200 2500 4900
Connection ~ 2500 3500
Wire Wire Line
	2500 3500 2500 4200
Connection ~ 2500 2800
Wire Wire Line
	2500 2800 2500 3500
Connection ~ 2500 2100
Wire Wire Line
	2500 2100 2500 2800
Text HLabel 4900 6050 0    50   Input ~ 0
IN-A16
Text HLabel 4900 5350 0    50   Input ~ 0
IN-A17
Text HLabel 4900 4650 0    50   Input ~ 0
IN-A18
Text HLabel 4900 3950 0    50   Input ~ 0
IN-A19
Text HLabel 4900 3250 0    50   Input ~ 0
IN-A20
Text HLabel 4900 2550 0    50   Input ~ 0
IN-A21
Text HLabel 4900 1850 0    50   Input ~ 0
IN-A22
Text HLabel 4900 1150 0    50   Input ~ 0
IN-A23
Wire Wire Line
	9050 1150 9500 1150
Entry Wire Line
	9500 1150 9600 1050
Wire Wire Line
	9050 1850 9500 1850
Entry Wire Line
	9500 1850 9600 1750
Wire Wire Line
	9050 2550 9500 2550
Entry Wire Line
	9500 2550 9600 2450
Wire Wire Line
	9050 3250 9500 3250
Entry Wire Line
	9500 3250 9600 3150
Wire Wire Line
	9050 3950 9500 3950
Entry Wire Line
	9500 3950 9600 3850
Wire Wire Line
	9050 4650 9500 4650
Entry Wire Line
	9500 4650 9600 4550
Wire Wire Line
	9050 5350 9500 5350
Entry Wire Line
	9500 5350 9600 5250
Wire Wire Line
	9050 6050 9500 6050
Entry Wire Line
	9500 6050 9600 5950
Wire Wire Line
	7250 1150 7700 1150
Entry Wire Line
	7700 1150 7800 1050
Wire Wire Line
	7250 1850 7700 1850
Entry Wire Line
	7700 1850 7800 1750
Wire Wire Line
	7250 2550 7700 2550
Entry Wire Line
	7700 2550 7800 2450
Wire Wire Line
	7250 3250 7700 3250
Entry Wire Line
	7700 3250 7800 3150
Wire Wire Line
	7250 3950 7700 3950
Entry Wire Line
	7700 3950 7800 3850
Wire Wire Line
	7250 4650 7700 4650
Entry Wire Line
	7700 4650 7800 4550
Wire Wire Line
	7250 5350 7700 5350
Entry Wire Line
	7700 5350 7800 5250
Wire Wire Line
	7250 6050 7700 6050
Entry Wire Line
	7700 6050 7800 5950
Wire Wire Line
	5500 1150 5950 1150
Entry Wire Line
	5950 1150 6050 1050
Wire Wire Line
	5500 1850 5950 1850
Entry Wire Line
	5950 1850 6050 1750
Wire Wire Line
	5500 2550 5950 2550
Entry Wire Line
	5950 2550 6050 2450
Wire Wire Line
	5500 3250 5950 3250
Entry Wire Line
	5950 3250 6050 3150
Wire Wire Line
	5500 3950 5950 3950
Entry Wire Line
	5950 3950 6050 3850
Wire Wire Line
	5500 4650 5950 4650
Entry Wire Line
	5950 4650 6050 4550
Wire Wire Line
	5500 5350 5950 5350
Entry Wire Line
	5950 5350 6050 5250
Wire Wire Line
	5500 6050 5950 6050
Entry Wire Line
	5950 6050 6050 5950
Wire Wire Line
	3700 1150 4150 1150
Entry Wire Line
	4150 1150 4250 1050
Wire Wire Line
	3700 1850 4150 1850
Entry Wire Line
	4150 1850 4250 1750
Wire Wire Line
	3700 2550 4150 2550
Entry Wire Line
	4150 2550 4250 2450
Wire Wire Line
	3700 3250 4150 3250
Entry Wire Line
	4150 3250 4250 3150
Wire Wire Line
	3700 3950 4150 3950
Entry Wire Line
	4150 3950 4250 3850
Wire Wire Line
	3700 4650 4150 4650
Entry Wire Line
	4150 4650 4250 4550
Wire Wire Line
	3700 5350 4150 5350
Entry Wire Line
	4150 5350 4250 5250
Wire Wire Line
	3700 6050 4150 6050
Entry Wire Line
	4150 6050 4250 5950
Text Label 9150 6050 0    50   ~ 0
A0
Text Label 9150 5350 0    50   ~ 0
A1
Text Label 9150 4650 0    50   ~ 0
A2
Text Label 9150 3950 0    50   ~ 0
A3
Text Label 9150 3250 0    50   ~ 0
A4
Text Label 9150 2550 0    50   ~ 0
A5
Text Label 9150 1850 0    50   ~ 0
A6
Text Label 9150 1150 0    50   ~ 0
A7
Text Label 7350 6050 0    50   ~ 0
A8
Text Label 7350 5350 0    50   ~ 0
A9
Text Label 7350 4650 0    50   ~ 0
A10
Text Label 7350 3950 0    50   ~ 0
A11
Text Label 7350 3250 0    50   ~ 0
A12
Text Label 7350 2550 0    50   ~ 0
A13
Text Label 7350 1850 0    50   ~ 0
A14
Text Label 7350 1150 0    50   ~ 0
A15
Text Label 5600 6050 0    50   ~ 0
A16
Text Label 5600 5350 0    50   ~ 0
A17
Text Label 5600 4650 0    50   ~ 0
A18
Text Label 5600 3950 0    50   ~ 0
A19
Text Label 5600 3250 0    50   ~ 0
A20
Text Label 5600 2550 0    50   ~ 0
A21
Text Label 5600 1850 0    50   ~ 0
A22
Text Label 5600 1150 0    50   ~ 0
A23
Text Label 3800 6050 0    50   ~ 0
A24
Text Label 3800 5350 0    50   ~ 0
A25
Text Label 3800 4650 0    50   ~ 0
A26
Text Label 3800 3950 0    50   ~ 0
A27
Text Label 3800 3250 0    50   ~ 0
A28
Text Label 3800 2550 0    50   ~ 0
A29
Text Label 3800 1850 0    50   ~ 0
A30
Text Label 3800 1150 0    50   ~ 0
A31
Wire Bus Line
	9600 750  7800 750 
Connection ~ 6050 750 
Wire Bus Line
	6050 750  4250 750 
Connection ~ 7800 750 
Wire Bus Line
	7800 750  6050 750 
Wire Bus Line
	4250 750  2100 750 
Connection ~ 4250 750 
Wire Wire Line
	2100 6300 2500 6300
Connection ~ 2500 6300
Text HLabel 2100 6300 0    50   Input ~ 0
~ENABLE
Text HLabel 2100 750  0    50   Output ~ 0
A[0..31]
$Comp
L CG24-cells:B12 U32R65
U 1 1 5EA82054
P 3400 1150
F 0 "U32R65" H 3400 1467 50  0000 C CNN
F 1 "B12" H 3400 1376 50  0000 C CNN
F 2 "" H 3400 1150 50  0001 C CNN
F 3 "" H 3400 1150 50  0001 C CNN
	1    3400 1150
	1    0    0    -1  
$EndComp
$Comp
L CG24-cells:B12 U32R63
U 1 1 5EA82047
P 3400 1850
F 0 "U32R63" H 3400 2167 50  0000 C CNN
F 1 "B12" H 3400 2076 50  0000 C CNN
F 2 "" H 3400 1850 50  0001 C CNN
F 3 "" H 3400 1850 50  0001 C CNN
	1    3400 1850
	1    0    0    -1  
$EndComp
$Comp
L CG24-cells:B12 U32R54
U 1 1 5EA82046
P 3400 2550
F 0 "U32R54" H 3400 2867 50  0000 C CNN
F 1 "B12" H 3400 2776 50  0000 C CNN
F 2 "" H 3400 2550 50  0001 C CNN
F 3 "" H 3400 2550 50  0001 C CNN
	1    3400 2550
	1    0    0    -1  
$EndComp
$Comp
L CG24-cells:B12 U32R56
U 1 1 5EA82049
P 3400 3250
F 0 "U32R56" H 3400 3567 50  0000 C CNN
F 1 "B12" H 3400 3476 50  0000 C CNN
F 2 "" H 3400 3250 50  0001 C CNN
F 3 "" H 3400 3250 50  0001 C CNN
	1    3400 3250
	1    0    0    -1  
$EndComp
$Comp
L CG24-cells:B12 U32R43
U 1 1 5EA82042
P 3400 3950
F 0 "U32R43" H 3400 4267 50  0000 C CNN
F 1 "B12" H 3400 4176 50  0000 C CNN
F 2 "" H 3400 3950 50  0001 C CNN
F 3 "" H 3400 3950 50  0001 C CNN
	1    3400 3950
	1    0    0    -1  
$EndComp
$Comp
L CG24-cells:B12 U32R33
U 1 1 5EA8204F
P 3400 4650
F 0 "U32R33" H 3400 4967 50  0000 C CNN
F 1 "B12" H 3400 4876 50  0000 C CNN
F 2 "" H 3400 4650 50  0001 C CNN
F 3 "" H 3400 4650 50  0001 C CNN
	1    3400 4650
	1    0    0    -1  
$EndComp
$Comp
L CG24-cells:B12 U32R35
U 1 1 5EA82057
P 3400 5350
F 0 "U32R35" H 3400 5667 50  0000 C CNN
F 1 "B12" H 3400 5576 50  0000 C CNN
F 2 "" H 3400 5350 50  0001 C CNN
F 3 "" H 3400 5350 50  0001 C CNN
	1    3400 5350
	1    0    0    -1  
$EndComp
$Comp
L CG24-cells:B12 U32R23
U 1 1 5EA82048
P 3400 6050
F 0 "U32R23" H 3400 6367 50  0000 C CNN
F 1 "B12" H 3400 6276 50  0000 C CNN
F 2 "" H 3400 6050 50  0001 C CNN
F 3 "" H 3400 6050 50  0001 C CNN
	1    3400 6050
	1    0    0    -1  
$EndComp
$Comp
L CG24-cells:B12 U32R21
U 1 1 5EA82043
P 5200 1150
F 0 "U32R21" H 5200 1467 50  0000 C CNN
F 1 "B12" H 5200 1376 50  0000 C CNN
F 2 "" H 5200 1150 50  0001 C CNN
F 3 "" H 5200 1150 50  0001 C CNN
	1    5200 1150
	1    0    0    -1  
$EndComp
$Comp
L CG24-cells:B12 U32R12
U 1 1 5EA82044
P 5200 1850
F 0 "U32R12" H 5200 2167 50  0000 C CNN
F 1 "B12" H 5200 2076 50  0000 C CNN
F 2 "" H 5200 1850 50  0001 C CNN
F 3 "" H 5200 1850 50  0001 C CNN
	1    5200 1850
	1    0    0    -1  
$EndComp
$Comp
L CG24-cells:B12 U32R14
U 1 1 5EA8204D
P 5200 2550
F 0 "U32R14" H 5200 2867 50  0000 C CNN
F 1 "B12" H 5200 2776 50  0000 C CNN
F 2 "" H 5200 2550 50  0001 C CNN
F 3 "" H 5200 2550 50  0001 C CNN
	1    5200 2550
	1    0    0    -1  
$EndComp
$Comp
L CG24-cells:B12 U32R2
U 1 1 5EA82045
P 5200 3250
F 0 "U32R2" H 5200 3567 50  0000 C CNN
F 1 "B12" H 5200 3476 50  0000 C CNN
F 2 "" H 5200 3250 50  0001 C CNN
F 3 "" H 5200 3250 50  0001 C CNN
	1    5200 3250
	1    0    0    -1  
$EndComp
$Comp
L CG24-cells:B12 U32R0
U 1 1 5EA8204B
P 5200 3950
F 0 "U32R0" H 5200 4267 50  0000 C CNN
F 1 "B12" H 5200 4176 50  0000 C CNN
F 2 "" H 5200 3950 50  0001 C CNN
F 3 "" H 5200 3950 50  0001 C CNN
	1    5200 3950
	1    0    0    -1  
$EndComp
$Comp
L CG24-cells:B12 U32R4
U 1 1 5EA8204E
P 5200 4650
F 0 "U32R4" H 5200 4967 50  0000 C CNN
F 1 "B12" H 5200 4876 50  0000 C CNN
F 2 "" H 5200 4650 50  0001 C CNN
F 3 "" H 5200 4650 50  0001 C CNN
	1    5200 4650
	1    0    0    -1  
$EndComp
$Comp
L CG24-cells:B12 U30R4
U 1 1 5EA8205F
P 5200 5350
F 0 "U30R4" H 5200 5667 50  0000 C CNN
F 1 "B12" H 5200 5576 50  0000 C CNN
F 2 "" H 5200 5350 50  0001 C CNN
F 3 "" H 5200 5350 50  0001 C CNN
	1    5200 5350
	1    0    0    -1  
$EndComp
$Comp
L CG24-cells:B12 U30R2
U 1 1 5EA82052
P 5200 6050
F 0 "U30R2" H 5200 6367 50  0000 C CNN
F 1 "B12" H 5200 6276 50  0000 C CNN
F 2 "" H 5200 6050 50  0001 C CNN
F 3 "" H 5200 6050 50  0001 C CNN
	1    5200 6050
	1    0    0    -1  
$EndComp
$Comp
L CG24-cells:B12 U28R2
U 1 1 5EA82053
P 6950 1150
F 0 "U28R2" H 6950 1467 50  0000 C CNN
F 1 "B12" H 6950 1376 50  0000 C CNN
F 2 "" H 6950 1150 50  0001 C CNN
F 3 "" H 6950 1150 50  0001 C CNN
	1    6950 1150
	1    0    0    -1  
$EndComp
$Comp
L CG24-cells:B12 U30R0
U 1 1 5EA82058
P 6950 1850
F 0 "U30R0" H 6950 2167 50  0000 C CNN
F 1 "B12" H 6950 2076 50  0000 C CNN
F 2 "" H 6950 1850 50  0001 C CNN
F 3 "" H 6950 1850 50  0001 C CNN
	1    6950 1850
	1    0    0    -1  
$EndComp
$Comp
L CG24-cells:B12 U28R0
U 1 1 5EA82060
P 6950 2550
F 0 "U28R0" H 6950 2867 50  0000 C CNN
F 1 "B12" H 6950 2776 50  0000 C CNN
F 2 "" H 6950 2550 50  0001 C CNN
F 3 "" H 6950 2550 50  0001 C CNN
	1    6950 2550
	1    0    0    -1  
$EndComp
$Comp
L CG24-cells:B12 U26R0
U 1 1 5EA82066
P 6950 3250
F 0 "U26R0" H 6950 3567 50  0000 C CNN
F 1 "B12" H 6950 3476 50  0000 C CNN
F 2 "" H 6950 3250 50  0001 C CNN
F 3 "" H 6950 3250 50  0001 C CNN
	1    6950 3250
	1    0    0    -1  
$EndComp
$Comp
L CG24-cells:B12 U22R2
U 1 1 5EA8204C
P 6950 3950
F 0 "U22R2" H 6950 4267 50  0000 C CNN
F 1 "B12" H 6950 4176 50  0000 C CNN
F 2 "" H 6950 3950 50  0001 C CNN
F 3 "" H 6950 3950 50  0001 C CNN
	1    6950 3950
	1    0    0    -1  
$EndComp
$Comp
L CG24-cells:B12 U24R0
U 1 1 5EA8205C
P 6950 4650
F 0 "U24R0" H 6950 4967 50  0000 C CNN
F 1 "B12" H 6950 4876 50  0000 C CNN
F 2 "" H 6950 4650 50  0001 C CNN
F 3 "" H 6950 4650 50  0001 C CNN
	1    6950 4650
	1    0    0    -1  
$EndComp
$Comp
L CG24-cells:B12 U22R0
U 1 1 5EA82061
P 6950 5350
F 0 "U22R0" H 6950 5667 50  0000 C CNN
F 1 "B12" H 6950 5576 50  0000 C CNN
F 2 "" H 6950 5350 50  0001 C CNN
F 3 "" H 6950 5350 50  0001 C CNN
	1    6950 5350
	1    0    0    -1  
$EndComp
$Comp
L CG24-cells:B12 U18R2
U 1 1 5EA82059
P 6950 6050
F 0 "U18R2" H 6950 6367 50  0000 C CNN
F 1 "B12" H 6950 6276 50  0000 C CNN
F 2 "" H 6950 6050 50  0001 C CNN
F 3 "" H 6950 6050 50  0001 C CNN
	1    6950 6050
	1    0    0    -1  
$EndComp
$Comp
L CG24-cells:B12 U20R0
U 1 1 5EA8206A
P 8750 1150
F 0 "U20R0" H 8750 1467 50  0000 C CNN
F 1 "B12" H 8750 1376 50  0000 C CNN
F 2 "" H 8750 1150 50  0001 C CNN
F 3 "" H 8750 1150 50  0001 C CNN
	1    8750 1150
	1    0    0    -1  
$EndComp
$Comp
L CG24-cells:B12 U18R0
U 1 1 5EA82067
P 8750 1850
F 0 "U18R0" H 8750 2167 50  0000 C CNN
F 1 "B12" H 8750 2076 50  0000 C CNN
F 2 "" H 8750 1850 50  0001 C CNN
F 3 "" H 8750 1850 50  0001 C CNN
	1    8750 1850
	1    0    0    -1  
$EndComp
$Comp
L CG24-cells:B12 U14R2
U 1 1 5EA8205E
P 8750 2550
F 0 "U14R2" H 8750 2867 50  0000 C CNN
F 1 "B12" H 8750 2776 50  0000 C CNN
F 2 "" H 8750 2550 50  0001 C CNN
F 3 "" H 8750 2550 50  0001 C CNN
	1    8750 2550
	1    0    0    -1  
$EndComp
$Comp
L CG24-cells:B12 U16R0
U 1 1 5EA82069
P 8750 3250
F 0 "U16R0" H 8750 3567 50  0000 C CNN
F 1 "B12" H 8750 3476 50  0000 C CNN
F 2 "" H 8750 3250 50  0001 C CNN
F 3 "" H 8750 3250 50  0001 C CNN
	1    8750 3250
	1    0    0    -1  
$EndComp
$Comp
L CG24-cells:B12 U14R0
U 1 1 5EA82062
P 8750 3950
F 0 "U14R0" H 8750 4267 50  0000 C CNN
F 1 "B12" H 8750 4176 50  0000 C CNN
F 2 "" H 8750 3950 50  0001 C CNN
F 3 "" H 8750 3950 50  0001 C CNN
	1    8750 3950
	1    0    0    -1  
$EndComp
$Comp
L CG24-cells:B12 U12R0
U 1 1 5EA82068
P 8750 4650
F 0 "U12R0" H 8750 4967 50  0000 C CNN
F 1 "B12" H 8750 4876 50  0000 C CNN
F 2 "" H 8750 4650 50  0001 C CNN
F 3 "" H 8750 4650 50  0001 C CNN
	1    8750 4650
	1    0    0    -1  
$EndComp
$Comp
L CG24-cells:B12 U10R0
U 1 1 5EA82063
P 8750 5350
F 0 "U10R0" H 8750 5667 50  0000 C CNN
F 1 "B12" H 8750 5576 50  0000 C CNN
F 2 "" H 8750 5350 50  0001 C CNN
F 3 "" H 8750 5350 50  0001 C CNN
	1    8750 5350
	1    0    0    -1  
$EndComp
$Comp
L CG24-cells:B12 U4R2
U 1 1 5EA82051
P 8750 6050
F 0 "U4R2" H 8750 6367 50  0000 C CNN
F 1 "B12" H 8750 6276 50  0000 C CNN
F 2 "" H 8750 6050 50  0001 C CNN
F 3 "" H 8750 6050 50  0001 C CNN
	1    8750 6050
	1    0    0    -1  
$EndComp
Wire Wire Line
	2500 6300 3400 6300
Wire Wire Line
	2500 5600 3400 5600
Wire Wire Line
	2500 4900 3400 4900
Wire Wire Line
	2500 4200 3400 4200
Wire Wire Line
	2500 3500 3400 3500
Wire Wire Line
	2500 2800 3400 2800
Wire Wire Line
	2500 2100 3400 2100
Wire Wire Line
	2500 1400 3400 1400
Connection ~ 3400 1400
Wire Wire Line
	3400 1400 5200 1400
Connection ~ 3400 2100
Wire Wire Line
	3400 2100 5200 2100
Connection ~ 3400 2800
Wire Wire Line
	3400 2800 5200 2800
Connection ~ 3400 3500
Wire Wire Line
	3400 3500 5200 3500
Connection ~ 3400 4200
Wire Wire Line
	3400 4200 5200 4200
Connection ~ 3400 4900
Wire Wire Line
	3400 4900 5200 4900
Connection ~ 3400 5600
Wire Wire Line
	3400 5600 5200 5600
Connection ~ 3400 6300
Wire Wire Line
	3400 6300 5200 6300
Connection ~ 5200 1400
Wire Wire Line
	5200 1400 6950 1400
Connection ~ 5200 2100
Wire Wire Line
	5200 2100 6950 2100
Connection ~ 5200 2800
Wire Wire Line
	5200 2800 6950 2800
Connection ~ 5200 3500
Wire Wire Line
	5200 3500 6950 3500
Connection ~ 5200 4200
Wire Wire Line
	5200 4200 6950 4200
Connection ~ 5200 4900
Wire Wire Line
	5200 4900 6950 4900
Connection ~ 5200 5600
Wire Wire Line
	5200 5600 6950 5600
Connection ~ 5200 6300
Wire Wire Line
	5200 6300 6950 6300
Connection ~ 6950 1400
Wire Wire Line
	6950 1400 8750 1400
Connection ~ 6950 2100
Wire Wire Line
	6950 2100 8750 2100
Connection ~ 6950 2800
Wire Wire Line
	6950 2800 8750 2800
Connection ~ 6950 3500
Wire Wire Line
	6950 3500 8750 3500
Connection ~ 6950 4200
Wire Wire Line
	6950 4200 8750 4200
Connection ~ 6950 4900
Wire Wire Line
	6950 4900 8750 4900
Connection ~ 6950 5600
Wire Wire Line
	6950 5600 8750 5600
Connection ~ 6950 6300
Wire Wire Line
	6950 6300 8750 6300
Wire Bus Line
	9600 750  9600 5950
Wire Bus Line
	4250 750  4250 5950
Wire Bus Line
	6050 750  6050 5950
Wire Bus Line
	7800 750  7800 5950
$EndSCHEMATC
