EESchema Schematic File Version 4
EELAYER 30 0
EELAYER END
$Descr A4 11693 8268
encoding utf-8
Sheet 2 6
Title "DL-2027"
Date "2020-04-28"
Rev ""
Comp ""
Comment1 ""
Comment2 "Licence: CC-BY"
Comment3 "Author: Loic *WydD* Petit"
Comment4 "Project: CPS2 Reverse Engineering: DL-2027"
$EndDescr
Wire Wire Line
	8450 6200 6650 6200
Connection ~ 8450 6200
Wire Wire Line
	8450 5500 6650 5500
Connection ~ 8450 5500
Wire Wire Line
	8450 4800 6650 4800
Connection ~ 8450 4800
Wire Wire Line
	8450 4100 6650 4100
Connection ~ 8450 4100
Wire Wire Line
	8450 3400 6650 3400
Connection ~ 8450 3400
Wire Wire Line
	8450 2700 6650 2700
Connection ~ 8450 2700
Wire Wire Line
	8450 2000 6650 2000
Connection ~ 8450 2000
Wire Wire Line
	8450 1300 6650 1300
Connection ~ 8450 1300
$Comp
L CG24-cells:O4R U6R148
U 1 1 5EA82074
P 8450 1050
F 0 "U6R148" H 8450 1367 50  0000 C CNN
F 1 "O4R" H 8450 1276 50  0000 C CNN
F 2 "" H 8450 1050 50  0001 C CNN
F 3 "" H 8450 1050 50  0001 C CNN
	1    8450 1050
	1    0    0    -1  
$EndComp
$Comp
L CG24-cells:O4R U10R150
U 1 1 5EA82083
P 8450 1750
F 0 "U10R150" H 8450 2067 50  0000 C CNN
F 1 "O4R" H 8450 1976 50  0000 C CNN
F 2 "" H 8450 1750 50  0001 C CNN
F 3 "" H 8450 1750 50  0001 C CNN
	1    8450 1750
	1    0    0    -1  
$EndComp
$Comp
L CG24-cells:O4R U8R148
U 1 1 5EA82077
P 8450 2450
F 0 "U8R148" H 8450 2767 50  0000 C CNN
F 1 "O4R" H 8450 2676 50  0000 C CNN
F 2 "" H 8450 2450 50  0001 C CNN
F 3 "" H 8450 2450 50  0001 C CNN
	1    8450 2450
	1    0    0    -1  
$EndComp
$Comp
L CG24-cells:O4R U12R150
U 1 1 5EA8206F
P 8450 3150
F 0 "U12R150" H 8450 3467 50  0000 C CNN
F 1 "O4R" H 8450 3376 50  0000 C CNN
F 2 "" H 8450 3150 50  0001 C CNN
F 3 "" H 8450 3150 50  0001 C CNN
	1    8450 3150
	1    0    0    -1  
$EndComp
$Comp
L CG24-cells:O4R U14R150
U 1 1 5EA8207C
P 8450 3850
F 0 "U14R150" H 8450 4167 50  0000 C CNN
F 1 "O4R" H 8450 4076 50  0000 C CNN
F 2 "" H 8450 3850 50  0001 C CNN
F 3 "" H 8450 3850 50  0001 C CNN
	1    8450 3850
	1    0    0    -1  
$EndComp
$Comp
L CG24-cells:O4R U16R150
U 1 1 5EA82079
P 8450 4550
F 0 "U16R150" H 8450 4867 50  0000 C CNN
F 1 "O4R" H 8450 4776 50  0000 C CNN
F 2 "" H 8450 4550 50  0001 C CNN
F 3 "" H 8450 4550 50  0001 C CNN
	1    8450 4550
	1    0    0    -1  
$EndComp
$Comp
L CG24-cells:O4R U18R150
U 1 1 5EA82081
P 8450 5250
F 0 "U18R150" H 8450 5567 50  0000 C CNN
F 1 "O4R" H 8450 5476 50  0000 C CNN
F 2 "" H 8450 5250 50  0001 C CNN
F 3 "" H 8450 5250 50  0001 C CNN
	1    8450 5250
	1    0    0    -1  
$EndComp
$Comp
L CG24-cells:O4R U20R150
U 1 1 5EA82070
P 8450 5950
F 0 "U20R150" H 8450 6267 50  0000 C CNN
F 1 "O4R" H 8450 6176 50  0000 C CNN
F 2 "" H 8450 5950 50  0001 C CNN
F 3 "" H 8450 5950 50  0001 C CNN
	1    8450 5950
	1    0    0    -1  
$EndComp
$Comp
L CG24-cells:O4R U18R148
U 1 1 5EA8208E
P 6650 1050
F 0 "U18R148" H 6650 1367 50  0000 C CNN
F 1 "O4R" H 6650 1276 50  0000 C CNN
F 2 "" H 6650 1050 50  0001 C CNN
F 3 "" H 6650 1050 50  0001 C CNN
	1    6650 1050
	1    0    0    -1  
$EndComp
$Comp
L CG24-cells:O4R U22R150
U 1 1 5EA82086
P 6650 1750
F 0 "U22R150" H 6650 2067 50  0000 C CNN
F 1 "O4R" H 6650 1976 50  0000 C CNN
F 2 "" H 6650 1750 50  0001 C CNN
F 3 "" H 6650 1750 50  0001 C CNN
	1    6650 1750
	1    0    0    -1  
$EndComp
$Comp
L CG24-cells:O4R U20R148
U 1 1 5EA8208B
P 6650 2450
F 0 "U20R148" H 6650 2767 50  0000 C CNN
F 1 "O4R" H 6650 2676 50  0000 C CNN
F 2 "" H 6650 2450 50  0001 C CNN
F 3 "" H 6650 2450 50  0001 C CNN
	1    6650 2450
	1    0    0    -1  
$EndComp
$Comp
L CG24-cells:O4R U24R150
U 1 1 5EA8207D
P 6650 3150
F 0 "U24R150" H 6650 3467 50  0000 C CNN
F 1 "O4R" H 6650 3376 50  0000 C CNN
F 2 "" H 6650 3150 50  0001 C CNN
F 3 "" H 6650 3150 50  0001 C CNN
	1    6650 3150
	1    0    0    -1  
$EndComp
$Comp
L CG24-cells:O4R U26R150
U 1 1 5EA82087
P 6650 3850
F 0 "U26R150" H 6650 4167 50  0000 C CNN
F 1 "O4R" H 6650 4076 50  0000 C CNN
F 2 "" H 6650 3850 50  0001 C CNN
F 3 "" H 6650 3850 50  0001 C CNN
	1    6650 3850
	1    0    0    -1  
$EndComp
$Comp
L CG24-cells:O4R U28R150
U 1 1 5EA82072
P 6650 4550
F 0 "U28R150" H 6650 4867 50  0000 C CNN
F 1 "O4R" H 6650 4776 50  0000 C CNN
F 2 "" H 6650 4550 50  0001 C CNN
F 3 "" H 6650 4550 50  0001 C CNN
	1    6650 4550
	1    0    0    -1  
$EndComp
$Comp
L CG24-cells:O4R U30R150
U 1 1 5EA82073
P 6650 5250
F 0 "U30R150" H 6650 5567 50  0000 C CNN
F 1 "O4R" H 6650 5476 50  0000 C CNN
F 2 "" H 6650 5250 50  0001 C CNN
F 3 "" H 6650 5250 50  0001 C CNN
	1    6650 5250
	1    0    0    -1  
$EndComp
$Comp
L CG24-cells:O4R U28R148
U 1 1 5EA8208D
P 6650 5950
F 0 "U28R148" H 6650 6267 50  0000 C CNN
F 1 "O4R" H 6650 6176 50  0000 C CNN
F 2 "" H 6650 5950 50  0001 C CNN
F 3 "" H 6650 5950 50  0001 C CNN
	1    6650 5950
	1    0    0    -1  
$EndComp
Wire Wire Line
	9350 1300 8450 1300
Wire Wire Line
	9350 2000 8450 2000
Wire Wire Line
	9350 2700 8450 2700
Wire Wire Line
	9350 3400 8450 3400
Wire Wire Line
	9350 4100 8450 4100
Wire Wire Line
	9350 4800 8450 4800
Wire Wire Line
	9350 5500 8450 5500
Wire Wire Line
	9350 6200 8450 6200
$Comp
L CG24-cells:O4R U32R150
U 1 1 5EA82082
P 4900 1050
F 0 "U32R150" H 4900 1367 50  0000 C CNN
F 1 "O4R" H 4900 1276 50  0000 C CNN
F 2 "" H 4900 1050 50  0001 C CNN
F 3 "" H 4900 1050 50  0001 C CNN
	1    4900 1050
	1    0    0    -1  
$EndComp
$Comp
L CG24-cells:O4R U30R148
U 1 1 5EA8208A
P 4900 1750
F 0 "U30R148" H 4900 2067 50  0000 C CNN
F 1 "O4R" H 4900 1976 50  0000 C CNN
F 2 "" H 4900 1750 50  0001 C CNN
F 3 "" H 4900 1750 50  0001 C CNN
	1    4900 1750
	1    0    0    -1  
$EndComp
$Comp
L CG24-cells:O4R U32R148
U 1 1 5EA8208C
P 4900 2450
F 0 "U32R148" H 4900 2767 50  0000 C CNN
F 1 "O4R" H 4900 2676 50  0000 C CNN
F 2 "" H 4900 2450 50  0001 C CNN
F 3 "" H 4900 2450 50  0001 C CNN
	1    4900 2450
	1    0    0    -1  
$EndComp
$Comp
L CG24-cells:O4R U32R145
U 1 1 5EA82075
P 4900 3150
F 0 "U32R145" H 4900 3467 50  0000 C CNN
F 1 "O4R" H 4900 3376 50  0000 C CNN
F 2 "" H 4900 3150 50  0001 C CNN
F 3 "" H 4900 3150 50  0001 C CNN
	1    4900 3150
	1    0    0    -1  
$EndComp
$Comp
L CG24-cells:O4R U32R137
U 1 1 5EA82084
P 4900 3850
F 0 "U32R137" H 4900 4167 50  0000 C CNN
F 1 "O4R" H 4900 4076 50  0000 C CNN
F 2 "" H 4900 3850 50  0001 C CNN
F 3 "" H 4900 3850 50  0001 C CNN
	1    4900 3850
	1    0    0    -1  
$EndComp
$Comp
L CG24-cells:O4R U32R140
U 1 1 5EA82088
P 4900 4550
F 0 "U32R140" H 4900 4867 50  0000 C CNN
F 1 "O4R" H 4900 4776 50  0000 C CNN
F 2 "" H 4900 4550 50  0001 C CNN
F 3 "" H 4900 4550 50  0001 C CNN
	1    4900 4550
	1    0    0    -1  
$EndComp
$Comp
L CG24-cells:O4R U32R127
U 1 1 5EA82085
P 4900 5250
F 0 "U32R127" H 4900 5567 50  0000 C CNN
F 1 "O4R" H 4900 5476 50  0000 C CNN
F 2 "" H 4900 5250 50  0001 C CNN
F 3 "" H 4900 5250 50  0001 C CNN
	1    4900 5250
	1    0    0    -1  
$EndComp
$Comp
L CG24-cells:O4R U32R124
U 1 1 5EA8207B
P 4900 5950
F 0 "U32R124" H 4900 6267 50  0000 C CNN
F 1 "O4R" H 4900 6176 50  0000 C CNN
F 2 "" H 4900 5950 50  0001 C CNN
F 3 "" H 4900 5950 50  0001 C CNN
	1    4900 5950
	1    0    0    -1  
$EndComp
$Comp
L CG24-cells:O4R U32R116
U 1 1 5EA8207A
P 3100 1050
F 0 "U32R116" H 3100 1367 50  0000 C CNN
F 1 "O4R" H 3100 1276 50  0000 C CNN
F 2 "" H 3100 1050 50  0001 C CNN
F 3 "" H 3100 1050 50  0001 C CNN
	1    3100 1050
	1    0    0    -1  
$EndComp
$Comp
L CG24-cells:O4R U32R119
U 1 1 5EA82080
P 3100 1750
F 0 "U32R119" H 3100 2067 50  0000 C CNN
F 1 "O4R" H 3100 1976 50  0000 C CNN
F 2 "" H 3100 1750 50  0001 C CNN
F 3 "" H 3100 1750 50  0001 C CNN
	1    3100 1750
	1    0    0    -1  
$EndComp
$Comp
L CG24-cells:O4R U32R106
U 1 1 5EA82089
P 3100 2450
F 0 "U32R106" H 3100 2767 50  0000 C CNN
F 1 "O4R" H 3100 2676 50  0000 C CNN
F 2 "" H 3100 2450 50  0001 C CNN
F 3 "" H 3100 2450 50  0001 C CNN
	1    3100 2450
	1    0    0    -1  
$EndComp
$Comp
L CG24-cells:O4R U32R103
U 1 1 5EA82071
P 3100 3150
F 0 "U32R103" H 3100 3467 50  0000 C CNN
F 1 "O4R" H 3100 3376 50  0000 C CNN
F 2 "" H 3100 3150 50  0001 C CNN
F 3 "" H 3100 3150 50  0001 C CNN
	1    3100 3150
	1    0    0    -1  
$EndComp
$Comp
L CG24-cells:O4R U32R95
U 1 1 5EA8207F
P 3100 3850
F 0 "U32R95" H 3100 4167 50  0000 C CNN
F 1 "O4R" H 3100 4076 50  0000 C CNN
F 2 "" H 3100 3850 50  0001 C CNN
F 3 "" H 3100 3850 50  0001 C CNN
	1    3100 3850
	1    0    0    -1  
$EndComp
$Comp
L CG24-cells:O4R U32R85
U 1 1 5EA8207E
P 3100 4550
F 0 "U32R85" H 3100 4867 50  0000 C CNN
F 1 "O4R" H 3100 4776 50  0000 C CNN
F 2 "" H 3100 4550 50  0001 C CNN
F 3 "" H 3100 4550 50  0001 C CNN
	1    3100 4550
	1    0    0    -1  
$EndComp
$Comp
L CG24-cells:O4R U32R82
U 1 1 5EA82078
P 3100 5250
F 0 "U32R82" H 3100 5567 50  0000 C CNN
F 1 "O4R" H 3100 5476 50  0000 C CNN
F 2 "" H 3100 5250 50  0001 C CNN
F 3 "" H 3100 5250 50  0001 C CNN
	1    3100 5250
	1    0    0    -1  
$EndComp
$Comp
L CG24-cells:O4R U32R74
U 1 1 5EA82076
P 3100 5950
F 0 "U32R74" H 3100 6267 50  0000 C CNN
F 1 "O4R" H 3100 6176 50  0000 C CNN
F 2 "" H 3100 5950 50  0001 C CNN
F 3 "" H 3100 5950 50  0001 C CNN
	1    3100 5950
	1    0    0    -1  
$EndComp
Wire Bus Line
	4050 650  2250 650 
Text HLabel 1900 650  0    50   Input ~ 0
DATA[0..31]
Text HLabel 9950 6200 2    50   Input ~ 0
ENABLE
Wire Bus Line
	4050 650  5800 650 
Connection ~ 4050 650 
Wire Bus Line
	5800 650  7600 650 
Connection ~ 5800 650 
Text Label 8050 1050 2    50   ~ 0
DATA31
Text Label 8050 1750 2    50   ~ 0
DATA30
Text Label 8050 2450 2    50   ~ 0
DATA29
Text Label 8050 3150 2    50   ~ 0
DATA28
Text Label 8050 3850 2    50   ~ 0
DATA27
Text Label 8050 4550 2    50   ~ 0
DATA26
Text Label 8050 5250 2    50   ~ 0
DATA25
Text Label 8050 5950 2    50   ~ 0
DATA24
Text Label 6250 1050 2    50   ~ 0
DATA23
Text Label 6250 1750 2    50   ~ 0
DATA22
Text Label 6250 2450 2    50   ~ 0
DATA21
Text Label 6250 3150 2    50   ~ 0
DATA20
Text Label 6250 3850 2    50   ~ 0
DATA19
Text Label 6250 4550 2    50   ~ 0
DATA18
Text Label 6250 5250 2    50   ~ 0
DATA17
Text Label 6250 5950 2    50   ~ 0
DATA16
Text Label 4500 1050 2    50   ~ 0
DATA15
Text Label 4500 1750 2    50   ~ 0
DATA14
Text Label 4500 2450 2    50   ~ 0
DATA13
Text Label 4500 3150 2    50   ~ 0
DATA12
Text Label 4500 3850 2    50   ~ 0
DATA11
Text Label 4500 4550 2    50   ~ 0
DATA10
Text Label 4500 5250 2    50   ~ 0
DATA9
Text Label 4500 5950 2    50   ~ 0
DATA8
Text Label 2700 1050 2    50   ~ 0
DATA7
Text Label 2700 1750 2    50   ~ 0
DATA6
Text Label 2700 2450 2    50   ~ 0
DATA5
Text Label 2700 3150 2    50   ~ 0
DATA4
Text Label 2700 3850 2    50   ~ 0
DATA3
Text Label 2700 4550 2    50   ~ 0
DATA2
Text Label 2700 5250 2    50   ~ 0
DATA1
Text Label 2700 5950 2    50   ~ 0
DATA0
Entry Wire Line
	7700 5950 7600 5850
Wire Wire Line
	8150 5950 7700 5950
Entry Wire Line
	7700 5250 7600 5150
Wire Wire Line
	8150 5250 7700 5250
Entry Wire Line
	7700 4550 7600 4450
Wire Wire Line
	8150 4550 7700 4550
Entry Wire Line
	7700 3850 7600 3750
Wire Wire Line
	8150 3850 7700 3850
Entry Wire Line
	7700 3150 7600 3050
Wire Wire Line
	8150 3150 7700 3150
Entry Wire Line
	7700 2450 7600 2350
Wire Wire Line
	8150 2450 7700 2450
Entry Wire Line
	7700 1750 7600 1650
Wire Wire Line
	8150 1750 7700 1750
Entry Wire Line
	7700 1050 7600 950 
Wire Wire Line
	8150 1050 7700 1050
Entry Wire Line
	5900 5950 5800 5850
Wire Wire Line
	6350 5950 5900 5950
Entry Wire Line
	5900 5250 5800 5150
Wire Wire Line
	6350 5250 5900 5250
Entry Wire Line
	5900 4550 5800 4450
Wire Wire Line
	6350 4550 5900 4550
Entry Wire Line
	5900 3850 5800 3750
Wire Wire Line
	6350 3850 5900 3850
Entry Wire Line
	5900 3150 5800 3050
Wire Wire Line
	6350 3150 5900 3150
Entry Wire Line
	5900 2450 5800 2350
Wire Wire Line
	6350 2450 5900 2450
Entry Wire Line
	5900 1750 5800 1650
Wire Wire Line
	6350 1750 5900 1750
Entry Wire Line
	5900 1050 5800 950 
Wire Wire Line
	6350 1050 5900 1050
Entry Wire Line
	4150 5950 4050 5850
Wire Wire Line
	4600 5950 4150 5950
Entry Wire Line
	4150 5250 4050 5150
Wire Wire Line
	4600 5250 4150 5250
Entry Wire Line
	4150 4550 4050 4450
Wire Wire Line
	4600 4550 4150 4550
Entry Wire Line
	4150 3850 4050 3750
Wire Wire Line
	4600 3850 4150 3850
Entry Wire Line
	4150 3150 4050 3050
Wire Wire Line
	4600 3150 4150 3150
Entry Wire Line
	4150 2450 4050 2350
Wire Wire Line
	4600 2450 4150 2450
Entry Wire Line
	4150 1750 4050 1650
Wire Wire Line
	4600 1750 4150 1750
Entry Wire Line
	4150 1050 4050 950 
Wire Wire Line
	4600 1050 4150 1050
Entry Wire Line
	2350 5950 2250 5850
Wire Wire Line
	2800 5950 2350 5950
Entry Wire Line
	2350 5250 2250 5150
Wire Wire Line
	2800 5250 2350 5250
Entry Wire Line
	2350 4550 2250 4450
Wire Wire Line
	2800 4550 2350 4550
Entry Wire Line
	2350 3850 2250 3750
Wire Wire Line
	2800 3850 2350 3850
Entry Wire Line
	2350 3150 2250 3050
Wire Wire Line
	2800 3150 2350 3150
Entry Wire Line
	2350 2450 2250 2350
Wire Wire Line
	2800 2450 2350 2450
Entry Wire Line
	2350 1750 2250 1650
Wire Wire Line
	2800 1750 2350 1750
Entry Wire Line
	2350 1050 2250 950 
Wire Wire Line
	2800 1050 2350 1050
Text HLabel 6950 1050 2    50   Output ~ 0
OUT23
Text HLabel 6950 1750 2    50   Output ~ 0
OUT22
Text HLabel 6950 2450 2    50   Output ~ 0
OUT21
Text HLabel 6950 3150 2    50   Output ~ 0
OUT20
Text HLabel 6950 3850 2    50   Output ~ 0
OUT19
Text HLabel 6950 4550 2    50   Output ~ 0
OUT18
Text HLabel 6950 5250 2    50   Output ~ 0
OUT17
Text HLabel 6950 5950 2    50   Output ~ 0
OUT16
Wire Wire Line
	9350 2000 9350 2700
Connection ~ 9350 2000
Wire Wire Line
	9350 2700 9350 3400
Connection ~ 9350 2700
Wire Wire Line
	9350 3400 9350 4100
Connection ~ 9350 3400
Wire Wire Line
	9350 4100 9350 4800
Connection ~ 9350 4100
Wire Wire Line
	9350 4800 9350 5500
Connection ~ 9350 4800
Wire Wire Line
	9350 5500 9350 6200
Connection ~ 9350 5500
Wire Wire Line
	9350 1300 9350 2000
Text HLabel 3400 5950 2    50   Output ~ 0
OUT0
Text HLabel 3400 5250 2    50   Output ~ 0
OUT1
Text HLabel 3400 4550 2    50   Output ~ 0
OUT2
Text HLabel 3400 3850 2    50   Output ~ 0
OUT3
Text HLabel 3400 3150 2    50   Output ~ 0
OUT4
Text HLabel 3400 2450 2    50   Output ~ 0
OUT5
Text HLabel 3400 1750 2    50   Output ~ 0
OUT6
Text HLabel 3400 1050 2    50   Output ~ 0
OUT7
Text HLabel 5200 5950 2    50   Output ~ 0
OUT8
Text HLabel 5200 5250 2    50   Output ~ 0
OUT9
Text HLabel 5200 4550 2    50   Output ~ 0
OUT10
Text HLabel 5200 3850 2    50   Output ~ 0
OUT11
Text HLabel 5200 3150 2    50   Output ~ 0
OUT12
Text HLabel 5200 2450 2    50   Output ~ 0
OUT13
Text HLabel 5200 1750 2    50   Output ~ 0
OUT14
Text HLabel 5200 1050 2    50   Output ~ 0
OUT15
Text HLabel 8750 5950 2    50   Output ~ 0
OUT24
Text HLabel 8750 5250 2    50   Output ~ 0
OUT25
Text HLabel 8750 4550 2    50   Output ~ 0
OUT26
Text HLabel 8750 3850 2    50   Output ~ 0
OUT27
Text HLabel 8750 3150 2    50   Output ~ 0
OUT28
Text HLabel 8750 2450 2    50   Output ~ 0
OUT29
Text HLabel 8750 1750 2    50   Output ~ 0
OUT30
Text HLabel 8750 1050 2    50   Output ~ 0
OUT31
Connection ~ 2250 650 
Wire Bus Line
	2250 650  1900 650 
$Comp
L CG24-cells:V2B U?
U 1 1 5EDAE7EA
P 1750 6200
AR Path="/5EDAE7EA" Ref="U?"  Part="1" 
AR Path="/5EA83AA7/5EDAE7EA" Ref="U3R8"  Part="1" 
F 0 "U3R8" H 1750 6517 50  0000 C CNN
F 1 "V2B" H 1750 6426 50  0000 C CNN
F 2 "" H 1750 6000 50  0001 C CNN
F 3 "" H 1750 6000 50  0001 C CNN
	1    1750 6200
	1    0    0    -1  
$EndComp
Wire Wire Line
	4900 6200 3100 6200
Wire Wire Line
	4900 5500 3100 5500
Wire Wire Line
	4900 4800 3100 4800
Wire Wire Line
	4900 4100 3100 4100
Wire Wire Line
	4900 3400 3100 3400
Wire Wire Line
	4900 2700 3100 2700
Wire Wire Line
	4900 2000 3100 2000
Wire Wire Line
	4900 1300 3100 1300
Wire Wire Line
	2050 1300 2050 2000
Wire Wire Line
	2050 6200 3100 6200
Connection ~ 3100 6200
Wire Wire Line
	2050 5500 3100 5500
Connection ~ 2050 5500
Wire Wire Line
	2050 5500 2050 6200
Connection ~ 3100 5500
Wire Wire Line
	2050 4800 3100 4800
Wire Wire Line
	2050 4100 3100 4100
Connection ~ 2050 4100
Wire Wire Line
	2050 4100 2050 4800
Connection ~ 2050 4800
Wire Wire Line
	2050 4800 2050 5500
Connection ~ 3100 4100
Connection ~ 3100 4800
Wire Wire Line
	2050 3400 3100 3400
Wire Wire Line
	2050 2700 3100 2700
Wire Wire Line
	2050 2000 3100 2000
Wire Wire Line
	2050 1300 3100 1300
Connection ~ 2050 2000
Wire Wire Line
	2050 2000 2050 2700
Connection ~ 2050 2700
Wire Wire Line
	2050 2700 2050 3400
Connection ~ 2050 3400
Wire Wire Line
	2050 3400 2050 4100
Connection ~ 3100 1300
Connection ~ 3100 2000
Connection ~ 3100 2700
Connection ~ 3100 3400
Connection ~ 2050 6200
$Comp
L CG24-cells:V2B U3R?
U 1 1 5EE04348
P 9650 6200
AR Path="/5EE04348" Ref="U3R?"  Part="1" 
AR Path="/5EA83AA7/5EE04348" Ref="U30R28"  Part="1" 
F 0 "U30R28" H 9650 6517 50  0000 C CNN
F 1 "V2B" H 9650 6426 50  0000 C CNN
F 2 "" H 9650 6000 50  0001 C CNN
F 3 "" H 9650 6000 50  0001 C CNN
	1    9650 6200
	-1   0    0    -1  
$EndComp
Connection ~ 9350 6200
Text HLabel 1450 6200 0    50   Input ~ 0
ENABLE
Wire Bus Line
	2250 650  2250 5850
Wire Bus Line
	4050 650  4050 5850
Wire Bus Line
	5800 650  5800 5850
Wire Bus Line
	7600 650  7600 5850
$EndSCHEMATC
