EESchema Schematic File Version 4
EELAYER 30 0
EELAYER END
$Descr A4 11693 8268
encoding utf-8
Sheet 3 6
Title "DL-2027"
Date "2020-04-28"
Rev ""
Comp ""
Comment1 ""
Comment2 "Licence: CC-BY"
Comment3 "Author: Loic *WydD* Petit"
Comment4 "Project: CPS2 Reverse Engineering: DL-2027"
$EndDescr
$Comp
L CG24-cells:I2R U6R0
U 1 1 5EA8206C
P 4400 2400
F 0 "U6R0" H 4400 2717 50  0000 C CNN
F 1 "I2R" H 4400 2626 50  0000 C CNN
F 2 "" H 4400 2400 50  0001 C CNN
F 3 "" H 4400 2400 50  0001 C CNN
	1    4400 2400
	1    0    0    -1  
$EndComp
$Comp
L CG24-cells:B12 U4R0
U 1 1 5EA82065
P 4400 3350
F 0 "U4R0" H 4400 3667 50  0000 C CNN
F 1 "B12" H 4400 3576 50  0000 C CNN
F 2 "" H 4400 3350 50  0001 C CNN
F 3 "" H 4400 3350 50  0001 C CNN
	1    4400 3350
	1    0    0    -1  
$EndComp
$Comp
L CG24-cells:B12 U2R0
U 1 1 5EA82064
P 4400 4050
F 0 "U2R0" H 4400 4367 50  0000 C CNN
F 1 "B12" H 4400 4276 50  0000 C CNN
F 2 "" H 4400 4050 50  0001 C CNN
F 3 "" H 4400 4050 50  0001 C CNN
	1    4400 4050
	1    0    0    -1  
$EndComp
$Comp
L CG24-cells:B12 U0R0
U 1 1 5EA8204A
P 4400 4750
F 0 "U0R0" H 4400 5067 50  0000 C CNN
F 1 "B12" H 4400 4976 50  0000 C CNN
F 2 "" H 4400 4750 50  0001 C CNN
F 3 "" H 4400 4750 50  0001 C CNN
	1    4400 4750
	1    0    0    -1  
$EndComp
$Comp
L CG24-cells:N2N U3R?
U 1 1 5EE1AFAC
P 7850 4000
AR Path="/5EA83AA7/5EE1AFAC" Ref="U3R?"  Part="1" 
AR Path="/5EA8E75D/5EE1AFAC" Ref="U3R16"  Part="1" 
F 0 "U3R16" H 7875 4267 50  0000 C CNN
F 1 "N2N" H 7875 4176 50  0000 C CNN
F 2 "" H 7850 4000 50  0001 C CNN
F 3 "" H 7850 4000 50  0001 C CNN
	1    7850 4000
	1    0    0    -1  
$EndComp
Text HLabel 8150 4000 2    50   Output ~ 0
OUT-ENABLE
$Comp
L CG24-cells:R2P U30R128
U 1 1 5EE1B611
P 7100 4050
F 0 "U30R128" H 7125 3783 50  0000 C CNN
F 1 "R2P" H 7125 3874 50  0000 C CNN
F 2 "" H 7150 4050 50  0001 C CNN
F 3 "" H 7150 4050 50  0001 C CNN
	1    7100 4050
	1    0    0    1   
$EndComp
Wire Wire Line
	7400 4050 7600 4050
$Comp
L CG24-cells:V2B U30R74
U 1 1 5EE1C72D
P 6150 2100
F 0 "U30R74" H 6150 2417 50  0000 C CNN
F 1 "V2B" H 6150 2326 50  0000 C CNN
F 2 "" H 6150 1900 50  0001 C CNN
F 3 "" H 6150 1900 50  0001 C CNN
	1    6150 2100
	1    0    0    -1  
$EndComp
Text HLabel 6850 2100 2    50   Output ~ 0
~ENABLE-B-IN
Wire Wire Line
	5850 2100 5700 2100
Wire Wire Line
	5850 2700 5700 2700
$Comp
L CG24-cells:V2B U5R146
U 1 1 5EE2145E
P 6150 2700
F 0 "U5R146" H 6150 3017 50  0000 C CNN
F 1 "V2B" H 6150 2926 50  0000 C CNN
F 2 "" H 6150 2500 50  0001 C CNN
F 3 "" H 6150 2500 50  0001 C CNN
	1    6150 2700
	1    0    0    -1  
$EndComp
$Comp
L CG24-cells:N2N U3R?
U 1 1 5EE23A3C
P 6150 4000
AR Path="/5EA83AA7/5EE23A3C" Ref="U3R?"  Part="1" 
AR Path="/5EA8E75D/5EE23A3C" Ref="U5R24"  Part="1" 
F 0 "U5R24" H 6175 4267 50  0000 C CNN
F 1 "N2N" H 6175 4176 50  0000 C CNN
F 2 "" H 6150 4000 50  0001 C CNN
F 3 "" H 6150 4000 50  0001 C CNN
	1    6150 4000
	1    0    0    -1  
$EndComp
Wire Wire Line
	4400 4300 6650 4300
$Comp
L CG24-cells:V1N U30R137
U 1 1 5EE29605
P 5000 3350
F 0 "U30R137" H 5000 3667 50  0000 C CNN
F 1 "V1N" H 5000 3576 50  0000 C CNN
F 2 "" H 5000 3150 50  0001 C CNN
F 3 "" H 5000 3150 50  0001 C CNN
	1    5000 3350
	1    0    0    -1  
$EndComp
$Comp
L CG24-cells:V1N U30R130
U 1 1 5EE2B387
P 5000 1700
F 0 "U30R130" H 5000 2017 50  0000 C CNN
F 1 "V1N" H 5000 1926 50  0000 C CNN
F 2 "" H 5000 1500 50  0001 C CNN
F 3 "" H 5000 1500 50  0001 C CNN
	1    5000 1700
	1    0    0    -1  
$EndComp
Wire Wire Line
	4400 5000 3200 5000
Wire Wire Line
	3200 5000 3200 3600
Wire Wire Line
	3200 3600 4400 3600
$Comp
L CG24-cells:V2B U30R142
U 1 1 5EE2E40B
P 5000 4750
F 0 "U30R142" H 5000 5067 50  0000 C CNN
F 1 "V2B" H 5000 4976 50  0000 C CNN
F 2 "" H 5000 4550 50  0001 C CNN
F 3 "" H 5000 4550 50  0001 C CNN
	1    5000 4750
	1    0    0    -1  
$EndComp
$Comp
L CG24-cells:V2B U20R63
U 1 1 5EE2EE23
P 5600 4750
F 0 "U20R63" H 5600 5067 50  0000 C CNN
F 1 "V2B" H 5600 4976 50  0000 C CNN
F 2 "" H 5600 4550 50  0001 C CNN
F 3 "" H 5600 4550 50  0001 C CNN
	1    5600 4750
	1    0    0    -1  
$EndComp
Wire Wire Line
	5300 4750 5300 5200
Connection ~ 5300 4750
Wire Wire Line
	4700 4050 5900 4050
Wire Wire Line
	5300 3350 5700 3350
Wire Wire Line
	5700 3350 5700 3950
Wire Wire Line
	5700 3950 5900 3950
Wire Wire Line
	5300 1700 7600 1700
Wire Wire Line
	5700 2100 5700 2400
Wire Wire Line
	5700 2400 4700 2400
Connection ~ 5700 2400
Wire Wire Line
	5700 2400 5700 2700
Wire Wire Line
	6450 2700 6550 2700
Text HLabel 6850 2700 2    50   Output ~ 0
~ENABLE-A-IN
Wire Wire Line
	6850 2700 6550 2700
Connection ~ 6550 2700
Wire Wire Line
	6450 2100 6650 2100
Wire Wire Line
	6850 2100 6650 2100
Connection ~ 6650 2100
Wire Wire Line
	6450 4000 6850 4000
Wire Wire Line
	6850 4100 6650 4100
Wire Wire Line
	6650 4100 6650 4300
Text HLabel 6850 4750 2    50   Output ~ 0
SA
Wire Wire Line
	5900 4750 6850 4750
Text HLabel 6850 5200 2    50   Output ~ 0
SB
Wire Wire Line
	5300 5200 6850 5200
Wire Wire Line
	6550 2700 6550 2950
Wire Wire Line
	3200 3600 3200 2950
Connection ~ 3200 3600
Wire Wire Line
	6650 2100 6650 4100
Connection ~ 6650 4100
Wire Wire Line
	7600 1700 7600 3950
Wire Wire Line
	3200 2950 6550 2950
Text Notes 6900 2450 2    50   ~ 0
LOW
Text Notes 7550 3900 2    50   ~ 0
HIGH
Text Notes 8750 4150 2    50   ~ 0
~DATA-ENABLE
Text Notes 5850 4150 2    50   ~ 0
HIGH
Text Notes 6850 4200 2    50   ~ 0
LOW
Text HLabel 4100 1700 0    50   Input ~ 0
~G3
Text HLabel 4100 4050 0    50   Input ~ 0
G1
Text HLabel 4100 3350 0    50   Input ~ 0
~G2
Text HLabel 4100 2400 0    50   Input ~ 0
ENABLE
Text HLabel 4100 4750 0    50   Input ~ 0
A~B
$Comp
L CG24-cells:I2S U8R0
U 1 1 5FD9BACD
P 4400 1700
F 0 "U8R0" H 4400 2017 50  0000 C CNN
F 1 "I2S" H 4400 1926 50  0000 C CNN
F 2 "" H 4400 1700 50  0001 C CNN
F 3 "" H 4400 1700 50  0001 C CNN
	1    4400 1700
	1    0    0    -1  
$EndComp
$EndSCHEMATC
