EESchema Schematic File Version 4
EELAYER 30 0
EELAYER END
$Descr A4 11693 8268
encoding utf-8
Sheet 4 20
Title "DL-1727"
Date "2020-04-26"
Rev ""
Comp ""
Comment1 ""
Comment2 "Licence: CC-BY"
Comment3 "Author: Loic *WydD* Petit"
Comment4 "Project: CPS2 Reverse Engineering: DL-1727"
$EndDescr
Connection ~ 2800 4000
Connection ~ 2900 4100
Connection ~ 6650 4250
Connection ~ 6650 4950
Connection ~ 6650 5650
Connection ~ 6650 6350
Connection ~ 3100 4200
Connection ~ 3300 5000
Connection ~ 3300 4300
Connection ~ 2800 4700
Connection ~ 3300 6400
Connection ~ 3300 5700
Connection ~ 3300 3600
Connection ~ 2800 5400
Connection ~ 3000 6200
Connection ~ 3200 6300
Connection ~ 2700 6100
Connection ~ 2900 4800
Connection ~ 3200 4900
Connection ~ 2900 5500
Connection ~ 3200 5600
Wire Wire Line
	1750 3900 1750 3650
Wire Wire Line
	1750 4350 1750 4600
Wire Wire Line
	1750 4350 1850 4350
Wire Wire Line
	1750 5300 1750 5050
Wire Wire Line
	1750 5750 1750 6000
Wire Wire Line
	1750 5750 1850 5750
Wire Wire Line
	1850 3650 1750 3650
Wire Wire Line
	1850 5050 1750 5050
Wire Wire Line
	2700 2400 6350 2400
Wire Wire Line
	2700 6100 2700 7050
Wire Wire Line
	2700 6100 5450 6100
Wire Wire Line
	2800 3300 2800 4000
Wire Wire Line
	2800 3300 5450 3300
Wire Wire Line
	2800 4000 2800 4700
Wire Wire Line
	2800 4000 5450 4000
Wire Wire Line
	2800 4700 2800 5400
Wire Wire Line
	2800 4700 5450 4700
Wire Wire Line
	2800 5400 5450 5400
Wire Wire Line
	2900 4100 2900 4800
Wire Wire Line
	2900 4100 5450 4100
Wire Wire Line
	2900 4800 5450 4800
Wire Wire Line
	2900 5500 2900 7050
Wire Wire Line
	2900 5500 5450 5500
Wire Wire Line
	3000 3400 5450 3400
Wire Wire Line
	3000 6200 3000 7050
Wire Wire Line
	3100 2850 5450 2850
Wire Wire Line
	3100 4200 5450 4200
Wire Wire Line
	3200 3500 5450 3500
Wire Wire Line
	3200 4900 3200 5600
Wire Wire Line
	3200 4900 5450 4900
Wire Wire Line
	3200 5600 3200 6300
Wire Wire Line
	3200 5600 5450 5600
Wire Wire Line
	3200 6300 3200 7050
Wire Wire Line
	3300 3600 5450 3600
Wire Wire Line
	3300 4300 3300 5000
Wire Wire Line
	3300 4300 5450 4300
Wire Wire Line
	3300 5000 3300 5700
Wire Wire Line
	3300 5000 5450 5000
Wire Wire Line
	3300 5700 3300 6400
Wire Wire Line
	3300 5700 5450 5700
Wire Wire Line
	3300 6400 3300 7050
Wire Wire Line
	3300 6400 5450 6400
Wire Wire Line
	3400 2750 5450 2750
Wire Wire Line
	3500 2650 5450 2650
Wire Wire Line
	3500 7050 6650 7050
Wire Wire Line
	4050 1100 2900 1100
Wire Wire Line
	4050 1650 3100 1650
Wire Wire Line
	4050 2200 3300 2200
Wire Wire Line
	4650 1650 5250 1650
Wire Wire Line
	4650 2200 5350 2200
Wire Wire Line
	5250 1100 4650 1100
Wire Wire Line
	5250 1100 5250 1350
Wire Wire Line
	5250 1450 5250 1650
Wire Wire Line
	5250 1450 5450 1450
Wire Wire Line
	5350 700  3500 700 
Wire Wire Line
	5350 1250 5350 700 
Wire Wire Line
	5350 1250 5450 1250
Wire Wire Line
	5350 1550 5350 2200
Wire Wire Line
	5350 1550 5450 1550
Wire Wire Line
	5450 1350 5250 1350
Wire Wire Line
	5450 6200 3000 6200
Wire Wire Line
	5450 6300 3200 6300
Wire Wire Line
	6050 2750 7100 2750
Wire Wire Line
	6050 3450 6800 3450
Wire Wire Line
	6050 5550 6800 5550
Wire Wire Line
	6200 1400 6050 1400
Wire Wire Line
	6200 2300 6200 1400
Wire Wire Line
	6350 2300 6200 2300
Wire Wire Line
	6650 3550 6800 3550
Wire Wire Line
	6650 4250 6650 3550
Wire Wire Line
	6650 4950 6650 4250
Wire Wire Line
	6650 5650 6650 4950
Wire Wire Line
	6650 6350 6650 5650
Wire Wire Line
	6650 6350 6650 7050
Wire Wire Line
	6650 6350 6800 6350
Wire Wire Line
	6800 4150 6050 4150
Wire Wire Line
	6800 4250 6650 4250
Wire Wire Line
	6800 4850 6050 4850
Wire Wire Line
	6800 4950 6650 4950
Wire Wire Line
	6800 5650 6650 5650
Wire Wire Line
	6800 6250 6050 6250
Wire Wire Line
	6900 2350 7100 2350
Wire Wire Line
	7100 2600 7250 2600
Wire Wire Line
	7250 2500 7100 2500
Wire Wire Line
	7350 3500 9150 3500
Wire Wire Line
	7350 4200 9150 4200
Wire Wire Line
	7350 4900 9150 4900
Wire Wire Line
	7350 5600 9150 5600
Wire Wire Line
	7350 6300 9150 6300
Text Notes 6000 1150 0    50   ~ 0
LOW IF\n  ADDR5\n  ADDR6\n  ADDR7\n  ~ADDR8\n0x0[ef]x
Text Notes 6000 4000 0    50   ~ 0
LOW IF\n  ~ADDR4\n  ~ADDR5\n  ~ADDR6\n  ADDR7\n0x8x
Text Notes 6000 5400 0    50   ~ 0
LOW IF\n  ~ADDR4\n  ADDR5\n  ~ADDR6\n  ADDR7\n0xAx
Text Notes 6000 6100 0    50   ~ 0
LOW IF\n  ADDR4\n  ADDR5\n  ~ADDR6\n  ADDR7\n0xBx
Text Notes 6000 6800 0    50   ~ 0
LOW IF\n  ADDR4\n  ~ADDR5\n  ~ADDR6\n  ADDR7\n0x9x
Text Notes 6050 4700 0    50   ~ 0
LOW IF\n  ~ADDR4\n  ADDR5\n  ADDR6\n  ADDR7\n0xEx
Text Notes 7000 2250 0    50   ~ 0
HIGH IF\n~ADDR4~ & ADDR5 & ADDR6 & ADDR7 & ~ADDR8\n0x0ex
Text Notes 7750 3600 0    50   ~ 0
0x08x
Text Notes 7750 4300 0    50   ~ 0
0x0Ex
Text Notes 7750 5000 0    50   ~ 0
0x0Ax
Text Notes 7750 5700 0    50   ~ 0
0x0Bx
Text Notes 7750 6400 0    50   ~ 0
0x09x
$Comp
L CG24-cells:R2N U6R92
U 1 1 5EE8BC75
P 6600 2350
F 0 "U6R92" H 6625 2617 50  0000 C CNN
F 1 "R2N" H 6625 2526 50  0000 C CNN
F 2 "" H 6600 2350 50  0001 C CNN
F 3 "" H 6600 2350 50  0001 C CNN
	1    6600 2350
	1    0    0    -1  
$EndComp
$Comp
L CG24-cells:R2N U13R71
U 1 1 5F178DDE
P 7050 3500
F 0 "U13R71" H 7075 3767 50  0000 C CNN
F 1 "R2N" H 7075 3676 50  0000 C CNN
F 2 "" H 7050 3500 50  0001 C CNN
F 3 "" H 7050 3500 50  0001 C CNN
	1    7050 3500
	1    0    0    -1  
$EndComp
$Comp
L CG24-cells:R2N U19R82
U 1 1 5F12BB5D
P 7050 4200
F 0 "U19R82" H 7075 4467 50  0000 C CNN
F 1 "R2N" H 7075 4376 50  0000 C CNN
F 2 "" H 7050 4200 50  0001 C CNN
F 3 "" H 7050 4200 50  0001 C CNN
	1    7050 4200
	1    0    0    -1  
$EndComp
$Comp
L CG24-cells:R2N U13R82
U 1 1 5F1C5A66
P 7050 4900
F 0 "U13R82" H 7075 5167 50  0000 C CNN
F 1 "R2N" H 7075 5076 50  0000 C CNN
F 2 "" H 7050 4900 50  0001 C CNN
F 3 "" H 7050 4900 50  0001 C CNN
	1    7050 4900
	1    0    0    -1  
$EndComp
$Comp
L CG24-cells:R2N U11R82
U 1 1 5F13F13F
P 7050 5600
F 0 "U11R82" H 7075 5867 50  0000 C CNN
F 1 "R2N" H 7075 5776 50  0000 C CNN
F 2 "" H 7050 5600 50  0001 C CNN
F 3 "" H 7050 5600 50  0001 C CNN
	1    7050 5600
	1    0    0    -1  
$EndComp
$Comp
L CG24-cells:R2N U18R82
U 1 1 5F12D18E
P 7050 6300
F 0 "U18R82" H 7075 6567 50  0000 C CNN
F 1 "R2N" H 7075 6476 50  0000 C CNN
F 2 "" H 7050 6300 50  0001 C CNN
F 3 "" H 7050 6300 50  0001 C CNN
	1    7050 6300
	1    0    0    -1  
$EndComp
$Comp
L CG24-cells:R2N U8R102
U 1 1 5EA60A40
P 7500 2550
F 0 "U8R102" H 7525 2817 50  0000 C CNN
F 1 "R2N" H 7525 2726 50  0000 C CNN
F 2 "" H 7500 2550 50  0001 C CNN
F 3 "" H 7500 2550 50  0001 C CNN
	1    7500 2550
	1    0    0    -1  
$EndComp
$Comp
L CG24-cells:V1N U7R92
U 1 1 5F485108
P 2150 3650
F 0 "U7R92" H 2150 3967 50  0000 C CNN
F 1 "V1N" H 2150 3876 50  0000 C CNN
F 2 "" H 2150 3450 50  0001 C CNN
F 3 "" H 2150 3450 50  0001 C CNN
	1    2150 3650
	1    0    0    -1  
$EndComp
$Comp
L CG24-cells:V1N U8R81
U 1 1 5EB85F32
P 2150 4350
F 0 "U8R81" H 2150 4667 50  0000 C CNN
F 1 "V1N" H 2150 4576 50  0000 C CNN
F 2 "" H 2150 4150 50  0001 C CNN
F 3 "" H 2150 4150 50  0001 C CNN
	1    2150 4350
	1    0    0    -1  
$EndComp
$Comp
L CG24-cells:V1N U13R72
U 1 1 5ECC49BF
P 2150 5050
F 0 "U13R72" H 2150 5367 50  0000 C CNN
F 1 "V1N" H 2150 5276 50  0000 C CNN
F 2 "" H 2150 4850 50  0001 C CNN
F 3 "" H 2150 4850 50  0001 C CNN
	1    2150 5050
	1    0    0    -1  
$EndComp
$Comp
L CG24-cells:V1N U17R82
U 1 1 5ED2AFA4
P 2150 5750
F 0 "U17R82" H 2150 6067 50  0000 C CNN
F 1 "V1N" H 2150 5976 50  0000 C CNN
F 2 "" H 2150 5550 50  0001 C CNN
F 3 "" H 2150 5550 50  0001 C CNN
	1    2150 5750
	1    0    0    -1  
$EndComp
$Comp
L CG24-cells:V1N U8R82
U 1 1 5EB94F0A
P 4350 1100
F 0 "U8R82" H 4350 1417 50  0000 C CNN
F 1 "V1N" H 4350 1326 50  0000 C CNN
F 2 "" H 4350 900 50  0001 C CNN
F 3 "" H 4350 900 50  0001 C CNN
	1    4350 1100
	1    0    0    -1  
$EndComp
$Comp
L CG24-cells:V1N U6R72
U 1 1 5F484D36
P 4350 1650
F 0 "U6R72" H 4350 1967 50  0000 C CNN
F 1 "V1N" H 4350 1876 50  0000 C CNN
F 2 "" H 4350 1450 50  0001 C CNN
F 3 "" H 4350 1450 50  0001 C CNN
	1    4350 1650
	1    0    0    -1  
$EndComp
$Comp
L CG24-cells:V1N U9R82
U 1 1 5ECB470E
P 4350 2200
F 0 "U9R82" H 4350 2517 50  0000 C CNN
F 1 "V1N" H 4350 2426 50  0000 C CNN
F 2 "" H 4350 2000 50  0001 C CNN
F 3 "" H 4350 2000 50  0001 C CNN
	1    4350 2200
	1    0    0    -1  
$EndComp
$Comp
L CG24-cells:R3N U8R91
U 1 1 5EEA364F
P 5750 2750
F 0 "U8R91" H 5750 3067 50  0000 C CNN
F 1 "R3N" H 5750 2976 50  0000 C CNN
F 2 "" H 5750 2750 50  0001 C CNN
F 3 "" H 5750 2750 50  0001 C CNN
	1    5750 2750
	1    0    0    -1  
$EndComp
$Comp
L CG24-cells:R4P U6R81
U 1 1 5EFF0F2E
P 5750 1400
F 0 "U6R81" H 5750 1742 50  0000 C CNN
F 1 "R4P" H 5750 1651 50  0000 C CNN
F 2 "" H 5750 1400 50  0001 C CNN
F 3 "" H 5750 1400 50  0001 C CNN
	1    5750 1400
	1    0    0    -1  
$EndComp
$Comp
L CG24-cells:N4N U12R71
U 1 1 5EFC281D
P 5750 3450
F 0 "U12R71" H 5750 3792 50  0000 C CNN
F 1 "N4N" H 5750 3701 50  0000 C CNN
F 2 "" H 5750 3200 50  0001 C CNN
F 3 "" H 5750 3200 50  0001 C CNN
	1    5750 3450
	1    0    0    -1  
$EndComp
$Comp
L CG24-cells:N4N U16R81
U 1 1 5EBD8A30
P 5750 4150
F 0 "U16R81" H 5750 4492 50  0000 C CNN
F 1 "N4N" H 5750 4401 50  0000 C CNN
F 2 "" H 5750 3900 50  0001 C CNN
F 3 "" H 5750 3900 50  0001 C CNN
	1    5750 4150
	1    0    0    -1  
$EndComp
$Comp
L CG24-cells:N4N U12R81
U 1 1 5EC47B92
P 5750 4850
F 0 "U12R81" H 5750 5192 50  0000 C CNN
F 1 "N4N" H 5750 5101 50  0000 C CNN
F 2 "" H 5750 4600 50  0001 C CNN
F 3 "" H 5750 4600 50  0001 C CNN
	1    5750 4850
	1    0    0    -1  
$EndComp
$Comp
L CG24-cells:N4N U10R81
U 1 1 5EC71349
P 5750 5550
F 0 "U10R81" H 5750 5892 50  0000 C CNN
F 1 "N4N" H 5750 5801 50  0000 C CNN
F 2 "" H 5750 5300 50  0001 C CNN
F 3 "" H 5750 5300 50  0001 C CNN
	1    5750 5550
	1    0    0    -1  
$EndComp
$Comp
L CG24-cells:N4N U14R81
U 1 1 5ED3973D
P 5750 6250
F 0 "U14R81" H 5750 6592 50  0000 C CNN
F 1 "N4N" H 5750 6501 50  0000 C CNN
F 2 "" H 5750 6000 50  0001 C CNN
F 3 "" H 5750 6000 50  0001 C CNN
	1    5750 6250
	1    0    0    -1  
$EndComp
Wire Wire Line
	7100 2350 7100 2500
Wire Wire Line
	7100 2750 7100 2600
Text Notes 6300 3050 0    50   ~ 0
HIGH IF\n  ~ADDR6~ & ADDR7 & ~ADDR8\n  0x0[8-b]
Wire Wire Line
	2900 1100 2900 4100
Connection ~ 3100 2850
Wire Wire Line
	3100 2850 3100 4200
Wire Wire Line
	3300 2200 3300 3600
Connection ~ 3500 2650
Wire Wire Line
	3500 700  3500 2650
Wire Wire Line
	3100 1650 3100 2850
Connection ~ 3300 2200
Connection ~ 3100 1650
Connection ~ 2900 1100
Connection ~ 2700 2400
Connection ~ 3400 2750
Connection ~ 3200 3500
Connection ~ 3000 3400
Connection ~ 2800 3300
Wire Wire Line
	3400 700  3400 2750
Wire Wire Line
	3300 700  3300 2200
Wire Wire Line
	3200 700  3200 3500
Wire Wire Line
	3100 700  3100 1650
Wire Wire Line
	3000 700  3000 3400
Wire Wire Line
	2900 700  2900 1100
Wire Wire Line
	2800 700  2800 3300
Wire Wire Line
	2700 700  2700 2400
Wire Wire Line
	2700 2400 2700 6000
Wire Wire Line
	2800 5400 2800 5750
Wire Wire Line
	2900 4800 2900 5300
Wire Wire Line
	3000 3400 3000 5050
Wire Wire Line
	3200 3500 3200 4350
Wire Wire Line
	3300 3600 3300 3900
Wire Wire Line
	3400 2750 3400 3650
Wire Wire Line
	3500 2650 3500 3200
Wire Wire Line
	1750 6000 2700 6000
Connection ~ 1750 6000
Connection ~ 2700 6000
Wire Wire Line
	2700 6000 2700 6100
Wire Wire Line
	2450 5750 2800 5750
Connection ~ 2800 5750
Wire Wire Line
	2800 5750 2800 7050
Wire Wire Line
	1750 5300 2900 5300
Connection ~ 1750 5300
Connection ~ 2900 5300
Wire Wire Line
	2900 5300 2900 5500
Wire Wire Line
	2450 5050 3000 5050
Connection ~ 3000 5050
Wire Wire Line
	3000 5050 3000 6200
Wire Wire Line
	1750 4600 3100 4600
Connection ~ 1750 4600
Connection ~ 3100 4600
Wire Wire Line
	3100 4600 3100 7050
Wire Wire Line
	3100 4200 3100 4600
Wire Wire Line
	2450 4350 3200 4350
Connection ~ 3200 4350
Wire Wire Line
	3200 4350 3200 4900
Wire Wire Line
	1750 3900 3300 3900
Connection ~ 1750 3900
Connection ~ 3300 3900
Wire Wire Line
	3300 3900 3300 4300
Wire Wire Line
	2450 3650 3400 3650
Connection ~ 3400 3650
Wire Wire Line
	3400 3650 3400 7050
Connection ~ 3500 3200
Wire Wire Line
	3500 3200 3500 7050
Text Label 1450 3200 0    50   ~ 0
ADDR8
Text Label 1450 3900 0    50   ~ 0
ADDR7
Text Label 1450 4600 0    50   ~ 0
ADDR6
Text Label 1450 5300 0    50   ~ 0
ADDR5
Text Label 1450 6000 0    50   ~ 0
ADDR4
Wire Wire Line
	1400 3200 3500 3200
Wire Wire Line
	1400 3900 1750 3900
Wire Wire Line
	1400 4600 1750 4600
Wire Wire Line
	1400 5300 1750 5300
Wire Wire Line
	1400 6000 1750 6000
Entry Wire Line
	1300 3100 1400 3200
Entry Wire Line
	1300 3800 1400 3900
Entry Wire Line
	1300 4500 1400 4600
Entry Wire Line
	1300 5200 1400 5300
Entry Wire Line
	1300 5900 1400 6000
Wire Bus Line
	1300 2850 1100 2850
Text HLabel 1100 2850 0    50   Input ~ 0
ADDR[4..8]
Wire Wire Line
	7800 2550 9150 2550
Text Notes 8200 2450 0    50   ~ 0
LOW IF\n0x0[8-b]x or 0x0ex
Text HLabel 9150 2550 2    50   Output ~ 0
~REGISTER-RANGE-LO
Text HLabel 9150 3500 2    50   Output ~ 0
0x08x
Text HLabel 9150 4200 2    50   Output ~ 0
0x0Ex
Text HLabel 9150 4900 2    50   Output ~ 0
0x0Ax
Text HLabel 9150 5600 2    50   Output ~ 0
0x0Bx
Text HLabel 9150 6300 2    50   Output ~ 0
0x09x
Wire Bus Line
	1300 2850 1300 5900
$EndSCHEMATC
