EESchema Schematic File Version 4
EELAYER 30 0
EELAYER END
$Descr A4 11693 8268
encoding utf-8
Sheet 16 20
Title "DL-1727"
Date "2020-04-26"
Rev ""
Comp ""
Comment1 ""
Comment2 "Licence: CC-BY"
Comment3 "Author: Loic *WydD* Petit"
Comment4 "Project: CPS2 Reverse Engineering: DL-1727"
$EndDescr
$Comp
L CG24-cells:V2B U32R174
U 1 1 7FFFFFFF
P 6700 6400
F 0 "U32R174" H 6700 6717 50  0000 C CNN
F 1 "V2B" H 6700 6626 50  0000 C CNN
F 2 "" H 6700 6200 50  0001 C CNN
F 3 "" H 6700 6200 50  0001 C CNN
	1    6700 6400
	1    0    0    -1  
$EndComp
$Comp
L CG24-cells:O4R U2R104
U 1 1 5E9C59A5
P 3700 1150
F 0 "U2R104" H 3700 1467 50  0000 C CNN
F 1 "O4R" H 3700 1376 50  0000 C CNN
F 2 "" H 3700 1150 50  0001 C CNN
F 3 "" H 3700 1150 50  0001 C CNN
	1    3700 1150
	1    0    0    -1  
$EndComp
$Comp
L CG24-cells:O4R U2R106
U 1 1 5E9C5981
P 3700 1800
F 0 "U2R106" H 3700 2117 50  0000 C CNN
F 1 "O4R" H 3700 2026 50  0000 C CNN
F 2 "" H 3700 1800 50  0001 C CNN
F 3 "" H 3700 1800 50  0001 C CNN
	1    3700 1800
	1    0    0    -1  
$EndComp
$Comp
L CG24-cells:O4R U2R135
U 1 1 5E9C59AD
P 3700 2450
F 0 "U2R135" H 3700 2767 50  0000 C CNN
F 1 "O4R" H 3700 2676 50  0000 C CNN
F 2 "" H 3700 2450 50  0001 C CNN
F 3 "" H 3700 2450 50  0001 C CNN
	1    3700 2450
	1    0    0    -1  
$EndComp
$Comp
L CG24-cells:O4R U2R137
U 1 1 5E9C598B
P 3700 3100
F 0 "U2R137" H 3700 3417 50  0000 C CNN
F 1 "O4R" H 3700 3326 50  0000 C CNN
F 2 "" H 3700 3100 50  0001 C CNN
F 3 "" H 3700 3100 50  0001 C CNN
	1    3700 3100
	1    0    0    -1  
$EndComp
$Comp
L CG24-cells:O4R U2R147
U 1 1 5E9C5983
P 3700 3750
F 0 "U2R147" H 3700 4067 50  0000 C CNN
F 1 "O4R" H 3700 3976 50  0000 C CNN
F 2 "" H 3700 3750 50  0001 C CNN
F 3 "" H 3700 3750 50  0001 C CNN
	1    3700 3750
	1    0    0    -1  
$EndComp
$Comp
L CG24-cells:O4R U2R174
U 1 1 5E9C59A7
P 3700 4400
F 0 "U2R174" H 3700 4717 50  0000 C CNN
F 1 "O4R" H 3700 4626 50  0000 C CNN
F 2 "" H 3700 4400 50  0001 C CNN
F 3 "" H 3700 4400 50  0001 C CNN
	1    3700 4400
	1    0    0    -1  
$EndComp
$Comp
L CG24-cells:O4R U2R176
U 1 1 5E9C5986
P 3700 5050
F 0 "U2R176" H 3700 5367 50  0000 C CNN
F 1 "O4R" H 3700 5276 50  0000 C CNN
F 2 "" H 3700 5050 50  0001 C CNN
F 3 "" H 3700 5050 50  0001 C CNN
	1    3700 5050
	1    0    0    -1  
$EndComp
$Comp
L CG24-cells:O4R U2R179
U 1 1 5E9C59A0
P 3700 5700
F 0 "U2R179" H 3700 6017 50  0000 C CNN
F 1 "O4R" H 3700 5926 50  0000 C CNN
F 2 "" H 3700 5700 50  0001 C CNN
F 3 "" H 3700 5700 50  0001 C CNN
	1    3700 5700
	1    0    0    -1  
$EndComp
$Comp
L CG24-cells:O4R U42R175
U 1 1 5E9C59AC
P 8750 1200
F 0 "U42R175" H 8750 1517 50  0000 C CNN
F 1 "O4R" H 8750 1426 50  0000 C CNN
F 2 "" H 8750 1200 50  0001 C CNN
F 3 "" H 8750 1200 50  0001 C CNN
	1    8750 1200
	1    0    0    -1  
$EndComp
$Comp
L CG24-cells:O4R U42R170
U 1 1 5E9C59AA
P 8750 1850
F 0 "U42R170" H 8750 2167 50  0000 C CNN
F 1 "O4R" H 8750 2076 50  0000 C CNN
F 2 "" H 8750 1850 50  0001 C CNN
F 3 "" H 8750 1850 50  0001 C CNN
	1    8750 1850
	1    0    0    -1  
$EndComp
$Comp
L CG24-cells:O4R U42R167
U 1 1 5E9C597B
P 8750 2500
F 0 "U42R167" H 8750 2817 50  0000 C CNN
F 1 "O4R" H 8750 2726 50  0000 C CNN
F 2 "" H 8750 2500 50  0001 C CNN
F 3 "" H 8750 2500 50  0001 C CNN
	1    8750 2500
	1    0    0    -1  
$EndComp
$Comp
L CG24-cells:O4R U42R172
U 1 1 5E9C5973
P 8750 3150
F 0 "U42R172" H 8750 3467 50  0000 C CNN
F 1 "O4R" H 8750 3376 50  0000 C CNN
F 2 "" H 8750 3150 50  0001 C CNN
F 3 "" H 8750 3150 50  0001 C CNN
	1    8750 3150
	1    0    0    -1  
$EndComp
$Comp
L CG24-cells:O4R U40R168
U 1 1 5E9C5979
P 8750 3800
F 0 "U40R168" H 8750 4117 50  0000 C CNN
F 1 "O4R" H 8750 4026 50  0000 C CNN
F 2 "" H 8750 3800 50  0001 C CNN
F 3 "" H 8750 3800 50  0001 C CNN
	1    8750 3800
	1    0    0    -1  
$EndComp
$Comp
L CG24-cells:O4R U42R156
U 1 1 5E9C596C
P 8750 4450
F 0 "U42R156" H 8750 4767 50  0000 C CNN
F 1 "O4R" H 8750 4676 50  0000 C CNN
F 2 "" H 8750 4450 50  0001 C CNN
F 3 "" H 8750 4450 50  0001 C CNN
	1    8750 4450
	1    0    0    -1  
$EndComp
$Comp
L CG24-cells:O4R U42R148
U 1 1 5E9C597C
P 8750 5100
F 0 "U42R148" H 8750 5417 50  0000 C CNN
F 1 "O4R" H 8750 5326 50  0000 C CNN
F 2 "" H 8750 5100 50  0001 C CNN
F 3 "" H 8750 5100 50  0001 C CNN
	1    8750 5100
	1    0    0    -1  
$EndComp
Wire Wire Line
	2100 6400 1950 6400
Wire Wire Line
	2700 2050 3700 2050
Wire Wire Line
	2700 2700 3700 2700
Wire Wire Line
	2700 3350 3700 3350
Wire Wire Line
	2700 4650 3700 4650
Wire Wire Line
	2700 5300 3700 5300
Wire Wire Line
	3700 1400 2700 1400
Wire Wire Line
	3700 5950 2700 5950
Wire Wire Line
	2700 4000 3700 4000
Connection ~ 2700 5950
Wire Wire Line
	5200 2050 6200 2050
Wire Wire Line
	5200 2700 6200 2700
Wire Wire Line
	5200 3350 6200 3350
Wire Wire Line
	5200 4650 6200 4650
Wire Wire Line
	5200 5300 6200 5300
Wire Wire Line
	6200 1400 5200 1400
Wire Wire Line
	6200 5950 5200 5950
Wire Wire Line
	5200 4000 6200 4000
Connection ~ 5200 5950
Wire Wire Line
	7750 2100 8750 2100
Wire Wire Line
	7750 2750 8750 2750
Wire Wire Line
	7750 3400 8750 3400
Wire Wire Line
	7750 4700 8750 4700
Wire Wire Line
	7750 5350 8750 5350
Wire Wire Line
	8750 1450 7750 1450
Wire Wire Line
	7750 4050 8750 4050
Wire Wire Line
	2700 6400 2700 5950
Text Label 8350 5100 2    50   ~ 0
OUT1
Text Label 8350 4450 2    50   ~ 0
OUT2
Text Label 8350 3800 2    50   ~ 0
OUT3
Text Label 8350 3150 2    50   ~ 0
OUT4
Text Label 8350 2500 2    50   ~ 0
OUT5
Text Label 8350 1850 2    50   ~ 0
OUT6
Text Label 8350 1200 2    50   ~ 0
OUT7
Text Label 5800 5700 2    50   ~ 0
OUT8
Text Label 5800 5050 2    50   ~ 0
OUT9
Text Label 5800 4400 2    50   ~ 0
OUT10
Text Label 5800 3750 2    50   ~ 0
OUT11
Text Label 5800 3100 2    50   ~ 0
OUT12
Text Label 5800 2450 2    50   ~ 0
OUT13
Text Label 5800 1800 2    50   ~ 0
OUT14
Text Label 5800 1150 2    50   ~ 0
OUT15
Text Label 3300 5700 2    50   ~ 0
OUT16
Text Label 3300 5050 2    50   ~ 0
OUT17
Text Label 3300 4400 2    50   ~ 0
OUT18
Text Label 3300 3750 2    50   ~ 0
OUT19
Text Label 3300 3100 2    50   ~ 0
OUT20
Text Label 3300 2450 2    50   ~ 0
OUT21
Text Label 3300 1800 2    50   ~ 0
OUT22
Text Label 3300 1150 2    50   ~ 0
OUT23
Wire Wire Line
	8450 5100 7950 5100
Wire Wire Line
	8450 4450 7950 4450
Wire Wire Line
	8450 3800 7950 3800
Wire Wire Line
	8450 3150 7950 3150
Wire Wire Line
	8450 2500 7950 2500
Wire Wire Line
	8450 1850 7950 1850
Wire Wire Line
	8450 1200 7950 1200
Wire Wire Line
	5900 5050 5400 5050
Wire Wire Line
	5900 4400 5400 4400
Wire Wire Line
	5900 3750 5400 3750
Wire Wire Line
	5900 3100 5400 3100
Wire Wire Line
	5900 2450 5400 2450
Wire Wire Line
	5900 1800 5400 1800
Wire Wire Line
	5900 1150 5400 1150
Wire Wire Line
	3400 5700 2900 5700
Wire Wire Line
	3400 5050 2900 5050
Wire Wire Line
	3400 4400 2900 4400
Wire Wire Line
	3400 3750 2900 3750
Wire Wire Line
	3400 3100 2900 3100
Wire Wire Line
	3400 2450 2900 2450
Wire Wire Line
	3400 1800 2900 1800
Wire Wire Line
	3400 1150 2900 1150
Entry Wire Line
	2800 1700 2900 1800
Entry Wire Line
	2900 1150 2800 1050
Entry Wire Line
	2900 2450 2800 2350
Entry Wire Line
	2900 3100 2800 3000
Entry Wire Line
	2900 3750 2800 3650
Entry Wire Line
	2900 4400 2800 4300
Entry Wire Line
	2900 5050 2800 4950
Entry Wire Line
	2900 5700 2800 5600
Entry Wire Line
	5300 1700 5400 1800
Entry Wire Line
	5400 1150 5300 1050
Entry Wire Line
	5400 2450 5300 2350
Entry Wire Line
	5400 3100 5300 3000
Entry Wire Line
	5400 3750 5300 3650
Entry Wire Line
	5400 4400 5300 4300
Entry Wire Line
	5400 5050 5300 4950
Entry Wire Line
	5400 5700 5300 5600
Entry Wire Line
	7850 1100 7950 1200
Entry Wire Line
	7950 1850 7850 1750
Entry Wire Line
	7950 2500 7850 2400
Entry Wire Line
	7950 3150 7850 3050
Entry Wire Line
	7950 3800 7850 3700
Entry Wire Line
	7950 4450 7850 4350
Entry Wire Line
	7950 5100 7850 5000
Wire Wire Line
	7750 5350 7750 6400
Connection ~ 7750 5350
Wire Wire Line
	6400 6400 6400 6850
Wire Wire Line
	6400 6850 4600 6850
Wire Wire Line
	2100 6850 2100 6400
Wire Wire Line
	4600 6400 4600 6850
Connection ~ 4600 6850
Wire Wire Line
	4600 6850 2100 6850
Text HLabel 2150 650  0    50   Input ~ 0
OUT[1..23]
Text HLabel 1950 6400 0    50   Input ~ 0
ENABLE
Wire Wire Line
	7000 6400 7750 6400
Wire Wire Line
	5900 5700 5400 5700
$Comp
L CG24-cells:O4R U42R177
U 1 1 5E9C5976
P 6200 5700
F 0 "U42R177" H 6200 6017 50  0000 C CNN
F 1 "O4R" H 6200 5926 50  0000 C CNN
F 2 "" H 6200 5700 50  0001 C CNN
F 3 "" H 6200 5700 50  0001 C CNN
	1    6200 5700
	1    0    0    -1  
$EndComp
$Comp
L CG24-cells:O4R U38R181
U 1 1 5E9C5974
P 6200 5050
F 0 "U38R181" H 6200 5367 50  0000 C CNN
F 1 "O4R" H 6200 5276 50  0000 C CNN
F 2 "" H 6200 5050 50  0001 C CNN
F 3 "" H 6200 5050 50  0001 C CNN
	1    6200 5050
	1    0    0    -1  
$EndComp
$Comp
L CG24-cells:O4R U34R179
U 1 1 5E9C59BA
P 6200 4400
F 0 "U34R179" H 6200 4717 50  0000 C CNN
F 1 "O4R" H 6200 4626 50  0000 C CNN
F 2 "" H 6200 4400 50  0001 C CNN
F 3 "" H 6200 4400 50  0001 C CNN
	1    6200 4400
	1    0    0    -1  
$EndComp
$Comp
L CG24-cells:O4R U36R181
U 1 1 5E9C5972
P 6200 3750
F 0 "U36R181" H 6200 4067 50  0000 C CNN
F 1 "O4R" H 6200 3976 50  0000 C CNN
F 2 "" H 6200 3750 50  0001 C CNN
F 3 "" H 6200 3750 50  0001 C CNN
	1    6200 3750
	1    0    0    -1  
$EndComp
$Comp
L CG24-cells:O4R U34R181
U 1 1 5E9C596A
P 6200 3100
F 0 "U34R181" H 6200 3417 50  0000 C CNN
F 1 "O4R" H 6200 3326 50  0000 C CNN
F 2 "" H 6200 3100 50  0001 C CNN
F 3 "" H 6200 3100 50  0001 C CNN
	1    6200 3100
	1    0    0    -1  
$EndComp
$Comp
L CG24-cells:O4R U30R179
U 1 1 5E9C59BC
P 6200 2450
F 0 "U30R179" H 6200 2767 50  0000 C CNN
F 1 "O4R" H 6200 2676 50  0000 C CNN
F 2 "" H 6200 2450 50  0001 C CNN
F 3 "" H 6200 2450 50  0001 C CNN
	1    6200 2450
	1    0    0    -1  
$EndComp
$Comp
L CG24-cells:O4R U4R181
U 1 1 5E9C597A
P 6200 1800
F 0 "U4R181" H 6200 2117 50  0000 C CNN
F 1 "O4R" H 6200 2026 50  0000 C CNN
F 2 "" H 6200 1800 50  0001 C CNN
F 3 "" H 6200 1800 50  0001 C CNN
	1    6200 1800
	1    0    0    -1  
$EndComp
$Comp
L CG24-cells:O4R U2R181
U 1 1 5E9C5980
P 6200 1150
F 0 "U2R181" H 6200 1467 50  0000 C CNN
F 1 "O4R" H 6200 1376 50  0000 C CNN
F 2 "" H 6200 1150 50  0001 C CNN
F 3 "" H 6200 1150 50  0001 C CNN
	1    6200 1150
	1    0    0    -1  
$EndComp
Wire Wire Line
	5200 5950 5200 6400
Wire Wire Line
	2700 1400 2700 2050
Connection ~ 2700 2050
Wire Wire Line
	2700 2050 2700 2700
Connection ~ 2700 2700
Wire Wire Line
	2700 2700 2700 3350
Connection ~ 2700 3350
Wire Wire Line
	2700 3350 2700 4000
Connection ~ 2700 4000
Wire Wire Line
	2700 4000 2700 4650
Connection ~ 2700 4650
Wire Wire Line
	2700 4650 2700 5300
Connection ~ 2700 5300
Wire Wire Line
	2700 5300 2700 5950
Wire Wire Line
	5200 1400 5200 2050
Connection ~ 5200 2050
Wire Wire Line
	5200 2050 5200 2700
Connection ~ 5200 2700
Wire Wire Line
	5200 2700 5200 3350
Connection ~ 5200 3350
Wire Wire Line
	5200 3350 5200 4000
Connection ~ 5200 4000
Wire Wire Line
	5200 4000 5200 4650
Connection ~ 5200 4650
Wire Wire Line
	5200 4650 5200 5300
Connection ~ 5200 5300
Wire Wire Line
	5200 5300 5200 5950
Wire Wire Line
	7750 1450 7750 2100
Connection ~ 7750 2100
Wire Wire Line
	7750 2100 7750 2750
Connection ~ 7750 2750
Wire Wire Line
	7750 2750 7750 3400
Connection ~ 7750 3400
Wire Wire Line
	7750 3400 7750 4050
Connection ~ 7750 4050
Wire Wire Line
	7750 4050 7750 4700
Connection ~ 7750 4700
Wire Wire Line
	7750 4700 7750 5350
Connection ~ 5300 650 
Wire Bus Line
	5300 650  7850 650 
Connection ~ 2800 650 
Wire Bus Line
	2800 650  2150 650 
Wire Bus Line
	2800 650  5300 650 
Text HLabel 9050 5100 2    50   Output ~ 0
ADDR1
Text HLabel 9050 4450 2    50   Output ~ 0
ADDR2
Text HLabel 9050 3800 2    50   Output ~ 0
ADDR3
Text HLabel 9050 3150 2    50   Output ~ 0
ADDR4
Text HLabel 9050 2500 2    50   Output ~ 0
ADDR5
Text HLabel 9050 1850 2    50   Output ~ 0
ADDR6
Text HLabel 9050 1200 2    50   Output ~ 0
ADDR7
Text HLabel 6500 5700 2    50   Output ~ 0
ADDR8
Text HLabel 6500 5050 2    50   Output ~ 0
ADDR9
Text HLabel 6500 4400 2    50   Output ~ 0
ADDR10
Text HLabel 6500 3750 2    50   Output ~ 0
ADDR11
Text HLabel 6500 3100 2    50   Output ~ 0
ADDR12
Text HLabel 6500 2450 2    50   Output ~ 0
ADDR13
Text HLabel 6500 1800 2    50   Output ~ 0
ADDR14
Text HLabel 6500 1150 2    50   Output ~ 0
ADDR15
Text HLabel 4000 5700 2    50   Output ~ 0
ADDR16
Text HLabel 4000 5050 2    50   Output ~ 0
ADDR17
Text HLabel 4000 4400 2    50   Output ~ 0
ADDR18
Text HLabel 4000 3750 2    50   Output ~ 0
ADDR19
Text HLabel 4000 3100 2    50   Output ~ 0
ADDR20
Text HLabel 4000 2450 2    50   Output ~ 0
ADDR21
Text HLabel 4000 1800 2    50   Output ~ 0
ADDR22
Text HLabel 4000 1150 2    50   Output ~ 0
ADDR23
$Comp
L CG24-cells:V2B U5R174
U 1 1 64299456
P 2400 6400
F 0 "U5R174" H 2400 6717 50  0000 C CNN
F 1 "V2B" H 2400 6626 50  0000 C CNN
F 2 "" H 2400 6200 50  0001 C CNN
F 3 "" H 2400 6200 50  0001 C CNN
	1    2400 6400
	1    0    0    -1  
$EndComp
Connection ~ 2100 6400
$Comp
L CG24-cells:V2B U18R174
U 1 1 6429C494
P 4900 6400
F 0 "U18R174" H 4900 6717 50  0000 C CNN
F 1 "V2B" H 4900 6626 50  0000 C CNN
F 2 "" H 4900 6200 50  0001 C CNN
F 3 "" H 4900 6200 50  0001 C CNN
	1    4900 6400
	1    0    0    -1  
$EndComp
Wire Bus Line
	7850 650  7850 5000
Wire Bus Line
	5300 650  5300 5600
Wire Bus Line
	2800 650  2800 5600
$EndSCHEMATC
