EESchema Schematic File Version 4
EELAYER 30 0
EELAYER END
$Descr A4 11693 8268
encoding utf-8
Sheet 6 20
Title "DL-1727"
Date "2020-04-26"
Rev ""
Comp ""
Comment1 ""
Comment2 "Licence: CC-BY"
Comment3 "Author: Loic *WydD* Petit"
Comment4 "Project: CPS2 Reverse Engineering: DL-1727"
$EndDescr
$Comp
L CG24-cells:B12 U22R21
U 1 1 5E9C58B4
P 6150 3300
F 0 "U22R21" H 6150 3617 50  0000 C CNN
F 1 "B12" H 6150 3526 50  0000 C CNN
F 2 "" H 6150 3300 50  0001 C CNN
F 3 "" H 6150 3300 50  0001 C CNN
	1    6150 3300
	1    0    0    -1  
$EndComp
$Comp
L CG24-cells:B11 U12R181
U 1 1 5E9C589B
P 6150 1200
F 0 "U12R181" H 6150 1517 50  0000 C CNN
F 1 "B11" H 6150 1426 50  0000 C CNN
F 2 "" H 6150 1200 50  0001 C CNN
F 3 "" H 6150 1200 50  0001 C CNN
	1    6150 1200
	1    0    0    -1  
$EndComp
$Comp
L CG24-cells:B11 U18R179
U 1 1 5E9C589C
P 6150 1900
F 0 "U18R179" H 6150 2217 50  0000 C CNN
F 1 "B11" H 6150 2126 50  0000 C CNN
F 2 "" H 6150 1900 50  0001 C CNN
F 3 "" H 6150 1900 50  0001 C CNN
	1    6150 1900
	1    0    0    -1  
$EndComp
$Comp
L CG24-cells:B12 U20R23
U 1 1 5E9C58A2
P 6150 4000
F 0 "U20R23" H 6150 4317 50  0000 C CNN
F 1 "B12" H 6150 4226 50  0000 C CNN
F 2 "" H 6150 4000 50  0001 C CNN
F 3 "" H 6150 4000 50  0001 C CNN
	1    6150 4000
	1    0    0    -1  
$EndComp
$Comp
L CG24-cells:K1B U22R?
U 1 1 5EB7C0EA
P 6750 2600
AR Path="/5EBD13AD/5EB7C0EA" Ref="U22R?"  Part="1" 
AR Path="/5EDF0382/5EB7C0EA" Ref="U22R173"  Part="1" 
F 0 "U22R173" H 6750 2917 50  0000 C CNN
F 1 "K1B" H 6750 2826 50  0000 C CNN
F 2 "" H 6750 2600 50  0001 C CNN
F 3 "" H 6750 2600 50  0001 C CNN
	1    6750 2600
	1    0    0    -1  
$EndComp
$Comp
L CG24-cells:B12 U18R?
U 1 1 5EB7C0F0
P 6150 6100
AR Path="/5EBD13AD/5EB7C0F0" Ref="U18R?"  Part="1" 
AR Path="/5EDF0382/5EB7C0F0" Ref="U18R21"  Part="1" 
F 0 "U18R21" H 6150 6417 50  0000 C CNN
F 1 "B12" H 6150 6326 50  0000 C CNN
F 2 "" H 6150 6100 50  0001 C CNN
F 3 "" H 6150 6100 50  0001 C CNN
	1    6150 6100
	1    0    0    -1  
$EndComp
$Comp
L CG24-cells:B12 U20R?
U 1 1 5EB7C0F6
P 6150 4700
AR Path="/5EBD13AD/5EB7C0F6" Ref="U20R?"  Part="1" 
AR Path="/5EDF0382/5EB7C0F6" Ref="U20R21"  Part="1" 
F 0 "U20R21" H 6150 5017 50  0000 C CNN
F 1 "B12" H 6150 4926 50  0000 C CNN
F 2 "" H 6150 4700 50  0001 C CNN
F 3 "" H 6150 4700 50  0001 C CNN
	1    6150 4700
	1    0    0    -1  
$EndComp
$Comp
L CG24-cells:B12 U18R?
U 1 1 5EB7C0FC
P 6150 5400
AR Path="/5EBD13AD/5EB7C0FC" Ref="U18R?"  Part="1" 
AR Path="/5EDF0382/5EB7C0FC" Ref="U18R23"  Part="1" 
F 0 "U18R23" H 6150 5717 50  0000 C CNN
F 1 "B12" H 6150 5626 50  0000 C CNN
F 2 "" H 6150 5400 50  0001 C CNN
F 3 "" H 6150 5400 50  0001 C CNN
	1    6150 5400
	1    0    0    -1  
$EndComp
$Comp
L CG24-cells:B12 U22R?
U 1 1 5EB7C102
P 6150 2600
AR Path="/5EBD13AD/5EB7C102" Ref="U22R?"  Part="1" 
AR Path="/5EDF0382/5EB7C102" Ref="U22R182"  Part="1" 
F 0 "U22R182" H 6150 2917 50  0000 C CNN
F 1 "B12" H 6150 2826 50  0000 C CNN
F 2 "" H 6150 2600 50  0001 C CNN
F 3 "" H 6150 2600 50  0001 C CNN
	1    6150 2600
	1    0    0    -1  
$EndComp
Text HLabel 5850 1200 0    50   Input ~ 0
_CLK2M
Text HLabel 5850 1900 0    50   Input ~ 0
_CLK16M
Text HLabel 5850 3300 0    50   Input ~ 0
_~BUS-E
Text HLabel 5850 4000 0    50   Input ~ 0
_~BUS-AS
Text HLabel 5850 4700 0    50   Input ~ 0
_~BUS-R
Text HLabel 5850 5400 0    50   Input ~ 0
_~BUS-LDSW
Text HLabel 5850 6100 0    50   Input ~ 0
_~BUS-UDSW
Text HLabel 7250 1200 2    50   Output ~ 0
CLK2M
Text HLabel 7250 1900 2    50   Output ~ 0
CLK16M
Text HLabel 7250 3300 2    50   Output ~ 0
~BUS-E
Text HLabel 7250 4000 2    50   Output ~ 0
~BUS-AS
Text HLabel 7250 4700 2    50   Output ~ 0
~BUS-R
Text HLabel 7250 5400 2    50   Output ~ 0
~BUS-LDSW
Text HLabel 7250 6100 2    50   Output ~ 0
~BUS-UDSW
Wire Wire Line
	4750 6350 6150 6350
Wire Wire Line
	4750 5650 6150 5650
Wire Wire Line
	4750 4950 6150 4950
Wire Wire Line
	4750 4250 6150 4250
Wire Wire Line
	4750 3550 6150 3550
Wire Wire Line
	4750 2150 6150 2150
Wire Wire Line
	4750 1450 6150 1450
Wire Wire Line
	4750 1450 4750 2150
Connection ~ 4750 2150
Connection ~ 4750 3550
Wire Wire Line
	4750 3550 4750 4250
Connection ~ 4750 4250
Wire Wire Line
	4750 4250 4750 4950
Connection ~ 4750 4950
Wire Wire Line
	4750 4950 4750 5650
Wire Wire Line
	4750 6350 4300 6350
Connection ~ 4750 5650
Text HLabel 3700 6350 0    50   Input ~ 0
~ENABLE
Wire Wire Line
	6450 1200 7250 1200
Wire Wire Line
	6450 1900 7250 1900
Wire Wire Line
	6450 3300 7250 3300
Wire Wire Line
	6450 4000 7250 4000
Wire Wire Line
	6450 4700 7250 4700
Wire Wire Line
	6450 5400 7100 5400
Wire Wire Line
	6450 6100 7100 6100
Wire Wire Line
	7250 2600 7100 2600
Text HLabel 7250 2600 2    50   Output ~ 0
~RESET-REGISTERS
Wire Wire Line
	6150 2850 4750 2850
Wire Wire Line
	4750 5650 4750 6350
Text HLabel 5850 2600 0    50   Input ~ 0
_~RESET-REGISTERS
Connection ~ 4750 6350
Wire Wire Line
	4750 2150 4750 2850
Connection ~ 4750 2850
Wire Wire Line
	4750 2850 4750 3550
Wire Wire Line
	8850 6250 8750 6250
Wire Wire Line
	8850 5650 8750 5650
Wire Wire Line
	8850 5050 8750 5050
Wire Wire Line
	8850 4450 8750 4450
Wire Wire Line
	8850 3850 8750 3850
$Comp
L power:GND #PWR?
U 1 1 5EBF5E14
P 8750 6250
AR Path="/5EBD13AD/5EBF5E14" Ref="#PWR?"  Part="1" 
AR Path="/5EDF0382/5EBF5E14" Ref="#PWR0103"  Part="1" 
F 0 "#PWR0103" H 8750 6000 50  0001 C CNN
F 1 "GND" H 8755 6077 50  0001 C CNN
F 2 "" H 8750 6250 50  0001 C CNN
F 3 "" H 8750 6250 50  0001 C CNN
	1    8750 6250
	1    0    0    -1  
$EndComp
$Comp
L power:GND #PWR?
U 1 1 5EBF5E1A
P 8750 5650
AR Path="/5EBD13AD/5EBF5E1A" Ref="#PWR?"  Part="1" 
AR Path="/5EDF0382/5EBF5E1A" Ref="#PWR0104"  Part="1" 
F 0 "#PWR0104" H 8750 5400 50  0001 C CNN
F 1 "GND" H 8755 5477 50  0001 C CNN
F 2 "" H 8750 5650 50  0001 C CNN
F 3 "" H 8750 5650 50  0001 C CNN
	1    8750 5650
	1    0    0    -1  
$EndComp
$Comp
L power:GND #PWR?
U 1 1 5EBF5E20
P 8750 5050
AR Path="/5EBD13AD/5EBF5E20" Ref="#PWR?"  Part="1" 
AR Path="/5EDF0382/5EBF5E20" Ref="#PWR0105"  Part="1" 
F 0 "#PWR0105" H 8750 4800 50  0001 C CNN
F 1 "GND" H 8755 4877 50  0001 C CNN
F 2 "" H 8750 5050 50  0001 C CNN
F 3 "" H 8750 5050 50  0001 C CNN
	1    8750 5050
	1    0    0    -1  
$EndComp
$Comp
L power:GND #PWR?
U 1 1 5EBF5E26
P 8750 4450
AR Path="/5EBD13AD/5EBF5E26" Ref="#PWR?"  Part="1" 
AR Path="/5EDF0382/5EBF5E26" Ref="#PWR0106"  Part="1" 
F 0 "#PWR0106" H 8750 4200 50  0001 C CNN
F 1 "GND" H 8755 4277 50  0001 C CNN
F 2 "" H 8750 4450 50  0001 C CNN
F 3 "" H 8750 4450 50  0001 C CNN
	1    8750 4450
	1    0    0    -1  
$EndComp
$Comp
L power:GND #PWR?
U 1 1 5EBF5E2C
P 8750 3850
AR Path="/5EBD13AD/5EBF5E2C" Ref="#PWR?"  Part="1" 
AR Path="/5EDF0382/5EBF5E2C" Ref="#PWR0109"  Part="1" 
F 0 "#PWR0109" H 8750 3600 50  0001 C CNN
F 1 "GND" H 8755 3677 50  0001 C CNN
F 2 "" H 8750 3850 50  0001 C CNN
F 3 "" H 8750 3850 50  0001 C CNN
	1    8750 3850
	1    0    0    -1  
$EndComp
$Comp
L CG24-cells:B1N U35R?
U 1 1 5EBF5E32
P 9150 6250
AR Path="/5EBD13AD/5EBF5E32" Ref="U35R?"  Part="1" 
AR Path="/5EDF0382/5EBF5E32" Ref="U35R174"  Part="1" 
F 0 "U35R174" H 9150 6567 50  0000 C CNN
F 1 "B1N" H 9150 6476 50  0000 C CNN
F 2 "" H 9150 6250 50  0001 C CNN
F 3 "" H 9150 6250 50  0001 C CNN
	1    9150 6250
	1    0    0    -1  
$EndComp
$Comp
L CG24-cells:B1N U28R?
U 1 1 5EBF5E38
P 9150 5650
AR Path="/5EBD13AD/5EBF5E38" Ref="U28R?"  Part="1" 
AR Path="/5EDF0382/5EBF5E38" Ref="U28R174"  Part="1" 
F 0 "U28R174" H 9150 5967 50  0000 C CNN
F 1 "B1N" H 9150 5876 50  0000 C CNN
F 2 "" H 9150 5650 50  0001 C CNN
F 3 "" H 9150 5650 50  0001 C CNN
	1    9150 5650
	1    0    0    -1  
$EndComp
$Comp
L CG24-cells:B1N U30R?
U 1 1 5EBF5E3E
P 9150 5050
AR Path="/5EBD13AD/5EBF5E3E" Ref="U30R?"  Part="1" 
AR Path="/5EDF0382/5EBF5E3E" Ref="U30R164"  Part="1" 
F 0 "U30R164" H 9150 5367 50  0000 C CNN
F 1 "B1N" H 9150 5276 50  0000 C CNN
F 2 "" H 9150 5050 50  0001 C CNN
F 3 "" H 9150 5050 50  0001 C CNN
	1    9150 5050
	1    0    0    -1  
$EndComp
$Comp
L CG24-cells:B1N U28R?
U 1 1 5EBF5E44
P 9150 4450
AR Path="/5EBD13AD/5EBF5E44" Ref="U28R?"  Part="1" 
AR Path="/5EDF0382/5EBF5E44" Ref="U28R164"  Part="1" 
F 0 "U28R164" H 9150 4767 50  0000 C CNN
F 1 "B1N" H 9150 4676 50  0000 C CNN
F 2 "" H 9150 4450 50  0001 C CNN
F 3 "" H 9150 4450 50  0001 C CNN
	1    9150 4450
	1    0    0    -1  
$EndComp
$Comp
L CG24-cells:B1N U40R?
U 1 1 5EBF5E4A
P 9150 3850
AR Path="/5EBD13AD/5EBF5E4A" Ref="U40R?"  Part="1" 
AR Path="/5EDF0382/5EBF5E4A" Ref="U40R164"  Part="1" 
F 0 "U40R164" H 9150 4167 50  0000 C CNN
F 1 "B1N" H 9150 4076 50  0000 C CNN
F 2 "" H 9150 3850 50  0001 C CNN
F 3 "" H 9150 3850 50  0001 C CNN
	1    9150 3850
	1    0    0    -1  
$EndComp
Text Label 9950 2800 2    50   ~ 0
DEBUG-H0
Text Label 9950 3100 2    50   ~ 0
DEBUG-H1
Text Label 9950 3400 2    50   ~ 0
DEBUG-H2
Text Label 9950 3850 2    50   ~ 0
DEBUG-H3
Text Label 9950 4450 2    50   ~ 0
DEBUG-H4
Text Label 9950 5050 2    50   ~ 0
DEBUG-H5
Text Label 9950 5650 2    50   ~ 0
DEBUG-H6
Text Label 9950 6250 2    50   ~ 0
DEBUG-H7
Wire Wire Line
	9450 6250 10000 6250
Wire Wire Line
	9450 5650 10000 5650
Wire Wire Line
	9450 5050 10000 5050
Wire Wire Line
	9450 4450 10000 4450
Wire Wire Line
	9450 3850 10000 3850
Entry Wire Line
	10100 6150 10000 6250
Entry Wire Line
	10100 5550 10000 5650
Entry Wire Line
	10100 4950 10000 5050
Entry Wire Line
	10100 4350 10000 4450
Entry Wire Line
	10100 3750 10000 3850
Entry Wire Line
	10100 3300 10000 3400
Entry Wire Line
	10100 3000 10000 3100
Entry Wire Line
	10100 2700 10000 2800
Wire Wire Line
	8400 5900 7100 5900
Wire Wire Line
	7100 5900 7100 6100
Wire Wire Line
	8400 3400 10000 3400
Connection ~ 7100 6100
Wire Wire Line
	7100 6100 7250 6100
Wire Wire Line
	7100 5400 7100 5150
Wire Wire Line
	7100 5150 8300 5150
Wire Wire Line
	8300 5150 8300 3100
Wire Wire Line
	8300 3100 10000 3100
Connection ~ 7100 5400
Wire Wire Line
	7100 5400 7250 5400
Wire Wire Line
	8400 3400 8400 5900
Wire Wire Line
	7100 2800 7100 2600
Wire Wire Line
	7100 2800 10000 2800
Connection ~ 7100 2600
Wire Wire Line
	7100 2600 7050 2600
Wire Bus Line
	10100 2450 10300 2450
Text HLabel 10300 2450 2    50   Output ~ 0
DEBUG-H[0..7]
$Comp
L CG24-cells:K1B U21R?
U 1 1 5FF9E3F8
P 4000 6350
AR Path="/5ED98457/5FF9E3F8" Ref="U21R?"  Part="1" 
AR Path="/5EDF0382/5FF9E3F8" Ref="U21R101"  Part="1" 
F 0 "U21R101" H 4000 6667 50  0000 C CNN
F 1 "K1B" H 4000 6576 50  0000 C CNN
F 2 "" H 4000 6350 50  0001 C CNN
F 3 "" H 4000 6350 50  0001 C CNN
	1    4000 6350
	1    0    0    -1  
$EndComp
Wire Bus Line
	10100 2450 10100 6150
$EndSCHEMATC
