EESchema Schematic File Version 4
EELAYER 30 0
EELAYER END
$Descr A4 11693 8268
encoding utf-8
Sheet 15 20
Title "DL-1727"
Date "2020-04-26"
Rev ""
Comp ""
Comment1 ""
Comment2 "Licence: CC-BY"
Comment3 "Author: Loic *WydD* Petit"
Comment4 "Project: CPS2 Reverse Engineering: DL-1727"
$EndDescr
Wire Wire Line
	1600 6400 1450 6400
$Comp
L CG24-cells:K1B U20R180
U 1 1 6BCF381D
P 1900 6400
F 0 "U20R180" H 1900 6717 50  0000 C CNN
F 1 "K1B" H 1900 6626 50  0000 C CNN
F 2 "" H 1900 6400 50  0001 C CNN
F 3 "" H 1900 6400 50  0001 C CNN
	1    1900 6400
	1    0    0    -1  
$EndComp
$Comp
L CG24-cells:K1B U30R173
U 1 1 7EDDCB3A
P 4400 6400
F 0 "U30R173" H 4400 6717 50  0000 C CNN
F 1 "K1B" H 4400 6626 50  0000 C CNN
F 2 "" H 4400 6400 50  0001 C CNN
F 3 "" H 4400 6400 50  0001 C CNN
	1    4400 6400
	1    0    0    -1  
$EndComp
$Comp
L CG24-cells:K1B U38R163
U 1 1 642C6E85
P 6200 6400
F 0 "U38R163" H 6200 6717 50  0000 C CNN
F 1 "K1B" H 6200 6626 50  0000 C CNN
F 2 "" H 6200 6400 50  0001 C CNN
F 3 "" H 6200 6400 50  0001 C CNN
	1    6200 6400
	1    0    0    -1  
$EndComp
$Comp
L CG24-cells:B12 U8R182
U 1 1 5E9C58B7
P 3200 1150
F 0 "U8R182" H 3200 1467 50  0000 C CNN
F 1 "B12" H 3200 1376 50  0000 C CNN
F 2 "" H 3200 1150 50  0001 C CNN
F 3 "" H 3200 1150 50  0001 C CNN
	1    3200 1150
	1    0    0    -1  
$EndComp
$Comp
L CG24-cells:B12 U8R180
U 1 1 5E9C58AE
P 3200 1800
F 0 "U8R180" H 3200 2117 50  0000 C CNN
F 1 "B12" H 3200 2026 50  0000 C CNN
F 2 "" H 3200 1800 50  0001 C CNN
F 3 "" H 3200 1800 50  0001 C CNN
	1    3200 1800
	1    0    0    -1  
$EndComp
$Comp
L CG24-cells:B12 U10R182
U 1 1 5E9C58B6
P 3200 2450
F 0 "U10R182" H 3200 2767 50  0000 C CNN
F 1 "B12" H 3200 2676 50  0000 C CNN
F 2 "" H 3200 2450 50  0001 C CNN
F 3 "" H 3200 2450 50  0001 C CNN
	1    3200 2450
	1    0    0    -1  
$EndComp
$Comp
L CG24-cells:B12 U14R182
U 1 1 5E9C58B2
P 3200 3100
F 0 "U14R182" H 3200 3417 50  0000 C CNN
F 1 "B12" H 3200 3326 50  0000 C CNN
F 2 "" H 3200 3100 50  0001 C CNN
F 3 "" H 3200 3100 50  0001 C CNN
	1    3200 3100
	1    0    0    -1  
$EndComp
$Comp
L CG24-cells:B12 U16R182
U 1 1 5E9C58B5
P 3200 3750
F 0 "U16R182" H 3200 4067 50  0000 C CNN
F 1 "B12" H 3200 3976 50  0000 C CNN
F 2 "" H 3200 3750 50  0001 C CNN
F 3 "" H 3200 3750 50  0001 C CNN
	1    3200 3750
	1    0    0    -1  
$EndComp
$Comp
L CG24-cells:B12 U18R182
U 1 1 5E9C58AD
P 3200 4400
F 0 "U18R182" H 3200 4717 50  0000 C CNN
F 1 "B12" H 3200 4626 50  0000 C CNN
F 2 "" H 3200 4400 50  0001 C CNN
F 3 "" H 3200 4400 50  0001 C CNN
	1    3200 4400
	1    0    0    -1  
$EndComp
$Comp
L CG24-cells:B12 U20R182
U 1 1 5E9C58A9
P 3200 5050
F 0 "U20R182" H 3200 5367 50  0000 C CNN
F 1 "B12" H 3200 5276 50  0000 C CNN
F 2 "" H 3200 5050 50  0001 C CNN
F 3 "" H 3200 5050 50  0001 C CNN
	1    3200 5050
	1    0    0    -1  
$EndComp
$Comp
L CG24-cells:B12 U24R182
U 1 1 5E9C58A5
P 3200 5700
F 0 "U24R182" H 3200 6017 50  0000 C CNN
F 1 "B12" H 3200 5926 50  0000 C CNN
F 2 "" H 3200 5700 50  0001 C CNN
F 3 "" H 3200 5700 50  0001 C CNN
	1    3200 5700
	1    0    0    -1  
$EndComp
$Comp
L CG24-cells:B12 U26R182
U 1 1 5E9C58B3
P 5700 1150
F 0 "U26R182" H 5700 1467 50  0000 C CNN
F 1 "B12" H 5700 1376 50  0000 C CNN
F 2 "" H 5700 1150 50  0001 C CNN
F 3 "" H 5700 1150 50  0001 C CNN
	1    5700 1150
	1    0    0    -1  
$EndComp
$Comp
L CG24-cells:B12 U28R182
U 1 1 5E9C58B8
P 5700 1800
F 0 "U28R182" H 5700 2117 50  0000 C CNN
F 1 "B12" H 5700 2026 50  0000 C CNN
F 2 "" H 5700 1800 50  0001 C CNN
F 3 "" H 5700 1800 50  0001 C CNN
	1    5700 1800
	1    0    0    -1  
$EndComp
$Comp
L CG24-cells:B12 U42R138
U 1 1 5E9C58C2
P 5700 2450
F 0 "U42R138" H 5700 2767 50  0000 C CNN
F 1 "B12" H 5700 2676 50  0000 C CNN
F 2 "" H 5700 2450 50  0001 C CNN
F 3 "" H 5700 2450 50  0001 C CNN
	1    5700 2450
	1    0    0    -1  
$EndComp
$Comp
L CG24-cells:B12 U42R140
U 1 1 5E9C58C6
P 5700 3100
F 0 "U42R140" H 5700 3417 50  0000 C CNN
F 1 "B12" H 5700 3326 50  0000 C CNN
F 2 "" H 5700 3100 50  0001 C CNN
F 3 "" H 5700 3100 50  0001 C CNN
	1    5700 3100
	1    0    0    -1  
$EndComp
$Comp
L CG24-cells:B12 U42R128
U 1 1 5E9C58D8
P 5700 3750
F 0 "U42R128" H 5700 4067 50  0000 C CNN
F 1 "B12" H 5700 3976 50  0000 C CNN
F 2 "" H 5700 3750 50  0001 C CNN
F 3 "" H 5700 3750 50  0001 C CNN
	1    5700 3750
	1    0    0    -1  
$EndComp
$Comp
L CG24-cells:B12 U42R126
U 1 1 5E9C58CD
P 5700 4400
F 0 "U42R126" H 5700 4717 50  0000 C CNN
F 1 "B12" H 5700 4626 50  0000 C CNN
F 2 "" H 5700 4400 50  0001 C CNN
F 3 "" H 5700 4400 50  0001 C CNN
	1    5700 4400
	1    0    0    -1  
$EndComp
$Comp
L CG24-cells:B12 U42R117
U 1 1 5E9C58C8
P 5700 5050
F 0 "U42R117" H 5700 5367 50  0000 C CNN
F 1 "B12" H 5700 5276 50  0000 C CNN
F 2 "" H 5700 5050 50  0001 C CNN
F 3 "" H 5700 5050 50  0001 C CNN
	1    5700 5050
	1    0    0    -1  
$EndComp
$Comp
L CG24-cells:B12 U42R119
U 1 1 5E9C58CA
P 5700 5700
F 0 "U42R119" H 5700 6017 50  0000 C CNN
F 1 "B12" H 5700 5926 50  0000 C CNN
F 2 "" H 5700 5700 50  0001 C CNN
F 3 "" H 5700 5700 50  0001 C CNN
	1    5700 5700
	1    0    0    -1  
$EndComp
$Comp
L CG24-cells:B12 U42R107
U 1 1 5E9C58DE
P 8250 1200
F 0 "U42R107" H 8250 1517 50  0000 C CNN
F 1 "B12" H 8250 1426 50  0000 C CNN
F 2 "" H 8250 1200 50  0001 C CNN
F 3 "" H 8250 1200 50  0001 C CNN
	1    8250 1200
	1    0    0    -1  
$EndComp
$Comp
L CG24-cells:B12 U42R96
U 1 1 5E9C58C7
P 8250 1850
F 0 "U42R96" H 8250 2167 50  0000 C CNN
F 1 "B12" H 8250 2076 50  0000 C CNN
F 2 "" H 8250 1850 50  0001 C CNN
F 3 "" H 8250 1850 50  0001 C CNN
	1    8250 1850
	1    0    0    -1  
$EndComp
$Comp
L CG24-cells:B12 U42R98
U 1 1 5E9C58C3
P 8250 2500
F 0 "U42R98" H 8250 2817 50  0000 C CNN
F 1 "B12" H 8250 2726 50  0000 C CNN
F 2 "" H 8250 2500 50  0001 C CNN
F 3 "" H 8250 2500 50  0001 C CNN
	1    8250 2500
	1    0    0    -1  
$EndComp
$Comp
L CG24-cells:B12 U42R86
U 1 1 5E9C58D2
P 8250 3150
F 0 "U42R86" H 8250 3467 50  0000 C CNN
F 1 "B12" H 8250 3376 50  0000 C CNN
F 2 "" H 8250 3150 50  0001 C CNN
F 3 "" H 8250 3150 50  0001 C CNN
	1    8250 3150
	1    0    0    -1  
$EndComp
$Comp
L CG24-cells:B12 U42R84
U 1 1 5E9C58CB
P 8250 3800
F 0 "U42R84" H 8250 4117 50  0000 C CNN
F 1 "B12" H 8250 4026 50  0000 C CNN
F 2 "" H 8250 3800 50  0001 C CNN
F 3 "" H 8250 3800 50  0001 C CNN
	1    8250 3800
	1    0    0    -1  
$EndComp
$Comp
L CG24-cells:B12 U42R75
U 1 1 5E9C58C9
P 8250 4450
F 0 "U42R75" H 8250 4767 50  0000 C CNN
F 1 "B12" H 8250 4676 50  0000 C CNN
F 2 "" H 8250 4450 50  0001 C CNN
F 3 "" H 8250 4450 50  0001 C CNN
	1    8250 4450
	1    0    0    -1  
$EndComp
$Comp
L CG24-cells:B12 U42R77
U 1 1 5E9C58E1
P 8250 5100
F 0 "U42R77" H 8250 5417 50  0000 C CNN
F 1 "B12" H 8250 5326 50  0000 C CNN
F 2 "" H 8250 5100 50  0001 C CNN
F 3 "" H 8250 5100 50  0001 C CNN
	1    8250 5100
	1    0    0    -1  
$EndComp
Wire Wire Line
	2200 2050 3200 2050
Wire Wire Line
	2200 2700 3200 2700
Wire Wire Line
	2200 3350 3200 3350
Wire Wire Line
	2200 4650 3200 4650
Wire Wire Line
	2200 5300 3200 5300
Wire Wire Line
	3200 1400 2200 1400
Wire Wire Line
	3200 5950 2200 5950
Wire Wire Line
	2200 4000 3200 4000
Wire Wire Line
	2200 1400 2200 2050
Connection ~ 2200 2050
Wire Wire Line
	2200 2050 2200 2700
Connection ~ 2200 2700
Wire Wire Line
	2200 2700 2200 3350
Connection ~ 2200 3350
Wire Wire Line
	2200 3350 2200 4000
Connection ~ 2200 4000
Wire Wire Line
	2200 4000 2200 4650
Connection ~ 2200 4650
Wire Wire Line
	2200 4650 2200 5300
Connection ~ 2200 5300
Wire Wire Line
	2200 5300 2200 5950
Connection ~ 2200 5950
Wire Wire Line
	4700 2050 5700 2050
Wire Wire Line
	4700 2700 5700 2700
Wire Wire Line
	4700 3350 5700 3350
Wire Wire Line
	4700 4650 5700 4650
Wire Wire Line
	4700 5300 5700 5300
Wire Wire Line
	5700 1400 4700 1400
Wire Wire Line
	5700 5950 4700 5950
Wire Wire Line
	4700 4000 5700 4000
Wire Wire Line
	4700 1400 4700 2050
Connection ~ 4700 2050
Wire Wire Line
	4700 2050 4700 2700
Connection ~ 4700 2700
Wire Wire Line
	4700 2700 4700 3350
Connection ~ 4700 3350
Wire Wire Line
	4700 3350 4700 4000
Connection ~ 4700 4000
Wire Wire Line
	4700 4000 4700 4650
Connection ~ 4700 4650
Wire Wire Line
	4700 4650 4700 5300
Connection ~ 4700 5300
Wire Wire Line
	4700 5300 4700 5950
Connection ~ 4700 5950
Wire Wire Line
	7250 2100 8250 2100
Wire Wire Line
	7250 2750 8250 2750
Wire Wire Line
	7250 3400 8250 3400
Wire Wire Line
	7250 4700 8250 4700
Wire Wire Line
	7250 5350 8250 5350
Wire Wire Line
	8250 1450 7250 1450
Wire Wire Line
	7250 4050 8250 4050
Wire Wire Line
	7250 1450 7250 2100
Connection ~ 7250 2100
Wire Wire Line
	7250 2100 7250 2750
Connection ~ 7250 2750
Wire Wire Line
	7250 2750 7250 3400
Connection ~ 7250 3400
Wire Wire Line
	7250 3400 7250 4050
Connection ~ 7250 4050
Wire Wire Line
	7250 4050 7250 4700
Connection ~ 7250 4700
Wire Wire Line
	7250 4700 7250 5350
Wire Wire Line
	2200 6400 2200 5950
Wire Wire Line
	4700 6400 4700 5950
Text Label 8650 5100 0    50   ~ 0
IN1
Text Label 8650 4450 0    50   ~ 0
IN2
Text Label 8650 3800 0    50   ~ 0
IN3
Text Label 8650 3150 0    50   ~ 0
IN4
Text Label 8650 2500 0    50   ~ 0
IN5
Text Label 8650 1850 0    50   ~ 0
IN6
Text Label 8650 1200 0    50   ~ 0
IN7
Text Label 6100 5700 0    50   ~ 0
IN8
Text Label 6100 5050 0    50   ~ 0
IN9
Text Label 6100 4400 0    50   ~ 0
IN10
Text Label 6100 3750 0    50   ~ 0
IN11
Text Label 6100 3100 0    50   ~ 0
IN12
Text Label 6100 2450 0    50   ~ 0
IN13
Text Label 6100 1800 0    50   ~ 0
IN14
Text Label 6100 1150 0    50   ~ 0
IN15
Text Label 3600 5700 0    50   ~ 0
IN16
Text Label 3600 5050 0    50   ~ 0
IN17
Text Label 3600 4400 0    50   ~ 0
IN18
Text Label 3600 3750 0    50   ~ 0
IN19
Text Label 3600 3100 0    50   ~ 0
IN20
Text Label 3600 2450 0    50   ~ 0
IN21
Text Label 3600 1800 0    50   ~ 0
IN22
Text Label 3600 1150 0    50   ~ 0
IN23
Wire Wire Line
	8550 5100 9050 5100
Wire Wire Line
	8550 4450 9050 4450
Wire Wire Line
	8550 3800 9050 3800
Wire Wire Line
	8550 3150 9050 3150
Wire Wire Line
	8550 2500 9050 2500
Wire Wire Line
	8550 1850 9050 1850
Wire Wire Line
	8550 1200 9050 1200
Wire Wire Line
	6000 5700 6500 5700
Wire Wire Line
	6000 5050 6500 5050
Wire Wire Line
	6000 4400 6500 4400
Wire Wire Line
	6000 3750 6500 3750
Wire Wire Line
	6000 3100 6500 3100
Wire Wire Line
	6000 2450 6500 2450
Wire Wire Line
	6000 1800 6500 1800
Wire Wire Line
	6000 1150 6500 1150
Wire Wire Line
	3500 5700 4000 5700
Wire Wire Line
	3500 5050 4000 5050
Wire Wire Line
	3500 4400 4000 4400
Wire Wire Line
	3500 3750 4000 3750
Wire Wire Line
	3500 3100 4000 3100
Wire Wire Line
	3500 2450 4000 2450
Wire Wire Line
	3500 1800 4000 1800
Wire Wire Line
	3500 1150 4000 1150
Entry Wire Line
	4100 1700 4000 1800
Entry Wire Line
	4000 1150 4100 1050
Entry Wire Line
	4000 2450 4100 2350
Entry Wire Line
	4000 3100 4100 3000
Entry Wire Line
	4000 3750 4100 3650
Entry Wire Line
	4000 4400 4100 4300
Entry Wire Line
	4000 5050 4100 4950
Entry Wire Line
	4000 5700 4100 5600
Entry Wire Line
	6600 1700 6500 1800
Entry Wire Line
	6500 1150 6600 1050
Entry Wire Line
	6500 2450 6600 2350
Entry Wire Line
	6500 3100 6600 3000
Entry Wire Line
	6500 3750 6600 3650
Entry Wire Line
	6500 4400 6600 4300
Entry Wire Line
	6500 5050 6600 4950
Entry Wire Line
	6500 5700 6600 5600
Entry Wire Line
	9150 1100 9050 1200
Entry Wire Line
	9050 1850 9150 1750
Entry Wire Line
	9050 2500 9150 2400
Entry Wire Line
	9050 3150 9150 3050
Entry Wire Line
	9050 3800 9150 3700
Entry Wire Line
	9050 4450 9150 4350
Entry Wire Line
	9050 5100 9150 5000
Wire Wire Line
	7250 5350 7250 6400
Connection ~ 7250 5350
Wire Wire Line
	5900 6400 5900 6850
Wire Wire Line
	5900 6850 4100 6850
Wire Wire Line
	1600 6850 1600 6400
Connection ~ 1600 6400
Wire Wire Line
	4100 6400 4100 6850
Connection ~ 4100 6850
Wire Wire Line
	4100 6850 1600 6850
Wire Bus Line
	6600 650  4100 650 
Wire Bus Line
	6600 650  9150 650 
Connection ~ 6600 650 
Text HLabel 10050 650  2    50   Output ~ 0
IN[1..23]
Text HLabel 7950 5100 0    50   Input ~ 0
ADDR1
Text HLabel 7950 4450 0    50   Input ~ 0
ADDR2
Text HLabel 7950 3800 0    50   Input ~ 0
ADDR3
Text HLabel 7950 3150 0    50   Input ~ 0
ADDR4
Text HLabel 7950 2500 0    50   Input ~ 0
ADDR5
Text HLabel 7950 1850 0    50   Input ~ 0
ADDR6
Text HLabel 7950 1200 0    50   Input ~ 0
ADDR7
Text HLabel 5400 5700 0    50   Input ~ 0
ADDR8
Text HLabel 5400 5050 0    50   Input ~ 0
ADDR9
Text HLabel 5400 4400 0    50   Input ~ 0
ADDR10
Text HLabel 5400 3750 0    50   Input ~ 0
ADDR11
Text HLabel 5400 3100 0    50   Input ~ 0
ADDR12
Text HLabel 5400 2450 0    50   Input ~ 0
ADDR13
Text HLabel 5400 1800 0    50   Input ~ 0
ADDR14
Text HLabel 5400 1150 0    50   Input ~ 0
ADDR15
Text HLabel 2900 5700 0    50   Input ~ 0
ADDR16
Text HLabel 2900 5050 0    50   Input ~ 0
ADDR17
Text HLabel 2900 4400 0    50   Input ~ 0
ADDR18
Text HLabel 2900 3750 0    50   Input ~ 0
ADDR19
Text HLabel 2900 3100 0    50   Input ~ 0
ADDR20
Text HLabel 2900 2450 0    50   Input ~ 0
ADDR21
Text HLabel 2900 1800 0    50   Input ~ 0
ADDR22
Text HLabel 2900 1150 0    50   Input ~ 0
ADDR23
Wire Bus Line
	9150 650  10050 650 
Connection ~ 9150 650 
Text HLabel 1450 6400 0    50   Input ~ 0
~ENABLE
Wire Wire Line
	6500 6400 7250 6400
Wire Bus Line
	9150 650  9150 5000
Wire Bus Line
	4100 650  4100 5600
Wire Bus Line
	6600 650  6600 5600
$EndSCHEMATC
