EESchema Schematic File Version 4
EELAYER 30 0
EELAYER END
$Descr A3 11693 16535 portrait
encoding utf-8
Sheet 10 20
Title "DL-1727"
Date "2020-04-26"
Rev ""
Comp ""
Comment1 ""
Comment2 "Licence: CC-BY"
Comment3 "Author: Loic *WydD* Petit"
Comment4 "Project: CPS2 Reverse Engineering: DL-1727"
$EndDescr
Connection ~ 9400 6250
Connection ~ 6600 8250
Connection ~ 6700 8050
Connection ~ 6800 7850
Connection ~ 7000 9550
Connection ~ 6300 6750
Connection ~ 6400 6550
Connection ~ 6500 6350
Connection ~ 6900 7650
Connection ~ 7000 5350
Connection ~ 7000 7450
Connection ~ 6800 5750
Connection ~ 6600 6150
Connection ~ 6700 5950
Connection ~ 6900 5550
Connection ~ 9400 8350
Connection ~ 9400 10450
Connection ~ 6500 8450
Connection ~ 2300 8350
Connection ~ 2300 10450
Connection ~ 2300 12550
Connection ~ 6600 12450
Connection ~ 6800 12050
Connection ~ 6500 12650
Connection ~ 9400 12550
Connection ~ 6300 13050
Connection ~ 6900 11850
Connection ~ 7000 11650
Connection ~ 6600 10350
Connection ~ 6900 9750
Connection ~ 6700 10150
Connection ~ 6800 9950
Connection ~ 6500 10550
Connection ~ 6700 12250
Connection ~ 6300 8850
Connection ~ 6300 10950
Connection ~ 6400 8650
Connection ~ 4950 2400
Connection ~ 6400 10750
Connection ~ 6400 12850
Entry Wire Line
	4800 6650 4900 6550
Entry Wire Line
	4800 8750 4900 8650
Entry Wire Line
	4800 10850 4900 10750
Entry Wire Line
	4800 12950 4900 12850
Entry Wire Line
	4950 6450 5050 6350
Entry Wire Line
	4950 8550 5050 8450
Entry Wire Line
	4950 10650 5050 10550
Entry Wire Line
	4950 12750 5050 12650
Entry Wire Line
	5000 6650 4900 6550
Entry Wire Line
	5000 8750 4900 8650
Entry Wire Line
	5000 10850 4900 10750
Entry Wire Line
	5000 12950 4900 12850
Entry Wire Line
	5050 6350 5150 6450
Entry Wire Line
	5050 8450 5150 8550
Entry Wire Line
	5050 10550 5150 10650
Entry Wire Line
	5050 12650 5150 12750
Entry Wire Line
	5100 6250 5200 6150
Entry Wire Line
	5100 8350 5200 8250
Entry Wire Line
	5100 10450 5200 10350
Entry Wire Line
	5100 12550 5200 12450
Entry Wire Line
	5200 6150 5300 6250
Entry Wire Line
	5200 8250 5300 8350
Entry Wire Line
	5200 10350 5300 10450
Entry Wire Line
	5200 12450 5300 12550
Entry Wire Line
	5250 6050 5350 5950
Entry Wire Line
	5250 8150 5350 8050
Entry Wire Line
	5250 10250 5350 10150
Entry Wire Line
	5250 12350 5350 12250
Entry Wire Line
	5350 5950 5450 6050
Entry Wire Line
	5350 8050 5450 8150
Entry Wire Line
	5350 10150 5450 10250
Entry Wire Line
	5350 12250 5450 12350
Entry Wire Line
	5400 5850 5500 5750
Entry Wire Line
	5400 7950 5500 7850
Entry Wire Line
	5400 10050 5500 9950
Entry Wire Line
	5400 12150 5500 12050
Entry Wire Line
	5500 5750 5600 5850
Entry Wire Line
	5500 7850 5600 7950
Entry Wire Line
	5500 9950 5600 10050
Entry Wire Line
	5500 12050 5600 12150
Entry Wire Line
	5550 5650 5650 5550
Entry Wire Line
	5550 7750 5650 7650
Entry Wire Line
	5550 9850 5650 9750
Entry Wire Line
	5550 11950 5650 11850
Entry Wire Line
	5650 5550 5750 5650
Entry Wire Line
	5650 7650 5750 7750
Entry Wire Line
	5650 9750 5750 9850
Entry Wire Line
	5650 11850 5750 11950
Entry Wire Line
	5700 5450 5800 5350
Entry Wire Line
	5700 7550 5800 7450
Entry Wire Line
	5700 9650 5800 9550
Entry Wire Line
	5700 11750 5800 11650
Entry Wire Line
	5800 5350 5900 5450
Entry Wire Line
	5800 7450 5900 7550
Entry Wire Line
	5800 9550 5900 9650
Entry Wire Line
	5800 11650 5900 11750
Entry Wire Line
	5850 5250 5950 5150
Entry Wire Line
	5850 7350 5950 7250
Entry Wire Line
	5850 9450 5950 9350
Entry Wire Line
	5850 11550 5950 11450
Entry Wire Line
	5950 5150 6050 5250
Entry Wire Line
	5950 7250 6050 7350
Entry Wire Line
	5950 9350 6050 9450
Entry Wire Line
	5950 11450 6050 11550
Wire Wire Line
	2300 6250 2300 8350
Wire Wire Line
	2300 6250 3000 6250
Wire Wire Line
	2300 8350 2300 10450
Wire Wire Line
	2300 8350 3000 8350
Wire Wire Line
	2300 10450 2300 12550
Wire Wire Line
	2300 10450 3000 10450
Wire Wire Line
	2300 12550 2300 13300
Wire Wire Line
	2300 13300 9400 13300
Wire Wire Line
	3000 12550 2300 12550
Wire Wire Line
	4100 2400 4950 2400
Wire Wire Line
	4650 5250 5850 5250
Wire Wire Line
	4650 5350 5700 5350
Wire Wire Line
	4650 5450 5700 5450
Wire Wire Line
	4650 5550 5550 5550
Wire Wire Line
	4650 5650 5550 5650
Wire Wire Line
	4650 5750 5400 5750
Wire Wire Line
	4650 5850 5400 5850
Wire Wire Line
	4650 5950 5250 5950
Wire Wire Line
	4650 6050 5250 6050
Wire Wire Line
	4650 6150 5100 6150
Wire Wire Line
	4650 6250 5100 6250
Wire Wire Line
	4650 6350 4950 6350
Wire Wire Line
	4650 6450 4950 6450
Wire Wire Line
	4650 6550 4800 6550
Wire Wire Line
	4650 6650 4800 6650
Wire Wire Line
	4650 6750 6300 6750
Wire Wire Line
	4650 7350 5850 7350
Wire Wire Line
	4650 7450 5700 7450
Wire Wire Line
	4650 7550 5700 7550
Wire Wire Line
	4650 7650 5550 7650
Wire Wire Line
	4650 7750 5550 7750
Wire Wire Line
	4650 7850 5400 7850
Wire Wire Line
	4650 7950 5400 7950
Wire Wire Line
	4650 8050 5250 8050
Wire Wire Line
	4650 8150 5250 8150
Wire Wire Line
	4650 8250 5100 8250
Wire Wire Line
	4650 8350 5100 8350
Wire Wire Line
	4650 8450 4950 8450
Wire Wire Line
	4650 8550 4950 8550
Wire Wire Line
	4650 8650 4800 8650
Wire Wire Line
	4650 8750 4800 8750
Wire Wire Line
	4650 8850 6300 8850
Wire Wire Line
	4650 9450 5850 9450
Wire Wire Line
	4650 9550 5700 9550
Wire Wire Line
	4650 9650 5700 9650
Wire Wire Line
	4650 9750 5550 9750
Wire Wire Line
	4650 9850 5550 9850
Wire Wire Line
	4650 9950 5400 9950
Wire Wire Line
	4650 10050 5400 10050
Wire Wire Line
	4650 10150 5250 10150
Wire Wire Line
	4650 10250 5250 10250
Wire Wire Line
	4650 10350 5100 10350
Wire Wire Line
	4650 10450 5100 10450
Wire Wire Line
	4650 10550 4950 10550
Wire Wire Line
	4650 10650 4950 10650
Wire Wire Line
	4650 10750 4800 10750
Wire Wire Line
	4650 10850 4800 10850
Wire Wire Line
	4650 10950 6300 10950
Wire Wire Line
	4650 11550 5850 11550
Wire Wire Line
	4650 11650 5700 11650
Wire Wire Line
	4650 11750 5700 11750
Wire Wire Line
	4650 11850 5550 11850
Wire Wire Line
	4650 11950 5550 11950
Wire Wire Line
	4650 12050 5400 12050
Wire Wire Line
	4650 12150 5400 12150
Wire Wire Line
	4650 12250 5250 12250
Wire Wire Line
	4650 12350 5250 12350
Wire Wire Line
	4650 12450 5100 12450
Wire Wire Line
	4650 12550 5100 12550
Wire Wire Line
	4650 12650 4950 12650
Wire Wire Line
	4650 12750 4950 12750
Wire Wire Line
	4650 12850 4800 12850
Wire Wire Line
	4650 12950 4800 12950
Wire Wire Line
	4650 13050 6300 13050
Wire Wire Line
	4700 2950 4850 2950
Wire Wire Line
	4700 3450 5500 3450
Wire Wire Line
	4700 3950 4850 3950
Wire Wire Line
	4800 6500 5000 6500
Wire Wire Line
	4800 6550 4800 6500
Wire Wire Line
	4800 8600 5000 8600
Wire Wire Line
	4800 8650 4800 8600
Wire Wire Line
	4800 10700 5000 10700
Wire Wire Line
	4800 10750 4800 10700
Wire Wire Line
	4800 12800 5000 12800
Wire Wire Line
	4800 12850 4800 12800
Wire Wire Line
	4850 2950 4850 3350
Wire Wire Line
	4850 3350 5500 3350
Wire Wire Line
	4850 3550 5500 3550
Wire Wire Line
	4850 3950 4850 3550
Wire Wire Line
	4950 2400 4950 3100
Wire Wire Line
	4950 3100 5500 3100
Wire Wire Line
	4950 6300 5150 6300
Wire Wire Line
	4950 6350 4950 6300
Wire Wire Line
	4950 8400 5150 8400
Wire Wire Line
	4950 8450 4950 8400
Wire Wire Line
	4950 10500 5150 10500
Wire Wire Line
	4950 10550 4950 10500
Wire Wire Line
	4950 12600 5150 12600
Wire Wire Line
	4950 12650 4950 12600
Wire Wire Line
	5000 6500 5000 6550
Wire Wire Line
	5000 6550 6400 6550
Wire Wire Line
	5000 6650 7050 6650
Wire Wire Line
	5000 8600 5000 8650
Wire Wire Line
	5000 8650 6400 8650
Wire Wire Line
	5000 8750 7050 8750
Wire Wire Line
	5000 10700 5000 10750
Wire Wire Line
	5000 10750 6400 10750
Wire Wire Line
	5000 10850 7050 10850
Wire Wire Line
	5000 12800 5000 12850
Wire Wire Line
	5000 12850 6400 12850
Wire Wire Line
	5000 12950 7050 12950
Wire Wire Line
	5100 6100 5300 6100
Wire Wire Line
	5100 6150 5100 6100
Wire Wire Line
	5100 8200 5300 8200
Wire Wire Line
	5100 8250 5100 8200
Wire Wire Line
	5100 10300 5300 10300
Wire Wire Line
	5100 10350 5100 10300
Wire Wire Line
	5100 12400 5300 12400
Wire Wire Line
	5100 12450 5100 12400
Wire Wire Line
	5150 6300 5150 6350
Wire Wire Line
	5150 6350 6500 6350
Wire Wire Line
	5150 6450 7050 6450
Wire Wire Line
	5150 8400 5150 8450
Wire Wire Line
	5150 8450 6500 8450
Wire Wire Line
	5150 8550 7050 8550
Wire Wire Line
	5150 10500 5150 10550
Wire Wire Line
	5150 10550 6500 10550
Wire Wire Line
	5150 10650 7050 10650
Wire Wire Line
	5150 12600 5150 12650
Wire Wire Line
	5150 12650 6500 12650
Wire Wire Line
	5150 12750 7050 12750
Wire Wire Line
	5250 5900 5450 5900
Wire Wire Line
	5250 5950 5250 5900
Wire Wire Line
	5250 8000 5450 8000
Wire Wire Line
	5250 8050 5250 8000
Wire Wire Line
	5250 10100 5450 10100
Wire Wire Line
	5250 10150 5250 10100
Wire Wire Line
	5250 12200 5450 12200
Wire Wire Line
	5250 12250 5250 12200
Wire Wire Line
	5300 6100 5300 6150
Wire Wire Line
	5300 6150 6600 6150
Wire Wire Line
	5300 6250 7050 6250
Wire Wire Line
	5300 8200 5300 8250
Wire Wire Line
	5300 8250 6600 8250
Wire Wire Line
	5300 8350 7050 8350
Wire Wire Line
	5300 10300 5300 10350
Wire Wire Line
	5300 10350 6600 10350
Wire Wire Line
	5300 10450 7050 10450
Wire Wire Line
	5300 12400 5300 12450
Wire Wire Line
	5300 12450 6600 12450
Wire Wire Line
	5300 12550 7050 12550
Wire Wire Line
	5350 3000 5500 3000
Wire Wire Line
	5350 3200 5500 3200
Wire Wire Line
	5400 5700 5600 5700
Wire Wire Line
	5400 5750 5400 5700
Wire Wire Line
	5400 7800 5600 7800
Wire Wire Line
	5400 7850 5400 7800
Wire Wire Line
	5400 9900 5600 9900
Wire Wire Line
	5400 9950 5400 9900
Wire Wire Line
	5400 12000 5600 12000
Wire Wire Line
	5400 12050 5400 12000
Wire Wire Line
	5450 5900 5450 5950
Wire Wire Line
	5450 5950 6700 5950
Wire Wire Line
	5450 6050 7050 6050
Wire Wire Line
	5450 8000 5450 8050
Wire Wire Line
	5450 8050 6700 8050
Wire Wire Line
	5450 8150 7050 8150
Wire Wire Line
	5450 10100 5450 10150
Wire Wire Line
	5450 10150 6700 10150
Wire Wire Line
	5450 10250 7050 10250
Wire Wire Line
	5450 12200 5450 12250
Wire Wire Line
	5450 12250 6700 12250
Wire Wire Line
	5450 12350 7050 12350
Wire Wire Line
	5550 2400 9400 2400
Wire Wire Line
	5550 5500 5750 5500
Wire Wire Line
	5550 5550 5550 5500
Wire Wire Line
	5550 7600 5750 7600
Wire Wire Line
	5550 7650 5550 7600
Wire Wire Line
	5550 9700 5750 9700
Wire Wire Line
	5550 9750 5550 9700
Wire Wire Line
	5550 11800 5750 11800
Wire Wire Line
	5550 11850 5550 11800
Wire Wire Line
	5600 5700 5600 5750
Wire Wire Line
	5600 5750 6800 5750
Wire Wire Line
	5600 5850 7050 5850
Wire Wire Line
	5600 7800 5600 7850
Wire Wire Line
	5600 7850 6800 7850
Wire Wire Line
	5600 7950 7050 7950
Wire Wire Line
	5600 9900 5600 9950
Wire Wire Line
	5600 9950 6800 9950
Wire Wire Line
	5600 10050 7050 10050
Wire Wire Line
	5600 12000 5600 12050
Wire Wire Line
	5600 12050 6800 12050
Wire Wire Line
	5600 12150 7050 12150
Wire Wire Line
	5700 5300 5900 5300
Wire Wire Line
	5700 5350 5700 5300
Wire Wire Line
	5700 7400 5900 7400
Wire Wire Line
	5700 7450 5700 7400
Wire Wire Line
	5700 9500 5900 9500
Wire Wire Line
	5700 9550 5700 9500
Wire Wire Line
	5700 11600 5900 11600
Wire Wire Line
	5700 11650 5700 11600
Wire Wire Line
	5750 5500 5750 5550
Wire Wire Line
	5750 5550 6900 5550
Wire Wire Line
	5750 5650 7050 5650
Wire Wire Line
	5750 7600 5750 7650
Wire Wire Line
	5750 7650 6900 7650
Wire Wire Line
	5750 7750 7050 7750
Wire Wire Line
	5750 9700 5750 9750
Wire Wire Line
	5750 9750 6900 9750
Wire Wire Line
	5750 9850 7050 9850
Wire Wire Line
	5750 11800 5750 11850
Wire Wire Line
	5750 11850 6900 11850
Wire Wire Line
	5750 11950 7050 11950
Wire Wire Line
	5900 5300 5900 5350
Wire Wire Line
	5900 5350 7000 5350
Wire Wire Line
	5900 5450 7050 5450
Wire Wire Line
	5900 7400 5900 7450
Wire Wire Line
	5900 7450 7000 7450
Wire Wire Line
	5900 7550 7050 7550
Wire Wire Line
	5900 9500 5900 9550
Wire Wire Line
	5900 9550 7000 9550
Wire Wire Line
	5900 9650 7050 9650
Wire Wire Line
	5900 11600 5900 11650
Wire Wire Line
	5900 11650 7000 11650
Wire Wire Line
	5900 11750 7050 11750
Wire Wire Line
	6050 5250 7050 5250
Wire Wire Line
	6050 7350 7050 7350
Wire Wire Line
	6050 9450 7050 9450
Wire Wire Line
	6050 11550 7050 11550
Wire Wire Line
	6200 3000 7000 3000
Wire Wire Line
	6200 3100 6900 3100
Wire Wire Line
	6200 3200 6800 3200
Wire Wire Line
	6200 3300 6700 3300
Wire Wire Line
	6200 3400 6600 3400
Wire Wire Line
	6200 3500 6500 3500
Wire Wire Line
	6200 3600 6400 3600
Wire Wire Line
	6200 3700 6300 3700
Wire Wire Line
	6300 6750 6300 3700
Wire Wire Line
	6300 8850 6300 6750
Wire Wire Line
	6300 10950 6300 8850
Wire Wire Line
	6300 13050 6300 10950
Wire Wire Line
	6400 3600 6400 6550
Wire Wire Line
	6400 6550 6400 8650
Wire Wire Line
	6400 6550 7050 6550
Wire Wire Line
	6400 8650 6400 10750
Wire Wire Line
	6400 8650 7050 8650
Wire Wire Line
	6400 10750 6400 12850
Wire Wire Line
	6400 10750 7050 10750
Wire Wire Line
	6400 12850 7050 12850
Wire Wire Line
	6500 6350 6500 3500
Wire Wire Line
	6500 6350 6500 8450
Wire Wire Line
	6500 6350 7050 6350
Wire Wire Line
	6500 8450 6500 10550
Wire Wire Line
	6500 8450 7050 8450
Wire Wire Line
	6500 10550 6500 12650
Wire Wire Line
	6500 10550 7050 10550
Wire Wire Line
	6500 12650 7050 12650
Wire Wire Line
	6600 3400 6600 6150
Wire Wire Line
	6600 6150 6600 8250
Wire Wire Line
	6600 6150 7050 6150
Wire Wire Line
	6600 8250 6600 10350
Wire Wire Line
	6600 8250 7050 8250
Wire Wire Line
	6600 10350 6600 12450
Wire Wire Line
	6600 10350 7050 10350
Wire Wire Line
	6600 12450 7050 12450
Wire Wire Line
	6700 3300 6700 5950
Wire Wire Line
	6700 8050 6700 5950
Wire Wire Line
	6700 10150 6700 8050
Wire Wire Line
	6700 12250 6700 10150
Wire Wire Line
	6800 5750 6800 3200
Wire Wire Line
	6800 5750 6800 7850
Wire Wire Line
	6800 5750 7050 5750
Wire Wire Line
	6800 7850 6800 9950
Wire Wire Line
	6800 7850 7050 7850
Wire Wire Line
	6800 9950 6800 12050
Wire Wire Line
	6800 9950 7050 9950
Wire Wire Line
	6800 12050 7050 12050
Wire Wire Line
	6900 3100 6900 5550
Wire Wire Line
	6900 7650 6900 5550
Wire Wire Line
	6900 7650 7050 7650
Wire Wire Line
	6900 9750 6900 7650
Wire Wire Line
	6900 11850 6900 9750
Wire Wire Line
	7000 5350 7000 3000
Wire Wire Line
	7000 7450 7000 5350
Wire Wire Line
	7000 7450 7050 7450
Wire Wire Line
	7000 9550 7000 7450
Wire Wire Line
	7000 11650 7000 9550
Wire Wire Line
	7000 11650 7050 11650
Wire Wire Line
	7050 5350 7000 5350
Wire Wire Line
	7050 5550 6900 5550
Wire Wire Line
	7050 5950 6700 5950
Wire Wire Line
	7050 6750 6300 6750
Wire Wire Line
	7050 8050 6700 8050
Wire Wire Line
	7050 8850 6300 8850
Wire Wire Line
	7050 9550 7000 9550
Wire Wire Line
	7050 9750 6900 9750
Wire Wire Line
	7050 10150 6700 10150
Wire Wire Line
	7050 10950 6300 10950
Wire Wire Line
	7050 11850 6900 11850
Wire Wire Line
	7050 12250 6700 12250
Wire Wire Line
	7050 13050 6300 13050
Wire Wire Line
	8700 12550 9400 12550
Wire Wire Line
	9400 2400 9400 6250
Wire Wire Line
	9400 6250 8700 6250
Wire Wire Line
	9400 6250 9400 8350
Wire Wire Line
	9400 8350 8700 8350
Wire Wire Line
	9400 8350 9400 10450
Wire Wire Line
	9400 10450 8700 10450
Wire Wire Line
	9400 12550 9400 10450
Wire Wire Line
	9400 13300 9400 12550
Wire Bus Line
	4100 4150 5950 4150
Wire Bus Line
	4100 4250 5800 4250
Wire Bus Line
	4100 4350 5650 4350
Wire Bus Line
	4100 4450 5500 4450
Wire Bus Line
	4100 4550 5350 4550
Wire Bus Line
	4100 4650 5200 4650
Wire Bus Line
	4100 4750 5050 4750
Wire Bus Line
	4100 4850 4900 4850
Text Label 4650 2400 2    50   ~ 0
~OUT-DEBUG
Text Label 4650 5250 0    50   ~ 0
A4
Text Label 4650 5450 0    50   ~ 0
B4
Text Label 4650 7350 0    50   ~ 0
A5
Text Label 4650 9450 0    50   ~ 0
A6
Text Label 4650 11550 0    50   ~ 0
A7
Text Label 4750 5650 2    50   ~ 0
C4
Text Label 4750 5850 2    50   ~ 0
D4
Text Label 4750 6050 2    50   ~ 0
E4
Text Label 4750 6250 2    50   ~ 0
F4
Text Label 4750 6450 2    50   ~ 0
G4
Text Label 4750 6650 2    50   ~ 0
H4
Text Label 4750 7550 2    50   ~ 0
B5
Text Label 4750 7750 2    50   ~ 0
C5
Text Label 4750 7950 2    50   ~ 0
D5
Text Label 4750 8150 2    50   ~ 0
E5
Text Label 4750 8350 2    50   ~ 0
F5
Text Label 4750 8550 2    50   ~ 0
G5
Text Label 4750 8750 2    50   ~ 0
H5
Text Label 4750 9650 2    50   ~ 0
B6
Text Label 4750 9850 2    50   ~ 0
C6
Text Label 4750 10050 2    50   ~ 0
D6
Text Label 4750 10250 2    50   ~ 0
E6
Text Label 4750 10450 2    50   ~ 0
F6
Text Label 4750 10650 2    50   ~ 0
G6
Text Label 4750 10850 2    50   ~ 0
H6
Text Label 4750 11750 2    50   ~ 0
B7
Text Label 4750 11950 2    50   ~ 0
C7
Text Label 4750 12150 2    50   ~ 0
D7
Text Label 4750 12350 2    50   ~ 0
E7
Text Label 4750 12550 2    50   ~ 0
F7
Text Label 4750 12750 2    50   ~ 0
G7
Text Label 4750 12950 2    50   ~ 0
H7
Text Label 6100 5250 0    50   ~ 0
A0
Text Label 6100 5450 0    50   ~ 0
B0
Text Label 6100 5650 0    50   ~ 0
C0
Text Label 6100 5850 0    50   ~ 0
D0
Text Label 6100 6050 0    50   ~ 0
E0
Text Label 6100 6250 0    50   ~ 0
F0
Text Label 6100 6450 0    50   ~ 0
G0
Text Label 6100 7350 0    50   ~ 0
A1
Text Label 6100 9450 0    50   ~ 0
A2
Text Label 6100 11550 0    50   ~ 0
A3
Text Label 6200 6650 2    50   ~ 0
H0
Text Label 6200 7550 2    50   ~ 0
B1
Text Label 6200 7750 2    50   ~ 0
C1
Text Label 6200 7950 2    50   ~ 0
D1
Text Label 6200 8150 2    50   ~ 0
E1
Text Label 6200 8350 2    50   ~ 0
F1
Text Label 6200 8550 2    50   ~ 0
G1
Text Label 6200 8750 2    50   ~ 0
H1
Text Label 6200 9650 2    50   ~ 0
B2
Text Label 6200 9850 2    50   ~ 0
C2
Text Label 6200 10050 2    50   ~ 0
D2
Text Label 6200 10250 2    50   ~ 0
E2
Text Label 6200 10450 2    50   ~ 0
F2
Text Label 6200 10650 2    50   ~ 0
G2
Text Label 6200 10850 2    50   ~ 0
H2
Text Label 6200 11750 2    50   ~ 0
B3
Text Label 6200 11950 2    50   ~ 0
C3
Text Label 6200 12150 2    50   ~ 0
D3
Text Label 6200 12350 2    50   ~ 0
E3
Text Label 6200 12550 2    50   ~ 0
F3
Text Label 6200 12750 2    50   ~ 0
G3
Text Label 6200 12950 2    50   ~ 0
H3
Text HLabel 2700 6000 0    50   Output ~ 0
Q4
Text HLabel 2700 8100 0    50   Output ~ 0
Q5
Text HLabel 2700 10200 0    50   Output ~ 0
Q6
Text HLabel 2700 12300 0    50   Output ~ 0
Q7
Text HLabel 4100 2400 0    50   Input ~ 0
~OUT
Text HLabel 4100 2950 0    50   Input ~ 0
S0
Text HLabel 4100 3450 0    50   Input ~ 0
S1
Text HLabel 4100 3950 0    50   Input ~ 0
S2
Text HLabel 4100 4150 0    50   Input ~ 0
A[0..7]
Text HLabel 4100 4250 0    50   Input ~ 0
B[0..7]
Text HLabel 4100 4350 0    50   Input ~ 0
C[0..7]
Text HLabel 4100 4450 0    50   Input ~ 0
D[0..7]
Text HLabel 4100 4550 0    50   Input ~ 0
E[0..7]
Text HLabel 4100 4650 0    50   Input ~ 0
F[0..7]
Text HLabel 4100 4750 0    50   Input ~ 0
G[0..7]
Text HLabel 4100 4850 0    50   Input ~ 0
H[0..7]
Text HLabel 9000 6000 2    50   Output ~ 0
Q0
Text HLabel 9000 8100 2    50   Output ~ 0
Q1
Text HLabel 9000 10200 2    50   Output ~ 0
Q2
Text HLabel 9000 12300 2    50   Output ~ 0
Q3
$Comp
L power:VCC #PWR0108
U 1 1 5E8FA619
P 5350 3000
F 0 "#PWR0108" H 5350 2850 50  0001 C CNN
F 1 "VCC" H 5367 3173 50  0000 C CNN
F 2 "" H 5350 3000 50  0001 C CNN
F 3 "" H 5350 3000 50  0001 C CNN
	1    5350 3000
	1    0    0    -1  
$EndComp
$Comp
L power:GND #PWR0107
U 1 1 5E8FBC26
P 5350 3200
F 0 "#PWR0107" H 5350 2950 50  0001 C CNN
F 1 "GND" H 5355 3027 50  0001 C CNN
F 2 "" H 5350 3200 50  0001 C CNN
F 3 "" H 5350 3200 50  0001 C CNN
	1    5350 3200
	1    0    0    -1  
$EndComp
$Comp
L CG24-cells:V1N U40R72
U 1 1 5EB6C7F6
P 3600 6000
F 0 "U40R72" H 3600 6317 50  0000 C CNN
F 1 "V1N" H 3600 6226 50  0000 C CNN
F 2 "" H 3600 5800 50  0001 C CNN
F 3 "" H 3600 5800 50  0001 C CNN
	1    3600 6000
	-1   0    0    -1  
$EndComp
$Comp
L CG24-cells:V1N U34R102
U 1 1 5EB6893A
P 3600 8100
F 0 "U34R102" H 3600 8417 50  0000 C CNN
F 1 "V1N" H 3600 8326 50  0000 C CNN
F 2 "" H 3600 7900 50  0001 C CNN
F 3 "" H 3600 7900 50  0001 C CNN
	1    3600 8100
	-1   0    0    -1  
$EndComp
$Comp
L CG24-cells:V1N U34R164
U 1 1 5EB64080
P 3600 10200
F 0 "U34R164" H 3600 10517 50  0000 C CNN
F 1 "V1N" H 3600 10426 50  0000 C CNN
F 2 "" H 3600 10000 50  0001 C CNN
F 3 "" H 3600 10000 50  0001 C CNN
	1    3600 10200
	-1   0    0    -1  
$EndComp
$Comp
L CG24-cells:V1N U34R174
U 1 1 5EB51E72
P 3600 12300
F 0 "U34R174" H 3600 12617 50  0000 C CNN
F 1 "V1N" H 3600 12526 50  0000 C CNN
F 2 "" H 3600 12100 50  0001 C CNN
F 3 "" H 3600 12100 50  0001 C CNN
	1    3600 12300
	-1   0    0    -1  
$EndComp
$Comp
L CG24-cells:I2S U42R159
U 1 1 5E9C5936
P 4400 2950
F 0 "U42R159" H 4400 3267 50  0000 C CNN
F 1 "I2S" H 4400 3176 50  0000 C CNN
F 2 "" H 4400 2950 50  0001 C CNN
F 3 "" H 4400 2950 50  0001 C CNN
	1    4400 2950
	1    0    0    -1  
$EndComp
$Comp
L CG24-cells:I2S U40R175
U 1 1 5E9C5937
P 4400 3450
F 0 "U40R175" H 4400 3767 50  0000 C CNN
F 1 "I2S" H 4400 3676 50  0000 C CNN
F 2 "" H 4400 3450 50  0001 C CNN
F 3 "" H 4400 3450 50  0001 C CNN
	1    4400 3450
	1    0    0    -1  
$EndComp
$Comp
L CG24-cells:I2S U42R163
U 1 1 5E9C5934
P 4400 3950
F 0 "U42R163" H 4400 4267 50  0000 C CNN
F 1 "I2S" H 4400 4176 50  0000 C CNN
F 2 "" H 4400 3950 50  0001 C CNN
F 3 "" H 4400 3950 50  0001 C CNN
	1    4400 3950
	1    0    0    -1  
$EndComp
$Comp
L CG24-cells:K1B U10R101
U 1 1 5EBE3FFB
P 5250 2400
F 0 "U10R101" H 5250 2717 50  0000 C CNN
F 1 "K1B" H 5250 2626 50  0000 C CNN
F 2 "" H 5250 2400 50  0001 C CNN
F 3 "" H 5250 2400 50  0001 C CNN
	1    5250 2400
	1    0    0    -1  
$EndComp
$Comp
L CG24-cells:V1N U14R31
U 1 1 5EBCB1AC
P 8100 6000
F 0 "U14R31" H 8100 6317 50  0000 C CNN
F 1 "V1N" H 8100 6226 50  0000 C CNN
F 2 "" H 8100 5800 50  0001 C CNN
F 3 "" H 8100 5800 50  0001 C CNN
	1    8100 6000
	1    0    0    -1  
$EndComp
$Comp
L CG24-cells:V1N U10R72
U 1 1 5EBC741F
P 8100 8100
F 0 "U10R72" H 8100 8417 50  0000 C CNN
F 1 "V1N" H 8100 8326 50  0000 C CNN
F 2 "" H 8100 7900 50  0001 C CNN
F 3 "" H 8100 7900 50  0001 C CNN
	1    8100 8100
	1    0    0    -1  
$EndComp
$Comp
L CG24-cells:V1N U32R31
U 1 1 5EBC3CF5
P 8100 10200
F 0 "U32R31" H 8100 10517 50  0000 C CNN
F 1 "V1N" H 8100 10426 50  0000 C CNN
F 2 "" H 8100 10000 50  0001 C CNN
F 3 "" H 8100 10000 50  0001 C CNN
	1    8100 10200
	1    0    0    -1  
$EndComp
$Comp
L CG24-cells:V1N U40R82
U 1 1 5EB70272
P 8100 12300
F 0 "U40R82" H 8100 12617 50  0000 C CNN
F 1 "V1N" H 8100 12526 50  0000 C CNN
F 2 "" H 8100 12100 50  0001 C CNN
F 3 "" H 8100 12100 50  0001 C CNN
	1    8100 12300
	1    0    0    -1  
$EndComp
$Comp
L CG24-cells:O4R U42R22
U 1 1 5E9C5988
P 3000 6000
F 0 "U42R22" H 3000 6317 50  0000 C CNN
F 1 "O4R" H 3000 6226 50  0000 C CNN
F 2 "" H 3000 6000 50  0001 C CNN
F 3 "" H 3000 6000 50  0001 C CNN
	1    3000 6000
	-1   0    0    -1  
$EndComp
$Comp
L CG24-cells:O4R U42R30
U 1 1 5E9C59A4
P 3000 8100
F 0 "U42R30" H 3000 8417 50  0000 C CNN
F 1 "O4R" H 3000 8326 50  0000 C CNN
F 2 "" H 3000 8100 50  0001 C CNN
F 3 "" H 3000 8100 50  0001 C CNN
	1    3000 8100
	-1   0    0    -1  
$EndComp
$Comp
L CG24-cells:O4R U42R146
U 1 1 5E9C59A1
P 3000 10200
F 0 "U42R146" H 3000 10517 50  0000 C CNN
F 1 "O4R" H 3000 10426 50  0000 C CNN
F 2 "" H 3000 10200 50  0001 C CNN
F 3 "" H 3000 10200 50  0001 C CNN
	1    3000 10200
	-1   0    0    -1  
$EndComp
$Comp
L CG24-cells:O4R U40R181
U 1 1 5E9C5970
P 3000 12300
F 0 "U40R181" H 3000 12617 50  0000 C CNN
F 1 "O4R" H 3000 12526 50  0000 C CNN
F 2 "" H 3000 12300 50  0001 C CNN
F 3 "" H 3000 12300 50  0001 C CNN
	1    3000 12300
	-1   0    0    -1  
$EndComp
$Comp
L CG24-cells:O4R U6R21
U 1 1 5E9C59B0
P 8700 6000
F 0 "U6R21" H 8700 6317 50  0000 C CNN
F 1 "O4R" H 8700 6226 50  0000 C CNN
F 2 "" H 8700 6000 50  0001 C CNN
F 3 "" H 8700 6000 50  0001 C CNN
	1    8700 6000
	1    0    0    -1  
$EndComp
$Comp
L CG24-cells:O4R U6R23
U 1 1 5E9C596D
P 8700 8100
F 0 "U6R23" H 8700 8417 50  0000 C CNN
F 1 "O4R" H 8700 8326 50  0000 C CNN
F 2 "" H 8700 8100 50  0001 C CNN
F 3 "" H 8700 8100 50  0001 C CNN
	1    8700 8100
	1    0    0    -1  
$EndComp
$Comp
L CG24-cells:O4R U32R21
U 1 1 5E9C5999
P 8700 10200
F 0 "U32R21" H 8700 10517 50  0000 C CNN
F 1 "O4R" H 8700 10426 50  0000 C CNN
F 2 "" H 8700 10200 50  0001 C CNN
F 3 "" H 8700 10200 50  0001 C CNN
	1    8700 10200
	1    0    0    -1  
$EndComp
$Comp
L CG24-cells:O4R U38R33
U 1 1 5EB719D5
P 8700 12300
F 0 "U38R33" H 8700 12617 50  0000 C CNN
F 1 "O4R" H 8700 12526 50  0000 C CNN
F 2 "" H 8700 12300 50  0001 C CNN
F 3 "" H 8700 12300 50  0001 C CNN
	1    8700 12300
	1    0    0    -1  
$EndComp
$Comp
L CG24-cells:DE6 U34R129
U 1 1 5EC8087C
P 5850 3450
F 0 "U34R129" H 5850 4165 50  0000 C CNN
F 1 "DE6" H 5850 4074 50  0000 C CNN
F 2 "" H 5850 4200 50  0001 C CNN
F 3 "" H 5850 4200 50  0001 C CNN
	1    5850 3450
	1    0    0    -1  
$EndComp
$Comp
L CG24-cells:T28 U28R118
U 1 1 5EAF1C6C
P 4250 6000
F 0 "U28R118" H 4225 7015 50  0000 C CNN
F 1 "T28" H 4225 6924 50  0000 C CNN
F 2 "" H 3950 6450 50  0001 C CNN
F 3 "" H 3950 6450 50  0001 C CNN
	1    4250 6000
	-1   0    0    -1  
$EndComp
$Comp
L CG24-cells:T28 U28R128
U 1 1 5EAE6222
P 4250 8100
F 0 "U28R128" H 4225 9115 50  0000 C CNN
F 1 "T28" H 4225 9024 50  0000 C CNN
F 2 "" H 3950 8550 50  0001 C CNN
F 3 "" H 3950 8550 50  0001 C CNN
	1    4250 8100
	-1   0    0    -1  
$EndComp
$Comp
L CG24-cells:T28 U28R138
U 1 1 5EAEC65E
P 4250 10200
F 0 "U28R138" H 4225 11215 50  0000 C CNN
F 1 "T28" H 4225 11124 50  0000 C CNN
F 2 "" H 3950 10650 50  0001 C CNN
F 3 "" H 3950 10650 50  0001 C CNN
	1    4250 10200
	-1   0    0    -1  
$EndComp
$Comp
L CG24-cells:T28 U34R108
U 1 1 5EAEF29D
P 4250 12300
F 0 "U34R108" H 4225 13315 50  0000 C CNN
F 1 "T28" H 4225 13224 50  0000 C CNN
F 2 "" H 3950 12750 50  0001 C CNN
F 3 "" H 3950 12750 50  0001 C CNN
	1    4250 12300
	-1   0    0    -1  
$EndComp
$Comp
L CG24-cells:T28 U22R118
U 1 1 5EB11F5F
P 7450 6000
F 0 "U22R118" H 7425 7015 50  0000 C CNN
F 1 "T28" H 7425 6924 50  0000 C CNN
F 2 "" H 7150 6450 50  0001 C CNN
F 3 "" H 7150 6450 50  0001 C CNN
	1    7450 6000
	1    0    0    -1  
$EndComp
$Comp
L CG24-cells:T28 U22R108
U 1 1 5EB11F3B
P 7450 8100
F 0 "U22R108" H 7425 9115 50  0000 C CNN
F 1 "T28" H 7425 9024 50  0000 C CNN
F 2 "" H 7150 8550 50  0001 C CNN
F 3 "" H 7150 8550 50  0001 C CNN
	1    7450 8100
	1    0    0    -1  
$EndComp
$Comp
L CG24-cells:T28 U28R108
U 1 1 5EB11F47
P 7450 10200
F 0 "U28R108" H 7425 11215 50  0000 C CNN
F 1 "T28" H 7425 11124 50  0000 C CNN
F 2 "" H 7150 10650 50  0001 C CNN
F 3 "" H 7150 10650 50  0001 C CNN
	1    7450 10200
	1    0    0    -1  
$EndComp
$Comp
L CG24-cells:T28 U40R108
U 1 1 5EB11F53
P 7450 12300
F 0 "U40R108" H 7425 13315 50  0000 C CNN
F 1 "T28" H 7425 13224 50  0000 C CNN
F 2 "" H 7150 12750 50  0001 C CNN
F 3 "" H 7150 12750 50  0001 C CNN
	1    7450 12300
	1    0    0    -1  
$EndComp
Wire Bus Line
	4900 4850 4900 12850
Wire Bus Line
	5050 4750 5050 12650
Wire Bus Line
	5200 4650 5200 12450
Wire Bus Line
	5350 4550 5350 12250
Wire Bus Line
	5500 4450 5500 12050
Wire Bus Line
	5650 4350 5650 11850
Wire Bus Line
	5800 4250 5800 11650
Wire Bus Line
	5950 4150 5950 11450
$EndSCHEMATC
