EESchema Schematic File Version 4
EELAYER 30 0
EELAYER END
$Descr A4 11693 8268
encoding utf-8
Sheet 13 20
Title "DL-1727"
Date "2020-04-26"
Rev ""
Comp ""
Comment1 ""
Comment2 "Licence: CC-BY"
Comment3 "Author: Loic *WydD* Petit"
Comment4 "Project: CPS2 Reverse Engineering: DL-1727"
$EndDescr
Wire Wire Line
	6400 6150 7200 6150
Connection ~ 6400 6150
Wire Wire Line
	6400 6000 6500 6000
Wire Wire Line
	6400 6000 6400 6150
Text HLabel 6500 6000 2    50   BiDi ~ 0
DATA7
Wire Wire Line
	6400 5450 7200 5450
Connection ~ 6400 5450
Wire Wire Line
	6400 5300 6500 5300
Wire Wire Line
	6400 5300 6400 5450
Text HLabel 6500 5300 2    50   BiDi ~ 0
DATA6
Wire Wire Line
	6400 4750 7200 4750
Connection ~ 6400 4750
Wire Wire Line
	6400 4600 6500 4600
Wire Wire Line
	6400 4600 6400 4750
Text HLabel 6500 4600 2    50   BiDi ~ 0
DATA5
Wire Wire Line
	6400 4050 7200 4050
Connection ~ 6400 4050
Wire Wire Line
	6400 3900 6500 3900
Wire Wire Line
	6400 3900 6400 4050
Text HLabel 6500 3900 2    50   BiDi ~ 0
DATA4
Wire Wire Line
	6400 3350 7200 3350
Connection ~ 6400 3350
Wire Wire Line
	6400 3200 6500 3200
Wire Wire Line
	6400 3200 6400 3350
Text HLabel 6500 3200 2    50   BiDi ~ 0
DATA3
Wire Wire Line
	6400 2650 7200 2650
Connection ~ 6400 2650
Wire Wire Line
	6400 2500 6500 2500
Wire Wire Line
	6400 2500 6400 2650
Text HLabel 6500 2500 2    50   BiDi ~ 0
DATA2
Wire Wire Line
	6400 1950 7200 1950
Wire Wire Line
	6400 1800 6500 1800
Connection ~ 6400 1950
Wire Wire Line
	6400 1800 6400 1950
Text HLabel 6500 1800 2    50   BiDi ~ 0
DATA1
Wire Wire Line
	6300 1250 6400 1250
Wire Wire Line
	6400 1250 7200 1250
Connection ~ 6400 1250
Wire Wire Line
	6400 1100 6400 1250
Wire Wire Line
	6500 1100 6400 1100
Text HLabel 6500 1100 2    50   BiDi ~ 0
DATA0
Wire Wire Line
	6300 6150 6400 6150
Wire Wire Line
	6300 5450 6400 5450
Wire Wire Line
	6300 4750 6400 4750
Wire Wire Line
	6300 4050 6400 4050
Wire Wire Line
	6300 3350 6400 3350
Wire Wire Line
	6300 2650 6400 2650
Wire Wire Line
	6300 1950 6400 1950
Connection ~ 6000 6500
Connection ~ 6000 5800
Connection ~ 6000 5100
Connection ~ 6000 4400
Connection ~ 6000 3700
Connection ~ 6000 3000
Connection ~ 6000 2300
Connection ~ 6000 1600
Wire Wire Line
	6950 5700 7500 5700
Connection ~ 6950 5700
Wire Wire Line
	6950 5000 6950 5700
Wire Wire Line
	6950 4300 6950 5000
Wire Wire Line
	6950 5000 7500 5000
Connection ~ 6950 5000
Wire Wire Line
	6950 4300 7500 4300
Wire Wire Line
	6950 3600 7500 3600
Connection ~ 6950 4300
Connection ~ 6950 3600
Wire Wire Line
	6950 2900 7500 2900
Connection ~ 6950 2900
Wire Wire Line
	6950 2200 7500 2200
Connection ~ 6950 2200
Wire Wire Line
	5300 850  6950 850 
Connection ~ 6950 1500
Wire Wire Line
	6950 850  6950 1500
Wire Wire Line
	4650 1100 4650 1550
Wire Wire Line
	7500 1500 6950 1500
Wire Wire Line
	6000 6400 6000 6500
Wire Wire Line
	6000 5700 6000 5800
Wire Wire Line
	6000 5000 6000 5100
Wire Wire Line
	6000 4300 6000 4400
Wire Wire Line
	6000 3600 6000 3700
Wire Wire Line
	6000 2900 6000 3000
Wire Wire Line
	6000 2200 6000 2300
Wire Wire Line
	6000 1500 6000 1600
Wire Wire Line
	5300 6500 6000 6500
Wire Wire Line
	5300 5800 6000 5800
Wire Wire Line
	5300 4400 6000 4400
Wire Wire Line
	5300 3000 6000 3000
Wire Wire Line
	5300 1600 6000 1600
Wire Wire Line
	5300 5100 6000 5100
Wire Wire Line
	5300 3700 6000 3700
Wire Wire Line
	5300 2300 6000 2300
Text HLabel 2550 6050 0    50   Input ~ 0
S2
Text HLabel 2550 5950 0    50   Input ~ 0
S1
Text HLabel 2550 5850 0    50   Input ~ 0
S0
Wire Wire Line
	2550 6050 2950 6050
Wire Wire Line
	2550 5950 2950 5950
Wire Wire Line
	2550 5850 2950 5850
Wire Wire Line
	4700 850  3550 850 
Wire Wire Line
	3550 1100 4650 1100
Text HLabel 3550 1100 0    50   Input ~ 0
~OUT-ENABLE
Text HLabel 3550 850  0    50   Input ~ 0
IN-ENABLE
$Comp
L CG24-cells:DE3 U32R44
U 1 1 6E0AA789
P 3300 6300
F 0 "U32R44" H 3300 7015 50  0000 C CNN
F 1 "DE3" H 3300 6924 50  0000 C CNN
F 2 "" H 3300 7050 50  0001 C CNN
F 3 "" H 3300 7050 50  0001 C CNN
	1    3300 6300
	1    0    0    -1  
$EndComp
$Comp
L CG24-cells:B12 U14R23
U 1 1 5E9C58AC
P 7500 6150
F 0 "U14R23" H 7500 6467 50  0000 C CNN
F 1 "B12" H 7500 6376 50  0000 C CNN
F 2 "" H 7500 6150 50  0001 C CNN
F 3 "" H 7500 6150 50  0001 C CNN
	1    7500 6150
	1    0    0    -1  
$EndComp
$Comp
L CG24-cells:B12 U14R21
U 1 1 5E9C58B9
P 7500 5450
F 0 "U14R21" H 7500 5767 50  0000 C CNN
F 1 "B12" H 7500 5676 50  0000 C CNN
F 2 "" H 7500 5450 50  0001 C CNN
F 3 "" H 7500 5450 50  0001 C CNN
	1    7500 5450
	1    0    0    -1  
$EndComp
$Comp
L CG24-cells:B12 U10R26
U 1 1 5E9C58AF
P 7500 4750
F 0 "U10R26" H 7500 5067 50  0000 C CNN
F 1 "B12" H 7500 4976 50  0000 C CNN
F 2 "" H 7500 4750 50  0001 C CNN
F 3 "" H 7500 4750 50  0001 C CNN
	1    7500 4750
	1    0    0    -1  
$EndComp
$Comp
L CG24-cells:B12 U10R24
U 1 1 5E9C58AA
P 7500 4050
F 0 "U10R24" H 7500 4367 50  0000 C CNN
F 1 "B12" H 7500 4276 50  0000 C CNN
F 2 "" H 7500 4050 50  0001 C CNN
F 3 "" H 7500 4050 50  0001 C CNN
	1    7500 4050
	1    0    0    -1  
$EndComp
$Comp
L CG24-cells:B12 U8R25
U 1 1 5E9C58A4
P 7500 3350
F 0 "U8R25" H 7500 3667 50  0000 C CNN
F 1 "B12" H 7500 3576 50  0000 C CNN
F 2 "" H 7500 3350 50  0001 C CNN
F 3 "" H 7500 3350 50  0001 C CNN
	1    7500 3350
	1    0    0    -1  
$EndComp
$Comp
L CG24-cells:B12 U2R47
U 1 1 5E9C58A7
P 7500 2650
F 0 "U2R47" H 7500 2967 50  0000 C CNN
F 1 "B12" H 7500 2876 50  0000 C CNN
F 2 "" H 7500 2650 50  0001 C CNN
F 3 "" H 7500 2650 50  0001 C CNN
	1    7500 2650
	1    0    0    -1  
$EndComp
$Comp
L CG24-cells:B12 U4R44
U 1 1 5E9C58A8
P 7500 1950
F 0 "U4R44" H 7500 2267 50  0000 C CNN
F 1 "B12" H 7500 2176 50  0000 C CNN
F 2 "" H 7500 1950 50  0001 C CNN
F 3 "" H 7500 1950 50  0001 C CNN
	1    7500 1950
	1    0    0    -1  
$EndComp
$Comp
L CG24-cells:B12 U4R39
U 1 1 5E9C58EB
P 7500 1250
F 0 "U4R39" H 7500 1567 50  0000 C CNN
F 1 "B12" H 7500 1476 50  0000 C CNN
F 2 "" H 7500 1250 50  0001 C CNN
F 3 "" H 7500 1250 50  0001 C CNN
	1    7500 1250
	1    0    0    -1  
$EndComp
$Comp
L CG24-cells:O4R U16R21
U 1 1 5E9C59B5
P 6000 6150
F 0 "U16R21" H 6000 6467 50  0000 C CNN
F 1 "O4R" H 6000 6376 50  0000 C CNN
F 2 "" H 6000 6150 50  0001 C CNN
F 3 "" H 6000 6150 50  0001 C CNN
	1    6000 6150
	1    0    0    -1  
$EndComp
$Comp
L CG24-cells:O4R U12R21
U 1 1 5E9C59B7
P 6000 5450
F 0 "U12R21" H 6000 5767 50  0000 C CNN
F 1 "O4R" H 6000 5676 50  0000 C CNN
F 2 "" H 6000 5450 50  0001 C CNN
F 3 "" H 6000 5450 50  0001 C CNN
	1    6000 5450
	1    0    0    -1  
$EndComp
$Comp
L CG24-cells:O4R U6R26
U 1 1 5E9C59A8
P 6000 4750
F 0 "U6R26" H 6000 5067 50  0000 C CNN
F 1 "O4R" H 6000 4976 50  0000 C CNN
F 2 "" H 6000 4750 50  0001 C CNN
F 3 "" H 6000 4750 50  0001 C CNN
	1    6000 4750
	1    0    0    -1  
$EndComp
$Comp
L CG24-cells:O4R U10R21
U 1 1 5E9C599A
P 6000 4050
F 0 "U10R21" H 6000 4367 50  0000 C CNN
F 1 "O4R" H 6000 4276 50  0000 C CNN
F 2 "" H 6000 4050 50  0001 C CNN
F 3 "" H 6000 4050 50  0001 C CNN
	1    6000 4050
	1    0    0    -1  
$EndComp
$Comp
L CG24-cells:O4R U8R22
U 1 1 5E9C5997
P 6000 3350
F 0 "U8R22" H 6000 3667 50  0000 C CNN
F 1 "O4R" H 6000 3576 50  0000 C CNN
F 2 "" H 6000 3350 50  0001 C CNN
F 3 "" H 6000 3350 50  0001 C CNN
	1    6000 3350
	1    0    0    -1  
$EndComp
$Comp
L CG24-cells:O4R U4R46
U 1 1 5E9C599F
P 6000 2650
F 0 "U4R46" H 6000 2967 50  0000 C CNN
F 1 "O4R" H 6000 2876 50  0000 C CNN
F 2 "" H 6000 2650 50  0001 C CNN
F 3 "" H 6000 2650 50  0001 C CNN
	1    6000 2650
	1    0    0    -1  
$EndComp
$Comp
L CG24-cells:O4R U4R41
U 1 1 5E9C599C
P 6000 1950
F 0 "U4R41" H 6000 2267 50  0000 C CNN
F 1 "O4R" H 6000 2176 50  0000 C CNN
F 2 "" H 6000 1950 50  0001 C CNN
F 3 "" H 6000 1950 50  0001 C CNN
	1    6000 1950
	1    0    0    -1  
$EndComp
$Comp
L CG24-cells:O4R U4R36
U 1 1 5E9C5985
P 6000 1250
F 0 "U4R36" H 6000 1567 50  0000 C CNN
F 1 "O4R" H 6000 1476 50  0000 C CNN
F 2 "" H 6000 1250 50  0001 C CNN
F 3 "" H 6000 1250 50  0001 C CNN
	1    6000 1250
	1    0    0    -1  
$EndComp
$Comp
L CG24-cells:B1N U14R51
U 1 1 7ECD8DC0
P 8100 6150
F 0 "U14R51" H 8100 6467 50  0000 C CNN
F 1 "B1N" H 8100 6376 50  0000 C CNN
F 2 "" H 8100 6150 50  0001 C CNN
F 3 "" H 8100 6150 50  0001 C CNN
	1    8100 6150
	1    0    0    -1  
$EndComp
$Comp
L CG24-cells:B1N U15R51
U 1 1 7ECD8AFC
P 8100 5450
F 0 "U15R51" H 8100 5767 50  0000 C CNN
F 1 "B1N" H 8100 5676 50  0000 C CNN
F 2 "" H 8100 5450 50  0001 C CNN
F 3 "" H 8100 5450 50  0001 C CNN
	1    8100 5450
	1    0    0    -1  
$EndComp
$Comp
L CG24-cells:B1N U11R61
U 1 1 7ECD884C
P 8100 4750
F 0 "U11R61" H 8100 5067 50  0000 C CNN
F 1 "B1N" H 8100 4976 50  0000 C CNN
F 2 "" H 8100 4750 50  0001 C CNN
F 3 "" H 8100 4750 50  0001 C CNN
	1    8100 4750
	1    0    0    -1  
$EndComp
$Comp
L CG24-cells:B1N U10R31
U 1 1 7ECD8449
P 8100 4050
F 0 "U10R31" H 8100 4367 50  0000 C CNN
F 1 "B1N" H 8100 4276 50  0000 C CNN
F 2 "" H 8100 4050 50  0001 C CNN
F 3 "" H 8100 4050 50  0001 C CNN
	1    8100 4050
	1    0    0    -1  
$EndComp
$Comp
L CG24-cells:B1N U9R41
U 1 1 7ECD8056
P 8100 3350
F 0 "U9R41" H 8100 3667 50  0000 C CNN
F 1 "B1N" H 8100 3576 50  0000 C CNN
F 2 "" H 8100 3350 50  0001 C CNN
F 3 "" H 8100 3350 50  0001 C CNN
	1    8100 3350
	1    0    0    -1  
$EndComp
$Comp
L CG24-cells:B1N U6R51
U 1 1 7ECD7D73
P 8100 2650
F 0 "U6R51" H 8100 2967 50  0000 C CNN
F 1 "B1N" H 8100 2876 50  0000 C CNN
F 2 "" H 8100 2650 50  0001 C CNN
F 3 "" H 8100 2650 50  0001 C CNN
	1    8100 2650
	1    0    0    -1  
$EndComp
$Comp
L CG24-cells:B1N U7R51
U 1 1 7ECD76BF
P 8100 1950
F 0 "U7R51" H 8100 2267 50  0000 C CNN
F 1 "B1N" H 8100 2176 50  0000 C CNN
F 2 "" H 8100 1950 50  0001 C CNN
F 3 "" H 8100 1950 50  0001 C CNN
	1    8100 1950
	1    0    0    -1  
$EndComp
$Comp
L CG24-cells:B1N U5R113
U 1 1 7DD5860F
P 8100 1250
F 0 "U5R113" H 8100 1567 50  0000 C CNN
F 1 "B1N" H 8100 1476 50  0000 C CNN
F 2 "" H 8100 1250 50  0001 C CNN
F 3 "" H 8100 1250 50  0001 C CNN
	1    8100 1250
	1    0    0    -1  
$EndComp
$Comp
L CG24-cells:V2B U13R51
U 1 1 6789B500
P 5000 850
F 0 "U13R51" H 5000 1167 50  0000 C CNN
F 1 "V2B" H 5000 1076 50  0000 C CNN
F 2 "" H 5000 650 50  0001 C CNN
F 3 "" H 5000 650 50  0001 C CNN
	1    5000 850 
	1    0    0    -1  
$EndComp
$Comp
L CG24-cells:N2P U27R71
U 1 1 7C96F89A
P 9150 6200
F 0 "U27R71" H 9175 6467 50  0000 C CNN
F 1 "N2P" H 9175 6376 50  0000 C CNN
F 2 "" H 9150 6200 50  0001 C CNN
F 3 "" H 9150 6200 50  0001 C CNN
	1    9150 6200
	1    0    0    -1  
$EndComp
$Comp
L CG24-cells:N2P U22R71
U 1 1 7C87C758
P 9150 5500
F 0 "U22R71" H 9175 5767 50  0000 C CNN
F 1 "N2P" H 9175 5676 50  0000 C CNN
F 2 "" H 9150 5500 50  0001 C CNN
F 3 "" H 9150 5500 50  0001 C CNN
	1    9150 5500
	1    0    0    -1  
$EndComp
$Comp
L CG24-cells:N2P U22R81
U 1 1 7C78AB7C
P 9150 4800
F 0 "U22R81" H 9175 5067 50  0000 C CNN
F 1 "N2P" H 9175 4976 50  0000 C CNN
F 2 "" H 9150 4800 50  0001 C CNN
F 3 "" H 9150 4800 50  0001 C CNN
	1    9150 4800
	1    0    0    -1  
$EndComp
$Comp
L CG24-cells:N2P U26R30
U 1 1 7C5A548C
P 9150 4100
F 0 "U26R30" H 9175 4367 50  0000 C CNN
F 1 "N2P" H 9175 4276 50  0000 C CNN
F 2 "" H 9150 4100 50  0001 C CNN
F 3 "" H 9150 4100 50  0001 C CNN
	1    9150 4100
	1    0    0    -1  
$EndComp
$Comp
L CG24-cells:N2P U28R40
U 1 1 7C4B5CE1
P 9150 3400
F 0 "U28R40" H 9175 3667 50  0000 C CNN
F 1 "N2P" H 9175 3576 50  0000 C CNN
F 2 "" H 9150 3400 50  0001 C CNN
F 3 "" H 9150 3400 50  0001 C CNN
	1    9150 3400
	1    0    0    -1  
$EndComp
$Comp
L CG24-cells:N2P U26R50
U 1 1 7C3C7823
P 9150 2700
F 0 "U26R50" H 9175 2967 50  0000 C CNN
F 1 "N2P" H 9175 2876 50  0000 C CNN
F 2 "" H 9150 2700 50  0001 C CNN
F 3 "" H 9150 2700 50  0001 C CNN
	1    9150 2700
	1    0    0    -1  
$EndComp
$Comp
L CG24-cells:N2P U22R91
U 1 1 7C2DA587
P 9150 2000
F 0 "U22R91" H 9175 2267 50  0000 C CNN
F 1 "N2P" H 9175 2176 50  0000 C CNN
F 2 "" H 9150 2000 50  0001 C CNN
F 3 "" H 9150 2000 50  0001 C CNN
	1    9150 2000
	1    0    0    -1  
$EndComp
$Comp
L CG24-cells:N2P U22R153
U 1 1 74B82353
P 9150 1300
F 0 "U22R153" H 9175 1567 50  0000 C CNN
F 1 "N2P" H 9175 1476 50  0000 C CNN
F 2 "" H 9150 1300 50  0001 C CNN
F 3 "" H 9150 1300 50  0001 C CNN
	1    9150 1300
	1    0    0    -1  
$EndComp
$Comp
L CG24-cells:R2P U30R40
U 1 1 73617C56
P 5000 6500
F 0 "U30R40" H 5025 6767 50  0000 C CNN
F 1 "R2P" H 5025 6676 50  0000 C CNN
F 2 "" H 5050 6500 50  0001 C CNN
F 3 "" H 5050 6500 50  0001 C CNN
	1    5000 6500
	1    0    0    -1  
$EndComp
$Comp
L CG24-cells:R2P U22R40
U 1 1 73617C50
P 5000 5800
F 0 "U22R40" H 5025 6067 50  0000 C CNN
F 1 "R2P" H 5025 5976 50  0000 C CNN
F 2 "" H 5050 5800 50  0001 C CNN
F 3 "" H 5050 5800 50  0001 C CNN
	1    5000 5800
	1    0    0    -1  
$EndComp
$Comp
L CG24-cells:R2P U22R50
U 1 1 73617C4A
P 5000 5100
F 0 "U22R50" H 5025 5367 50  0000 C CNN
F 1 "R2P" H 5025 5276 50  0000 C CNN
F 2 "" H 5050 5100 50  0001 C CNN
F 3 "" H 5050 5100 50  0001 C CNN
	1    5000 5100
	1    0    0    -1  
$EndComp
$Comp
L CG24-cells:R2P U32R42
U 1 1 72C44395
P 5000 4400
F 0 "U32R42" H 5025 4667 50  0000 C CNN
F 1 "R2P" H 5025 4576 50  0000 C CNN
F 2 "" H 5050 4400 50  0001 C CNN
F 3 "" H 5050 4400 50  0001 C CNN
	1    5000 4400
	1    0    0    -1  
$EndComp
$Comp
L CG24-cells:R2P U38R50
U 1 1 73544A07
P 5000 3700
F 0 "U38R50" H 5025 3967 50  0000 C CNN
F 1 "R2P" H 5025 3876 50  0000 C CNN
F 2 "" H 5050 3700 50  0001 C CNN
F 3 "" H 5050 3700 50  0001 C CNN
	1    5000 3700
	1    0    0    -1  
$EndComp
$Comp
L CG24-cells:R2P U39R50
U 1 1 73474483
P 5000 3000
F 0 "U39R50" H 5025 3267 50  0000 C CNN
F 1 "R2P" H 5025 3176 50  0000 C CNN
F 2 "" H 5050 3000 50  0001 C CNN
F 3 "" H 5050 3000 50  0001 C CNN
	1    5000 3000
	1    0    0    -1  
$EndComp
$Comp
L CG24-cells:R2P U38R48
U 1 1 7347414B
P 5000 2300
F 0 "U38R48" H 5025 2567 50  0000 C CNN
F 1 "R2P" H 5025 2476 50  0000 C CNN
F 2 "" H 5050 2300 50  0001 C CNN
F 3 "" H 5050 2300 50  0001 C CNN
	1    5000 2300
	1    0    0    -1  
$EndComp
$Comp
L CG24-cells:R2P U38R60
U 1 1 72B6FCA0
P 5000 1600
F 0 "U38R60" H 5025 1867 50  0000 C CNN
F 1 "R2P" H 5025 1776 50  0000 C CNN
F 2 "" H 5050 1600 50  0001 C CNN
F 3 "" H 5050 1600 50  0001 C CNN
	1    5000 1600
	1    0    0    -1  
$EndComp
$Comp
L power:GND #PWR0110
U 1 1 6E86D8C0
P 5500 6150
F 0 "#PWR0110" H 5500 5900 50  0001 C CNN
F 1 "GND" H 5505 5977 50  0001 C CNN
F 2 "" H 5500 6150 50  0001 C CNN
F 3 "" H 5500 6150 50  0001 C CNN
	1    5500 6150
	1    0    0    -1  
$EndComp
$Comp
L power:GND #PWR0111
U 1 1 6E9FD766
P 5500 5450
F 0 "#PWR0111" H 5500 5200 50  0001 C CNN
F 1 "GND" H 5505 5277 50  0001 C CNN
F 2 "" H 5500 5450 50  0001 C CNN
F 3 "" H 5500 5450 50  0001 C CNN
	1    5500 5450
	1    0    0    -1  
$EndComp
$Comp
L power:GND #PWR0112
U 1 1 6EAC35DC
P 5500 4750
F 0 "#PWR0112" H 5500 4500 50  0001 C CNN
F 1 "GND" H 5505 4577 50  0001 C CNN
F 2 "" H 5500 4750 50  0001 C CNN
F 3 "" H 5500 4750 50  0001 C CNN
	1    5500 4750
	1    0    0    -1  
$EndComp
$Comp
L power:GND #PWR0113
U 1 1 6EB89CEC
P 5500 4050
F 0 "#PWR0113" H 5500 3800 50  0001 C CNN
F 1 "GND" H 5505 3877 50  0001 C CNN
F 2 "" H 5500 4050 50  0001 C CNN
F 3 "" H 5500 4050 50  0001 C CNN
	1    5500 4050
	1    0    0    -1  
$EndComp
$Comp
L power:GND #PWR0114
U 1 1 6EC508E5
P 5500 3350
F 0 "#PWR0114" H 5500 3100 50  0001 C CNN
F 1 "GND" H 5505 3177 50  0001 C CNN
F 2 "" H 5500 3350 50  0001 C CNN
F 3 "" H 5500 3350 50  0001 C CNN
	1    5500 3350
	1    0    0    -1  
$EndComp
$Comp
L power:GND #PWR0115
U 1 1 6ED1793A
P 5500 2650
F 0 "#PWR0115" H 5500 2400 50  0001 C CNN
F 1 "GND" H 5505 2477 50  0001 C CNN
F 2 "" H 5500 2650 50  0001 C CNN
F 3 "" H 5500 2650 50  0001 C CNN
	1    5500 2650
	1    0    0    -1  
$EndComp
$Comp
L power:GND #PWR0116
U 1 1 6EDDF0DC
P 5500 1950
F 0 "#PWR0116" H 5500 1700 50  0001 C CNN
F 1 "GND" H 5505 1777 50  0001 C CNN
F 2 "" H 5500 1950 50  0001 C CNN
F 3 "" H 5500 1950 50  0001 C CNN
	1    5500 1950
	1    0    0    -1  
$EndComp
$Comp
L power:GND #PWR0117
U 1 1 6EEA707C
P 5500 1250
F 0 "#PWR0117" H 5500 1000 50  0001 C CNN
F 1 "GND" H 5505 1077 50  0001 C CNN
F 2 "" H 5500 1250 50  0001 C CNN
F 3 "" H 5500 1250 50  0001 C CNN
	1    5500 1250
	1    0    0    -1  
$EndComp
Text Label 4600 1100 2    50   ~ 0
16R60
Wire Wire Line
	8900 6250 8900 6500
Wire Wire Line
	8900 5550 8900 5800
Wire Wire Line
	8900 4850 8900 5100
Wire Wire Line
	8900 4150 8900 4400
Wire Wire Line
	8900 3450 8900 3700
Wire Wire Line
	8900 2750 8900 3000
Wire Wire Line
	8900 1350 8900 1600
Wire Wire Line
	7500 6400 6950 6400
Wire Wire Line
	6950 6400 6950 5700
Wire Wire Line
	6950 3600 6950 4300
Wire Wire Line
	6950 2900 6950 3600
Wire Wire Line
	6950 2200 6950 2900
Wire Wire Line
	6950 1500 6950 2200
Wire Wire Line
	5500 6150 5700 6150
Wire Wire Line
	5500 5450 5700 5450
Wire Wire Line
	5500 4750 5700 4750
Wire Wire Line
	5500 4050 5700 4050
Wire Wire Line
	5500 3350 5700 3350
Wire Wire Line
	5500 2650 5700 2650
Wire Wire Line
	5500 1950 5700 1950
Wire Wire Line
	5500 1250 5700 1250
Wire Wire Line
	4750 6550 3650 6550
Wire Wire Line
	4750 6450 4650 6450
Wire Wire Line
	4750 5750 4650 5750
Wire Wire Line
	4750 5150 4450 5150
Wire Wire Line
	4750 5050 4650 5050
Wire Wire Line
	4750 4350 4650 4350
Wire Wire Line
	4750 3750 4250 3750
Wire Wire Line
	4750 3650 4650 3650
Wire Wire Line
	4750 2950 4650 2950
Wire Wire Line
	4750 2350 4050 2350
Wire Wire Line
	4750 1550 4650 1550
Wire Wire Line
	4650 6450 4650 5750
Wire Wire Line
	4650 5750 4650 5050
Wire Wire Line
	4650 5050 4650 4350
Wire Wire Line
	4650 4350 4650 3650
Wire Wire Line
	4650 3650 4650 2950
Wire Wire Line
	4650 2950 4650 2250
Wire Wire Line
	4650 2250 4750 2250
Wire Wire Line
	4650 2250 4650 1550
Wire Wire Line
	4550 6450 4550 5850
Wire Wire Line
	4550 5850 4750 5850
Wire Wire Line
	4450 6350 3650 6350
Wire Wire Line
	4450 5150 4450 6350
Wire Wire Line
	4350 6250 4350 4450
Wire Wire Line
	4350 4450 4750 4450
Wire Wire Line
	4250 6150 3650 6150
Wire Wire Line
	4250 3750 4250 6150
Wire Wire Line
	4150 6050 4150 3050
Wire Wire Line
	4150 3050 4750 3050
Wire Wire Line
	4050 5950 3650 5950
Wire Wire Line
	4050 2350 4050 5950
Wire Wire Line
	3950 5850 3950 1650
Wire Wire Line
	3950 1650 4750 1650
Wire Wire Line
	3650 6450 4550 6450
Wire Wire Line
	3650 6250 4350 6250
Wire Wire Line
	3650 6050 4150 6050
Wire Wire Line
	3650 5850 3950 5850
Connection ~ 4650 2950
Connection ~ 4650 5050
Connection ~ 4650 2250
Connection ~ 4650 1550
Connection ~ 4650 3650
Connection ~ 4650 5750
Connection ~ 4650 4350
Text Label 9500 1300 0    50   ~ 0
REG8-D0
Wire Wire Line
	9450 1300 9950 1300
Text Label 9500 2000 0    50   ~ 0
REG8-D1
Wire Wire Line
	9450 2000 9950 2000
Text Label 9500 2700 0    50   ~ 0
REG8-D2
Wire Wire Line
	9450 2700 9950 2700
Text Label 9500 3400 0    50   ~ 0
REG8-D3
Wire Wire Line
	9450 3400 9950 3400
Text Label 9500 4100 0    50   ~ 0
REG8-D4
Wire Wire Line
	9450 4100 9950 4100
Text Label 9500 4800 0    50   ~ 0
REG8-D5
Wire Wire Line
	9450 4800 9950 4800
Text Label 9500 5500 0    50   ~ 0
REG8-D6
Wire Wire Line
	9450 5500 9950 5500
Text Label 9500 6200 0    50   ~ 0
REG8-D7
Wire Wire Line
	9450 6200 9950 6200
Text Label 9500 600  0    50   ~ 0
REG8-D8
Text Label 9500 700  0    50   ~ 0
REG8-D9
Text Label 9500 800  0    50   ~ 0
REG8-D10
Wire Wire Line
	9150 600  9950 600 
Wire Wire Line
	9150 700  9950 700 
Wire Wire Line
	9150 800  9950 800 
Text Label 9250 600  0    50   ~ 0
S0
Text Label 9250 700  0    50   ~ 0
S1
Text Label 9250 800  0    50   ~ 0
S2
Text Label 2750 5850 0    50   ~ 0
S0
Text Label 2750 5950 0    50   ~ 0
S1
Text Label 2750 6050 0    50   ~ 0
S2
Entry Wire Line
	9950 600  10050 700 
Entry Wire Line
	9950 700  10050 800 
Entry Wire Line
	9950 800  10050 900 
Entry Wire Line
	9950 1300 10050 1400
Entry Wire Line
	9950 2000 10050 2100
Entry Wire Line
	9950 2700 10050 2800
Entry Wire Line
	9950 3400 10050 3500
Entry Wire Line
	9950 5500 10050 5400
Entry Wire Line
	9950 4800 10050 4700
Entry Wire Line
	9950 4100 10050 4000
Entry Wire Line
	9950 6200 10050 6100
Wire Bus Line
	10050 3700 10400 3700
Connection ~ 10050 3700
Text HLabel 10400 3700 2    50   Output ~ 0
REG8-D[0..10]
Wire Wire Line
	6000 1600 8900 1600
Wire Wire Line
	6000 2300 8900 2300
Wire Wire Line
	8900 2050 8900 2300
Wire Wire Line
	6000 3000 8900 3000
Wire Wire Line
	6000 3700 8900 3700
Wire Wire Line
	6000 4400 8900 4400
Wire Wire Line
	6000 5100 8900 5100
Wire Wire Line
	6000 5800 8900 5800
Wire Wire Line
	6000 6500 8900 6500
Text Label 8500 1250 0    50   ~ 0
DF0
Text Label 8500 1950 0    50   ~ 0
DF1
Text Label 8500 2650 0    50   ~ 0
DF2
Text Label 8500 3350 0    50   ~ 0
DF3
Text Label 8500 4050 0    50   ~ 0
DF4
Text Label 8500 4750 0    50   ~ 0
DF5
Text Label 8500 5450 0    50   ~ 0
DF6
Text Label 8500 6150 0    50   ~ 0
DF7
Entry Wire Line
	8650 1250 8750 1150
Entry Wire Line
	8650 1950 8750 1850
Entry Wire Line
	8650 2650 8750 2550
Entry Wire Line
	8650 3350 8750 3250
Entry Wire Line
	8650 4050 8750 3950
Entry Wire Line
	8650 4750 8750 4650
Entry Wire Line
	8650 5450 8750 5350
Entry Wire Line
	8650 6150 8750 6050
Wire Bus Line
	8750 6050 8750 700 
Wire Bus Line
	8750 700  8450 700 
Wire Wire Line
	8400 6150 8900 6150
Wire Wire Line
	8400 5450 8900 5450
Wire Wire Line
	8400 4750 8900 4750
Wire Wire Line
	8400 4050 8900 4050
Wire Wire Line
	8400 3350 8900 3350
Wire Wire Line
	8400 2650 8900 2650
Wire Wire Line
	8400 1950 8900 1950
Wire Wire Line
	8400 1250 8900 1250
Wire Bus Line
	10050 3700 10050 6100
Wire Bus Line
	10050 700  10050 3700
Text HLabel 8450 700  0    50   Output ~ 0
DF[0..7]
$EndSCHEMATC
