EESchema Schematic File Version 4
EELAYER 30 0
EELAYER END
$Descr A4 11693 8268
encoding utf-8
Sheet 18 20
Title "DL-1727"
Date "2020-04-26"
Rev ""
Comp ""
Comment1 ""
Comment2 "Licence: CC-BY"
Comment3 "Author: Loic *WydD* Petit"
Comment4 "Project: CPS2 Reverse Engineering: DL-1727"
$EndDescr
$Comp
L CG24-cells:B12 U2R?
U 1 1 5EA5DAF3
P 5350 1950
AR Path="/5EDF0382/5EA5DAF3" Ref="U2R?"  Part="1" 
AR Path="/5EA5C281/5EA5DAF3" Ref="U2R127"  Part="1" 
F 0 "U2R127" H 5350 2267 50  0000 C CNN
F 1 "B12" H 5350 2176 50  0000 C CNN
F 2 "" H 5350 1950 50  0001 C CNN
F 3 "" H 5350 1950 50  0001 C CNN
	1    5350 1950
	1    0    0    -1  
$EndComp
$Comp
L CG24-cells:B12 U22R?
U 1 1 5EA5DAF9
P 5350 6150
AR Path="/5EDF0382/5EA5DAF9" Ref="U22R?"  Part="1" 
AR Path="/5EA5C281/5EA5DAF9" Ref="U22R23"  Part="1" 
F 0 "U22R23" H 5350 6467 50  0000 C CNN
F 1 "B12" H 5350 6376 50  0000 C CNN
F 2 "" H 5350 6150 50  0001 C CNN
F 3 "" H 5350 6150 50  0001 C CNN
	1    5350 6150
	1    0    0    -1  
$EndComp
$Comp
L CG24-cells:B12 U14R?
U 1 1 5EA5DAFF
P 5350 3350
AR Path="/5EDF0382/5EA5DAFF" Ref="U14R?"  Part="1" 
AR Path="/5EA5C281/5EA5DAFF" Ref="U14R180"  Part="1" 
F 0 "U14R180" H 5350 3667 50  0000 C CNN
F 1 "B12" H 5350 3576 50  0000 C CNN
F 2 "" H 5350 3350 50  0001 C CNN
F 3 "" H 5350 3350 50  0001 C CNN
	1    5350 3350
	1    0    0    -1  
$EndComp
$Comp
L CG24-cells:B12 U2R?
U 1 1 5EA5DB05
P 5350 1250
AR Path="/5EDF0382/5EA5DB05" Ref="U2R?"  Part="1" 
AR Path="/5EA5C281/5EA5DB05" Ref="U2R117"  Part="1" 
F 0 "U2R117" H 5350 1567 50  0000 C CNN
F 1 "B12" H 5350 1476 50  0000 C CNN
F 2 "" H 5350 1250 50  0001 C CNN
F 3 "" H 5350 1250 50  0001 C CNN
	1    5350 1250
	1    0    0    -1  
$EndComp
$Comp
L CG24-cells:B12 U42R?
U 1 1 5EA82CC6
P 5350 4050
AR Path="/5ED34A44/5EA82CC6" Ref="U42R?"  Part="1" 
AR Path="/5EA5C281/5EA82CC6" Ref="U42R182"  Part="1" 
F 0 "U42R182" H 5350 4367 50  0000 C CNN
F 1 "B12" H 5350 4276 50  0000 C CNN
F 2 "" H 5350 4050 50  0001 C CNN
F 3 "" H 5350 4050 50  0001 C CNN
	1    5350 4050
	1    0    0    -1  
$EndComp
$Comp
L CG24-cells:B12 U42R?
U 1 1 5EA82CCC
P 5350 4750
AR Path="/5ED34A44/5EA82CCC" Ref="U42R?"  Part="1" 
AR Path="/5EA5C281/5EA82CCC" Ref="U42R180"  Part="1" 
F 0 "U42R180" H 5350 5067 50  0000 C CNN
F 1 "B12" H 5350 4976 50  0000 C CNN
F 2 "" H 5350 4750 50  0001 C CNN
F 3 "" H 5350 4750 50  0001 C CNN
	1    5350 4750
	1    0    0    -1  
$EndComp
$Comp
L CG24-cells:B12 U40R?
U 1 1 5EA82CD2
P 5350 5450
AR Path="/5ED34A44/5EA82CD2" Ref="U40R?"  Part="1" 
AR Path="/5EA5C281/5EA82CD2" Ref="U40R179"  Part="1" 
F 0 "U40R179" H 5350 5767 50  0000 C CNN
F 1 "B12" H 5350 5676 50  0000 C CNN
F 2 "" H 5350 5450 50  0001 C CNN
F 3 "" H 5350 5450 50  0001 C CNN
	1    5350 5450
	1    0    0    -1  
$EndComp
Text HLabel 5050 1250 0    50   Input ~ 0
_~ENABLE-DATA
Text HLabel 5050 1950 0    50   Input ~ 0
_~A-BOARD-CONNECTED
Text HLabel 5050 3350 0    50   Input ~ 0
_~RESETI
Text HLabel 5050 4050 0    50   Input ~ 0
_MISC-S2
Text HLabel 5050 4750 0    50   Input ~ 0
_MISC-S1
Text HLabel 5050 5450 0    50   Input ~ 0
_MISC-S0
Text HLabel 5050 6150 0    50   Input ~ 0
_BUS-DIR
Text HLabel 6450 1250 2    50   Output ~ 0
~ENABLE-DATA
Text HLabel 6450 1950 2    50   Output ~ 0
~A-BOARD-CONNECTED
Text HLabel 6450 3350 2    50   Output ~ 0
~RESETI
Text HLabel 6450 4050 2    50   Output ~ 0
MISC-S2
Text HLabel 6450 4750 2    50   Output ~ 0
MISC-S1
Text HLabel 6450 5450 2    50   Output ~ 0
MISC-S0
Text HLabel 6450 6150 2    50   Output ~ 0
BUS-DIR
Wire Wire Line
	3950 6400 5350 6400
Wire Wire Line
	3950 5700 5350 5700
Wire Wire Line
	3950 5000 5350 5000
Wire Wire Line
	3950 4300 5350 4300
Wire Wire Line
	3950 3600 5350 3600
Wire Wire Line
	3950 2200 5350 2200
Wire Wire Line
	3950 1500 5350 1500
Wire Wire Line
	3950 1500 3950 2200
Connection ~ 3950 2200
Connection ~ 3950 3600
Wire Wire Line
	3950 3600 3950 4300
Connection ~ 3950 4300
Wire Wire Line
	3950 4300 3950 5000
Connection ~ 3950 5000
Wire Wire Line
	3950 5000 3950 5700
Wire Wire Line
	3950 6400 3500 6400
Connection ~ 3950 5700
Text HLabel 2900 6400 0    50   Input ~ 0
~ENABLE
$Comp
L CG24-cells:K1B U4R?
U 1 1 5EB2B070
P 5950 2650
AR Path="/5ED98457/5EB2B070" Ref="U4R?"  Part="1" 
AR Path="/5EA5C281/5EB2B070" Ref="U4R163"  Part="1" 
F 0 "U4R163" H 5950 2967 50  0000 C CNN
F 1 "K1B" H 5950 2876 50  0000 C CNN
F 2 "" H 5950 2650 50  0001 C CNN
F 3 "" H 5950 2650 50  0001 C CNN
	1    5950 2650
	1    0    0    -1  
$EndComp
$Comp
L CG24-cells:B12 U2R?
U 1 1 5EB2B076
P 5350 2650
AR Path="/5ED98457/5EB2B076" Ref="U2R?"  Part="1" 
AR Path="/5EA5C281/5EB2B076" Ref="U2R168"  Part="1" 
F 0 "U2R168" H 5350 2967 50  0000 C CNN
F 1 "B12" H 5350 2876 50  0000 C CNN
F 2 "" H 5350 2650 50  0001 C CNN
F 3 "" H 5350 2650 50  0001 C CNN
	1    5350 2650
	1    0    0    -1  
$EndComp
Wire Wire Line
	5650 1250 6450 1250
Wire Wire Line
	5650 1950 6450 1950
Wire Wire Line
	5650 3350 6450 3350
Wire Wire Line
	5650 4050 6450 4050
Wire Wire Line
	5650 4750 6450 4750
Wire Wire Line
	5650 5450 6450 5450
Wire Wire Line
	5650 6150 6450 6150
Wire Wire Line
	6450 2650 6250 2650
Text HLabel 6450 2650 2    50   Output ~ 0
ENABLE-ADDR
Wire Wire Line
	5350 2900 3950 2900
Wire Wire Line
	3950 5700 3950 6400
Text HLabel 5050 2650 0    50   Input ~ 0
_ENABLE-ADDR
Connection ~ 3950 6400
Wire Wire Line
	3950 2200 3950 2900
Connection ~ 3950 2900
Wire Wire Line
	3950 2900 3950 3600
$Comp
L CG24-cells:K1B U20R?
U 1 1 5FFB0914
P 3200 6400
AR Path="/5ED98457/5FFB0914" Ref="U20R?"  Part="1" 
AR Path="/5EA5C281/5FFB0914" Ref="U20R173"  Part="1" 
F 0 "U20R173" H 3200 6717 50  0000 C CNN
F 1 "K1B" H 3200 6626 50  0000 C CNN
F 2 "" H 3200 6400 50  0001 C CNN
F 3 "" H 3200 6400 50  0001 C CNN
	1    3200 6400
	1    0    0    -1  
$EndComp
$EndSCHEMATC
