EESchema Schematic File Version 4
EELAYER 30 0
EELAYER END
$Descr A4 11693 8268
encoding utf-8
Sheet 19 20
Title "DL-1727"
Date "2020-04-26"
Rev ""
Comp ""
Comment1 ""
Comment2 "Licence: CC-BY"
Comment3 "Author: Loic *WydD* Petit"
Comment4 "Project: CPS2 Reverse Engineering: DL-1727"
$EndDescr
Connection ~ 2850 4500
Connection ~ 3050 4600
Connection ~ 5200 6000
Connection ~ 5200 6750
Connection ~ 5050 6950
Connection ~ 5050 6200
Connection ~ 5050 7700
NoConn ~ 6100 3350
NoConn ~ 6100 7450
NoConn ~ 6100 5950
NoConn ~ 6100 2250
NoConn ~ 6100 1150
NoConn ~ 6100 6700
NoConn ~ 6100 4450
NoConn ~ 6100 5200
Wire Wire Line
	2400 4250 2650 4250
Wire Wire Line
	2400 4900 2750 4900
Wire Wire Line
	2650 3400 3150 3400
Wire Wire Line
	2750 650  3200 650 
Wire Wire Line
	2750 2850 3150 2850
Wire Wire Line
	2850 1200 3200 1200
Wire Wire Line
	2850 1750 3150 1750
Wire Wire Line
	2850 4500 2850 5550
Wire Wire Line
	2850 5550 2400 5550
Wire Wire Line
	2950 1100 3200 1100
Wire Wire Line
	2950 550  3200 550 
Wire Wire Line
	2950 4400 3150 4400
Wire Wire Line
	3050 1850 3150 1850
Wire Wire Line
	3050 4600 3050 6150
Wire Wire Line
	3050 4600 3150 4600
Wire Wire Line
	3150 2300 2850 2300
Wire Wire Line
	3150 2400 3050 2400
Wire Wire Line
	3150 2950 3050 2950
Wire Wire Line
	3150 3300 2950 3300
Wire Wire Line
	3150 3500 3050 3500
Wire Wire Line
	3150 4500 2850 4500
Wire Wire Line
	3200 1300 3050 1300
Wire Wire Line
	3200 750  3050 750 
Wire Wire Line
	3700 2300 5600 2300
Wire Wire Line
	3700 3400 5600 3400
Wire Wire Line
	3900 4500 3700 4500
Wire Wire Line
	4500 4500 5200 4500
Wire Wire Line
	4700 7700 5050 7700
Wire Wire Line
	5050 5450 5850 5450
Wire Wire Line
	5050 6950 5050 6200
Wire Wire Line
	5050 7700 5050 6950
Wire Wire Line
	5200 5250 5600 5250
Wire Wire Line
	5200 4500 5600 4500
Wire Wire Line
	5200 6000 5200 6750
Wire Wire Line
	5200 6000 5600 6000
Wire Wire Line
	5200 6750 5200 7500
Wire Wire Line
	5200 6750 5600 6750
Wire Wire Line
	5200 7500 5600 7500
Wire Wire Line
	5600 1000 5300 1000
Wire Wire Line
	5600 1200 3750 1200
Wire Wire Line
	5600 2100 5300 2100
Wire Wire Line
	5600 3200 5200 3200
Wire Wire Line
	5600 5050 5300 5050
Wire Wire Line
	5600 4300 5300 4300
Wire Wire Line
	5600 5800 5300 5800
Wire Wire Line
	5600 6550 5300 6550
Wire Wire Line
	5600 7300 5300 7300
Wire Wire Line
	5850 1400 5050 1400
Wire Wire Line
	5850 1850 5050 1850
Wire Wire Line
	5850 1850 5850 1900
Wire Wire Line
	5850 2950 5050 2950
Wire Wire Line
	5850 3000 5850 2950
Wire Wire Line
	5850 4700 5050 4700
Wire Wire Line
	5850 6200 5050 6200
Wire Wire Line
	5850 6950 5050 6950
Wire Wire Line
	5850 7700 5050 7700
Text Label 5550 3200 2    50   ~ 0
DATA15
Text Label 5600 1000 2    50   ~ 0
DATA0
Text Label 5600 2100 2    50   ~ 0
DATA0
Text Label 5600 5050 2    50   ~ 0
DATA1
Text Label 5600 4300 2    50   ~ 0
DATA0
Text Label 5600 5800 2    50   ~ 0
DATA2
Text Label 5600 6550 2    50   ~ 0
DATA3
Text Label 5600 7300 2    50   ~ 0
DATA4
$Comp
L CG24-cells:N3N U18R91
U 1 1 61F9E12E
P 3400 1750
F 0 "U18R91" H 3425 2042 50  0000 C CNN
F 1 "N3N" H 3425 1951 50  0000 C CNN
F 2 "" H 3400 1750 50  0001 C CNN
F 3 "" H 3400 1750 50  0001 C CNN
	1    3400 1750
	1    0    0    1   
$EndComp
$Comp
L CG24-cells:N3N U12R101
U 1 1 626878A8
P 3400 2300
F 0 "U12R101" H 3425 2592 50  0000 C CNN
F 1 "N3N" H 3425 2501 50  0000 C CNN
F 2 "" H 3400 2300 50  0001 C CNN
F 3 "" H 3400 2300 50  0001 C CNN
	1    3400 2300
	1    0    0    1   
$EndComp
$Comp
L CG24-cells:N3N U10R91
U 1 1 626F08AF
P 3400 2850
F 0 "U10R91" H 3425 3142 50  0000 C CNN
F 1 "N3N" H 3425 3051 50  0000 C CNN
F 2 "" H 3400 2850 50  0001 C CNN
F 3 "" H 3400 2850 50  0001 C CNN
	1    3400 2850
	1    0    0    1   
$EndComp
$Comp
L CG24-cells:N3N U20R101
U 1 1 5ECB9C4B
P 3400 3400
F 0 "U20R101" H 3425 3692 50  0000 C CNN
F 1 "N3N" H 3425 3601 50  0000 C CNN
F 2 "" H 3400 3400 50  0001 C CNN
F 3 "" H 3400 3400 50  0001 C CNN
	1    3400 3400
	1    0    0    1   
$EndComp
$Comp
L CG24-cells:N3N U16R101
U 1 1 6220AA3B
P 3400 4500
F 0 "U16R101" H 3425 4792 50  0000 C CNN
F 1 "N3N" H 3425 4701 50  0000 C CNN
F 2 "" H 3400 4500 50  0001 C CNN
F 3 "" H 3400 4500 50  0001 C CNN
	1    3400 4500
	1    0    0    1   
$EndComp
$Comp
L CG24-cells:N3N U12R91
U 1 1 627FC3DD
P 3450 1200
F 0 "U12R91" H 3475 1492 50  0000 C CNN
F 1 "N3N" H 3475 1401 50  0000 C CNN
F 2 "" H 3450 1200 50  0001 C CNN
F 3 "" H 3450 1200 50  0001 C CNN
	1    3450 1200
	1    0    0    1   
$EndComp
$Comp
L CG24-cells:N3N U14R91
U 1 1 62790A11
P 3450 650
F 0 "U14R91" H 3475 942 50  0000 C CNN
F 1 "N3N" H 3475 851 50  0000 C CNN
F 2 "" H 3450 650 50  0001 C CNN
F 3 "" H 3450 650 50  0001 C CNN
	1    3450 650 
	1    0    0    1   
$EndComp
$Comp
L CG24-cells:V1N U11R113
U 1 1 5ECE0A9D
P 2100 6150
F 0 "U11R113" H 2100 6467 50  0000 C CNN
F 1 "V1N" H 2100 6376 50  0000 C CNN
F 2 "" H 2100 5950 50  0001 C CNN
F 3 "" H 2100 5950 50  0001 C CNN
	1    2100 6150
	1    0    0    -1  
$EndComp
$Comp
L CG24-cells:V1N U20R100
U 1 1 5ECD4E85
P 2100 4250
F 0 "U20R100" H 2100 4567 50  0000 C CNN
F 1 "V1N" H 2100 4476 50  0000 C CNN
F 2 "" H 2100 4050 50  0001 C CNN
F 3 "" H 2100 4050 50  0001 C CNN
	1    2100 4250
	1    0    0    -1  
$EndComp
$Comp
L CG24-cells:V1N U15R92
U 1 1 62D0871C
P 2100 4900
F 0 "U15R92" H 2100 5217 50  0000 C CNN
F 1 "V1N" H 2100 5126 50  0000 C CNN
F 2 "" H 2100 4700 50  0001 C CNN
F 3 "" H 2100 4700 50  0001 C CNN
	1    2100 4900
	1    0    0    -1  
$EndComp
$Comp
L CG24-cells:V1N U19R92
U 1 1 633CAEA6
P 2100 5550
F 0 "U19R92" H 2100 5867 50  0000 C CNN
F 1 "V1N" H 2100 5776 50  0000 C CNN
F 2 "" H 2100 5350 50  0001 C CNN
F 3 "" H 2100 5350 50  0001 C CNN
	1    2100 5550
	1    0    0    -1  
$EndComp
$Comp
L CG24-cells:K1B U18R101
U 1 1 5EFEF45A
P 4200 4500
F 0 "U18R101" H 4200 4817 50  0000 C CNN
F 1 "K1B" H 4200 4726 50  0000 C CNN
F 2 "" H 4200 4500 50  0001 C CNN
F 3 "" H 4200 4500 50  0001 C CNN
	1    4200 4500
	1    0    0    -1  
$EndComp
$Comp
L CG24-cells:FDO U12R110
U 1 1 63D3EBB5
P 5850 1100
F 0 "U12R110" H 5850 1465 50  0000 C CNN
F 1 "FDO" H 5850 1374 50  0000 C CNN
F 2 "" H 5850 1100 50  0001 C CNN
F 3 "" H 5850 1100 50  0001 C CNN
	1    5850 1100
	1    0    0    -1  
$EndComp
$Comp
L CG24-cells:FDN U12R130
U 1 1 5FA5DAEE
P 5850 2200
F 0 "U12R130" H 5850 1927 50  0000 C CNN
F 1 "FDN" H 5850 1836 50  0000 C CNN
F 2 "" H 5850 2200 50  0001 C CNN
F 3 "" H 5850 2200 50  0001 C CNN
	1    5850 2200
	1    0    0    -1  
$EndComp
$Comp
L CG24-cells:FDN U34R151
U 1 1 5EC44399
P 5850 3300
F 0 "U34R151" H 5850 3027 50  0000 C CNN
F 1 "FDN" H 5850 2936 50  0000 C CNN
F 2 "" H 5850 3300 50  0001 C CNN
F 3 "" H 5850 3300 50  0001 C CNN
	1    5850 3300
	1    0    0    -1  
$EndComp
$Comp
L CG24-cells:FDO U18R110
U 1 1 5F0319C4
P 5850 5150
F 0 "U18R110" H 5850 5515 50  0000 C CNN
F 1 "FDO" H 5850 5424 50  0000 C CNN
F 2 "" H 5850 5150 50  0001 C CNN
F 3 "" H 5850 5150 50  0001 C CNN
	1    5850 5150
	1    0    0    -1  
$EndComp
$Comp
L CG24-cells:FDO U18R120
U 1 1 5F078A69
P 5850 4400
F 0 "U18R120" H 5850 4765 50  0000 C CNN
F 1 "FDO" H 5850 4674 50  0000 C CNN
F 2 "" H 5850 4400 50  0001 C CNN
F 3 "" H 5850 4400 50  0001 C CNN
	1    5850 4400
	1    0    0    -1  
$EndComp
$Comp
L CG24-cells:FDO U28R89
U 1 1 5F0F8B6C
P 5850 5900
F 0 "U28R89" H 5850 6265 50  0000 C CNN
F 1 "FDO" H 5850 6174 50  0000 C CNN
F 2 "" H 5850 5900 50  0001 C CNN
F 3 "" H 5850 5900 50  0001 C CNN
	1    5850 5900
	1    0    0    -1  
$EndComp
$Comp
L CG24-cells:FDO U36R89
U 1 1 5F1F9C02
P 5850 6650
F 0 "U36R89" H 5850 7015 50  0000 C CNN
F 1 "FDO" H 5850 6924 50  0000 C CNN
F 2 "" H 5850 6650 50  0001 C CNN
F 3 "" H 5850 6650 50  0001 C CNN
	1    5850 6650
	1    0    0    -1  
$EndComp
$Comp
L CG24-cells:FDO U34R89
U 1 1 5F177BE7
P 5850 7400
F 0 "U34R89" H 5850 7765 50  0000 C CNN
F 1 "FDO" H 5850 7674 50  0000 C CNN
F 2 "" H 5850 7400 50  0001 C CNN
F 3 "" H 5850 7400 50  0001 C CNN
	1    5850 7400
	1    0    0    -1  
$EndComp
Wire Wire Line
	2400 6150 3050 6150
Connection ~ 5050 5450
Wire Wire Line
	5050 5450 5050 6200
Connection ~ 5200 5250
Wire Wire Line
	5200 5250 5200 6000
Wire Wire Line
	5200 4500 5200 5250
Connection ~ 5050 4700
Wire Wire Line
	5050 4700 5050 5450
Connection ~ 5200 4500
$Comp
L CG24-cells:N3N U20R91
U 1 1 6216ED28
P 3400 3950
F 0 "U20R91" H 3425 4242 50  0000 C CNN
F 1 "N3N" H 3425 4151 50  0000 C CNN
F 2 "" H 3400 3950 50  0001 C CNN
F 3 "" H 3400 3950 50  0001 C CNN
	1    3400 3950
	1    0    0    1   
$EndComp
Wire Wire Line
	3150 4050 3050 4050
Wire Wire Line
	3150 3850 2950 3850
Wire Wire Line
	2750 3950 3150 3950
Connection ~ 2750 3950
Wire Wire Line
	2750 3950 2750 4900
Connection ~ 2950 3850
Wire Wire Line
	2950 3850 2950 4400
Connection ~ 3050 4050
Wire Wire Line
	3050 4050 3050 4600
Wire Wire Line
	2650 3400 2650 4250
Wire Wire Line
	2950 3300 2950 3850
Connection ~ 3050 3500
Wire Wire Line
	3050 3500 3050 4050
Connection ~ 5050 2950
Wire Wire Line
	5050 2950 5050 4700
Connection ~ 2750 2850
Wire Wire Line
	2750 2850 2750 3950
Connection ~ 3050 2950
Wire Wire Line
	3050 2950 3050 3500
Connection ~ 2850 2300
Connection ~ 3050 2400
Wire Wire Line
	2850 2300 2850 4500
Wire Wire Line
	3050 2400 3050 2950
Connection ~ 5050 1850
Wire Wire Line
	5050 1850 5050 2950
Connection ~ 2850 1750
Wire Wire Line
	2850 1750 2850 2300
Connection ~ 3050 1850
Wire Wire Line
	3050 1850 3050 2400
Wire Wire Line
	2850 1200 2850 1750
Connection ~ 3050 1300
Wire Wire Line
	3050 1300 3050 1850
Wire Wire Line
	5050 1400 5050 1850
Wire Wire Line
	2750 650  2750 2850
Wire Wire Line
	2950 550  2950 1100
Wire Wire Line
	3050 750  3050 1300
Wire Wire Line
	2950 1100 1450 1100
Connection ~ 2950 1100
Wire Wire Line
	3150 1650 1450 1650
Wire Wire Line
	3150 2200 1450 2200
Wire Wire Line
	3150 2750 1450 2750
Wire Wire Line
	2950 3300 1450 3300
Connection ~ 2950 3300
Wire Wire Line
	3700 1750 4100 1750
Wire Wire Line
	3700 3950 4100 3950
Text Notes 1550 1100 0    50   ~ 0
0x08x
Text Notes 1550 1650 0    50   ~ 0
0x0Ex
Text Notes 1550 2200 0    50   ~ 0
0x0Ax
Text Notes 1550 2750 0    50   ~ 0
0x0Bx
Text Notes 1550 3300 0    50   ~ 0
0x09x
Text HLabel 1450 1650 0    50   Input ~ 0
OBJRAM-BANK-RANGE
Text HLabel 1800 6150 0    50   Input ~ 0
~REGISTER-RANGE-HI
Text HLabel 4700 7700 0    50   Input ~ 0
~RESET-REGISTERS
Text HLabel 4100 1750 2    50   Output ~ 0
~OBJRAM-BANK-W
Text Label 2100 7100 0    50   ~ 0
DATA0
Text Label 2100 7200 0    50   ~ 0
DATA1
Text Label 2100 7300 0    50   ~ 0
DATA2
Text Label 2100 7400 0    50   ~ 0
DATA3
Text Label 2100 7500 0    50   ~ 0
DATA4
Text Label 2100 7600 0    50   ~ 0
DATA15
Wire Wire Line
	2050 7100 2450 7100
Wire Wire Line
	2050 7200 2450 7200
Wire Wire Line
	2050 7300 2450 7300
Wire Wire Line
	2050 7400 2450 7400
Wire Wire Line
	2050 7500 2450 7500
Wire Wire Line
	2050 7600 2450 7600
Entry Wire Line
	1950 7000 2050 7100
Entry Wire Line
	1950 7100 2050 7200
Entry Wire Line
	1950 7200 2050 7300
Entry Wire Line
	1950 7300 2050 7400
Entry Wire Line
	1950 7400 2050 7500
Entry Wire Line
	1950 7500 2050 7600
Wire Bus Line
	1950 6800 1650 6800
Text HLabel 1650 6800 0    50   Input ~ 0
DATA[0..15]
Text HLabel 6500 3200 2    50   Output ~ 0
REG9-HI
Wire Wire Line
	6500 3200 6100 3200
Text HLabel 8600 2150 2    50   Output ~ 0
REGA
Wire Wire Line
	8600 2150 8200 2150
Text HLabel 6550 1000 2    50   Output ~ 0
REG8
Wire Wire Line
	6100 1000 6550 1000
Text Label 6200 4300 0    50   ~ 0
REG9-LO0
Text Label 6200 5050 0    50   ~ 0
REG9-LO1
Text Label 6200 5800 0    50   ~ 0
REG9-LO2
Text Label 6200 6550 0    50   ~ 0
REG9-LO3
Text Label 6200 7300 0    50   ~ 0
REG9-LO4
Wire Wire Line
	6100 4300 6700 4300
Wire Wire Line
	6100 5050 6700 5050
Wire Wire Line
	6100 5800 6700 5800
Wire Wire Line
	6100 6550 6700 6550
Wire Wire Line
	6100 7300 6700 7300
Entry Wire Line
	6700 7300 6800 7200
Entry Wire Line
	6700 6550 6800 6450
Entry Wire Line
	6700 5800 6800 5700
Entry Wire Line
	6700 5050 6800 4950
Entry Wire Line
	6700 4300 6800 4200
Wire Bus Line
	6800 3950 7300 3950
Text HLabel 7300 3950 2    50   Output ~ 0
REG9-LO[0..4]
Text HLabel 1800 4250 0    50   Input ~ 0
~BUS-UDSW
Text HLabel 1800 4900 0    50   Input ~ 0
~BUS-R
Text HLabel 1800 5550 0    50   Input ~ 0
~BUS-LDSW
Text HLabel 4100 2850 2    50   Output ~ 0
~REGB-R
Wire Wire Line
	3700 2850 4100 2850
Text HLabel 4150 650  2    50   Output ~ 0
~REG8-R
Wire Wire Line
	3750 650  4150 650 
Text HLabel 4100 3950 2    50   Output ~ 0
~REG9-R
Text HLabel 1450 1100 0    50   Input ~ 0
REG8-RANGE
Text HLabel 1450 2200 0    50   Input ~ 0
REGA-RANGE
Text HLabel 1450 2750 0    50   Input ~ 0
REGB-RANGE
Text HLabel 1450 3300 0    50   Input ~ 0
REG9-RANGE
Wire Wire Line
	7550 2200 7550 2350
Wire Wire Line
	7550 2200 7650 2200
$Comp
L CG24-cells:N2P U12R?
U 1 1 5F0972C0
P 7900 2150
AR Path="/5EBEBBD5/5F0972C0" Ref="U12R?"  Part="1" 
AR Path="/5EBD13AD/5F0972C0" Ref="U12R153"  Part="1" 
F 0 "U12R153" H 7925 2417 50  0000 C CNN
F 1 "N2P" H 7925 2326 50  0000 C CNN
F 2 "" H 7900 2150 50  0001 C CNN
F 3 "" H 7900 2150 50  0001 C CNN
	1    7900 2150
	1    0    0    -1  
$EndComp
Text HLabel 7350 2350 0    50   Input ~ 0
ENABLE-ADDR
Wire Wire Line
	6100 2100 7650 2100
Wire Wire Line
	7350 2350 7550 2350
Wire Bus Line
	1950 6800 1950 7500
Wire Bus Line
	6800 3950 6800 7200
$EndSCHEMATC
