EESchema Schematic File Version 4
EELAYER 30 0
EELAYER END
$Descr A4 11693 8268
encoding utf-8
Sheet 5 8
Title ""
Date "2020-05-05"
Rev ""
Comp ""
Comment1 ""
Comment2 "Licence: CC-BY"
Comment3 "Author: Loic *WydD* Petit"
Comment4 "Project: CPS2 Reverse Engineering: DL-1927"
$EndDescr
Connection ~ 5800 700 
Connection ~ 7550 700 
Connection ~ 4950 6250
Connection ~ 6700 1350
Connection ~ 6700 2050
Connection ~ 6700 2750
Connection ~ 6700 3450
Connection ~ 6700 4150
Connection ~ 6700 4850
Entry Wire Line
	5700 1100 5800 1000
Entry Wire Line
	5700 1800 5800 1700
Entry Wire Line
	5700 2500 5800 2400
Entry Wire Line
	5700 3200 5800 3100
Entry Wire Line
	5700 3900 5800 3800
Entry Wire Line
	5700 4600 5800 4500
Entry Wire Line
	5700 5300 5800 5200
Entry Wire Line
	5700 6000 5800 5900
Entry Wire Line
	7450 1100 7550 1000
Entry Wire Line
	7450 1800 7550 1700
Entry Wire Line
	7450 2500 7550 2400
Entry Wire Line
	7450 3200 7550 3100
Entry Wire Line
	7450 3900 7550 3800
Entry Wire Line
	7450 4600 7550 4500
Entry Wire Line
	7450 5300 7550 5200
Entry Wire Line
	7450 6000 7550 5900
Entry Wire Line
	9250 1100 9350 1000
Entry Wire Line
	9250 1800 9350 1700
Entry Wire Line
	9250 2500 9350 2400
Entry Wire Line
	9250 3200 9350 3100
Entry Wire Line
	9250 3900 9350 3800
Entry Wire Line
	9250 4600 9350 4500
Wire Wire Line
	1850 6250 4950 6250
Wire Wire Line
	4950 1350 6700 1350
Wire Wire Line
	4950 2050 6700 2050
Wire Wire Line
	4950 2750 6700 2750
Wire Wire Line
	4950 3450 6700 3450
Wire Wire Line
	4950 4150 6700 4150
Wire Wire Line
	4950 4850 6700 4850
Wire Wire Line
	4950 5550 6700 5550
Wire Wire Line
	4950 6250 6700 6250
Wire Wire Line
	5250 1100 5700 1100
Wire Wire Line
	5250 1800 5700 1800
Wire Wire Line
	5250 2500 5700 2500
Wire Wire Line
	5250 3200 5700 3200
Wire Wire Line
	5250 3900 5700 3900
Wire Wire Line
	5250 4600 5700 4600
Wire Wire Line
	5250 5300 5700 5300
Wire Wire Line
	5250 6000 5700 6000
Wire Wire Line
	6700 1350 8500 1350
Wire Wire Line
	6700 2050 8500 2050
Wire Wire Line
	6700 2750 8500 2750
Wire Wire Line
	6700 3450 8500 3450
Wire Wire Line
	6700 4150 8500 4150
Wire Wire Line
	6700 4850 8500 4850
Wire Wire Line
	7000 1100 7450 1100
Wire Wire Line
	7000 1800 7450 1800
Wire Wire Line
	7000 2500 7450 2500
Wire Wire Line
	7000 3200 7450 3200
Wire Wire Line
	7000 3900 7450 3900
Wire Wire Line
	7000 4600 7450 4600
Wire Wire Line
	7000 5300 7450 5300
Wire Wire Line
	7000 6000 7450 6000
Wire Wire Line
	8800 1100 9250 1100
Wire Wire Line
	8800 1800 9250 1800
Wire Wire Line
	8800 2500 9250 2500
Wire Wire Line
	8800 3200 9250 3200
Wire Wire Line
	8800 3900 9250 3900
Wire Wire Line
	8800 4600 9250 4600
Wire Bus Line
	1850 700  5800 700 
Wire Bus Line
	5800 700  5800 1700
Wire Bus Line
	5800 1700 5800 3100
Wire Bus Line
	5800 3100 5800 3800
Wire Bus Line
	5800 3800 5800 5200
Wire Bus Line
	5800 5200 5800 5900
Wire Bus Line
	7550 700  5800 700 
Wire Bus Line
	7550 700  7550 1700
Wire Bus Line
	7550 1700 7550 3100
Wire Bus Line
	7550 3100 7550 4500
Wire Bus Line
	7550 4500 7550 5900
Wire Bus Line
	9350 700  7550 700 
Wire Bus Line
	9350 700  9350 1700
Wire Bus Line
	9350 1700 9350 3100
Wire Bus Line
	9350 3100 9350 4500
Text Label 5300 1100 0    50   ~ 0
DATA23
Text Label 5300 1800 0    50   ~ 0
DATA22
Text Label 5300 2500 0    50   ~ 0
DATA21
Text Label 5300 3200 0    50   ~ 0
DATA20
Text Label 5300 3900 0    50   ~ 0
DATA19
Text Label 5300 4600 0    50   ~ 0
DATA18
Text Label 5300 5300 0    50   ~ 0
DATA17
Text Label 5300 6000 0    50   ~ 0
DATA16
Text Label 7000 1100 0    50   ~ 0
DATA15
Text Label 7000 1800 0    50   ~ 0
DATA14
Text Label 7000 2500 0    50   ~ 0
DATA13
Text Label 7000 3200 0    50   ~ 0
DATA12
Text Label 7000 3900 0    50   ~ 0
DATA11
Text Label 7000 4600 0    50   ~ 0
DATA10
Text Label 7000 5300 0    50   ~ 0
DATA9
Text Label 7000 6000 0    50   ~ 0
DATA8
Text Label 8900 1100 0    50   ~ 0
DATA7
Text Label 8900 1800 0    50   ~ 0
DATA6
Text Label 8900 2500 0    50   ~ 0
DATA5
Text Label 8900 3200 0    50   ~ 0
DATA4
Text Label 8900 3900 0    50   ~ 0
DATA3
Text Label 8900 4600 0    50   ~ 0
DATA2
Text HLabel 1850 700  0    50   Output ~ 0
DATA[2..23]
Text HLabel 1850 6250 0    50   Input ~ 0
~ENABLE
Text HLabel 4650 1100 0    50   Input ~ 0
IN23
Text HLabel 4650 1800 0    50   Input ~ 0
IN22
Text HLabel 4650 2500 0    50   Input ~ 0
IN21
Text HLabel 4650 3200 0    50   Input ~ 0
IN20
Text HLabel 4650 3900 0    50   Input ~ 0
IN19
Text HLabel 4650 4600 0    50   Input ~ 0
IN18
Text HLabel 4650 5300 0    50   Input ~ 0
IN17
Text HLabel 4650 6000 0    50   Input ~ 0
IN16
Text HLabel 6400 1100 0    50   Input ~ 0
IN15
Text HLabel 6400 1800 0    50   Input ~ 0
IN14
Text HLabel 6400 2500 0    50   Input ~ 0
IN13
Text HLabel 6400 3200 0    50   Input ~ 0
IN12
Text HLabel 6400 3900 0    50   Input ~ 0
IN11
Text HLabel 6400 4600 0    50   Input ~ 0
IN10
Text HLabel 6400 5300 0    50   Input ~ 0
IN9
Text HLabel 6400 6000 0    50   Input ~ 0
IN8
Text HLabel 8200 1100 0    50   Input ~ 0
IN7
Text HLabel 8200 1800 0    50   Input ~ 0
IN6
Text HLabel 8200 2500 0    50   Input ~ 0
IN5
Text HLabel 8200 3200 0    50   Input ~ 0
IN4
Text HLabel 8200 3900 0    50   Input ~ 0
IN3
Text HLabel 8200 4600 0    50   Input ~ 0
IN2
$Comp
L CG24-cells:B12 U32R128
U 1 1 5EAF1C5B
P 4950 1100
F 0 "U32R128" H 4950 1417 50  0000 C CNN
F 1 "B12" H 4950 1326 50  0000 C CNN
F 2 "" H 4950 1100 50  0001 C CNN
F 3 "" H 4950 1100 50  0001 C CNN
	1    4950 1100
	1    0    0    -1  
$EndComp
$Comp
L CG24-cells:B12 U32R126
U 1 1 5EAF1C53
P 4950 1800
F 0 "U32R126" H 4950 2117 50  0000 C CNN
F 1 "B12" H 4950 2026 50  0000 C CNN
F 2 "" H 4950 1800 50  0001 C CNN
F 3 "" H 4950 1800 50  0001 C CNN
	1    4950 1800
	1    0    0    -1  
$EndComp
$Comp
L CG24-cells:B12 U32R117
U 1 1 5EAF1C4B
P 4950 2500
F 0 "U32R117" H 4950 2817 50  0000 C CNN
F 1 "B12" H 4950 2726 50  0000 C CNN
F 2 "" H 4950 2500 50  0001 C CNN
F 3 "" H 4950 2500 50  0001 C CNN
	1    4950 2500
	1    0    0    -1  
$EndComp
$Comp
L CG24-cells:B12 U32R119
U 1 1 5EAF1C5D
P 4950 3200
F 0 "U32R119" H 4950 3517 50  0000 C CNN
F 1 "B12" H 4950 3426 50  0000 C CNN
F 2 "" H 4950 3200 50  0001 C CNN
F 3 "" H 4950 3200 50  0001 C CNN
	1    4950 3200
	1    0    0    -1  
$EndComp
$Comp
L CG24-cells:B12 U32R65
U 1 1 5EAF1C5A
P 4950 3900
F 0 "U32R65" H 4950 4217 50  0000 C CNN
F 1 "B12" H 4950 4126 50  0000 C CNN
F 2 "" H 4950 3900 50  0001 C CNN
F 3 "" H 4950 3900 50  0001 C CNN
	1    4950 3900
	1    0    0    -1  
$EndComp
$Comp
L CG24-cells:B12 U32R63
U 1 1 5EAF1C56
P 4950 4600
F 0 "U32R63" H 4950 4917 50  0000 C CNN
F 1 "B12" H 4950 4826 50  0000 C CNN
F 2 "" H 4950 4600 50  0001 C CNN
F 3 "" H 4950 4600 50  0001 C CNN
	1    4950 4600
	1    0    0    -1  
$EndComp
$Comp
L CG24-cells:B12 U32R35
U 1 1 5EAF1C5C
P 4950 5300
F 0 "U32R35" H 4950 5617 50  0000 C CNN
F 1 "B12" H 4950 5526 50  0000 C CNN
F 2 "" H 4950 5300 50  0001 C CNN
F 3 "" H 4950 5300 50  0001 C CNN
	1    4950 5300
	1    0    0    -1  
$EndComp
$Comp
L CG24-cells:B12 U32R23
U 1 1 5EAF1C52
P 4950 6000
F 0 "U32R23" H 4950 6317 50  0000 C CNN
F 1 "B12" H 4950 6226 50  0000 C CNN
F 2 "" H 4950 6000 50  0001 C CNN
F 3 "" H 4950 6000 50  0001 C CNN
	1    4950 6000
	1    0    0    -1  
$EndComp
$Comp
L CG24-cells:B12 U32R21
U 1 1 5EAF1C51
P 6700 1100
F 0 "U32R21" H 6700 1417 50  0000 C CNN
F 1 "B12" H 6700 1326 50  0000 C CNN
F 2 "" H 6700 1100 50  0001 C CNN
F 3 "" H 6700 1100 50  0001 C CNN
	1    6700 1100
	1    0    0    -1  
$EndComp
$Comp
L CG24-cells:B12 U32R12
U 1 1 5EAF1C48
P 6700 1800
F 0 "U32R12" H 6700 2117 50  0000 C CNN
F 1 "B12" H 6700 2026 50  0000 C CNN
F 2 "" H 6700 1800 50  0001 C CNN
F 3 "" H 6700 1800 50  0001 C CNN
	1    6700 1800
	1    0    0    -1  
$EndComp
$Comp
L CG24-cells:B12 U32R14
U 1 1 5EAF1C4D
P 6700 2500
F 0 "U32R14" H 6700 2817 50  0000 C CNN
F 1 "B12" H 6700 2726 50  0000 C CNN
F 2 "" H 6700 2500 50  0001 C CNN
F 3 "" H 6700 2500 50  0001 C CNN
	1    6700 2500
	1    0    0    -1  
$EndComp
$Comp
L CG24-cells:B12 U30R2
U 1 1 5EAF1C62
P 6700 3200
F 0 "U30R2" H 6700 3517 50  0000 C CNN
F 1 "B12" H 6700 3426 50  0000 C CNN
F 2 "" H 6700 3200 50  0001 C CNN
F 3 "" H 6700 3200 50  0001 C CNN
	1    6700 3200
	1    0    0    -1  
$EndComp
$Comp
L CG24-cells:B12 U28R2
U 1 1 5EAF1C61
P 6700 3900
F 0 "U28R2" H 6700 4217 50  0000 C CNN
F 1 "B12" H 6700 4126 50  0000 C CNN
F 2 "" H 6700 3900 50  0001 C CNN
F 3 "" H 6700 3900 50  0001 C CNN
	1    6700 3900
	1    0    0    -1  
$EndComp
$Comp
L CG24-cells:B12 U30R0
U 1 1 5EAF1C64
P 6700 4600
F 0 "U30R0" H 6700 4917 50  0000 C CNN
F 1 "B12" H 6700 4826 50  0000 C CNN
F 2 "" H 6700 4600 50  0001 C CNN
F 3 "" H 6700 4600 50  0001 C CNN
	1    6700 4600
	1    0    0    -1  
$EndComp
$Comp
L CG24-cells:B12 U28R0
U 1 1 5EAF1C70
P 6700 5300
F 0 "U28R0" H 6700 5617 50  0000 C CNN
F 1 "B12" H 6700 5526 50  0000 C CNN
F 2 "" H 6700 5300 50  0001 C CNN
F 3 "" H 6700 5300 50  0001 C CNN
	1    6700 5300
	1    0    0    -1  
$EndComp
$Comp
L CG24-cells:B12 U26R0
U 1 1 5EAF1C72
P 6700 6000
F 0 "U26R0" H 6700 6317 50  0000 C CNN
F 1 "B12" H 6700 6226 50  0000 C CNN
F 2 "" H 6700 6000 50  0001 C CNN
F 3 "" H 6700 6000 50  0001 C CNN
	1    6700 6000
	1    0    0    -1  
$EndComp
$Comp
L CG24-cells:B12 U20R0
U 1 1 5EAF1C71
P 8500 1100
F 0 "U20R0" H 8500 1417 50  0000 C CNN
F 1 "B12" H 8500 1326 50  0000 C CNN
F 2 "" H 8500 1100 50  0001 C CNN
F 3 "" H 8500 1100 50  0001 C CNN
	1    8500 1100
	1    0    0    -1  
$EndComp
$Comp
L CG24-cells:B12 U18R0
U 1 1 5EAF1C74
P 8500 1800
F 0 "U18R0" H 8500 2117 50  0000 C CNN
F 1 "B12" H 8500 2026 50  0000 C CNN
F 2 "" H 8500 1800 50  0001 C CNN
F 3 "" H 8500 1800 50  0001 C CNN
	1    8500 1800
	1    0    0    -1  
$EndComp
$Comp
L CG24-cells:B12 U12R2
U 1 1 5EAF1C5F
P 8500 2500
F 0 "U12R2" H 8500 2817 50  0000 C CNN
F 1 "B12" H 8500 2726 50  0000 C CNN
F 2 "" H 8500 2500 50  0001 C CNN
F 3 "" H 8500 2500 50  0001 C CNN
	1    8500 2500
	1    0    0    -1  
$EndComp
$Comp
L CG24-cells:B12 U16R0
U 1 1 5EAF1C6F
P 8500 3200
F 0 "U16R0" H 8500 3517 50  0000 C CNN
F 1 "B12" H 8500 3426 50  0000 C CNN
F 2 "" H 8500 3200 50  0001 C CNN
F 3 "" H 8500 3200 50  0001 C CNN
	1    8500 3200
	1    0    0    -1  
$EndComp
$Comp
L CG24-cells:B12 U6R0
U 1 1 5EAF1C6D
P 8500 3900
F 0 "U6R0" H 8500 4217 50  0000 C CNN
F 1 "B12" H 8500 4126 50  0000 C CNN
F 2 "" H 8500 3900 50  0001 C CNN
F 3 "" H 8500 3900 50  0001 C CNN
	1    8500 3900
	1    0    0    -1  
$EndComp
$Comp
L CG24-cells:B12 U4R0
U 1 1 5EAF1C60
P 8500 4600
F 0 "U4R0" H 8500 4917 50  0000 C CNN
F 1 "B12" H 8500 4826 50  0000 C CNN
F 2 "" H 8500 4600 50  0001 C CNN
F 3 "" H 8500 4600 50  0001 C CNN
	1    8500 4600
	1    0    0    -1  
$EndComp
$EndSCHEMATC
