EESchema Schematic File Version 4
EELAYER 30 0
EELAYER END
$Descr A4 11693 8268
encoding utf-8
Sheet 5 8
Title ""
Date "2020-05-05"
Rev ""
Comp ""
Comment1 ""
Comment2 "Licence: CC-BY"
Comment3 "Author: Loic *WydD* Petit"
Comment4 "Project: CPS2 Reverse Engineering: DL-1927"
$EndDescr
Connection ~ 6800 950 
Connection ~ 5950 1600
Connection ~ 5950 2300
Connection ~ 5950 3000
Connection ~ 5950 3700
Connection ~ 5950 4400
Connection ~ 5950 5100
Entry Wire Line
	4950 1350 5050 1250
Entry Wire Line
	4950 2050 5050 1950
Entry Wire Line
	4950 2750 5050 2650
Entry Wire Line
	4950 3450 5050 3350
Entry Wire Line
	4950 4150 5050 4050
Entry Wire Line
	4950 4850 5050 4750
Entry Wire Line
	4950 5550 5050 5450
Entry Wire Line
	4950 6250 5050 6150
Entry Wire Line
	6700 1350 6800 1250
Entry Wire Line
	6700 2050 6800 1950
Entry Wire Line
	6700 2750 6800 2650
Entry Wire Line
	6700 3450 6800 3350
Entry Wire Line
	6700 4150 6800 4050
Entry Wire Line
	6700 4850 6800 4750
Entry Wire Line
	6700 5550 6800 5450
Entry Wire Line
	6700 6250 6800 6150
Entry Wire Line
	8500 1350 8600 1250
Entry Wire Line
	8500 2050 8600 1950
Entry Wire Line
	8500 2750 8600 2650
Entry Wire Line
	8500 3450 8600 3350
Entry Wire Line
	8500 4150 8600 4050
Entry Wire Line
	8500 4850 8600 4750
Wire Wire Line
	4200 1600 5950 1600
Wire Wire Line
	4200 2300 5950 2300
Wire Wire Line
	4200 3000 5950 3000
Wire Wire Line
	4200 3700 5950 3700
Wire Wire Line
	4200 4400 5950 4400
Wire Wire Line
	4200 5100 5950 5100
Wire Wire Line
	4200 5800 5950 5800
Wire Wire Line
	4200 6500 5950 6500
Wire Wire Line
	4500 1350 4950 1350
Wire Wire Line
	4500 2050 4950 2050
Wire Wire Line
	4500 2750 4950 2750
Wire Wire Line
	4500 3450 4950 3450
Wire Wire Line
	4500 4150 4950 4150
Wire Wire Line
	4500 4850 4950 4850
Wire Wire Line
	4500 5550 4950 5550
Wire Wire Line
	4500 6250 4950 6250
Wire Wire Line
	5950 1600 7750 1600
Wire Wire Line
	5950 2300 7750 2300
Wire Wire Line
	5950 3000 7750 3000
Wire Wire Line
	5950 3700 7750 3700
Wire Wire Line
	5950 4400 7750 4400
Wire Wire Line
	5950 5100 7750 5100
Wire Wire Line
	6250 1350 6700 1350
Wire Wire Line
	6250 2050 6700 2050
Wire Wire Line
	6250 2750 6700 2750
Wire Wire Line
	6250 3450 6700 3450
Wire Wire Line
	6250 4150 6700 4150
Wire Wire Line
	6250 4850 6700 4850
Wire Wire Line
	6250 5550 6700 5550
Wire Wire Line
	6250 6250 6700 6250
Wire Wire Line
	8050 1350 8500 1350
Wire Wire Line
	8050 2050 8500 2050
Wire Wire Line
	8050 2750 8500 2750
Wire Wire Line
	8050 3450 8500 3450
Wire Wire Line
	8050 4150 8500 4150
Wire Wire Line
	8050 4850 8500 4850
Wire Bus Line
	6800 950  5050 950 
Wire Bus Line
	8600 950  6800 950 
Text Label 4550 1350 0    50   ~ 0
DATA23
Text Label 4550 2050 0    50   ~ 0
DATA22
Text Label 4550 2750 0    50   ~ 0
DATA21
Text Label 4550 3450 0    50   ~ 0
DATA20
Text Label 4550 4150 0    50   ~ 0
DATA19
Text Label 4550 4850 0    50   ~ 0
DATA18
Text Label 4550 5550 0    50   ~ 0
DATA17
Text Label 4550 6250 0    50   ~ 0
DATA16
Text Label 6250 1350 0    50   ~ 0
DATA15
Text Label 6250 2050 0    50   ~ 0
DATA14
Text Label 6250 2750 0    50   ~ 0
DATA13
Text Label 6250 3450 0    50   ~ 0
DATA12
Text Label 6250 4150 0    50   ~ 0
DATA11
Text Label 6250 4850 0    50   ~ 0
DATA10
Text Label 6250 5550 0    50   ~ 0
DATA9
Text Label 6250 6250 0    50   ~ 0
DATA8
Text Label 8150 1350 0    50   ~ 0
DATA7
Text Label 8150 2050 0    50   ~ 0
DATA6
Text Label 8150 2750 0    50   ~ 0
DATA5
Text Label 8150 3450 0    50   ~ 0
DATA4
Text Label 8150 4150 0    50   ~ 0
DATA3
Text Label 8150 4850 0    50   ~ 0
DATA2
Text HLabel 3300 950  0    50   Output ~ 0
DATA[2..23]
Text HLabel 3300 6500 0    50   Input ~ 0
~ENABLE
Text HLabel 3900 1350 0    50   Input ~ 0
BUS23
Text HLabel 3900 2050 0    50   Input ~ 0
BUS22
Text HLabel 3900 2750 0    50   Input ~ 0
BUS21
Text HLabel 3900 3450 0    50   Input ~ 0
BUS20
Text HLabel 3900 4150 0    50   Input ~ 0
BUS19
Text HLabel 3900 4850 0    50   Input ~ 0
BUS18
Text HLabel 3900 5550 0    50   Input ~ 0
BUS17
Text HLabel 3900 6250 0    50   Input ~ 0
BUS16
Text HLabel 5650 1350 0    50   Input ~ 0
BUS15
Text HLabel 5650 2050 0    50   Input ~ 0
BUS14
Text HLabel 5650 2750 0    50   Input ~ 0
BUS13
Text HLabel 5650 3450 0    50   Input ~ 0
BUS12
Text HLabel 5650 4150 0    50   Input ~ 0
BUS11
Text HLabel 5650 4850 0    50   Input ~ 0
BUS10
Text HLabel 5650 5550 0    50   Input ~ 0
BUS9
Text HLabel 5650 6250 0    50   Input ~ 0
BUS8
Text HLabel 7450 1350 0    50   Input ~ 0
BUS7
Text HLabel 7450 2050 0    50   Input ~ 0
BUS6
Text HLabel 7450 2750 0    50   Input ~ 0
BUS5
Text HLabel 7450 3450 0    50   Input ~ 0
BUS4
Text HLabel 7450 4150 0    50   Input ~ 0
BUS3
Text HLabel 7450 4850 0    50   Input ~ 0
BUS2
$Comp
L CG24-cells:B12 U0R12
U 1 1 5EAF1C4F
P 4200 1350
F 0 "U0R12" H 4200 1667 50  0000 C CNN
F 1 "B12" H 4200 1576 50  0000 C CNN
F 2 "" H 4200 1350 50  0001 C CNN
F 3 "" H 4200 1350 50  0001 C CNN
	1    4200 1350
	1    0    0    -1  
$EndComp
$Comp
L CG24-cells:B12 U0R21
U 1 1 5EAF1C4A
P 4200 2050
F 0 "U0R21" H 4200 2367 50  0000 C CNN
F 1 "B12" H 4200 2276 50  0000 C CNN
F 2 "" H 4200 2050 50  0001 C CNN
F 3 "" H 4200 2050 50  0001 C CNN
	1    4200 2050
	1    0    0    -1  
$EndComp
$Comp
L CG24-cells:B12 U0R23
U 1 1 5EAF1C46
P 4200 2750
F 0 "U0R23" H 4200 3067 50  0000 C CNN
F 1 "B12" H 4200 2976 50  0000 C CNN
F 2 "" H 4200 2750 50  0001 C CNN
F 3 "" H 4200 2750 50  0001 C CNN
	1    4200 2750
	1    0    0    -1  
$EndComp
$Comp
L CG24-cells:B12 U0R35
U 1 1 5EAF1C59
P 4200 3450
F 0 "U0R35" H 4200 3767 50  0000 C CNN
F 1 "B12" H 4200 3676 50  0000 C CNN
F 2 "" H 4200 3450 50  0001 C CNN
F 3 "" H 4200 3450 50  0001 C CNN
	1    4200 3450
	1    0    0    -1  
$EndComp
$Comp
L CG24-cells:B12 U0R33
U 1 1 5EAF1C49
P 4200 4150
F 0 "U0R33" H 4200 4467 50  0000 C CNN
F 1 "B12" H 4200 4376 50  0000 C CNN
F 2 "" H 4200 4150 50  0001 C CNN
F 3 "" H 4200 4150 50  0001 C CNN
	1    4200 4150
	1    0    0    -1  
$EndComp
$Comp
L CG24-cells:B12 U0R84
U 1 1 5EAF1C4E
P 4200 4850
F 0 "U0R84" H 4200 5167 50  0000 C CNN
F 1 "B12" H 4200 5076 50  0000 C CNN
F 2 "" H 4200 4850 50  0001 C CNN
F 3 "" H 4200 4850 50  0001 C CNN
	1    4200 4850
	1    0    0    -1  
$EndComp
$Comp
L CG24-cells:B12 U0R86
U 1 1 5EAF1C57
P 4200 5550
F 0 "U0R86" H 4200 5867 50  0000 C CNN
F 1 "B12" H 4200 5776 50  0000 C CNN
F 2 "" H 4200 5550 50  0001 C CNN
F 3 "" H 4200 5550 50  0001 C CNN
	1    4200 5550
	1    0    0    -1  
$EndComp
$Comp
L CG24-cells:B12 U0R117
U 1 1 5EAF1C47
P 4200 6250
F 0 "U0R117" H 4200 6567 50  0000 C CNN
F 1 "B12" H 4200 6476 50  0000 C CNN
F 2 "" H 4200 6250 50  0001 C CNN
F 3 "" H 4200 6250 50  0001 C CNN
	1    4200 6250
	1    0    0    -1  
$EndComp
$Comp
L CG24-cells:B12 U0R126
U 1 1 5EAF1C55
P 5950 1350
F 0 "U0R126" H 5950 1667 50  0000 C CNN
F 1 "B12" H 5950 1576 50  0000 C CNN
F 2 "" H 5950 1350 50  0001 C CNN
F 3 "" H 5950 1350 50  0001 C CNN
	1    5950 1350
	1    0    0    -1  
$EndComp
$Comp
L CG24-cells:B12 U0R128
U 1 1 5EAF1C58
P 5950 2050
F 0 "U0R128" H 5950 2367 50  0000 C CNN
F 1 "B12" H 5950 2276 50  0000 C CNN
F 2 "" H 5950 2050 50  0001 C CNN
F 3 "" H 5950 2050 50  0001 C CNN
	1    5950 2050
	1    0    0    -1  
$EndComp
$Comp
L CG24-cells:B12 U0R140
U 1 1 5EAF1C50
P 5950 2750
F 0 "U0R140" H 5950 3067 50  0000 C CNN
F 1 "B12" H 5950 2976 50  0000 C CNN
F 2 "" H 5950 2750 50  0001 C CNN
F 3 "" H 5950 2750 50  0001 C CNN
	1    5950 2750
	1    0    0    -1  
$EndComp
$Comp
L CG24-cells:B12 U0R138
U 1 1 5EAF1C4C
P 5950 3450
F 0 "U0R138" H 5950 3767 50  0000 C CNN
F 1 "B12" H 5950 3676 50  0000 C CNN
F 2 "" H 5950 3450 50  0001 C CNN
F 3 "" H 5950 3450 50  0001 C CNN
	1    5950 3450
	1    0    0    -1  
$EndComp
$Comp
L CG24-cells:B12 U6R151
U 1 1 5EAF1C66
P 5950 4150
F 0 "U6R151" H 5950 4467 50  0000 C CNN
F 1 "B12" H 5950 4376 50  0000 C CNN
F 2 "" H 5950 4150 50  0001 C CNN
F 3 "" H 5950 4150 50  0001 C CNN
	1    5950 4150
	1    0    0    -1  
$EndComp
$Comp
L CG24-cells:B12 U8R151
U 1 1 5EAF1C67
P 5950 4850
F 0 "U8R151" H 5950 5167 50  0000 C CNN
F 1 "B12" H 5950 5076 50  0000 C CNN
F 2 "" H 5950 4850 50  0001 C CNN
F 3 "" H 5950 4850 50  0001 C CNN
	1    5950 4850
	1    0    0    -1  
$EndComp
$Comp
L CG24-cells:B12 U6R149
U 1 1 5EAF1C63
P 5950 5550
F 0 "U6R149" H 5950 5867 50  0000 C CNN
F 1 "B12" H 5950 5776 50  0000 C CNN
F 2 "" H 5950 5550 50  0001 C CNN
F 3 "" H 5950 5550 50  0001 C CNN
	1    5950 5550
	1    0    0    -1  
$EndComp
$Comp
L CG24-cells:B12 U16R151
U 1 1 5EAF1C6C
P 5950 6250
F 0 "U16R151" H 5950 6567 50  0000 C CNN
F 1 "B12" H 5950 6476 50  0000 C CNN
F 2 "" H 5950 6250 50  0001 C CNN
F 3 "" H 5950 6250 50  0001 C CNN
	1    5950 6250
	1    0    0    -1  
$EndComp
$Comp
L CG24-cells:B12 U18R151
U 1 1 5EAF1C6B
P 7750 1350
F 0 "U18R151" H 7750 1667 50  0000 C CNN
F 1 "B12" H 7750 1576 50  0000 C CNN
F 2 "" H 7750 1350 50  0001 C CNN
F 3 "" H 7750 1350 50  0001 C CNN
	1    7750 1350
	1    0    0    -1  
$EndComp
$Comp
L CG24-cells:B12 U20R151
U 1 1 5EAF1C73
P 7750 2050
F 0 "U20R151" H 7750 2367 50  0000 C CNN
F 1 "B12" H 7750 2276 50  0000 C CNN
F 2 "" H 7750 2050 50  0001 C CNN
F 3 "" H 7750 2050 50  0001 C CNN
	1    7750 2050
	1    0    0    -1  
$EndComp
$Comp
L CG24-cells:B12 U18R149
U 1 1 5EAF1C69
P 7750 2750
F 0 "U18R149" H 7750 3067 50  0000 C CNN
F 1 "B12" H 7750 2976 50  0000 C CNN
F 2 "" H 7750 2750 50  0001 C CNN
F 3 "" H 7750 2750 50  0001 C CNN
	1    7750 2750
	1    0    0    -1  
$EndComp
$Comp
L CG24-cells:B12 U30R151
U 1 1 5EAF1C6E
P 7750 3450
F 0 "U30R151" H 7750 3767 50  0000 C CNN
F 1 "B12" H 7750 3676 50  0000 C CNN
F 2 "" H 7750 3450 50  0001 C CNN
F 3 "" H 7750 3450 50  0001 C CNN
	1    7750 3450
	1    0    0    -1  
$EndComp
$Comp
L CG24-cells:B12 U32R151
U 1 1 5EAF1C6A
P 7750 4150
F 0 "U32R151" H 7750 4467 50  0000 C CNN
F 1 "B12" H 7750 4376 50  0000 C CNN
F 2 "" H 7750 4150 50  0001 C CNN
F 3 "" H 7750 4150 50  0001 C CNN
	1    7750 4150
	1    0    0    -1  
$EndComp
$Comp
L CG24-cells:B12 U32R140
U 1 1 5EAF1C54
P 7750 4850
F 0 "U32R140" H 7750 5167 50  0000 C CNN
F 1 "B12" H 7750 5076 50  0000 C CNN
F 2 "" H 7750 4850 50  0001 C CNN
F 3 "" H 7750 4850 50  0001 C CNN
	1    7750 4850
	1    0    0    -1  
$EndComp
Wire Wire Line
	3300 6500 4200 6500
Connection ~ 4200 6500
Wire Bus Line
	3300 950  5050 950 
Connection ~ 5050 950 
Wire Bus Line
	8600 950  8600 4750
Wire Bus Line
	5050 950  5050 6150
Wire Bus Line
	6800 950  6800 6150
$EndSCHEMATC
