EESchema Schematic File Version 4
EELAYER 30 0
EELAYER END
$Descr A4 11693 8268
encoding utf-8
Sheet 31 69
Title ""
Date "2020-11-26"
Rev ""
Comp ""
Comment1 "Licence: CC-BY"
Comment2 "Author: Loïc *WydD* Petit"
Comment3 ""
Comment4 ""
$EndDescr
Connection ~ 4500 4800
Connection ~ 4500 4700
Connection ~ 4250 3350
Connection ~ 4350 5700
Connection ~ 5950 4000
Connection ~ 6050 5000
Connection ~ 5600 5400
Connection ~ 5700 5300
Connection ~ 5800 5200
Connection ~ 5900 5100
NoConn ~ 7150 4700
NoConn ~ 7150 4800
NoConn ~ 7150 4900
Entry Wire Line
	2750 2850 2850 2950
Entry Wire Line
	2750 2950 2850 3050
Entry Wire Line
	3000 2350 3100 2450
Entry Wire Line
	3000 2450 3100 2550
Entry Wire Line
	3000 2550 3100 2650
Entry Wire Line
	3000 2650 3100 2750
Entry Wire Line
	3000 2750 3100 2850
Entry Wire Line
	3400 5200 3500 5100
Entry Wire Line
	3400 5300 3500 5200
Entry Wire Line
	3400 5400 3500 5300
Entry Wire Line
	3400 5500 3500 5400
Entry Wire Line
	6450 6100 6350 6000
Entry Wire Line
	6450 6200 6350 6100
Entry Wire Line
	6450 6300 6350 6200
Entry Wire Line
	6450 6400 6350 6300
Entry Wire Line
	7850 2350 7750 2450
Entry Wire Line
	7850 2450 7750 2550
Entry Wire Line
	7850 2550 7750 2650
Entry Wire Line
	7850 2650 7750 2750
Entry Wire Line
	7850 2750 7750 2850
Entry Wire Line
	8100 2850 8000 2950
Entry Wire Line
	8100 2950 8000 3050
Entry Wire Line
	8250 5200 8150 5100
Entry Wire Line
	8250 5300 8150 5200
Entry Wire Line
	8250 5400 8150 5300
Entry Wire Line
	8250 5500 8150 5400
Wire Wire Line
	2850 2950 4500 2950
Wire Wire Line
	2850 3050 4500 3050
Wire Wire Line
	3050 3350 4250 3350
Wire Wire Line
	3100 2450 4500 2450
Wire Wire Line
	3100 2550 4500 2550
Wire Wire Line
	3100 2650 4500 2650
Wire Wire Line
	3100 2750 4500 2750
Wire Wire Line
	3100 2850 4500 2850
Wire Wire Line
	3100 3150 4500 3150
Wire Wire Line
	3300 5000 4500 5000
Wire Wire Line
	3500 5100 4500 5100
Wire Wire Line
	3500 5200 4500 5200
Wire Wire Line
	3500 5300 4500 5300
Wire Wire Line
	3500 5400 4500 5400
Wire Wire Line
	3600 4000 5950 4000
Wire Wire Line
	4250 3350 4500 3350
Wire Wire Line
	4250 5600 4250 3350
Wire Wire Line
	4350 3450 4500 3450
Wire Wire Line
	4350 5700 4150 5700
Wire Wire Line
	4350 5700 4350 3450
Wire Wire Line
	4500 4700 4500 4800
Wire Wire Line
	4500 4800 4500 4900
Wire Wire Line
	4500 5600 4250 5600
Wire Wire Line
	4500 5700 4350 5700
Wire Wire Line
	5500 2450 6150 2450
Wire Wire Line
	5500 2550 6150 2550
Wire Wire Line
	5500 2650 6150 2650
Wire Wire Line
	5500 2750 6150 2750
Wire Wire Line
	5500 2850 6150 2850
Wire Wire Line
	5500 2950 6150 2950
Wire Wire Line
	5500 3050 6150 3050
Wire Wire Line
	5500 3150 6150 3150
Wire Wire Line
	5500 4700 6150 4700
Wire Wire Line
	5500 4800 6150 4800
Wire Wire Line
	5500 4900 6150 4900
Wire Wire Line
	5500 5000 6050 5000
Wire Wire Line
	5500 5100 5900 5100
Wire Wire Line
	5500 5200 5800 5200
Wire Wire Line
	5500 5300 5700 5300
Wire Wire Line
	5500 5400 5600 5400
Wire Wire Line
	5600 5400 6150 5400
Wire Wire Line
	5600 6300 5600 5400
Wire Wire Line
	5700 5300 5700 6200
Wire Wire Line
	5700 5300 6150 5300
Wire Wire Line
	5800 5200 6150 5200
Wire Wire Line
	5800 6100 5800 5200
Wire Wire Line
	5900 5100 5900 6000
Wire Wire Line
	5900 5100 6150 5100
Wire Wire Line
	5950 2250 5950 4000
Wire Wire Line
	5950 4000 5950 4500
Wire Wire Line
	5950 4500 6150 4500
Wire Wire Line
	6050 5000 6150 5000
Wire Wire Line
	6050 5800 6050 5000
Wire Wire Line
	6150 2150 6050 2150
Wire Wire Line
	6150 2250 5950 2250
Wire Wire Line
	6350 6000 5900 6000
Wire Wire Line
	6350 6100 5800 6100
Wire Wire Line
	6350 6200 5700 6200
Wire Wire Line
	6350 6300 5600 6300
Wire Wire Line
	7150 5800 6050 5800
Wire Wire Line
	7750 2450 7150 2450
Wire Wire Line
	7750 2550 7150 2550
Wire Wire Line
	7750 2650 7150 2650
Wire Wire Line
	7750 2750 7150 2750
Wire Wire Line
	7750 2850 7150 2850
Wire Wire Line
	8000 2950 7150 2950
Wire Wire Line
	8000 3050 7150 3050
Wire Wire Line
	8000 3150 7150 3150
Wire Wire Line
	8150 5100 7150 5100
Wire Wire Line
	8150 5200 7150 5200
Wire Wire Line
	8150 5300 7150 5300
Wire Wire Line
	8150 5400 7150 5400
Wire Wire Line
	8350 5000 7150 5000
Wire Bus Line
	2750 2750 2600 2750
Wire Bus Line
	3000 2200 2900 2200
Wire Bus Line
	3400 5600 3300 5600
Wire Bus Line
	6450 6450 6600 6450
Wire Bus Line
	7850 2200 7950 2200
Wire Bus Line
	8100 2750 8250 2750
Wire Bus Line
	8250 5600 8350 5600
Text Label 3450 2450 2    50   ~ 0
CB0
Text Label 3450 2550 2    50   ~ 0
CB1
Text Label 3450 2650 2    50   ~ 0
CB2
Text Label 3450 2750 2    50   ~ 0
CB3
Text Label 3450 2850 2    50   ~ 0
CB4
Text Label 3450 2950 2    50   ~ 0
CPC0
Text Label 3450 3050 2    50   ~ 0
CPC1
Text Label 3450 3150 2    50   ~ 0
CDEN
Text Label 3600 5000 0    50   ~ 0
XSEL
Text Label 3600 5100 0    50   ~ 0
XS0
Text Label 3600 5200 0    50   ~ 0
XS1
Text Label 3600 5300 0    50   ~ 0
XS2
Text Label 3600 5400 0    50   ~ 0
XS3
Text Label 6300 6000 2    50   ~ 0
T-XS0
Text Label 6300 6100 2    50   ~ 0
T-XS1
Text Label 6300 6200 2    50   ~ 0
T-XS2
Text Label 6300 6300 2    50   ~ 0
T-XS3
Text Label 7250 2450 0    50   ~ 0
CB-OUT0
Text Label 7250 2550 0    50   ~ 0
CB-OUT1
Text Label 7250 2650 0    50   ~ 0
CB-OUT2
Text Label 7250 2750 0    50   ~ 0
CB-OUT3
Text Label 7250 2850 0    50   ~ 0
CB-OUT4
Text Label 7250 2950 0    50   ~ 0
CPC-OUT0
Text Label 7250 3050 0    50   ~ 0
CPC-OUT1
Text Label 7250 3150 0    50   ~ 0
CDEN-OUT
Text Label 8050 5000 2    50   ~ 0
XSEL-OUT
Text HLabel 2600 2750 0    50   Input ~ 0
CPC[0..1]
Text HLabel 2900 2200 0    50   Input ~ 0
CB[0..4]
Text HLabel 3050 3350 0    50   Input ~ 0
LOAD-CHNLB
Text HLabel 3050 3950 0    50   Input ~ 0
SERIAL-LOAD
Text HLabel 3050 4050 0    50   Input ~ 0
CLK8M
Text HLabel 3100 3150 0    50   Input ~ 0
CDEN
Text HLabel 3300 5000 0    50   Input ~ 0
XSEL
Text HLabel 3300 5600 0    50   Input ~ 0
XS[0..3]
Text HLabel 6600 6450 2    50   Output ~ 0
T-XS[0..3]
Text HLabel 7150 5900 0    50   Input ~ 0
SERIAL-CHNL
Text HLabel 7700 5850 2    50   Output ~ 0
SERIAL-CHNL-O
Text HLabel 7950 2200 2    50   Output ~ 0
CB-OUT[0..4]
Text HLabel 8000 3150 2    50   Output ~ 0
CDEN-OUT
Text HLabel 8250 2750 2    50   Output ~ 0
CPC-OUT[0..1]
Text HLabel 8350 5000 2    50   Output ~ 0
XSEL-OUT
Text HLabel 8350 5600 2    50   Output ~ 0
XS-OUT[0..3]
$Comp
L power:VCC #PWR?
U 1 1 5FB10CA5
P 4150 5700
AR Path="/5F9AA26B/5FB10CA5" Ref="#PWR?"  Part="1" 
AR Path="/5FBBD4DB/5FBBDC03/5FB10CA5" Ref="#PWR0119"  Part="1" 
F 0 "#PWR0119" H 4150 5550 50  0001 C CNN
F 1 "VCC" H 4165 5873 50  0000 C CNN
F 2 "" H 4150 5700 50  0001 C CNN
F 3 "" H 4150 5700 50  0001 C CNN
	1    4150 5700
	1    0    0    -1  
$EndComp
$Comp
L power:VCC #PWR?
U 1 1 5FAC082E
P 4500 4700
AR Path="/5F9AA26B/5FAC082E" Ref="#PWR?"  Part="1" 
AR Path="/5FBBD4DB/5FBBDC03/5FAC082E" Ref="#PWR0120"  Part="1" 
F 0 "#PWR0120" H 4500 4550 50  0001 C CNN
F 1 "VCC" H 4515 4873 50  0000 C CNN
F 2 "" H 4500 4700 50  0001 C CNN
F 3 "" H 4500 4700 50  0001 C CNN
	1    4500 4700
	1    0    0    -1  
$EndComp
$Comp
L power:VCC #PWR?
U 1 1 647AED43
P 6050 2150
AR Path="/5F9AA26B/647AED43" Ref="#PWR?"  Part="1" 
AR Path="/5FBBD4DB/5FBBDC03/647AED43" Ref="#PWR0121"  Part="1" 
F 0 "#PWR0121" H 6050 2000 50  0001 C CNN
F 1 "VCC" H 6065 2323 50  0000 C CNN
F 2 "" H 6050 2150 50  0001 C CNN
F 3 "" H 6050 2150 50  0001 C CNN
	1    6050 2150
	1    0    0    -1  
$EndComp
$Comp
L power:VCC #PWR?
U 1 1 5FB10FCE
P 6150 4400
AR Path="/5F9AA26B/5FB10FCE" Ref="#PWR?"  Part="1" 
AR Path="/5FBBD4DB/5FBBDC03/5FB10FCE" Ref="#PWR0122"  Part="1" 
F 0 "#PWR0122" H 6150 4250 50  0001 C CNN
F 1 "VCC" H 6165 4573 50  0000 C CNN
F 2 "" H 6150 4400 50  0001 C CNN
F 3 "" H 6150 4400 50  0001 C CNN
	1    6150 4400
	1    0    0    -1  
$EndComp
$Comp
L A5C:NAND02 UAN124
U 1 1 6248AB6F
P 3300 4000
AR Path="/5F9AA26B/6248AB6F" Ref="UAN124"  Part="1" 
AR Path="/5FBBD4DB/5FBBDC03/6248AB6F" Ref="UAN124"  Part="1" 
F 0 "UAN124" H 3325 4267 50  0000 C CNN
F 1 "NAND02" H 3325 4176 50  0000 C CNN
F 2 "" H 3300 4000 50  0001 C CNN
F 3 "" H 3300 4000 50  0001 C CNN
	1    3300 4000
	1    0    0    -1  
$EndComp
$Comp
L A5C:XOR02 UAG124
U 1 1 624B9CCC
P 7400 5850
AR Path="/5F9AA26B/624B9CCC" Ref="UAG124"  Part="1" 
AR Path="/5FBBD4DB/5FBBDC03/624B9CCC" Ref="UAG124"  Part="1" 
F 0 "UAG124" H 7425 6117 50  0000 C CNN
F 1 "XOR02" H 7425 6026 50  0000 C CNN
F 2 "" H 7400 5850 50  0001 C CNN
F 3 "" H 7400 5850 50  0001 C CNN
	1    7400 5850
	1    0    0    -1  
$EndComp
$Comp
L A5C:M273C UAE79
U 1 1 6479AC36
P 5000 2950
AR Path="/5F9AA26B/6479AC36" Ref="UAE79"  Part="1" 
AR Path="/5FBBD4DB/5FBBDC03/6479AC36" Ref="UAE79"  Part="1" 
F 0 "UAE79" H 5000 3717 50  0000 C CNN
F 1 "M273C" H 5000 3626 50  0000 C CNN
F 2 "" H 5000 2950 50  0001 C CNN
F 3 "" H 5000 2950 50  0001 C CNN
	1    5000 2950
	1    0    0    -1  
$EndComp
$Comp
L A5C:M273C UAI81
U 1 1 5FA9A94B
P 5000 5200
AR Path="/5F9AA26B/5FA9A94B" Ref="UAI81"  Part="1" 
AR Path="/5FBBD4DB/5FBBDC03/5FA9A94B" Ref="UAI81"  Part="1" 
F 0 "UAI81" H 5000 5967 50  0000 C CNN
F 1 "M273C" H 5000 5876 50  0000 C CNN
F 2 "" H 5000 5200 50  0001 C CNN
F 3 "" H 5000 5200 50  0001 C CNN
F 4 "UAI79;UAI85;UAI90;UAI94;UAI98;UAI103;UAI107" H 5000 5200 50  0001 C CNN "MiscRef"
	1    5000 5200
	1    0    0    -1  
$EndComp
$Comp
L A5C:M273C UAF79
U 1 1 6479ADD4
P 6650 2650
AR Path="/5F9AA26B/6479ADD4" Ref="UAF79"  Part="1" 
AR Path="/5FBBD4DB/5FBBDC03/6479ADD4" Ref="UAF79"  Part="1" 
F 0 "UAF79" H 6650 1883 50  0000 C CNN
F 1 "M273C" H 6650 1974 50  0000 C CNN
F 2 "" H 6650 2650 50  0001 C CNN
F 3 "" H 6650 2650 50  0001 C CNN
	1    6650 2650
	1    0    0    1   
$EndComp
$Comp
L A5C:M273C UAJ81
U 1 1 5FAA0FCE
P 6650 4900
AR Path="/5F9AA26B/5FAA0FCE" Ref="UAJ81"  Part="1" 
AR Path="/5FBBD4DB/5FBBDC03/5FAA0FCE" Ref="UAJ81"  Part="1" 
F 0 "UAJ81" H 6650 5667 50  0000 C CNN
F 1 "M273C" H 6650 5576 50  0000 C CNN
F 2 "" H 6650 4900 50  0001 C CNN
F 3 "" H 6650 4900 50  0001 C CNN
F 4 "UAJ79;UAJ85;UAJ90;UAJ94;UAJ98;UAJ103;UAJ107" H 6650 4900 50  0001 C CNN "MiscRef"
	1    6650 4900
	1    0    0    1   
$EndComp
Text Label 8100 5100 2    50   ~ 0
XS-OUT0
Text Label 8100 5200 2    50   ~ 0
XS-OUT1
Text Label 8100 5300 2    50   ~ 0
XS-OUT2
Text Label 8100 5400 2    50   ~ 0
XS-OUT3
Wire Bus Line
	2750 2750 2750 2950
Wire Bus Line
	8100 2750 8100 2950
Wire Bus Line
	3000 2200 3000 2750
Wire Bus Line
	3400 5200 3400 5600
Wire Bus Line
	6450 6100 6450 6450
Wire Bus Line
	7850 2200 7850 2750
Wire Bus Line
	8250 5200 8250 5600
$EndSCHEMATC
