EESchema Schematic File Version 4
EELAYER 30 0
EELAYER END
$Descr A4 11693 8268
encoding utf-8
Sheet 32 69
Title ""
Date "2020-11-26"
Rev ""
Comp ""
Comment1 "Licence: CC-BY"
Comment2 "Author: Loïc *WydD* Petit"
Comment3 ""
Comment4 ""
$EndDescr
Connection ~ 4200 3700
Connection ~ 4200 4000
Connection ~ 4200 4100
Connection ~ 3800 2950
Connection ~ 4000 4200
NoConn ~ 5300 4000
NoConn ~ 5300 4100
NoConn ~ 5300 4700
NoConn ~ 2950 4300
Entry Wire Line
	2550 2450 2650 2550
Entry Wire Line
	2550 2550 2650 2650
Entry Wire Line
	2800 1950 2900 2050
Entry Wire Line
	2800 2050 2900 2150
Entry Wire Line
	2800 2150 2900 2250
Entry Wire Line
	2800 2250 2900 2350
Entry Wire Line
	2800 2350 2900 2450
Entry Wire Line
	3200 4400 3300 4300
Entry Wire Line
	3200 4500 3300 4400
Entry Wire Line
	3200 4600 3300 4500
Entry Wire Line
	3200 4700 3300 4600
Entry Wire Line
	6400 4400 6300 4300
Entry Wire Line
	6400 4500 6300 4400
Entry Wire Line
	6400 4600 6300 4500
Entry Wire Line
	6400 4700 6300 4600
Entry Wire Line
	6650 1950 6550 2050
Entry Wire Line
	6650 2050 6550 2150
Entry Wire Line
	6650 2150 6550 2250
Entry Wire Line
	6650 2250 6550 2350
Entry Wire Line
	6650 2350 6550 2450
Entry Wire Line
	6900 2450 6800 2550
Entry Wire Line
	6900 2550 6800 2650
Wire Wire Line
	1650 4200 2450 4200
Wire Wire Line
	2000 4400 2450 4400
Wire Wire Line
	2650 2550 4300 2550
Wire Wire Line
	2650 2650 4300 2650
Wire Wire Line
	2850 2950 3800 2950
Wire Wire Line
	2900 2050 4300 2050
Wire Wire Line
	2900 2150 4300 2150
Wire Wire Line
	2900 2250 4300 2250
Wire Wire Line
	2900 2350 4300 2350
Wire Wire Line
	2900 2450 4300 2450
Wire Wire Line
	2900 2750 4300 2750
Wire Wire Line
	2950 4200 4000 4200
Wire Wire Line
	3300 4300 4300 4300
Wire Wire Line
	3300 4400 4300 4400
Wire Wire Line
	3300 4500 4300 4500
Wire Wire Line
	3300 4600 4300 4600
Wire Wire Line
	3800 2950 4300 2950
Wire Wire Line
	3800 3800 3800 2950
Wire Wire Line
	3800 3800 4300 3800
Wire Wire Line
	3950 3200 4150 3200
Wire Wire Line
	4000 4200 4300 4200
Wire Wire Line
	4000 5300 4000 4200
Wire Wire Line
	4150 3050 4300 3050
Wire Wire Line
	4150 3200 4150 3050
Wire Wire Line
	4200 3700 4200 4000
Wire Wire Line
	4200 3700 4300 3700
Wire Wire Line
	4200 4000 4200 4100
Wire Wire Line
	4200 4100 4200 4700
Wire Wire Line
	4200 4100 4300 4100
Wire Wire Line
	4200 4700 4300 4700
Wire Wire Line
	4300 4000 4200 4000
Wire Wire Line
	4550 5300 4000 5300
Wire Wire Line
	5300 2050 6550 2050
Wire Wire Line
	5300 2150 6550 2150
Wire Wire Line
	5300 2250 6550 2250
Wire Wire Line
	5300 2350 6550 2350
Wire Wire Line
	5300 2450 6550 2450
Wire Wire Line
	5300 2550 6800 2550
Wire Wire Line
	5300 2650 6800 2650
Wire Wire Line
	5300 2750 6800 2750
Wire Wire Line
	6500 4200 5300 4200
Wire Bus Line
	2550 2350 2400 2350
Wire Bus Line
	2800 1800 2700 1800
Wire Bus Line
	3200 4800 3100 4800
Wire Bus Line
	6400 4800 6500 4800
Wire Bus Line
	6650 1800 6750 1800
Wire Bus Line
	6900 2350 7050 2350
Text Label 3250 2050 2    50   ~ 0
CB0
Text Label 3250 2150 2    50   ~ 0
CB1
Text Label 3250 2250 2    50   ~ 0
CB2
Text Label 3250 2350 2    50   ~ 0
CB3
Text Label 3250 2450 2    50   ~ 0
CB4
Text Label 3250 2550 2    50   ~ 0
CPC0
Text Label 3250 2650 2    50   ~ 0
CPC1
Text Label 3250 2750 2    50   ~ 0
CDEN
Text Label 3400 4300 0    50   ~ 0
XS0
Text Label 3400 4400 0    50   ~ 0
XS1
Text Label 3400 4500 0    50   ~ 0
XS2
Text Label 3400 4600 0    50   ~ 0
XS3
Text Label 6050 2050 0    50   ~ 0
CB-OUT0
Text Label 6050 2150 0    50   ~ 0
CB-OUT1
Text Label 6050 2250 0    50   ~ 0
CB-OUT2
Text Label 6050 2350 0    50   ~ 0
CB-OUT3
Text Label 6050 2450 0    50   ~ 0
CB-OUT4
Text Label 6050 2550 0    50   ~ 0
CPC-OUT0
Text Label 6050 2650 0    50   ~ 0
CPC-OUT1
Text Label 6050 2750 0    50   ~ 0
CDEN-OUT
Text Label 6250 4200 2    50   ~ 0
XSEL-OUT
Text HLabel 1650 4200 0    50   Input ~ 0
XSEL
Text HLabel 2000 4400 0    50   Input ~ 0
LOAD-CHNLB
Text HLabel 2400 2350 0    50   Input ~ 0
CPC[0..1]
Text HLabel 2700 1800 0    50   Input ~ 0
CB[0..4]
Text HLabel 2850 2950 0    50   Input ~ 0
LOAD-CHNLA
Text HLabel 2900 2750 0    50   Input ~ 0
CDEN
Text HLabel 3100 4800 0    50   Input ~ 0
XS[0..3]
Text HLabel 4550 5400 0    50   Input ~ 0
SERIAL-CHNL
Text HLabel 5100 5350 2    50   Output ~ 0
SERIAL-CHNL-O
Text HLabel 6500 4200 2    50   Output ~ 0
XSEL-OUT
Text HLabel 6500 4800 2    50   Output ~ 0
XS-OUT[0..3]
Text HLabel 6750 1800 2    50   Output ~ 0
CB-OUT[0..4]
Text HLabel 6800 2750 2    50   Output ~ 0
CDEN-OUT
Text HLabel 7050 2350 2    50   Output ~ 0
CPC-OUT[0..1]
$Comp
L power:VCC #PWR?
U 1 1 61303F5C
P 3950 3200
AR Path="/61243538/61303F5C" Ref="#PWR?"  Part="1" 
AR Path="/5FBBD4DB/5FBBDB83/61303F5C" Ref="#PWR0123"  Part="1" 
F 0 "#PWR0123" H 3950 3050 50  0001 C CNN
F 1 "VCC" H 3965 3373 50  0000 C CNN
F 2 "" H 3950 3200 50  0001 C CNN
F 3 "" H 3950 3200 50  0001 C CNN
	1    3950 3200
	1    0    0    -1  
$EndComp
$Comp
L power:VCC #PWR?
U 1 1 61303F81
P 4200 3700
AR Path="/61243538/61303F81" Ref="#PWR?"  Part="1" 
AR Path="/5FBBD4DB/5FBBDB83/61303F81" Ref="#PWR0124"  Part="1" 
F 0 "#PWR0124" H 4200 3550 50  0001 C CNN
F 1 "VCC" H 4215 3873 50  0000 C CNN
F 2 "" H 4200 3700 50  0001 C CNN
F 3 "" H 4200 3700 50  0001 C CNN
	1    4200 3700
	1    0    0    -1  
$EndComp
$Comp
L A5C:XOR02 UAR346
U 1 1 61303FE5
P 4800 5350
AR Path="/61243538/61303FE5" Ref="UAR346"  Part="1" 
AR Path="/5FBBD4DB/5FBBDB83/61303FE5" Ref="UAR346"  Part="1" 
F 0 "UAR346" H 4825 5617 50  0000 C CNN
F 1 "XOR02" H 4825 5526 50  0000 C CNN
F 2 "" H 4800 5350 50  0001 C CNN
F 3 "" H 4800 5350 50  0001 C CNN
	1    4800 5350
	1    0    0    -1  
$EndComp
$Comp
L A5C:DFFCOO UAR341
U 1 1 5FCA8BC4
P 2700 4300
AR Path="/61243538/5FCA8BC4" Ref="UAR341"  Part="1" 
AR Path="/5FBBD4DB/5FBBDB83/5FCA8BC4" Ref="UAR341"  Part="1" 
F 0 "UAR341" H 2700 4665 50  0000 C CNN
F 1 "DFFCOO" H 2700 4574 50  0000 C CNN
F 2 "" H 2700 4300 50  0001 C CNN
F 3 "" H 2700 4300 50  0001 C CNN
	1    2700 4300
	1    0    0    -1  
$EndComp
$Comp
L A5C:M273C UAR287
U 1 1 61303F3B
P 4800 2550
AR Path="/61243538/61303F3B" Ref="UAR287"  Part="1" 
AR Path="/5FBBD4DB/5FBBDB83/61303F3B" Ref="UAR287"  Part="1" 
F 0 "UAR287" H 4800 3317 50  0000 C CNN
F 1 "M273C" H 4800 3226 50  0000 C CNN
F 2 "" H 4800 2550 50  0001 C CNN
F 3 "" H 4800 2550 50  0001 C CNN
	1    4800 2550
	1    0    0    -1  
$EndComp
$Comp
L A5C:M273C UAU289
U 1 1 61303F4F
P 4800 4200
AR Path="/61243538/61303F4F" Ref="UAU289"  Part="1" 
AR Path="/5FBBD4DB/5FBBDB83/61303F4F" Ref="UAU289"  Part="1" 
F 0 "UAU289" H 4800 4967 50  0000 C CNN
F 1 "M273C" H 4800 4876 50  0000 C CNN
F 2 "" H 4800 4200 50  0001 C CNN
F 3 "" H 4800 4200 50  0001 C CNN
F 4 "UAU287;UAU294;UAU298;UAU302;UAU307;UAU311;UAU316" H 4800 4200 50  0001 C CNN "MiscRef"
	1    4800 4200
	1    0    0    1   
$EndComp
Wire Wire Line
	6300 4600 5300 4600
Wire Wire Line
	6300 4500 5300 4500
Wire Wire Line
	6300 4400 5300 4400
Wire Wire Line
	6300 4300 5300 4300
Text Label 6250 4300 2    50   ~ 0
XS-OUT0
Text Label 6250 4400 2    50   ~ 0
XS-OUT1
Text Label 6250 4500 2    50   ~ 0
XS-OUT2
Text Label 6250 4600 2    50   ~ 0
XS-OUT3
Wire Bus Line
	6900 2350 6900 2550
Wire Bus Line
	2550 2350 2550 2550
Wire Bus Line
	6650 1800 6650 2350
Wire Bus Line
	6400 4400 6400 4800
Wire Bus Line
	3200 4400 3200 4800
Wire Bus Line
	2800 1800 2800 2350
$EndSCHEMATC
