EESchema Schematic File Version 4
EELAYER 30 0
EELAYER END
$Descr A4 11693 8268
encoding utf-8
Sheet 33 69
Title ""
Date "2020-11-26"
Rev ""
Comp ""
Comment1 "Licence: CC-BY"
Comment2 "Author: Loïc *WydD* Petit"
Comment3 ""
Comment4 ""
$EndDescr
Connection ~ 4100 2750
Connection ~ 4100 3650
Connection ~ 4100 3200
Connection ~ 4650 5000
Connection ~ 4550 4900
Connection ~ 4750 5100
Connection ~ 4050 4400
Connection ~ 4150 4500
Connection ~ 4250 4600
Connection ~ 4350 4700
Connection ~ 4450 4800
Connection ~ 3300 2500
Connection ~ 3200 2400
Connection ~ 3100 2300
Connection ~ 3000 2200
Entry Wire Line
	1400 4800 1500 4900
Entry Wire Line
	1400 4900 1500 5000
Entry Wire Line
	1650 4300 1750 4400
Entry Wire Line
	1650 4400 1750 4500
Entry Wire Line
	1650 4500 1750 4600
Entry Wire Line
	1650 4600 1750 4700
Entry Wire Line
	1650 4700 1750 4800
Entry Wire Line
	5250 1200 5350 1300
Entry Wire Line
	5250 1300 5350 1400
Entry Wire Line
	5250 1400 5350 1500
Entry Wire Line
	5250 1500 5350 1600
Entry Wire Line
	5300 2250 5400 2350
Entry Wire Line
	5300 2700 5400 2800
Entry Wire Line
	5300 3150 5400 3250
Entry Wire Line
	5300 3600 5400 3700
Entry Wire Line
	5300 4400 5400 4500
Entry Wire Line
	5300 4500 5400 4600
Entry Wire Line
	5300 4600 5400 4700
Entry Wire Line
	5300 4700 5400 4800
Entry Wire Line
	5300 4800 5400 4900
Entry Wire Line
	5300 4900 5400 5000
Entry Wire Line
	5300 5000 5400 5100
Entry Wire Line
	5300 5100 5400 5200
Entry Wire Line
	6250 6050 6350 5950
Entry Wire Line
	6250 6150 6350 6050
Entry Wire Line
	6250 6250 6350 6150
Entry Wire Line
	6250 6350 6350 6250
Entry Wire Line
	6250 6450 6350 6350
Entry Wire Line
	6250 6550 6350 6450
Entry Wire Line
	6250 6650 6350 6550
Entry Wire Line
	6250 6750 6350 6650
Wire Wire Line
	1500 4900 2900 4900
Wire Wire Line
	1500 5000 2900 5000
Wire Wire Line
	1750 4400 2900 4400
Wire Wire Line
	1750 4500 2900 4500
Wire Wire Line
	1750 4600 2900 4600
Wire Wire Line
	1750 4700 2900 4700
Wire Wire Line
	1750 4800 2900 4800
Wire Wire Line
	2500 2200 3000 2200
Wire Wire Line
	2500 2300 3100 2300
Wire Wire Line
	2500 2400 3200 2400
Wire Wire Line
	2500 2500 3300 2500
Wire Wire Line
	2800 5450 2800 5300
Wire Wire Line
	2900 5100 1750 5100
Wire Wire Line
	2900 5300 2800 5300
Wire Wire Line
	2900 5400 2900 5750
Wire Wire Line
	2900 5750 2750 5750
Wire Wire Line
	3000 1200 3000 2200
Wire Wire Line
	3000 2200 4200 2200
Wire Wire Line
	3100 2300 3100 1300
Wire Wire Line
	3100 2300 4000 2300
Wire Wire Line
	3200 1400 3200 2400
Wire Wire Line
	3200 2400 3900 2400
Wire Wire Line
	3300 1500 3300 2500
Wire Wire Line
	3300 2500 3800 2500
Wire Wire Line
	3800 3550 3800 2500
Wire Wire Line
	3900 2400 3900 3100
Wire Wire Line
	3900 3100 4200 3100
Wire Wire Line
	3900 4400 4050 4400
Wire Wire Line
	3900 4500 4150 4500
Wire Wire Line
	3900 4600 4250 4600
Wire Wire Line
	3900 4700 4350 4700
Wire Wire Line
	3900 4800 4450 4800
Wire Wire Line
	3900 4900 4550 4900
Wire Wire Line
	3900 5000 4650 5000
Wire Wire Line
	3900 5100 4750 5100
Wire Wire Line
	3950 1200 3000 1200
Wire Wire Line
	3950 1300 3100 1300
Wire Wire Line
	3950 1400 3200 1400
Wire Wire Line
	3950 1500 3300 1500
Wire Wire Line
	4000 2650 4000 2300
Wire Wire Line
	4050 4400 5300 4400
Wire Wire Line
	4050 6050 4050 4400
Wire Wire Line
	4050 6050 4950 6050
Wire Wire Line
	4100 2300 4100 2750
Wire Wire Line
	4100 2750 4100 3200
Wire Wire Line
	4100 3200 4100 3650
Wire Wire Line
	4100 3650 4000 3650
Wire Wire Line
	4100 3650 4200 3650
Wire Wire Line
	4150 4500 5300 4500
Wire Wire Line
	4150 6150 4150 4500
Wire Wire Line
	4150 6150 4950 6150
Wire Wire Line
	4200 2300 4100 2300
Wire Wire Line
	4200 2650 4000 2650
Wire Wire Line
	4200 2750 4100 2750
Wire Wire Line
	4200 3200 4100 3200
Wire Wire Line
	4200 3550 3800 3550
Wire Wire Line
	4250 4600 4250 6250
Wire Wire Line
	4250 4600 5300 4600
Wire Wire Line
	4250 6250 4950 6250
Wire Wire Line
	4350 4700 5300 4700
Wire Wire Line
	4350 6350 4350 4700
Wire Wire Line
	4350 6350 4950 6350
Wire Wire Line
	4450 4800 4450 6450
Wire Wire Line
	4450 4800 5300 4800
Wire Wire Line
	4450 6450 4950 6450
Wire Wire Line
	4550 4900 5300 4900
Wire Wire Line
	4550 6550 4550 4900
Wire Wire Line
	4550 6550 4950 6550
Wire Wire Line
	4650 5000 4650 6650
Wire Wire Line
	4650 5000 5300 5000
Wire Wire Line
	4650 6650 4950 6650
Wire Wire Line
	4750 2250 5300 2250
Wire Wire Line
	4750 2700 5300 2700
Wire Wire Line
	4750 3150 5300 3150
Wire Wire Line
	4750 3600 5300 3600
Wire Wire Line
	4750 5100 5300 5100
Wire Wire Line
	4750 6750 4750 5100
Wire Wire Line
	4750 6750 4950 6750
Wire Wire Line
	4950 1200 5250 1200
Wire Wire Line
	4950 1300 5250 1300
Wire Wire Line
	4950 1400 5250 1400
Wire Wire Line
	4950 1500 5250 1500
Wire Wire Line
	5950 6050 6250 6050
Wire Wire Line
	5950 6150 6250 6150
Wire Wire Line
	5950 6250 6250 6250
Wire Wire Line
	5950 6350 6250 6350
Wire Wire Line
	5950 6450 6250 6450
Wire Wire Line
	5950 6550 6250 6550
Wire Wire Line
	5950 6650 6250 6650
Wire Wire Line
	5950 6750 6250 6750
Wire Bus Line
	1400 4700 1250 4700
Wire Bus Line
	1650 4150 1550 4150
Wire Bus Line
	5350 1700 5450 1700
Wire Bus Line
	5400 5300 5550 5300
Wire Bus Line
	6350 1100 5350 1100
Text Label 2100 4400 2    50   ~ 0
CB0
Text Label 2100 4500 2    50   ~ 0
CB1
Text Label 2100 4600 2    50   ~ 0
CB2
Text Label 2100 4700 2    50   ~ 0
CB3
Text Label 2100 4800 2    50   ~ 0
CB4
Text Label 2100 4900 2    50   ~ 0
CPC0
Text Label 2100 5000 2    50   ~ 0
CPC1
Text Label 2100 5100 2    50   ~ 0
CDEN
Text Label 4850 2250 0    50   ~ 0
COL2-D0
Text Label 4850 2700 0    50   ~ 0
COL2-D1
Text Label 4850 3150 0    50   ~ 0
COL2-D2
Text Label 4850 3600 0    50   ~ 0
COL2-D3
Text Label 4850 4400 0    50   ~ 0
COL2-D4
Text Label 4850 4500 0    50   ~ 0
COL2-D5
Text Label 4850 4600 0    50   ~ 0
COL2-D6
Text Label 4850 4700 0    50   ~ 0
COL2-D7
Text Label 4850 4800 0    50   ~ 0
COL2-D8
Text Label 4850 4900 0    50   ~ 0
COL2-D9
Text Label 4850 5000 0    50   ~ 0
COL2-D10
Text Label 4850 5100 0    50   ~ 0
COL2-D11
Text Label 5000 1200 0    50   ~ 0
TD8
Text Label 5000 1300 0    50   ~ 0
TD9
Text Label 5000 1400 0    50   ~ 0
TD10
Text Label 5000 1500 0    50   ~ 0
TD11
Text Label 6000 6050 0    50   ~ 0
TD0
Text Label 6000 6150 0    50   ~ 0
TD1
Text Label 6000 6250 0    50   ~ 0
TD2
Text Label 6000 6350 0    50   ~ 0
TD3
Text Label 6000 6450 0    50   ~ 0
TD4
Text Label 6000 6550 0    50   ~ 0
TD5
Text Label 6000 6650 0    50   ~ 0
TD6
Text Label 6000 6750 0    50   ~ 0
TD7
Text HLabel 1250 4700 0    50   Input ~ 0
CPC[0..1]
Text HLabel 1550 4150 0    50   Input ~ 0
CB[0..4]
Text HLabel 1750 5100 0    50   Input ~ 0
CDEN
Text HLabel 2250 5400 0    50   Input ~ 0
SERIAL-END
Text HLabel 2250 5500 0    50   Input ~ 0
CLK8M
Text HLabel 2500 2200 0    50   Input ~ 0
GFX-A
Text HLabel 2500 2300 0    50   Input ~ 0
GFX-B
Text HLabel 2500 2400 0    50   Input ~ 0
GFX-C
Text HLabel 2500 2500 0    50   Input ~ 0
GFX-D
Text HLabel 4000 3650 0    50   Input ~ 0
~COL2-E
Text HLabel 5450 1700 2    50   Output ~ 0
TD[0..11]
Text HLabel 5550 5300 2    50   Output ~ 0
COL2-D[0..11]
$Comp
L power:VCC #PWR?
U 1 1 5FA3F702
P 2750 5750
AR Path="/5F9B692F/5FA3F702" Ref="#PWR?"  Part="1" 
AR Path="/5FBBD4DB/5FBBDBFE/5FA3F702" Ref="#PWR0125"  Part="1" 
F 0 "#PWR0125" H 2750 5600 50  0001 C CNN
F 1 "VCC" H 2765 5923 50  0000 C CNN
F 2 "" H 2750 5750 50  0001 C CNN
F 3 "" H 2750 5750 50  0001 C CNN
	1    2750 5750
	1    0    0    -1  
$EndComp
$Comp
L A5C:NAND02 UAZ?
U 1 1 609CF20E
P 2500 5450
AR Path="/60BA673A/609CF20E" Ref="UAZ?"  Part="1" 
AR Path="/647995D9/609CF20E" Ref="UAZ91"  Part="1" 
AR Path="/5F9B692F/609CF20E" Ref="UAZ91"  Part="1" 
AR Path="/5FBBD4DB/5FBBDBFE/609CF20E" Ref="UAZ91"  Part="1" 
F 0 "UAZ91" H 2525 5717 50  0000 C CNN
F 1 "NAND02" H 2525 5626 50  0000 C CNN
F 2 "" H 2500 5450 50  0001 C CNN
F 3 "" H 2500 5450 50  0001 C CNN
	1    2500 5450
	1    0    0    -1  
$EndComp
$Comp
L A5C:OR02 UBH17
U 1 1 61C6C2BB
P 4450 2250
AR Path="/5F9B692F/61C6C2BB" Ref="UBH17"  Part="1" 
AR Path="/5FBBD4DB/5FBBDBFE/61C6C2BB" Ref="UBH17"  Part="1" 
F 0 "UBH17" H 4475 2517 50  0000 C CNN
F 1 "OR02" H 4475 2426 50  0000 C CNN
F 2 "" H 4500 2250 50  0001 C CNN
F 3 "" H 4500 2250 50  0001 C CNN
	1    4450 2250
	1    0    0    -1  
$EndComp
$Comp
L A5C:OR02 UBH19
U 1 1 61C6C3D7
P 4450 2700
AR Path="/5F9B692F/61C6C3D7" Ref="UBH19"  Part="1" 
AR Path="/5FBBD4DB/5FBBDBFE/61C6C3D7" Ref="UBH19"  Part="1" 
F 0 "UBH19" H 4475 2967 50  0000 C CNN
F 1 "OR02" H 4475 2876 50  0000 C CNN
F 2 "" H 4500 2700 50  0001 C CNN
F 3 "" H 4500 2700 50  0001 C CNN
	1    4450 2700
	1    0    0    -1  
$EndComp
$Comp
L A5C:OR02 UBH22
U 1 1 61C6C73E
P 4450 3150
AR Path="/5F9B692F/61C6C73E" Ref="UBH22"  Part="1" 
AR Path="/5FBBD4DB/5FBBDBFE/61C6C73E" Ref="UBH22"  Part="1" 
F 0 "UBH22" H 4475 3417 50  0000 C CNN
F 1 "OR02" H 4475 3326 50  0000 C CNN
F 2 "" H 4500 3150 50  0001 C CNN
F 3 "" H 4500 3150 50  0001 C CNN
	1    4450 3150
	1    0    0    -1  
$EndComp
$Comp
L A5C:OR02 UBH24
U 1 1 61C6C93A
P 4450 3600
AR Path="/5F9B692F/61C6C93A" Ref="UBH24"  Part="1" 
AR Path="/5FBBD4DB/5FBBDBFE/61C6C93A" Ref="UBH24"  Part="1" 
F 0 "UBH24" H 4475 3867 50  0000 C CNN
F 1 "OR02" H 4475 3776 50  0000 C CNN
F 2 "" H 4500 3600 50  0001 C CNN
F 3 "" H 4500 3600 50  0001 C CNN
	1    4450 3600
	1    0    0    -1  
$EndComp
$Comp
L A5C:M367C UAV116
U 1 1 607A3481
P 4450 1450
AR Path="/5F9B692F/607A3481" Ref="UAV116"  Part="1" 
AR Path="/5FBBD4DB/5FBBDBFE/607A3481" Ref="UAV116"  Part="1" 
F 0 "UAV116" H 4450 1965 50  0000 C CNN
F 1 "M367C" H 4450 1874 50  0000 C CNN
F 2 "" H 4750 1250 50  0001 C CNN
F 3 "" H 4750 1250 50  0001 C CNN
F 4 "UAV117;UAV119;UAV121" H 4450 1450 50  0001 C CNN "MiscRef"
	1    4450 1450
	1    0    0    -1  
$EndComp
$Comp
L A5C:M541C UAV79
U 1 1 5FE100A2
P 5450 6500
AR Path="/5F9B692F/5FE100A2" Ref="UAV79"  Part="1" 
AR Path="/5FBBD4DB/5FBBDBFE/5FE100A2" Ref="UAV79"  Part="1" 
F 0 "UAV79" H 5450 7215 50  0000 C CNN
F 1 "M541C" H 5450 7124 50  0000 C CNN
F 2 "" H 5750 6500 50  0001 C CNN
F 3 "" H 5750 6500 50  0001 C CNN
F 4 "UAV81;UAV85;UAV90;UAV94;UAV99;UAV103;UAV107;UAV112" H 5450 6500 50  0001 C CNN "MiscRef"
	1    5450 6500
	1    0    0    -1  
$EndComp
$Comp
L A5C:M273C UAU79
U 1 1 5FD7D7ED
P 3400 4900
AR Path="/5F9B692F/5FD7D7ED" Ref="UAU79"  Part="1" 
AR Path="/5FBBD4DB/5FBBDBFE/5FD7D7ED" Ref="UAU79"  Part="1" 
F 0 "UAU79" H 3400 5667 50  0000 C CNN
F 1 "M273C" H 3400 5576 50  0000 C CNN
F 2 "" H 3400 4900 50  0001 C CNN
F 3 "" H 3400 4900 50  0001 C CNN
	1    3400 4900
	1    0    0    -1  
$EndComp
Text HLabel 3950 1650 0    50   Input ~ 0
~DEBUG
Text HLabel 4950 6950 0    50   Input ~ 0
~DEBUG
Wire Bus Line
	1400 4700 1400 4900
Wire Bus Line
	1650 4150 1650 4700
Wire Bus Line
	5350 1100 5350 1700
Wire Bus Line
	6350 1100 6350 6650
Wire Bus Line
	5400 2350 5400 5300
$EndSCHEMATC
