EESchema Schematic File Version 4
EELAYER 30 0
EELAYER END
$Descr A4 11693 8268
encoding utf-8
Sheet 34 69
Title ""
Date "2020-11-26"
Rev ""
Comp ""
Comment1 "Licence: CC-BY"
Comment2 "Author: Loïc *WydD* Petit"
Comment3 ""
Comment4 ""
$EndDescr
Connection ~ 4250 2700
Connection ~ 4250 3600
Connection ~ 4250 3150
Connection ~ 3450 2450
Connection ~ 3350 2350
Connection ~ 3250 2250
Connection ~ 3150 2150
Connection ~ 4200 4350
Connection ~ 4300 4450
Connection ~ 4400 4550
Connection ~ 4500 4650
Connection ~ 4600 4750
Connection ~ 4700 4850
Connection ~ 4800 4950
Connection ~ 4900 5050
Entry Wire Line
	1550 4750 1650 4850
Entry Wire Line
	1550 4850 1650 4950
Entry Wire Line
	1800 4250 1900 4350
Entry Wire Line
	1800 4350 1900 4450
Entry Wire Line
	1800 4450 1900 4550
Entry Wire Line
	1800 4550 1900 4650
Entry Wire Line
	1800 4650 1900 4750
Entry Wire Line
	5400 1150 5500 1250
Entry Wire Line
	5400 1250 5500 1350
Entry Wire Line
	5400 1350 5500 1450
Entry Wire Line
	5400 1450 5500 1550
Entry Wire Line
	5450 2200 5550 2300
Entry Wire Line
	5450 2650 5550 2750
Entry Wire Line
	5450 3100 5550 3200
Entry Wire Line
	5450 3550 5550 3650
Entry Wire Line
	5450 4350 5550 4450
Entry Wire Line
	5450 4450 5550 4550
Entry Wire Line
	5450 4550 5550 4650
Entry Wire Line
	5450 4650 5550 4750
Entry Wire Line
	5450 4750 5550 4850
Entry Wire Line
	5450 4850 5550 4950
Entry Wire Line
	5450 4950 5550 5050
Entry Wire Line
	5450 5050 5550 5150
Entry Wire Line
	6400 6000 6500 5900
Entry Wire Line
	6400 6100 6500 6000
Entry Wire Line
	6400 6200 6500 6100
Entry Wire Line
	6400 6300 6500 6200
Entry Wire Line
	6400 6400 6500 6300
Entry Wire Line
	6400 6500 6500 6400
Entry Wire Line
	6400 6600 6500 6500
Entry Wire Line
	6400 6700 6500 6600
Wire Wire Line
	1650 4850 3050 4850
Wire Wire Line
	1650 4950 3050 4950
Wire Wire Line
	1900 4350 3050 4350
Wire Wire Line
	1900 4450 3050 4450
Wire Wire Line
	1900 4550 3050 4550
Wire Wire Line
	1900 4650 3050 4650
Wire Wire Line
	1900 4750 3050 4750
Wire Wire Line
	2650 2150 3150 2150
Wire Wire Line
	2650 2250 3250 2250
Wire Wire Line
	2650 2350 3350 2350
Wire Wire Line
	2650 2450 3450 2450
Wire Wire Line
	2950 5400 2950 5250
Wire Wire Line
	3050 5050 1900 5050
Wire Wire Line
	3050 5250 2950 5250
Wire Wire Line
	3050 5350 3050 5700
Wire Wire Line
	3050 5700 2900 5700
Wire Wire Line
	3150 1150 3150 2150
Wire Wire Line
	3150 2150 4350 2150
Wire Wire Line
	3250 2250 3250 1250
Wire Wire Line
	3250 2250 4150 2250
Wire Wire Line
	3350 1350 3350 2350
Wire Wire Line
	3350 2350 4050 2350
Wire Wire Line
	3450 1450 3450 2450
Wire Wire Line
	3450 2450 3950 2450
Wire Wire Line
	3950 3500 3950 2450
Wire Wire Line
	4050 2350 4050 3050
Wire Wire Line
	4050 3050 4350 3050
Wire Wire Line
	4050 4350 4200 4350
Wire Wire Line
	4050 4450 4300 4450
Wire Wire Line
	4050 4550 4400 4550
Wire Wire Line
	4050 4650 4500 4650
Wire Wire Line
	4050 4750 4600 4750
Wire Wire Line
	4050 4850 4700 4850
Wire Wire Line
	4050 4950 4800 4950
Wire Wire Line
	4050 5050 4900 5050
Wire Wire Line
	4100 1150 3150 1150
Wire Wire Line
	4100 1250 3250 1250
Wire Wire Line
	4100 1350 3350 1350
Wire Wire Line
	4100 1450 3450 1450
Wire Wire Line
	4150 2600 4150 2250
Wire Wire Line
	4200 4350 5450 4350
Wire Wire Line
	4200 6000 4200 4350
Wire Wire Line
	4200 6000 5100 6000
Wire Wire Line
	4250 2250 4250 2700
Wire Wire Line
	4250 2700 4250 3150
Wire Wire Line
	4250 3150 4250 3600
Wire Wire Line
	4250 3600 4150 3600
Wire Wire Line
	4250 3600 4350 3600
Wire Wire Line
	4300 4450 5450 4450
Wire Wire Line
	4300 6100 4300 4450
Wire Wire Line
	4300 6100 5100 6100
Wire Wire Line
	4350 2250 4250 2250
Wire Wire Line
	4350 2600 4150 2600
Wire Wire Line
	4350 2700 4250 2700
Wire Wire Line
	4350 3150 4250 3150
Wire Wire Line
	4350 3500 3950 3500
Wire Wire Line
	4400 4550 4400 6200
Wire Wire Line
	4400 4550 5450 4550
Wire Wire Line
	4400 6200 5100 6200
Wire Wire Line
	4500 4650 5450 4650
Wire Wire Line
	4500 6300 4500 4650
Wire Wire Line
	4500 6300 5100 6300
Wire Wire Line
	4600 4750 4600 6400
Wire Wire Line
	4600 4750 5450 4750
Wire Wire Line
	4600 6400 5100 6400
Wire Wire Line
	4700 4850 5450 4850
Wire Wire Line
	4700 6500 4700 4850
Wire Wire Line
	4700 6500 5100 6500
Wire Wire Line
	4800 4950 4800 6600
Wire Wire Line
	4800 4950 5450 4950
Wire Wire Line
	4800 6600 5100 6600
Wire Wire Line
	4900 2200 5450 2200
Wire Wire Line
	4900 2650 5450 2650
Wire Wire Line
	4900 3100 5450 3100
Wire Wire Line
	4900 3550 5450 3550
Wire Wire Line
	4900 5050 5450 5050
Wire Wire Line
	4900 6700 4900 5050
Wire Wire Line
	4900 6700 5100 6700
Wire Wire Line
	5100 1150 5400 1150
Wire Wire Line
	5100 1250 5400 1250
Wire Wire Line
	5100 1350 5400 1350
Wire Wire Line
	5100 1450 5400 1450
Wire Wire Line
	6100 6000 6400 6000
Wire Wire Line
	6100 6100 6400 6100
Wire Wire Line
	6100 6200 6400 6200
Wire Wire Line
	6100 6300 6400 6300
Wire Wire Line
	6100 6400 6400 6400
Wire Wire Line
	6100 6500 6400 6500
Wire Wire Line
	6100 6600 6400 6600
Wire Wire Line
	6100 6700 6400 6700
Wire Bus Line
	1550 4650 1400 4650
Wire Bus Line
	1800 4100 1700 4100
Wire Bus Line
	5500 1650 5600 1650
Wire Bus Line
	5550 5250 5700 5250
Wire Bus Line
	6500 1050 5500 1050
Text Label 2250 4350 2    50   ~ 0
CB0
Text Label 2250 4450 2    50   ~ 0
CB1
Text Label 2250 4550 2    50   ~ 0
CB2
Text Label 2250 4650 2    50   ~ 0
CB3
Text Label 2250 4750 2    50   ~ 0
CB4
Text Label 2250 4850 2    50   ~ 0
CPC0
Text Label 2250 4950 2    50   ~ 0
CPC1
Text Label 2250 5050 2    50   ~ 0
CDEN
Text Label 4950 4350 0    50   ~ 0
COL3-D4
Text Label 4950 4450 0    50   ~ 0
COL3-D5
Text Label 4950 4550 0    50   ~ 0
COL3-D6
Text Label 4950 4650 0    50   ~ 0
COL3-D7
Text Label 4950 4750 0    50   ~ 0
COL3-D8
Text Label 4950 4850 0    50   ~ 0
COL3-D9
Text Label 4950 4950 0    50   ~ 0
COL3-D10
Text Label 4950 5050 0    50   ~ 0
COL3-D11
Text Label 5000 2200 0    50   ~ 0
COL3-D0
Text Label 5000 2650 0    50   ~ 0
COL3-D1
Text Label 5000 3100 0    50   ~ 0
COL3-D2
Text Label 5000 3550 0    50   ~ 0
COL3-D3
Text Label 5150 1150 0    50   ~ 0
TD8
Text Label 5150 1250 0    50   ~ 0
TD9
Text Label 5150 1350 0    50   ~ 0
TD10
Text Label 5150 1450 0    50   ~ 0
TD11
Text Label 6150 6000 0    50   ~ 0
TD0
Text Label 6150 6100 0    50   ~ 0
TD1
Text Label 6150 6200 0    50   ~ 0
TD2
Text Label 6150 6300 0    50   ~ 0
TD3
Text Label 6150 6400 0    50   ~ 0
TD4
Text Label 6150 6500 0    50   ~ 0
TD5
Text Label 6150 6600 0    50   ~ 0
TD6
Text Label 6150 6700 0    50   ~ 0
TD7
Text HLabel 1400 4650 0    50   Input ~ 0
CPC[0..1]
Text HLabel 1700 4100 0    50   Input ~ 0
CB[0..4]
Text HLabel 1900 5050 0    50   Input ~ 0
CDEN
Text HLabel 2400 5350 0    50   Input ~ 0
SERIAL-END
Text HLabel 2400 5450 0    50   Input ~ 0
CLK8M
Text HLabel 2650 2150 0    50   Input ~ 0
GFX-A
Text HLabel 2650 2250 0    50   Input ~ 0
GFX-B
Text HLabel 2650 2350 0    50   Input ~ 0
GFX-C
Text HLabel 2650 2450 0    50   Input ~ 0
GFX-D
Text HLabel 4150 3600 0    50   Input ~ 0
~COL3-E
Text HLabel 5600 1650 2    50   Output ~ 0
TD[0..11]
Text HLabel 5700 5250 2    50   Output ~ 0
COL3-D[0..11]
$Comp
L power:VCC #PWR?
U 1 1 6226FE53
P 2900 5700
AR Path="/5F9B692F/6226FE53" Ref="#PWR?"  Part="1" 
AR Path="/622689A9/6226FE53" Ref="#PWR?"  Part="1" 
AR Path="/5FBBD4DB/5FBBDC12/6226FE53" Ref="#PWR0126"  Part="1" 
F 0 "#PWR0126" H 2900 5550 50  0001 C CNN
F 1 "VCC" H 2915 5873 50  0000 C CNN
F 2 "" H 2900 5700 50  0001 C CNN
F 3 "" H 2900 5700 50  0001 C CNN
	1    2900 5700
	1    0    0    -1  
$EndComp
$Comp
L A5C:NAND02 UAZ?
U 1 1 6226FE1F
P 2650 5400
AR Path="/60BA673A/6226FE1F" Ref="UAZ?"  Part="1" 
AR Path="/647995D9/6226FE1F" Ref="UAZ?"  Part="1" 
AR Path="/5F9B692F/6226FE1F" Ref="UAZ?"  Part="1" 
AR Path="/622689A9/6226FE1F" Ref="UAN91"  Part="1" 
AR Path="/5FBBD4DB/5FBBDC12/6226FE1F" Ref="UAN91"  Part="1" 
F 0 "UAN91" H 2675 5667 50  0000 C CNN
F 1 "NAND02" H 2675 5576 50  0000 C CNN
F 2 "" H 2650 5400 50  0001 C CNN
F 3 "" H 2650 5400 50  0001 C CNN
	1    2650 5400
	1    0    0    -1  
$EndComp
$Comp
L A5C:OR02 UBH?
U 1 1 6226FE25
P 4600 2200
AR Path="/5F9B692F/6226FE25" Ref="UBH?"  Part="1" 
AR Path="/622689A9/6226FE25" Ref="UBH39"  Part="1" 
AR Path="/5FBBD4DB/5FBBDC12/6226FE25" Ref="UBH39"  Part="1" 
F 0 "UBH39" H 4625 2467 50  0000 C CNN
F 1 "OR02" H 4625 2376 50  0000 C CNN
F 2 "" H 4650 2200 50  0001 C CNN
F 3 "" H 4650 2200 50  0001 C CNN
	1    4600 2200
	1    0    0    -1  
$EndComp
$Comp
L A5C:OR02 UBH?
U 1 1 6226FE2B
P 4600 2650
AR Path="/5F9B692F/6226FE2B" Ref="UBH?"  Part="1" 
AR Path="/622689A9/6226FE2B" Ref="UBH42"  Part="1" 
AR Path="/5FBBD4DB/5FBBDC12/6226FE2B" Ref="UBH42"  Part="1" 
F 0 "UBH42" H 4625 2917 50  0000 C CNN
F 1 "OR02" H 4625 2826 50  0000 C CNN
F 2 "" H 4650 2650 50  0001 C CNN
F 3 "" H 4650 2650 50  0001 C CNN
	1    4600 2650
	1    0    0    -1  
$EndComp
$Comp
L A5C:OR02 UBH?
U 1 1 6226FE31
P 4600 3100
AR Path="/5F9B692F/6226FE31" Ref="UBH?"  Part="1" 
AR Path="/622689A9/6226FE31" Ref="UBH44"  Part="1" 
AR Path="/5FBBD4DB/5FBBDC12/6226FE31" Ref="UBH44"  Part="1" 
F 0 "UBH44" H 4625 3367 50  0000 C CNN
F 1 "OR02" H 4625 3276 50  0000 C CNN
F 2 "" H 4650 3100 50  0001 C CNN
F 3 "" H 4650 3100 50  0001 C CNN
	1    4600 3100
	1    0    0    -1  
$EndComp
$Comp
L A5C:OR02 UBH?
U 1 1 6226FE37
P 4600 3550
AR Path="/5F9B692F/6226FE37" Ref="UBH?"  Part="1" 
AR Path="/622689A9/6226FE37" Ref="UBH46"  Part="1" 
AR Path="/5FBBD4DB/5FBBDC12/6226FE37" Ref="UBH46"  Part="1" 
F 0 "UBH46" H 4625 3817 50  0000 C CNN
F 1 "OR02" H 4625 3726 50  0000 C CNN
F 2 "" H 4650 3550 50  0001 C CNN
F 3 "" H 4650 3550 50  0001 C CNN
	1    4600 3550
	1    0    0    -1  
$EndComp
$Comp
L A5C:M367C UAV?
U 1 1 6226FE3E
P 4600 1400
AR Path="/5F9B692F/6226FE3E" Ref="UAV?"  Part="1" 
AR Path="/622689A9/6226FE3E" Ref="UAK116"  Part="1" 
AR Path="/5FBBD4DB/5FBBDC12/6226FE3E" Ref="UAK116"  Part="1" 
F 0 "UAK116" H 4600 1915 50  0000 C CNN
F 1 "M367C" H 4600 1824 50  0000 C CNN
F 2 "" H 4900 1200 50  0001 C CNN
F 3 "" H 4900 1200 50  0001 C CNN
F 4 "UAK118;UAK120;UAK121" H 4600 1400 50  0001 C CNN "MiscRef"
	1    4600 1400
	1    0    0    -1  
$EndComp
$Comp
L A5C:M541C UAK?
U 1 1 62298941
P 5600 6450
AR Path="/5F9AA26B/62298941" Ref="UAK?"  Part="1" 
AR Path="/622689A9/62298941" Ref="UAK81"  Part="1" 
AR Path="/5FBBD4DB/5FBBDC12/62298941" Ref="UAK81"  Part="1" 
F 0 "UAK81" H 5600 7165 50  0000 C CNN
F 1 "M541C" H 5600 7074 50  0000 C CNN
F 2 "" H 5900 6450 50  0001 C CNN
F 3 "" H 5900 6450 50  0001 C CNN
F 4 "UAK84;UAK88;UAK92;UAK96;UAK101;UAK105;UAK110;UAK115" H 5600 6450 50  0001 C CNN "MiscRef"
	1    5600 6450
	1    0    0    -1  
$EndComp
$Comp
L A5C:M273C UAG?
U 1 1 622814CF
P 3550 4850
AR Path="/5F9AA26B/622814CF" Ref="UAG?"  Part="1" 
AR Path="/622689A9/622814CF" Ref="UAG79"  Part="1" 
AR Path="/5FBBD4DB/5FBBDC12/622814CF" Ref="UAG79"  Part="1" 
F 0 "UAG79" H 3550 5617 50  0000 C CNN
F 1 "M273C" H 3550 5526 50  0000 C CNN
F 2 "" H 3550 4850 50  0001 C CNN
F 3 "" H 3550 4850 50  0001 C CNN
	1    3550 4850
	1    0    0    -1  
$EndComp
Text HLabel 4100 1600 0    50   Input ~ 0
~DEBUG
Text HLabel 5100 6900 0    50   Input ~ 0
~DEBUG
Wire Bus Line
	1550 4650 1550 4850
Wire Bus Line
	1800 4100 1800 4650
Wire Bus Line
	5500 1050 5500 1650
Wire Bus Line
	6500 1050 6500 6600
Wire Bus Line
	5550 2300 5550 5250
$EndSCHEMATC
