EESchema Schematic File Version 4
EELAYER 30 0
EELAYER END
$Descr A3 16535 11693
encoding utf-8
Sheet 11 69
Title ""
Date "2020-11-26"
Rev ""
Comp ""
Comment1 "Licence: CC-BY"
Comment2 "Author: Loïc *WydD* Petit"
Comment3 ""
Comment4 ""
$EndDescr
Connection ~ 8200 5950
Connection ~ 7900 6400
Connection ~ 7200 6050
Connection ~ 7200 7550
Connection ~ 7200 8300
Connection ~ 7900 7150
Connection ~ 7200 6800
Connection ~ 8100 7350
Connection ~ 8300 8000
Connection ~ 8000 8950
Connection ~ 8100 8850
Connection ~ 8000 8100
Connection ~ 8200 8750
Connection ~ 12750 6400
Connection ~ 12050 6050
Connection ~ 12050 5300
Connection ~ 12750 3400
Connection ~ 12050 3050
Connection ~ 12050 3800
Connection ~ 12050 4550
Connection ~ 12750 4900
Connection ~ 12750 2650
Connection ~ 12750 5650
Connection ~ 12750 4150
Connection ~ 8400 7900
Connection ~ 8300 8650
Connection ~ 8400 8550
Connection ~ 8400 6800
Connection ~ 8000 6150
Connection ~ 8200 6600
Connection ~ 8300 6700
Connection ~ 8300 5850
Connection ~ 8100 6050
Connection ~ 8500 5000
Connection ~ 8600 4900
Connection ~ 8700 4800
Connection ~ 8100 8200
Connection ~ 8200 8100
Connection ~ 8200 7400
Connection ~ 8400 7200
Connection ~ 8300 7300
Connection ~ 12750 7150
Connection ~ 12050 8300
Connection ~ 12050 6800
Connection ~ 12050 7550
Connection ~ 12750 7900
Connection ~ 7900 4900
Connection ~ 7900 5650
Connection ~ 8400 5100
Connection ~ 7900 2650
Connection ~ 8500 3500
Connection ~ 7900 3400
Connection ~ 7200 3050
Connection ~ 8800 2100
Connection ~ 8800 2500
Connection ~ 8700 2000
Connection ~ 7200 3800
Connection ~ 7900 4150
Connection ~ 7200 5300
Connection ~ 7200 4550
Connection ~ 8600 3600
Connection ~ 8700 2850
Connection ~ 8700 3300
Connection ~ 8700 2600
Connection ~ 8400 4250
Connection ~ 8500 4150
Connection ~ 8500 4350
Connection ~ 8800 4700
Connection ~ 8800 3850
Connection ~ 8600 3400
Connection ~ 8800 3200
Connection ~ 8600 2700
Connection ~ 8600 4050
Connection ~ 8700 3950
Connection ~ 2200 9000
Connection ~ 2300 8200
Connection ~ 2200 8100
Connection ~ 1650 9450
Connection ~ 3050 6100
Connection ~ 2200 6550
Connection ~ 4850 6550
Connection ~ 7550 1900
Connection ~ 2300 5150
Connection ~ 11500 9000
Connection ~ 12750 9000
Connection ~ 2200 8700
Connection ~ 3850 8500
NoConn ~ 3750 6650
NoConn ~ 3750 6000
NoConn ~ 3750 8600
Entry Wire Line
	1750 4400 1650 4300
Entry Wire Line
	1750 4500 1650 4400
Entry Wire Line
	1750 4600 1650 4500
Entry Wire Line
	1750 4700 1650 4600
Entry Wire Line
	1750 4800 1650 4700
Entry Wire Line
	1750 7550 1650 7450
Entry Wire Line
	1750 7650 1650 7550
Entry Wire Line
	1750 7750 1650 7650
Entry Wire Line
	1750 7850 1650 7750
Wire Wire Line
	1100 8950 1650 8950
Wire Wire Line
	1100 9450 1650 9450
Wire Wire Line
	1100 9950 1650 9950
Wire Wire Line
	1650 9050 1650 9450
Wire Wire Line
	1650 9450 1650 9850
Wire Wire Line
	1750 4400 2400 4400
Wire Wire Line
	1750 4500 2400 4500
Wire Wire Line
	1750 4600 2400 4600
Wire Wire Line
	1750 4700 2400 4700
Wire Wire Line
	1750 4800 2400 4800
Wire Wire Line
	1750 7550 2400 7550
Wire Wire Line
	1750 7650 2400 7650
Wire Wire Line
	1750 7750 2400 7750
Wire Wire Line
	1750 7850 2400 7850
Wire Wire Line
	1950 8200 2300 8200
Wire Wire Line
	2200 5050 2200 6550
Wire Wire Line
	2200 5050 2400 5050
Wire Wire Line
	2200 6550 2200 8100
Wire Wire Line
	2200 6550 3250 6550
Wire Wire Line
	2200 8100 2200 8700
Wire Wire Line
	2200 8100 2400 8100
Wire Wire Line
	2200 8700 2200 9000
Wire Wire Line
	2200 8700 2400 8700
Wire Wire Line
	2200 9000 6350 9000
Wire Wire Line
	2200 9900 11500 9900
Wire Wire Line
	2300 1900 2300 5150
Wire Wire Line
	2300 5150 2300 8200
Wire Wire Line
	2300 8200 2300 8900
Wire Wire Line
	2300 8900 3500 8900
Wire Wire Line
	2400 5150 2300 5150
Wire Wire Line
	2400 8200 2300 8200
Wire Wire Line
	2800 6100 3050 6100
Wire Wire Line
	3000 4400 4950 4400
Wire Wire Line
	3000 4500 4950 4500
Wire Wire Line
	3000 4600 4950 4600
Wire Wire Line
	3000 4700 4950 4700
Wire Wire Line
	3000 4800 4950 4800
Wire Wire Line
	3000 7550 4950 7550
Wire Wire Line
	3000 7650 4950 7650
Wire Wire Line
	3000 7750 4950 7750
Wire Wire Line
	3000 7850 4950 7850
Wire Wire Line
	3000 8700 3250 8700
Wire Wire Line
	3050 6100 3050 6750
Wire Wire Line
	3050 6100 3250 6100
Wire Wire Line
	3050 6750 3250 6750
Wire Wire Line
	3150 5900 3150 7150
Wire Wire Line
	3150 5900 3250 5900
Wire Wire Line
	3150 7150 3850 7150
Wire Wire Line
	3750 5900 4000 5900
Wire Wire Line
	3750 6550 4000 6550
Wire Wire Line
	3750 8500 3850 8500
Wire Wire Line
	3800 7000 4000 7000
Wire Wire Line
	3850 7150 3850 8500
Wire Wire Line
	3850 8500 3850 8900
Wire Wire Line
	3850 8900 6350 8900
Wire Wire Line
	4000 6450 4000 5900
Wire Wire Line
	4000 6650 4000 7000
Wire Wire Line
	4350 650  10850 650 
Wire Wire Line
	4350 5400 4350 650 
Wire Wire Line
	4450 750  4450 5300
Wire Wire Line
	4450 750  10750 750 
Wire Wire Line
	4450 5300 4950 5300
Wire Wire Line
	4450 8050 4450 10300
Wire Wire Line
	4450 10300 10850 10300
Wire Wire Line
	4550 850  4550 5200
Wire Wire Line
	4550 850  10650 850 
Wire Wire Line
	4550 5200 4950 5200
Wire Wire Line
	4550 8150 4550 10200
Wire Wire Line
	4550 8150 4950 8150
Wire Wire Line
	4550 10200 10750 10200
Wire Wire Line
	4650 950  10550 950 
Wire Wire Line
	4650 5100 4650 950 
Wire Wire Line
	4650 8250 4650 10100
Wire Wire Line
	4650 10100 10650 10100
Wire Wire Line
	4750 1050 4750 5000
Wire Wire Line
	4750 1050 10450 1050
Wire Wire Line
	4750 5000 4950 5000
Wire Wire Line
	4750 8350 4750 10000
Wire Wire Line
	4750 8350 4950 8350
Wire Wire Line
	4750 10000 10550 10000
Wire Wire Line
	4850 5600 4850 6550
Wire Wire Line
	4850 5600 4950 5600
Wire Wire Line
	4850 6550 4850 8550
Wire Wire Line
	4850 8550 4950 8550
Wire Wire Line
	4950 5100 4650 5100
Wire Wire Line
	4950 5400 4350 5400
Wire Wire Line
	4950 8050 4450 8050
Wire Wire Line
	4950 8250 4650 8250
Wire Wire Line
	5950 4800 6900 4800
Wire Wire Line
	5950 5000 7100 5000
Wire Wire Line
	5950 7800 6900 7800
Wire Wire Line
	5950 7900 7000 7900
Wire Wire Line
	5950 8000 7100 8000
Wire Wire Line
	5950 8100 7300 8100
Wire Wire Line
	6800 2100 6800 4700
Wire Wire Line
	6800 2100 7300 2100
Wire Wire Line
	6800 4700 5950 4700
Wire Wire Line
	6900 2850 7300 2850
Wire Wire Line
	6900 4800 6900 2850
Wire Wire Line
	6900 5850 6900 7800
Wire Wire Line
	6900 5850 7300 5850
Wire Wire Line
	7000 3600 7000 4900
Wire Wire Line
	7000 3600 7300 3600
Wire Wire Line
	7000 4900 5950 4900
Wire Wire Line
	7000 6600 7000 7900
Wire Wire Line
	7000 6600 7300 6600
Wire Wire Line
	7100 4350 7300 4350
Wire Wire Line
	7100 5000 7100 4350
Wire Wire Line
	7100 7350 7300 7350
Wire Wire Line
	7100 8000 7100 7350
Wire Wire Line
	7200 2300 7200 3050
Wire Wire Line
	7200 3050 7200 3800
Wire Wire Line
	7200 3800 7200 4550
Wire Wire Line
	7200 4550 7200 5300
Wire Wire Line
	7200 5300 7200 6050
Wire Wire Line
	7200 5300 7300 5300
Wire Wire Line
	7200 6050 7200 6800
Wire Wire Line
	7200 6800 7200 7550
Wire Wire Line
	7200 7550 7200 8300
Wire Wire Line
	7200 9000 7200 8300
Wire Wire Line
	7300 2300 7200 2300
Wire Wire Line
	7300 3050 7200 3050
Wire Wire Line
	7300 3800 7200 3800
Wire Wire Line
	7300 4550 7200 4550
Wire Wire Line
	7300 5100 5950 5100
Wire Wire Line
	7300 6050 7200 6050
Wire Wire Line
	7300 6800 7200 6800
Wire Wire Line
	7300 7550 7200 7550
Wire Wire Line
	7300 8300 7200 8300
Wire Wire Line
	7550 1900 2300 1900
Wire Wire Line
	7550 1900 7900 1900
Wire Wire Line
	7550 2650 7900 2650
Wire Wire Line
	7550 4150 7900 4150
Wire Wire Line
	7550 5650 7900 5650
Wire Wire Line
	7550 6400 7900 6400
Wire Wire Line
	7550 7900 7900 7900
Wire Wire Line
	7800 2100 8800 2100
Wire Wire Line
	7800 2850 8700 2850
Wire Wire Line
	7800 3600 8600 3600
Wire Wire Line
	7800 4350 8500 4350
Wire Wire Line
	7800 5100 8400 5100
Wire Wire Line
	7800 5850 8300 5850
Wire Wire Line
	7800 6600 8200 6600
Wire Wire Line
	7800 7350 8100 7350
Wire Wire Line
	7800 8100 8000 8100
Wire Wire Line
	7900 1900 7900 2650
Wire Wire Line
	7900 2650 7900 3400
Wire Wire Line
	7900 3400 7550 3400
Wire Wire Line
	7900 3400 7900 4150
Wire Wire Line
	7900 4150 7900 4900
Wire Wire Line
	7900 4900 7550 4900
Wire Wire Line
	7900 4900 7900 5650
Wire Wire Line
	7900 5650 7900 6400
Wire Wire Line
	7900 6400 7900 7150
Wire Wire Line
	7900 7150 7550 7150
Wire Wire Line
	7900 7150 7900 7900
Wire Wire Line
	8000 1450 8000 6150
Wire Wire Line
	8000 6150 8000 8100
Wire Wire Line
	8000 6150 11250 6150
Wire Wire Line
	8000 8100 8000 8950
Wire Wire Line
	8000 8950 9850 8950
Wire Wire Line
	8000 9800 8000 8950
Wire Wire Line
	8000 9800 9100 9800
Wire Wire Line
	8100 1450 8100 6050
Wire Wire Line
	8100 6050 8100 7350
Wire Wire Line
	8100 6050 11350 6050
Wire Wire Line
	8100 7350 8100 8200
Wire Wire Line
	8100 8200 8100 8850
Wire Wire Line
	8100 8200 9850 8200
Wire Wire Line
	8100 8850 9250 8850
Wire Wire Line
	8100 9700 8100 8850
Wire Wire Line
	8100 9700 9100 9700
Wire Wire Line
	8200 1450 8200 5950
Wire Wire Line
	8200 5950 8200 6600
Wire Wire Line
	8200 5950 11450 5950
Wire Wire Line
	8200 6600 8200 7400
Wire Wire Line
	8200 7400 8200 8100
Wire Wire Line
	8200 7400 9850 7400
Wire Wire Line
	8200 8100 8200 8750
Wire Wire Line
	8200 8100 9250 8100
Wire Wire Line
	8200 8750 9250 8750
Wire Wire Line
	8200 9600 8200 8750
Wire Wire Line
	8200 9600 9100 9600
Wire Wire Line
	8300 1450 8300 5850
Wire Wire Line
	8300 5850 8300 6700
Wire Wire Line
	8300 5850 12150 5850
Wire Wire Line
	8300 6700 8300 7300
Wire Wire Line
	8300 6700 9850 6700
Wire Wire Line
	8300 7300 8300 8000
Wire Wire Line
	8300 7300 9300 7300
Wire Wire Line
	8300 8000 8300 8650
Wire Wire Line
	8300 8000 9250 8000
Wire Wire Line
	8300 8650 9250 8650
Wire Wire Line
	8300 9500 8300 8650
Wire Wire Line
	8300 9500 9100 9500
Wire Wire Line
	8400 1450 8400 4250
Wire Wire Line
	8400 4250 8400 5100
Wire Wire Line
	8400 5750 8400 5100
Wire Wire Line
	8400 5750 11450 5750
Wire Wire Line
	8400 6250 8400 6800
Wire Wire Line
	8400 6800 8400 7200
Wire Wire Line
	8400 6800 9850 6800
Wire Wire Line
	8400 7200 8400 7900
Wire Wire Line
	8400 7200 9300 7200
Wire Wire Line
	8400 7900 8400 8550
Wire Wire Line
	8400 7900 9250 7900
Wire Wire Line
	8400 8550 9250 8550
Wire Wire Line
	8400 9400 8400 8550
Wire Wire Line
	8400 9400 9100 9400
Wire Wire Line
	8500 1450 8500 3500
Wire Wire Line
	8500 3500 8500 4150
Wire Wire Line
	8500 4150 8500 4350
Wire Wire Line
	8500 4350 8500 5000
Wire Wire Line
	8500 5650 8500 5000
Wire Wire Line
	8500 5650 11350 5650
Wire Wire Line
	8600 1450 8600 2700
Wire Wire Line
	8600 2700 8600 3400
Wire Wire Line
	8600 3400 8600 3600
Wire Wire Line
	8600 3600 8600 4050
Wire Wire Line
	8600 4050 8600 4900
Wire Wire Line
	8600 5550 8600 4900
Wire Wire Line
	8600 5550 11250 5550
Wire Wire Line
	8700 1450 8700 2000
Wire Wire Line
	8700 2000 8700 2600
Wire Wire Line
	8700 2600 8700 2850
Wire Wire Line
	8700 2850 8700 3300
Wire Wire Line
	8700 3300 8700 3950
Wire Wire Line
	8700 3950 8700 4800
Wire Wire Line
	8700 5450 8700 4800
Wire Wire Line
	8700 5450 11150 5450
Wire Wire Line
	8800 1450 8800 2100
Wire Wire Line
	8800 2100 8800 2500
Wire Wire Line
	8800 2500 8800 3200
Wire Wire Line
	8800 3200 8800 3850
Wire Wire Line
	8800 3850 8800 4700
Wire Wire Line
	8800 5350 8800 4700
Wire Wire Line
	8800 5350 11050 5350
Wire Wire Line
	9100 4700 8800 4700
Wire Wire Line
	9100 4800 8700 4800
Wire Wire Line
	9100 4900 8600 4900
Wire Wire Line
	9100 5000 8500 5000
Wire Wire Line
	9100 5100 8400 5100
Wire Wire Line
	9250 3200 8800 3200
Wire Wire Line
	9250 3300 8700 3300
Wire Wire Line
	9250 3400 8600 3400
Wire Wire Line
	9250 3850 8800 3850
Wire Wire Line
	9250 3950 8700 3950
Wire Wire Line
	9250 4050 8600 4050
Wire Wire Line
	9250 4150 8500 4150
Wire Wire Line
	9300 2500 8800 2500
Wire Wire Line
	9300 2600 8700 2600
Wire Wire Line
	9850 1450 8800 1450
Wire Wire Line
	9850 2000 8700 2000
Wire Wire Line
	9850 2100 8800 2100
Wire Wire Line
	9850 2600 9850 2550
Wire Wire Line
	9850 2700 8600 2700
Wire Wire Line
	9850 3300 9850 3400
Wire Wire Line
	9850 3500 8500 3500
Wire Wire Line
	9850 4000 9850 4150
Wire Wire Line
	9850 4250 8400 4250
Wire Wire Line
	9850 7300 9850 7250
Wire Wire Line
	9850 8100 9850 8000
Wire Wire Line
	9850 8700 9850 8850
Wire Wire Line
	10400 2050 10550 2050
Wire Wire Line
	10400 2650 10650 2650
Wire Wire Line
	10400 3450 10750 3450
Wire Wire Line
	10400 4200 10850 4200
Wire Wire Line
	10400 6750 10850 6750
Wire Wire Line
	10400 7350 10750 7350
Wire Wire Line
	10400 8150 10650 8150
Wire Wire Line
	10400 8900 10550 8900
Wire Wire Line
	10450 1450 10450 1050
Wire Wire Line
	10450 4900 10450 6250
Wire Wire Line
	10450 6250 8400 6250
Wire Wire Line
	10450 9600 13650 9600
Wire Wire Line
	10550 950  10550 2050
Wire Wire Line
	10550 8900 10550 10000
Wire Wire Line
	10650 2650 10650 850 
Wire Wire Line
	10650 8150 10650 10100
Wire Wire Line
	10750 750  10750 3450
Wire Wire Line
	10750 7350 10750 10200
Wire Wire Line
	10850 650  10850 4200
Wire Wire Line
	10850 6750 10850 10300
Wire Wire Line
	11050 2100 11050 5350
Wire Wire Line
	11050 2100 12150 2100
Wire Wire Line
	11150 2850 11150 5450
Wire Wire Line
	11250 3600 11250 5550
Wire Wire Line
	11250 8100 11250 6150
Wire Wire Line
	11250 8100 12150 8100
Wire Wire Line
	11350 4350 11350 5650
Wire Wire Line
	11350 7350 11350 6050
Wire Wire Line
	11350 7350 12150 7350
Wire Wire Line
	11450 5100 11450 5750
Wire Wire Line
	11450 6600 11450 5950
Wire Wire Line
	11450 6600 12150 6600
Wire Wire Line
	11500 8500 11500 9000
Wire Wire Line
	11500 9000 11500 9900
Wire Wire Line
	12050 2300 12050 3050
Wire Wire Line
	12050 3050 12050 3800
Wire Wire Line
	12050 3800 12050 4550
Wire Wire Line
	12050 4550 12050 5300
Wire Wire Line
	12050 5300 12050 6050
Wire Wire Line
	12050 6050 12050 6800
Wire Wire Line
	12050 6800 12050 7550
Wire Wire Line
	12050 7550 12050 8300
Wire Wire Line
	12050 8300 12150 8300
Wire Wire Line
	12050 8450 12050 8300
Wire Wire Line
	12150 2300 12050 2300
Wire Wire Line
	12150 2850 11150 2850
Wire Wire Line
	12150 3050 12050 3050
Wire Wire Line
	12150 3600 11250 3600
Wire Wire Line
	12150 3800 12050 3800
Wire Wire Line
	12150 4350 11350 4350
Wire Wire Line
	12150 4550 12050 4550
Wire Wire Line
	12150 5100 11450 5100
Wire Wire Line
	12150 5300 12050 5300
Wire Wire Line
	12150 6050 12050 6050
Wire Wire Line
	12150 6800 12050 6800
Wire Wire Line
	12150 7550 12050 7550
Wire Wire Line
	12400 1900 12750 1900
Wire Wire Line
	12400 2650 12750 2650
Wire Wire Line
	12400 4150 12750 4150
Wire Wire Line
	12400 5650 12750 5650
Wire Wire Line
	12400 6400 12750 6400
Wire Wire Line
	12400 7900 12750 7900
Wire Wire Line
	12750 1900 12750 2650
Wire Wire Line
	12750 2650 12750 3400
Wire Wire Line
	12750 3400 12400 3400
Wire Wire Line
	12750 3400 12750 4150
Wire Wire Line
	12750 4150 12750 4900
Wire Wire Line
	12750 4900 12400 4900
Wire Wire Line
	12750 4900 12750 5650
Wire Wire Line
	12750 5650 12750 6400
Wire Wire Line
	12750 6400 12750 7150
Wire Wire Line
	12750 7150 12400 7150
Wire Wire Line
	12750 7150 12750 7900
Wire Wire Line
	12750 7900 12750 9000
Wire Wire Line
	12750 9000 11500 9000
Wire Wire Line
	12750 9000 12850 9000
Wire Bus Line
	1350 4150 1650 4150
Text Label 1850 4400 0    50   ~ 0
~BUS0
Text Label 1850 4500 0    50   ~ 0
~BUS1
Text Label 1850 4600 0    50   ~ 0
~BUS2
Text Label 1850 4700 0    50   ~ 0
~BUS3
Text Label 1850 4800 0    50   ~ 0
~BUS4
Text Label 1850 7550 0    50   ~ 0
~BUS5
Text Label 1850 7650 0    50   ~ 0
~BUS6
Text Label 1850 7750 0    50   ~ 0
~BUS7
Text Label 1850 7850 0    50   ~ 0
~BUS8
Text Label 3050 6750 2    50   ~ 0
~CLK4M
Text Label 11500 8400 2    50   ~ 0
~CLK4M
Text HLabel 1100 8950 0    50   Input ~ 0
WR
Text HLabel 1100 9450 0    50   Input ~ 0
ENABLE
Text HLabel 1100 9950 0    50   Input ~ 0
RD
Text HLabel 1350 4150 0    50   Input ~ 0
~BUS[0..8]
Text HLabel 1950 8200 0    50   Input ~ 0
~RESET
Text HLabel 2800 6100 0    50   Input ~ 0
~CLK4M
Text HLabel 3250 8500 0    50   Input ~ 0
UK
Text HLabel 3800 7000 0    50   Input ~ 0
SET-~INC
Text HLabel 6350 9100 0    50   Input ~ 0
LI
Text HLabel 12850 9000 2    50   Output ~ 0
~OUT-ENABLE
Text HLabel 13650 9600 2    50   Output ~ 0
~ZERO
$Comp
L A5C:NOR02 UBZ313
U 1 1 5F6189DB
P 1900 9000
AR Path="/5F5F24AB/5F6189DB" Ref="UBZ313"  Part="1" 
AR Path="/5FBC4837/5FBC4DC5/5F6189DB" Ref="UBZ313"  Part="1" 
F 0 "UBZ313" H 1925 9267 50  0000 C CNN
F 1 "NOR02" H 1925 9176 50  0000 C CNN
F 2 "" H 1900 9000 50  0001 C CNN
F 3 "" H 1900 9000 50  0001 C CNN
	1    1900 9000
	1    0    0    -1  
$EndComp
$Comp
L A5C:OR02 UBW410
U 1 1 7E47C993
P 1900 9900
AR Path="/5F5F24AB/7E47C993" Ref="UBW410"  Part="1" 
AR Path="/5FBC4837/5FBC4DC5/7E47C993" Ref="UBW410"  Part="1" 
F 0 "UBW410" H 1925 10167 50  0000 C CNN
F 1 "OR02" H 1925 10076 50  0000 C CNN
F 2 "" H 1950 9900 50  0001 C CNN
F 3 "" H 1950 9900 50  0001 C CNN
	1    1900 9900
	1    0    0    -1  
$EndComp
$Comp
L A5C:OR02 UBH320
U 1 1 7E47C79A
P 9550 2550
AR Path="/5F5F24AB/7E47C79A" Ref="UBH320"  Part="1" 
AR Path="/5FBC4837/5FBC4DC5/7E47C79A" Ref="UBH320"  Part="1" 
F 0 "UBH320" H 9575 2817 50  0000 C CNN
F 1 "OR02" H 9575 2726 50  0000 C CNN
F 2 "" H 9600 2550 50  0001 C CNN
F 3 "" H 9600 2550 50  0001 C CNN
	1    9550 2550
	1    0    0    -1  
$EndComp
$Comp
L A5C:OR02 UCJ481
U 1 1 7E47C856
P 9550 7250
AR Path="/5F5F24AB/7E47C856" Ref="UCJ481"  Part="1" 
AR Path="/5FBC4837/5FBC4DC5/7E47C856" Ref="UCJ481"  Part="1" 
F 0 "UCJ481" H 9575 7517 50  0000 C CNN
F 1 "OR02" H 9575 7426 50  0000 C CNN
F 2 "" H 9600 7250 50  0001 C CNN
F 3 "" H 9600 7250 50  0001 C CNN
	1    9550 7250
	1    0    0    -1  
$EndComp
$Comp
L A5C:XNOR02 UBH318
U 1 1 7E47C783
P 10100 2050
AR Path="/5F5F24AB/7E47C783" Ref="UBH318"  Part="1" 
AR Path="/5FBC4837/5FBC4DC5/7E47C783" Ref="UBH318"  Part="1" 
F 0 "UBH318" H 10100 2367 50  0000 C CNN
F 1 "XNOR02" H 10100 2276 50  0000 C CNN
F 2 "" H 10100 2050 50  0001 C CNN
F 3 "" H 10100 2050 50  0001 C CNN
	1    10100 2050
	1    0    0    -1  
$EndComp
$Comp
L A5C:XNOR02 UBH333
U 1 1 7E47C794
P 10100 2650
AR Path="/5F5F24AB/7E47C794" Ref="UBH333"  Part="1" 
AR Path="/5FBC4837/5FBC4DC5/7E47C794" Ref="UBH333"  Part="1" 
F 0 "UBH333" H 10100 2967 50  0000 C CNN
F 1 "XNOR02" H 10100 2876 50  0000 C CNN
F 2 "" H 10100 2650 50  0001 C CNN
F 3 "" H 10100 2650 50  0001 C CNN
	1    10100 2650
	1    0    0    -1  
$EndComp
$Comp
L A5C:XNOR02 UBD400
U 1 1 7E47C7B5
P 10100 3450
AR Path="/5F5F24AB/7E47C7B5" Ref="UBD400"  Part="1" 
AR Path="/5FBC4837/5FBC4DC5/7E47C7B5" Ref="UBD400"  Part="1" 
F 0 "UBD400" H 10100 3767 50  0000 C CNN
F 1 "XNOR02" H 10100 3676 50  0000 C CNN
F 2 "" H 10100 3450 50  0001 C CNN
F 3 "" H 10100 3450 50  0001 C CNN
	1    10100 3450
	1    0    0    -1  
$EndComp
$Comp
L A5C:XNOR02 UBH424
U 1 1 7E47C7A3
P 10100 4200
AR Path="/5F5F24AB/7E47C7A3" Ref="UBH424"  Part="1" 
AR Path="/5FBC4837/5FBC4DC5/7E47C7A3" Ref="UBH424"  Part="1" 
F 0 "UBH424" H 10100 4517 50  0000 C CNN
F 1 "XNOR02" H 10100 4426 50  0000 C CNN
F 2 "" H 10100 4200 50  0001 C CNN
F 3 "" H 10100 4200 50  0001 C CNN
	1    10100 4200
	1    0    0    -1  
$EndComp
$Comp
L A5C:XNOR02 UCL491
U 1 1 7E47C849
P 10100 6750
AR Path="/5F5F24AB/7E47C849" Ref="UCL491"  Part="1" 
AR Path="/5FBC4837/5FBC4DC5/7E47C849" Ref="UCL491"  Part="1" 
F 0 "UCL491" H 10100 7067 50  0000 C CNN
F 1 "XNOR02" H 10100 6976 50  0000 C CNN
F 2 "" H 10100 6750 50  0001 C CNN
F 3 "" H 10100 6750 50  0001 C CNN
	1    10100 6750
	1    0    0    -1  
$EndComp
$Comp
L A5C:XNOR02 UCJ478
U 1 1 7E47C850
P 10100 7350
AR Path="/5F5F24AB/7E47C850" Ref="UCJ478"  Part="1" 
AR Path="/5FBC4837/5FBC4DC5/7E47C850" Ref="UCJ478"  Part="1" 
F 0 "UCJ478" H 10100 7667 50  0000 C CNN
F 1 "XNOR02" H 10100 7576 50  0000 C CNN
F 2 "" H 10100 7350 50  0001 C CNN
F 3 "" H 10100 7350 50  0001 C CNN
	1    10100 7350
	1    0    0    -1  
$EndComp
$Comp
L A5C:XNOR02 UCR515
U 1 1 7E47C868
P 10100 8150
AR Path="/5F5F24AB/7E47C868" Ref="UCR515"  Part="1" 
AR Path="/5FBC4837/5FBC4DC5/7E47C868" Ref="UCR515"  Part="1" 
F 0 "UCR515" H 10100 8467 50  0000 C CNN
F 1 "XNOR02" H 10100 8376 50  0000 C CNN
F 2 "" H 10100 8150 50  0001 C CNN
F 3 "" H 10100 8150 50  0001 C CNN
	1    10100 8150
	1    0    0    -1  
$EndComp
$Comp
L A5C:XNOR02 UCO519
U 1 1 7E47C85C
P 10100 8900
AR Path="/5F5F24AB/7E47C85C" Ref="UCO519"  Part="1" 
AR Path="/5FBC4837/5FBC4DC5/7E47C85C" Ref="UCO519"  Part="1" 
F 0 "UCO519" H 10100 9217 50  0000 C CNN
F 1 "XNOR02" H 10100 9126 50  0000 C CNN
F 2 "" H 10100 8900 50  0001 C CNN
F 3 "" H 10100 8900 50  0001 C CNN
	1    10100 8900
	1    0    0    -1  
$EndComp
$Comp
L A5C:NAND02 UBH485
U 1 1 7E47C988
P 11750 8450
AR Path="/5F5F24AB/7E47C988" Ref="UBH485"  Part="1" 
AR Path="/5FBC4837/5FBC4DC5/7E47C988" Ref="UBH485"  Part="1" 
F 0 "UBH485" H 11775 8717 50  0000 C CNN
F 1 "NAND02" H 11775 8626 50  0000 C CNN
F 2 "" H 11750 8450 50  0001 C CNN
F 3 "" H 11750 8450 50  0001 C CNN
	1    11750 8450
	1    0    0    -1  
$EndComp
$Comp
L A5C:INV01 UBW283
U 1 1 5F731BD4
P 2700 8700
AR Path="/5F5F24AB/5F731BD4" Ref="UBW283"  Part="1" 
AR Path="/5FBC4837/5FBC4DC5/5F731BD4" Ref="UBW283"  Part="1" 
F 0 "UBW283" H 2700 9016 50  0000 C CNN
F 1 "INV01" H 2700 8925 50  0000 C CNN
F 2 "" H 2700 8500 50  0001 C CNN
F 3 "" H 2700 8500 50  0001 C CNN
	1    2700 8700
	1    0    0    -1  
$EndComp
$Comp
L A5C:OR03 UBD372
U 1 1 7E47C7BB
P 9550 3300
AR Path="/5F5F24AB/7E47C7BB" Ref="UBD372"  Part="1" 
AR Path="/5FBC4837/5FBC4DC5/7E47C7BB" Ref="UBD372"  Part="1" 
F 0 "UBD372" H 9550 3617 50  0000 C CNN
F 1 "OR03" H 9550 3526 50  0000 C CNN
F 2 "" H 9550 3300 50  0001 C CNN
F 3 "" H 9550 3300 50  0001 C CNN
	1    9550 3300
	1    0    0    -1  
$EndComp
$Comp
L A5C:OR03 UCR519
U 1 1 7E47C86E
P 9550 8000
AR Path="/5F5F24AB/7E47C86E" Ref="UCR519"  Part="1" 
AR Path="/5FBC4837/5FBC4DC5/7E47C86E" Ref="UCR519"  Part="1" 
F 0 "UCR519" H 9550 8317 50  0000 C CNN
F 1 "OR03" H 9550 8226 50  0000 C CNN
F 2 "" H 9550 8000 50  0001 C CNN
F 3 "" H 9550 8000 50  0001 C CNN
	1    9550 8000
	1    0    0    -1  
$EndComp
$Comp
L A5C:INV01 UBH335
U 1 1 7E47C7AF
P 10150 1450
AR Path="/5F5F24AB/7E47C7AF" Ref="UBH335"  Part="1" 
AR Path="/5FBC4837/5FBC4DC5/7E47C7AF" Ref="UBH335"  Part="1" 
F 0 "UBH335" H 10150 1767 50  0000 C CNN
F 1 "INV01" H 10150 1676 50  0000 C CNN
F 2 "" H 10150 1250 50  0001 C CNN
F 3 "" H 10150 1250 50  0001 C CNN
	1    10150 1450
	1    0    0    -1  
$EndComp
$Comp
L A5C:INV01 UCC479
U 1 1 7E47C772
P 10150 4900
AR Path="/5F5F24AB/7E47C772" Ref="UCC479"  Part="1" 
AR Path="/5FBC4837/5FBC4DC5/7E47C772" Ref="UCC479"  Part="1" 
F 0 "UCC479" H 10150 5217 50  0000 C CNN
F 1 "INV01" H 10150 5126 50  0000 C CNN
F 2 "" H 10150 4700 50  0001 C CNN
F 3 "" H 10150 4700 50  0001 C CNN
	1    10150 4900
	1    0    0    -1  
$EndComp
$Comp
L A5C:INV01 UCL377
U 1 1 7E47C843
P 10150 9600
AR Path="/5F5F24AB/7E47C843" Ref="UCL377"  Part="1" 
AR Path="/5FBC4837/5FBC4DC5/7E47C843" Ref="UCL377"  Part="1" 
F 0 "UCL377" H 10150 9917 50  0000 C CNN
F 1 "INV01" H 10150 9826 50  0000 C CNN
F 2 "" H 10150 9400 50  0001 C CNN
F 3 "" H 10150 9400 50  0001 C CNN
	1    10150 9600
	1    0    0    -1  
$EndComp
$Comp
L A5C:DFFCOO UBZ277
U 1 1 5F618ABF
P 3500 6000
AR Path="/5F5F24AB/5F618ABF" Ref="UBZ277"  Part="1" 
AR Path="/5FBC4837/5FBC4DC5/5F618ABF" Ref="UBZ277"  Part="1" 
F 0 "UBZ277" H 3500 6361 50  0000 C CNN
F 1 "DFFCOO" H 3500 6270 50  0000 C CNN
F 2 "" H 3500 6000 50  0001 C CNN
F 3 "" H 3500 6000 50  0001 C CNN
F 4 "UBZ276" H 3500 6000 50  0001 C CNN "MiscRef"
	1    3500 6000
	1    0    0    -1  
$EndComp
$Comp
L A5C:DFFCOO UBZ281
U 1 1 5F618A89
P 3500 6650
AR Path="/5F5F24AB/5F618A89" Ref="UBZ281"  Part="1" 
AR Path="/5FBC4837/5FBC4DC5/5F618A89" Ref="UBZ281"  Part="1" 
F 0 "UBZ281" H 3500 7011 50  0000 C CNN
F 1 "DFFCOO" H 3500 6920 50  0000 C CNN
F 2 "" H 3500 6650 50  0001 C CNN
F 3 "" H 3500 6650 50  0001 C CNN
	1    3500 6650
	1    0    0    -1  
$EndComp
$Comp
L A5C:OR04 UBD411
U 1 1 7E47C7A9
P 9550 4000
AR Path="/5F5F24AB/7E47C7A9" Ref="UBD411"  Part="1" 
AR Path="/5FBC4837/5FBC4DC5/7E47C7A9" Ref="UBD411"  Part="1" 
F 0 "UBD411" H 9550 4342 50  0000 C CNN
F 1 "OR04" H 9550 4251 50  0000 C CNN
F 2 "" H 9550 4000 50  0001 C CNN
F 3 "" H 9550 4000 50  0001 C CNN
	1    9550 4000
	1    0    0    -1  
$EndComp
$Comp
L A5C:OR04 UCL519
U 1 1 7E47C862
P 9550 8700
AR Path="/5F5F24AB/7E47C862" Ref="UCL519"  Part="1" 
AR Path="/5FBC4837/5FBC4DC5/7E47C862" Ref="UCL519"  Part="1" 
F 0 "UCL519" H 9550 9042 50  0000 C CNN
F 1 "OR04" H 9550 8951 50  0000 C CNN
F 2 "" H 9550 8700 50  0001 C CNN
F 3 "" H 9550 8700 50  0001 C CNN
	1    9550 8700
	1    0    0    -1  
$EndComp
$Comp
L A5C:AOI21 UBW308
U 1 1 601E0AB8
P 4400 6550
AR Path="/5F5F24AB/601E0AB8" Ref="UBW308"  Part="1" 
AR Path="/5FBC4837/5FBC4DC5/601E0AB8" Ref="UBW308"  Part="1" 
F 0 "UBW308" H 4425 6867 50  0000 C CNN
F 1 "AOI21" H 4425 6776 50  0000 C CNN
F 2 "" H 4550 6550 50  0001 C CNN
F 3 "" H 4550 6550 50  0001 C CNN
	1    4400 6550
	1    0    0    -1  
$EndComp
$Comp
L A5C:AOI21 UBW272
U 1 1 7E47C835
P 6750 9000
AR Path="/5F5F24AB/7E47C835" Ref="UBW272"  Part="1" 
AR Path="/5FBC4837/5FBC4DC5/7E47C835" Ref="UBW272"  Part="1" 
F 0 "UBW272" H 6775 9317 50  0000 C CNN
F 1 "AOI21" H 6775 9226 50  0000 C CNN
F 2 "" H 6900 9000 50  0001 C CNN
F 3 "" H 6900 9000 50  0001 C CNN
	1    6750 9000
	1    0    0    -1  
$EndComp
$Comp
L A5C:DFFCOR UBU279
U 1 1 5F733C69
P 3500 8600
AR Path="/5F5F24AB/5F733C69" Ref="UBU279"  Part="1" 
AR Path="/5FBC4837/5FBC4DC5/5F733C69" Ref="UBU279"  Part="1" 
F 0 "UBU279" H 3500 8961 50  0000 C CNN
F 1 "DFFCOR" H 3500 8870 50  0000 C CNN
F 2 "" H 3500 8600 50  0001 C CNN
F 3 "" H 3500 8600 50  0001 C CNN
F 4 "UBU277;UBU284" H 3500 8600 50  0001 C CNN "MiscRef"
	1    3500 8600
	1    0    0    -1  
$EndComp
$Comp
L A5C:DFFCOS UBD342
U 1 1 7E47C72A
P 7550 2200
AR Path="/5F5F24AB/7E47C72A" Ref="UBD342"  Part="1" 
AR Path="/5FBC4837/5FBC4DC5/7E47C72A" Ref="UBD342"  Part="1" 
F 0 "UBD342" H 7550 1927 50  0000 C CNN
F 1 "DFFCOS" H 7550 1836 50  0000 C CNN
F 2 "" H 7550 2200 50  0001 C CNN
F 3 "" H 7550 2200 50  0001 C CNN
F 4 "UBD339;UBD364" H 7550 2200 50  0001 C CNN "MiscRef"
	1    7550 2200
	1    0    0    -1  
$EndComp
$Comp
L A5C:DFFCOS UBD346
U 1 1 7E47C730
P 7550 2950
AR Path="/5F5F24AB/7E47C730" Ref="UBD346"  Part="1" 
AR Path="/5FBC4837/5FBC4DC5/7E47C730" Ref="UBD346"  Part="1" 
F 0 "UBD346" H 7550 2677 50  0000 C CNN
F 1 "DFFCOS" H 7550 2586 50  0000 C CNN
F 2 "" H 7550 2950 50  0001 C CNN
F 3 "" H 7550 2950 50  0001 C CNN
	1    7550 2950
	1    0    0    -1  
$EndComp
$Comp
L A5C:DFFCOS UBD351
U 1 1 7E47C736
P 7550 3700
AR Path="/5F5F24AB/7E47C736" Ref="UBD351"  Part="1" 
AR Path="/5FBC4837/5FBC4DC5/7E47C736" Ref="UBD351"  Part="1" 
F 0 "UBD351" H 7550 3427 50  0000 C CNN
F 1 "DFFCOS" H 7550 3336 50  0000 C CNN
F 2 "" H 7550 3700 50  0001 C CNN
F 3 "" H 7550 3700 50  0001 C CNN
	1    7550 3700
	1    0    0    -1  
$EndComp
$Comp
L A5C:DFFCOS UBD355
U 1 1 7E47C73C
P 7550 4450
AR Path="/5F5F24AB/7E47C73C" Ref="UBD355"  Part="1" 
AR Path="/5FBC4837/5FBC4DC5/7E47C73C" Ref="UBD355"  Part="1" 
F 0 "UBD355" H 7550 4177 50  0000 C CNN
F 1 "DFFCOS" H 7550 4086 50  0000 C CNN
F 2 "" H 7550 4450 50  0001 C CNN
F 3 "" H 7550 4450 50  0001 C CNN
	1    7550 4450
	1    0    0    -1  
$EndComp
$Comp
L A5C:DFFCOS UBD360
U 1 1 7E47C742
P 7550 5200
AR Path="/5F5F24AB/7E47C742" Ref="UBD360"  Part="1" 
AR Path="/5FBC4837/5FBC4DC5/7E47C742" Ref="UBD360"  Part="1" 
F 0 "UBD360" H 7550 4927 50  0000 C CNN
F 1 "DFFCOS" H 7550 4836 50  0000 C CNN
F 2 "" H 7550 5200 50  0001 C CNN
F 3 "" H 7550 5200 50  0001 C CNN
	1    7550 5200
	1    0    0    -1  
$EndComp
$Comp
L A5C:DFFCOS UCO497
U 1 1 7E47C7F5
P 7550 5950
AR Path="/5F5F24AB/7E47C7F5" Ref="UCO497"  Part="1" 
AR Path="/5FBC4837/5FBC4DC5/7E47C7F5" Ref="UCO497"  Part="1" 
F 0 "UCO497" H 7550 5677 50  0000 C CNN
F 1 "DFFCOS" H 7550 5586 50  0000 C CNN
F 2 "" H 7550 5950 50  0001 C CNN
F 3 "" H 7550 5950 50  0001 C CNN
F 4 "UCO496;UCO515" H 7550 5950 50  0001 C CNN "MiscRef"
	1    7550 5950
	1    0    0    -1  
$EndComp
$Comp
L A5C:DFFCOS UCO502
U 1 1 7E47C7FB
P 7550 6700
AR Path="/5F5F24AB/7E47C7FB" Ref="UCO502"  Part="1" 
AR Path="/5FBC4837/5FBC4DC5/7E47C7FB" Ref="UCO502"  Part="1" 
F 0 "UCO502" H 7550 6427 50  0000 C CNN
F 1 "DFFCOS" H 7550 6336 50  0000 C CNN
F 2 "" H 7550 6700 50  0001 C CNN
F 3 "" H 7550 6700 50  0001 C CNN
	1    7550 6700
	1    0    0    -1  
$EndComp
$Comp
L A5C:DFFCOS UCO506
U 1 1 7E47C801
P 7550 7450
AR Path="/5F5F24AB/7E47C801" Ref="UCO506"  Part="1" 
AR Path="/5FBC4837/5FBC4DC5/7E47C801" Ref="UCO506"  Part="1" 
F 0 "UCO506" H 7550 7177 50  0000 C CNN
F 1 "DFFCOS" H 7550 7086 50  0000 C CNN
F 2 "" H 7550 7450 50  0001 C CNN
F 3 "" H 7550 7450 50  0001 C CNN
	1    7550 7450
	1    0    0    -1  
$EndComp
$Comp
L A5C:DFFCOS UCO511
U 1 1 7E47C807
P 7550 8200
AR Path="/5F5F24AB/7E47C807" Ref="UCO511"  Part="1" 
AR Path="/5FBC4837/5FBC4DC5/7E47C807" Ref="UCO511"  Part="1" 
F 0 "UCO511" H 7550 7927 50  0000 C CNN
F 1 "DFFCOS" H 7550 7836 50  0000 C CNN
F 2 "" H 7550 8200 50  0001 C CNN
F 3 "" H 7550 8200 50  0001 C CNN
	1    7550 8200
	1    0    0    -1  
$EndComp
$Comp
L A5C:DFGOO UBD484
U 1 1 7E47C8DB
P 12400 2200
AR Path="/5F5F24AB/7E47C8DB" Ref="UBD484"  Part="1" 
AR Path="/5FBC4837/5FBC4DC5/7E47C8DB" Ref="UBD484"  Part="1" 
F 0 "UBD484" H 12400 1927 50  0000 C CNN
F 1 "DFGOO" H 12400 1836 50  0000 C CNN
F 2 "" H 12400 2200 50  0001 C CNN
F 3 "" H 12400 2200 50  0001 C CNN
F 4 "UBD481;UBD513" H 12400 2200 50  0001 C CNN "MiscRef"
	1    12400 2200
	1    0    0    -1  
$EndComp
$Comp
L A5C:DFGOO UBD490
U 1 1 7E47C8D5
P 12400 2950
AR Path="/5F5F24AB/7E47C8D5" Ref="UBD490"  Part="1" 
AR Path="/5FBC4837/5FBC4DC5/7E47C8D5" Ref="UBD490"  Part="1" 
F 0 "UBD490" H 12400 2677 50  0000 C CNN
F 1 "DFGOO" H 12400 2586 50  0000 C CNN
F 2 "" H 12400 2950 50  0001 C CNN
F 3 "" H 12400 2950 50  0001 C CNN
	1    12400 2950
	1    0    0    -1  
$EndComp
$Comp
L A5C:DFGOO UBD495
U 1 1 7E47C8CF
P 12400 3700
AR Path="/5F5F24AB/7E47C8CF" Ref="UBD495"  Part="1" 
AR Path="/5FBC4837/5FBC4DC5/7E47C8CF" Ref="UBD495"  Part="1" 
F 0 "UBD495" H 12400 3427 50  0000 C CNN
F 1 "DFGOO" H 12400 3336 50  0000 C CNN
F 2 "" H 12400 3700 50  0001 C CNN
F 3 "" H 12400 3700 50  0001 C CNN
	1    12400 3700
	1    0    0    -1  
$EndComp
$Comp
L A5C:DFGOO UBD501
U 1 1 7E47C8C9
P 12400 4450
AR Path="/5F5F24AB/7E47C8C9" Ref="UBD501"  Part="1" 
AR Path="/5FBC4837/5FBC4DC5/7E47C8C9" Ref="UBD501"  Part="1" 
F 0 "UBD501" H 12400 4177 50  0000 C CNN
F 1 "DFGOO" H 12400 4086 50  0000 C CNN
F 2 "" H 12400 4450 50  0001 C CNN
F 3 "" H 12400 4450 50  0001 C CNN
	1    12400 4450
	1    0    0    -1  
$EndComp
$Comp
L A5C:DFGOO UBD507
U 1 1 7E47C8C3
P 12400 5200
AR Path="/5F5F24AB/7E47C8C3" Ref="UBD507"  Part="1" 
AR Path="/5FBC4837/5FBC4DC5/7E47C8C3" Ref="UBD507"  Part="1" 
F 0 "UBD507" H 12400 4927 50  0000 C CNN
F 1 "DFGOO" H 12400 4836 50  0000 C CNN
F 2 "" H 12400 5200 50  0001 C CNN
F 3 "" H 12400 5200 50  0001 C CNN
	1    12400 5200
	1    0    0    -1  
$EndComp
$Comp
L A5C:DFGOO UBZ498
U 1 1 7E47C8BD
P 12400 5950
AR Path="/5F5F24AB/7E47C8BD" Ref="UBZ498"  Part="1" 
AR Path="/5FBC4837/5FBC4DC5/7E47C8BD" Ref="UBZ498"  Part="1" 
F 0 "UBZ498" H 12400 5677 50  0000 C CNN
F 1 "DFGOO" H 12400 5586 50  0000 C CNN
F 2 "" H 12400 5950 50  0001 C CNN
F 3 "" H 12400 5950 50  0001 C CNN
F 4 "UBZ496;UBZ521" H 12400 5950 50  0001 C CNN "MiscRef"
	1    12400 5950
	1    0    0    -1  
$EndComp
$Comp
L A5C:DFGOO UBZ504
U 1 1 7E47C8B2
P 12400 6700
AR Path="/5F5F24AB/7E47C8B2" Ref="UBZ504"  Part="1" 
AR Path="/5FBC4837/5FBC4DC5/7E47C8B2" Ref="UBZ504"  Part="1" 
F 0 "UBZ504" H 12400 6427 50  0000 C CNN
F 1 "DFGOO" H 12400 6336 50  0000 C CNN
F 2 "" H 12400 6700 50  0001 C CNN
F 3 "" H 12400 6700 50  0001 C CNN
	1    12400 6700
	1    0    0    -1  
$EndComp
$Comp
L A5C:DFGOO UBZ509
U 1 1 7E47C8AC
P 12400 7450
AR Path="/5F5F24AB/7E47C8AC" Ref="UBZ509"  Part="1" 
AR Path="/5FBC4837/5FBC4DC5/7E47C8AC" Ref="UBZ509"  Part="1" 
F 0 "UBZ509" H 12400 7177 50  0000 C CNN
F 1 "DFGOO" H 12400 7086 50  0000 C CNN
F 2 "" H 12400 7450 50  0001 C CNN
F 3 "" H 12400 7450 50  0001 C CNN
	1    12400 7450
	1    0    0    -1  
$EndComp
$Comp
L A5C:DFGOO UBZ515
U 1 1 7E47C95C
P 12400 8200
AR Path="/5F5F24AB/7E47C95C" Ref="UBZ515"  Part="1" 
AR Path="/5FBC4837/5FBC4DC5/7E47C95C" Ref="UBZ515"  Part="1" 
F 0 "UBZ515" H 12400 7927 50  0000 C CNN
F 1 "DFGOO" H 12400 7836 50  0000 C CNN
F 2 "" H 12400 8200 50  0001 C CNN
F 3 "" H 12400 8200 50  0001 C CNN
	1    12400 8200
	1    0    0    -1  
$EndComp
$Comp
L A5C:NOR05 UBH481
U 1 1 7E47C76C
P 9400 4900
AR Path="/5F5F24AB/7E47C76C" Ref="UBH481"  Part="1" 
AR Path="/5FBC4837/5FBC4DC5/7E47C76C" Ref="UBH481"  Part="1" 
F 0 "UBH481" H 9475 5315 50  0000 C CNN
F 1 "NOR05" H 9475 5224 50  0000 C CNN
F 2 "" H 9400 4950 50  0001 C CNN
F 3 "" H 9400 4950 50  0001 C CNN
	1    9400 4900
	1    0    0    -1  
$EndComp
$Comp
L A5C:NOR05 UCL516
U 1 1 7E47C83D
P 9400 9600
AR Path="/5F5F24AB/7E47C83D" Ref="UCL516"  Part="1" 
AR Path="/5FBC4837/5FBC4DC5/7E47C83D" Ref="UCL516"  Part="1" 
F 0 "UCL516" H 9475 10015 50  0000 C CNN
F 1 "NOR05" H 9475 9924 50  0000 C CNN
F 2 "" H 9400 9650 50  0001 C CNN
F 3 "" H 9400 9650 50  0001 C CNN
	1    9400 9600
	1    0    0    -1  
$EndComp
$Comp
L A5C:R42 UCG415
U 1 1 7E47C707
P 2700 7900
AR Path="/5F5F24AB/7E47C707" Ref="UCG415"  Part="1" 
AR Path="/5FBC4837/5FBC4DC5/7E47C707" Ref="UCG415"  Part="1" 
F 0 "UCG415" H 2700 8515 50  0000 C CNN
F 1 "R42" H 2700 8424 50  0000 C CNN
F 2 "" H 2650 8150 50  0001 C CNN
F 3 "" H 2650 8150 50  0001 C CNN
	1    2700 7900
	1    0    0    -1  
$EndComp
$Comp
L A5C:R52 UBW347
U 1 1 7E47C701
P 2700 4800
AR Path="/5F5F24AB/7E47C701" Ref="UBW347"  Part="1" 
AR Path="/5FBC4837/5FBC4DC5/7E47C701" Ref="UBW347"  Part="1" 
F 0 "UBW347" H 2700 5465 50  0000 C CNN
F 1 "R52" H 2700 5374 50  0000 C CNN
F 2 "" H 2650 5100 50  0001 C CNN
F 3 "" H 2650 5100 50  0001 C CNN
	1    2700 4800
	1    0    0    -1  
$EndComp
$Comp
L A5C:MUX24H UCO474
U 1 1 7E47C71E
P 5450 8150
AR Path="/5F5F24AB/7E47C71E" Ref="UCO474"  Part="1" 
AR Path="/5FBC4837/5FBC4DC5/7E47C71E" Ref="UCO474"  Part="1" 
F 0 "UCO474" H 5450 9015 50  0000 C CNN
F 1 "MUX24H" H 5450 8924 50  0000 C CNN
F 2 "" H 5450 8150 50  0001 C CNN
F 3 "" H 5450 8150 50  0001 C CNN
F 4 "UCO476;UCO479;UCO482;UCO486" H 5450 8150 50  0001 C CNN "MiscRef"
	1    5450 8150
	1    0    0    -1  
$EndComp
$Comp
L A5C:MUX25H UBH336
U 1 1 7E47C718
P 5450 4900
AR Path="/5F5F24AB/7E47C718" Ref="UBH336"  Part="1" 
AR Path="/5FBC4837/5FBC4DC5/7E47C718" Ref="UBH336"  Part="1" 
F 0 "UBH336" H 5450 5665 50  0000 C CNN
F 1 "MUX25H" H 5450 5574 50  0000 C CNN
F 2 "" H 5500 4950 50  0001 C CNN
F 3 "" H 5500 4950 50  0001 C CNN
F 4 "UBH339;UBH343;UBH346;UBH349;UBH353" H 5450 4900 50  0001 C CNN "MiscRef"
	1    5450 4900
	1    0    0    -1  
$EndComp
Entry Wire Line
	13650 2100 13750 2200
Entry Wire Line
	13650 2850 13750 2950
Entry Wire Line
	13650 3600 13750 3700
Entry Wire Line
	13650 4350 13750 4450
Entry Wire Line
	13650 5100 13750 5200
Entry Wire Line
	13650 5850 13750 5950
Entry Wire Line
	13650 6600 13750 6700
Entry Wire Line
	13650 7350 13750 7450
Entry Wire Line
	13650 8100 13750 8200
Wire Wire Line
	12650 2100 13650 2100
Wire Wire Line
	12650 2850 13650 2850
Wire Wire Line
	12650 3600 13650 3600
Wire Wire Line
	12650 4350 13650 4350
Wire Wire Line
	12650 5100 13650 5100
Wire Wire Line
	12650 5850 13650 5850
Wire Wire Line
	12650 6600 13650 6600
Wire Wire Line
	12650 7350 13650 7350
Wire Wire Line
	12650 8100 13650 8100
Wire Bus Line
	13750 8500 13950 8500
Text HLabel 13950 8500 2    50   3State ~ 0
BUS-OUT[0..8]
Text Label 13550 2100 2    50   ~ 0
BUS-OUT0
Text Label 13550 2850 2    50   ~ 0
BUS-OUT1
Text Label 13550 3600 2    50   ~ 0
BUS-OUT2
Text Label 13550 4350 2    50   ~ 0
BUS-OUT3
Text Label 13550 5100 2    50   ~ 0
BUS-OUT4
Text Label 13550 5850 2    50   ~ 0
BUS-OUT5
Text Label 13550 6600 2    50   ~ 0
BUS-OUT6
Text Label 13550 7350 2    50   ~ 0
BUS-OUT7
Text Label 13550 8100 2    50   ~ 0
BUS-OUT8
Wire Bus Line
	1650 4150 1650 7750
Wire Bus Line
	13750 2200 13750 8500
$EndSCHEMATC
