EESchema Schematic File Version 4
EELAYER 30 0
EELAYER END
$Descr A4 8268 11693 portrait
encoding utf-8
Sheet 16 69
Title ""
Date "2020-11-26"
Rev ""
Comp ""
Comment1 "Licence: CC-BY"
Comment2 "Author: Loïc *WydD* Petit"
Comment3 ""
Comment4 ""
$EndDescr
Connection ~ 4250 2400
Connection ~ 4250 3200
Connection ~ 5250 2200
Connection ~ 5350 1400
Connection ~ 5150 3000
Connection ~ 4250 8400
Connection ~ 5550 6500
Connection ~ 5550 7200
Connection ~ 5350 7300
Connection ~ 5250 7400
Connection ~ 4250 7600
Connection ~ 5350 6600
Connection ~ 5050 9000
Connection ~ 5250 8100
Connection ~ 5150 8200
Connection ~ 5350 8700
Connection ~ 5150 8900
Connection ~ 5250 8800
Connection ~ 5550 8600
Connection ~ 5350 8000
Connection ~ 5550 7900
Connection ~ 5050 3800
Connection ~ 5250 2900
Connection ~ 5150 3700
Connection ~ 5250 3600
Connection ~ 5350 2100
Connection ~ 5350 2800
Connection ~ 5350 3500
Connection ~ 2400 7700
Connection ~ 2400 7600
Connection ~ 4250 4000
Connection ~ 4250 6800
Connection ~ 4250 9200
Connection ~ 2800 5000
Connection ~ 1350 8550
NoConn ~ 4950 1500
NoConn ~ 4950 3100
NoConn ~ 4950 2300
NoConn ~ 4950 3900
NoConn ~ 4950 8300
NoConn ~ 4950 7500
NoConn ~ 4950 6700
NoConn ~ 4950 9100
Entry Wire Line
	950  2100 1050 2200
Entry Wire Line
	950  2200 1050 2300
Entry Wire Line
	950  2300 1050 2400
Entry Wire Line
	950  2400 1050 2500
Entry Wire Line
	950  2500 1050 2600
Wire Wire Line
	1050 2500 2900 2500
Wire Wire Line
	1250 8550 1350 8550
Wire Wire Line
	1350 8550 1350 3350
Wire Wire Line
	1350 8550 1650 8550
Wire Wire Line
	1950 3350 2900 3350
Wire Wire Line
	2150 5500 2150 8400
Wire Wire Line
	2150 5500 2800 5500
Wire Wire Line
	2250 7700 2400 7700
Wire Wire Line
	2250 8550 2900 8550
Wire Wire Line
	2400 2600 1050 2600
Wire Wire Line
	2400 3650 2400 2600
Wire Wire Line
	2400 7500 2400 7600
Wire Wire Line
	2400 7500 2900 7500
Wire Wire Line
	2400 7600 2400 7700
Wire Wire Line
	2400 7600 2900 7600
Wire Wire Line
	2400 7700 2900 7700
Wire Wire Line
	2500 500  7400 500 
Wire Wire Line
	2500 3000 2500 500 
Wire Wire Line
	2500 5700 7600 5700
Wire Wire Line
	2500 8200 2500 5700
Wire Wire Line
	2600 600  2600 2900
Wire Wire Line
	2600 600  7300 600 
Wire Wire Line
	2600 2900 2900 2900
Wire Wire Line
	2600 5800 2600 8100
Wire Wire Line
	2600 5800 7500 5800
Wire Wire Line
	2600 8100 2900 8100
Wire Wire Line
	2700 700  7200 700 
Wire Wire Line
	2700 2800 2700 700 
Wire Wire Line
	2700 5000 2800 5000
Wire Wire Line
	2700 5900 7400 5900
Wire Wire Line
	2700 8000 2700 5900
Wire Wire Line
	2800 800  7100 800 
Wire Wire Line
	2800 2700 2800 800 
Wire Wire Line
	2800 3200 2800 5000
Wire Wire Line
	2800 3200 2900 3200
Wire Wire Line
	2800 5000 2800 5500
Wire Wire Line
	2800 6000 7300 6000
Wire Wire Line
	2800 7900 2800 6000
Wire Wire Line
	2900 2200 1050 2200
Wire Wire Line
	2900 2300 1050 2300
Wire Wire Line
	2900 2400 1050 2400
Wire Wire Line
	2900 2700 2800 2700
Wire Wire Line
	2900 2800 2700 2800
Wire Wire Line
	2900 3000 2500 3000
Wire Wire Line
	2900 3650 2400 3650
Wire Wire Line
	2900 7400 2900 3650
Wire Wire Line
	2900 7900 2800 7900
Wire Wire Line
	2900 8000 2700 8000
Wire Wire Line
	2900 8200 2500 8200
Wire Wire Line
	2900 8400 2150 8400
Wire Wire Line
	3900 2450 4000 2450
Wire Wire Line
	3900 2550 4100 2550
Wire Wire Line
	3900 2650 4100 2650
Wire Wire Line
	3900 2750 4000 2750
Wire Wire Line
	3900 7650 4000 7650
Wire Wire Line
	3900 7750 4100 7750
Wire Wire Line
	3900 7850 4100 7850
Wire Wire Line
	3900 7950 4000 7950
Wire Wire Line
	3900 9200 4250 9200
Wire Wire Line
	4000 1400 4450 1400
Wire Wire Line
	4000 2450 4000 1400
Wire Wire Line
	4000 2750 4000 3800
Wire Wire Line
	4000 3800 4450 3800
Wire Wire Line
	4000 6600 4450 6600
Wire Wire Line
	4000 7650 4000 6600
Wire Wire Line
	4000 7950 4000 9000
Wire Wire Line
	4000 9000 4450 9000
Wire Wire Line
	4100 2200 4450 2200
Wire Wire Line
	4100 2550 4100 2200
Wire Wire Line
	4100 2650 4100 3000
Wire Wire Line
	4100 3000 4450 3000
Wire Wire Line
	4100 7400 4450 7400
Wire Wire Line
	4100 7750 4100 7400
Wire Wire Line
	4100 7850 4100 8200
Wire Wire Line
	4100 8200 4450 8200
Wire Wire Line
	4250 1600 4450 1600
Wire Wire Line
	4250 2400 4250 1600
Wire Wire Line
	4250 2400 4450 2400
Wire Wire Line
	4250 3200 4250 2400
Wire Wire Line
	4250 4000 4250 3200
Wire Wire Line
	4250 4000 4250 6800
Wire Wire Line
	4250 4000 4450 4000
Wire Wire Line
	4250 6800 4450 6800
Wire Wire Line
	4250 7600 4250 6800
Wire Wire Line
	4250 7600 4450 7600
Wire Wire Line
	4250 8400 4250 7600
Wire Wire Line
	4250 9200 4250 8400
Wire Wire Line
	4250 9200 4450 9200
Wire Wire Line
	4450 3200 4250 3200
Wire Wire Line
	4450 8400 4250 8400
Wire Wire Line
	4950 1400 5350 1400
Wire Wire Line
	4950 2200 5250 2200
Wire Wire Line
	4950 3000 5150 3000
Wire Wire Line
	4950 3800 5050 3800
Wire Wire Line
	4950 6600 5350 6600
Wire Wire Line
	4950 7400 5250 7400
Wire Wire Line
	4950 8200 5150 8200
Wire Wire Line
	4950 9000 5050 9000
Wire Wire Line
	5050 1000 5050 3800
Wire Wire Line
	5050 3800 5050 4500
Wire Wire Line
	5050 6200 5050 9000
Wire Wire Line
	5050 9000 5050 9800
Wire Wire Line
	5150 3000 5150 1000
Wire Wire Line
	5150 3000 5150 3700
Wire Wire Line
	5150 3700 5150 4400
Wire Wire Line
	5150 8200 5150 6200
Wire Wire Line
	5150 8200 5150 8900
Wire Wire Line
	5150 8900 5150 9700
Wire Wire Line
	5250 2200 5250 1000
Wire Wire Line
	5250 2200 5250 2900
Wire Wire Line
	5250 2900 5250 3600
Wire Wire Line
	5250 3600 5250 4300
Wire Wire Line
	5250 3600 5950 3600
Wire Wire Line
	5250 7400 5250 6200
Wire Wire Line
	5250 7400 5250 8100
Wire Wire Line
	5250 8100 5250 8800
Wire Wire Line
	5250 8800 5250 9600
Wire Wire Line
	5350 1000 5350 1400
Wire Wire Line
	5350 1400 5350 2100
Wire Wire Line
	5350 1400 7100 1400
Wire Wire Line
	5350 2100 5350 2800
Wire Wire Line
	5350 2100 6550 2100
Wire Wire Line
	5350 2800 5350 3500
Wire Wire Line
	5350 2800 6000 2800
Wire Wire Line
	5350 3500 5350 4200
Wire Wire Line
	5350 3500 5950 3500
Wire Wire Line
	5350 4200 5950 4200
Wire Wire Line
	5350 6200 5350 6600
Wire Wire Line
	5350 6600 5350 7300
Wire Wire Line
	5350 7300 5350 8000
Wire Wire Line
	5350 8000 5350 8700
Wire Wire Line
	5350 8000 6050 8000
Wire Wire Line
	5350 8700 5350 9500
Wire Wire Line
	5550 5500 7400 5500
Wire Wire Line
	5550 6500 5550 5500
Wire Wire Line
	5550 6500 5550 7200
Wire Wire Line
	5550 7200 5550 7900
Wire Wire Line
	5550 7900 5550 8600
Wire Wire Line
	5550 8600 5550 9400
Wire Wire Line
	5950 3700 5150 3700
Wire Wire Line
	5950 4300 5250 4300
Wire Wire Line
	5950 4400 5150 4400
Wire Wire Line
	5950 4500 5050 4500
Wire Wire Line
	5950 9400 5550 9400
Wire Wire Line
	5950 9500 5350 9500
Wire Wire Line
	5950 9600 5250 9600
Wire Wire Line
	5950 9700 5150 9700
Wire Wire Line
	5950 9800 5050 9800
Wire Wire Line
	6000 2900 5250 2900
Wire Wire Line
	6050 7900 5550 7900
Wire Wire Line
	6050 8100 5250 8100
Wire Wire Line
	6050 8600 5550 8600
Wire Wire Line
	6050 8700 5350 8700
Wire Wire Line
	6050 8800 5250 8800
Wire Wire Line
	6050 8900 5150 8900
Wire Wire Line
	6100 7200 5550 7200
Wire Wire Line
	6100 7300 5350 7300
Wire Wire Line
	6550 2200 5250 2200
Wire Wire Line
	6550 2900 6550 2850
Wire Wire Line
	6550 3000 5150 3000
Wire Wire Line
	6550 3700 6550 3600
Wire Wire Line
	6550 3800 5050 3800
Wire Wire Line
	6650 6500 5550 6500
Wire Wire Line
	6650 6600 5350 6600
Wire Wire Line
	6650 7300 6650 7250
Wire Wire Line
	6650 7400 5250 7400
Wire Wire Line
	6650 8100 6650 8000
Wire Wire Line
	6650 8200 5150 8200
Wire Wire Line
	6650 8750 6650 8900
Wire Wire Line
	6650 9000 5050 9000
Wire Wire Line
	7100 1400 7100 800 
Wire Wire Line
	7100 2150 7200 2150
Wire Wire Line
	7100 3750 7400 3750
Wire Wire Line
	7200 700  7200 2150
Wire Wire Line
	7200 6550 7300 6550
Wire Wire Line
	7200 8150 7500 8150
Wire Wire Line
	7200 8950 7600 8950
Wire Wire Line
	7300 600  7300 2950
Wire Wire Line
	7300 2950 7100 2950
Wire Wire Line
	7300 6550 7300 6000
Wire Wire Line
	7400 500  7400 3750
Wire Wire Line
	7400 4350 7150 4350
Wire Wire Line
	7400 5500 7400 4350
Wire Wire Line
	7400 5900 7400 7350
Wire Wire Line
	7400 7350 7200 7350
Wire Wire Line
	7500 8150 7500 5800
Wire Wire Line
	7600 8950 7600 5700
Wire Bus Line
	950  2000 850  2000
Text Label 1150 2200 0    50   ~ 0
XS0
Text Label 1150 2300 0    50   ~ 0
XS1
Text Label 1150 2400 0    50   ~ 0
XS2
Text Label 1150 2500 0    50   ~ 0
XS3
Text Label 1150 2600 0    50   ~ 0
XS4
Text HLabel 850  2000 0    50   Input ~ 0
XS[0..4]
Text HLabel 1250 8550 0    50   Input ~ 0
~RESETI
Text HLabel 2100 5000 0    50   Input ~ 0
LOAD
Text HLabel 3900 9200 0    50   Input ~ 0
~CLK8M
Text HLabel 6700 9600 2    50   Output ~ 0
ZERO
$Comp
L power:VCC #PWR?
U 1 1 601E0A55
P 2250 7700
AR Path="/5FC4E2F1/601E0A55" Ref="#PWR?"  Part="1" 
AR Path="/5FBCE4A9/5FBD0B40/601E0A55" Ref="#PWR0108"  Part="1" 
F 0 "#PWR0108" H 2250 7550 50  0001 C CNN
F 1 "VCC" H 2265 7873 50  0000 C CNN
F 2 "" H 2250 7700 50  0001 C CNN
F 3 "" H 2250 7700 50  0001 C CNN
	1    2250 7700
	1    0    0    -1  
$EndComp
$Comp
L A5C:NOR02 UCL269
U 1 1 601E0A47
P 6250 2850
AR Path="/5FC4E2F1/601E0A47" Ref="UCL269"  Part="1" 
AR Path="/5FBCE4A9/5FBD0B40/601E0A47" Ref="UCL269"  Part="1" 
F 0 "UCL269" H 6275 3116 50  0000 C CNN
F 1 "NOR02" H 6275 3025 50  0000 C CNN
F 2 "" H 6250 2850 50  0001 C CNN
F 3 "" H 6250 2850 50  0001 C CNN
	1    6250 2850
	1    0    0    -1  
$EndComp
$Comp
L A5C:NOR02 UCG6
U 1 1 601E0A58
P 6350 7250
AR Path="/5FC4E2F1/601E0A58" Ref="UCG6"  Part="1" 
AR Path="/5FBCE4A9/5FBD0B40/601E0A58" Ref="UCG6"  Part="1" 
F 0 "UCG6" H 6375 7516 50  0000 C CNN
F 1 "NOR02" H 6375 7425 50  0000 C CNN
F 2 "" H 6350 7250 50  0001 C CNN
F 3 "" H 6350 7250 50  0001 C CNN
	1    6350 7250
	1    0    0    -1  
$EndComp
$Comp
L A5C:XOR02 UCG264
U 1 1 601E0A42
P 6800 2150
AR Path="/5FC4E2F1/601E0A42" Ref="UCG264"  Part="1" 
AR Path="/5FBCE4A9/5FBD0B40/601E0A42" Ref="UCG264"  Part="1" 
F 0 "UCG264" H 6825 2417 50  0000 C CNN
F 1 "XOR02" H 6825 2326 50  0000 C CNN
F 2 "" H 6800 2150 50  0001 C CNN
F 3 "" H 6800 2150 50  0001 C CNN
	1    6800 2150
	1    0    0    -1  
$EndComp
$Comp
L A5C:XNOR02 UCJ270
U 1 1 601E0A3F
P 6800 2950
AR Path="/5FC4E2F1/601E0A3F" Ref="UCJ270"  Part="1" 
AR Path="/5FBCE4A9/5FBD0B40/601E0A3F" Ref="UCJ270"  Part="1" 
F 0 "UCJ270" H 6800 3267 50  0000 C CNN
F 1 "XNOR02" H 6800 3176 50  0000 C CNN
F 2 "" H 6800 2950 50  0001 C CNN
F 3 "" H 6800 2950 50  0001 C CNN
	1    6800 2950
	1    0    0    -1  
$EndComp
$Comp
L A5C:XNOR02 UCG256
U 1 1 601E0A41
P 6800 3750
AR Path="/5FC4E2F1/601E0A41" Ref="UCG256"  Part="1" 
AR Path="/5FBCE4A9/5FBD0B40/601E0A41" Ref="UCG256"  Part="1" 
F 0 "UCG256" H 6800 4067 50  0000 C CNN
F 1 "XNOR02" H 6800 3976 50  0000 C CNN
F 2 "" H 6800 3750 50  0001 C CNN
F 3 "" H 6800 3750 50  0001 C CNN
	1    6800 3750
	1    0    0    -1  
$EndComp
$Comp
L A5C:XOR02 UCJ6
U 1 1 5FC72749
P 6900 6550
AR Path="/5FC4E2F1/5FC72749" Ref="UCJ6"  Part="1" 
AR Path="/5FBCE4A9/5FBD0B40/5FC72749" Ref="UCJ6"  Part="1" 
F 0 "UCJ6" H 6925 6817 50  0000 C CNN
F 1 "XOR02" H 6925 6726 50  0000 C CNN
F 2 "" H 6900 6550 50  0001 C CNN
F 3 "" H 6900 6550 50  0001 C CNN
	1    6900 6550
	1    0    0    -1  
$EndComp
$Comp
L A5C:XNOR02 UCG9
U 1 1 601E0A57
P 6900 7350
AR Path="/5FC4E2F1/601E0A57" Ref="UCG9"  Part="1" 
AR Path="/5FBCE4A9/5FBD0B40/601E0A57" Ref="UCG9"  Part="1" 
F 0 "UCG9" H 6900 7667 50  0000 C CNN
F 1 "XNOR02" H 6900 7576 50  0000 C CNN
F 2 "" H 6900 7350 50  0001 C CNN
F 3 "" H 6900 7350 50  0001 C CNN
	1    6900 7350
	1    0    0    -1  
$EndComp
$Comp
L A5C:XNOR02 UCG21
U 1 1 5FC72872
P 6900 8150
AR Path="/5FC4E2F1/5FC72872" Ref="UCG21"  Part="1" 
AR Path="/5FBCE4A9/5FBD0B40/5FC72872" Ref="UCG21"  Part="1" 
F 0 "UCG21" H 6900 8467 50  0000 C CNN
F 1 "XNOR02" H 6900 8376 50  0000 C CNN
F 2 "" H 6900 8150 50  0001 C CNN
F 3 "" H 6900 8150 50  0001 C CNN
	1    6900 8150
	1    0    0    -1  
$EndComp
$Comp
L A5C:XNOR02 UCC27
U 1 1 5FC72884
P 6900 8950
AR Path="/5FC4E2F1/5FC72884" Ref="UCC27"  Part="1" 
AR Path="/5FBCE4A9/5FBD0B40/5FC72884" Ref="UCC27"  Part="1" 
F 0 "UCC27" H 6900 9267 50  0000 C CNN
F 1 "XNOR02" H 6900 9176 50  0000 C CNN
F 2 "" H 6900 8950 50  0001 C CNN
F 3 "" H 6900 8950 50  0001 C CNN
	1    6900 8950
	1    0    0    -1  
$EndComp
$Comp
L A5C:INV01 UCG220
U 1 1 65C86F48
P 1650 3350
AR Path="/5FC4E2F1/65C86F48" Ref="UCG220"  Part="1" 
AR Path="/5FBCE4A9/5FBD0B40/65C86F48" Ref="UCG220"  Part="1" 
F 0 "UCG220" H 1650 3667 50  0000 C CNN
F 1 "INV01" H 1650 3576 50  0000 C CNN
F 2 "" H 1650 3150 50  0001 C CNN
F 3 "" H 1650 3150 50  0001 C CNN
	1    1650 3350
	1    0    0    -1  
$EndComp
$Comp
L A5C:INV01 UBZ48
U 1 1 67D7F91C
P 1950 8550
AR Path="/5FC4E2F1/67D7F91C" Ref="UBZ48"  Part="1" 
AR Path="/5FBCE4A9/5FBD0B40/67D7F91C" Ref="UBZ48"  Part="1" 
F 0 "UBZ48" H 1950 8867 50  0000 C CNN
F 1 "INV01" H 1950 8776 50  0000 C CNN
F 2 "" H 1950 8350 50  0001 C CNN
F 3 "" H 1950 8350 50  0001 C CNN
	1    1950 8550
	1    0    0    -1  
$EndComp
$Comp
L A5C:INV01 UCC119
U 1 1 5FD11AF8
P 2400 5000
AR Path="/5FC4E2F1/5FD11AF8" Ref="UCC119"  Part="1" 
AR Path="/5FBCE4A9/5FBD0B40/5FD11AF8" Ref="UCC119"  Part="1" 
F 0 "UCC119" H 2400 5316 50  0000 C CNN
F 1 "INV01" H 2400 5225 50  0000 C CNN
F 2 "" H 2400 4800 50  0001 C CNN
F 3 "" H 2400 4800 50  0001 C CNN
	1    2400 5000
	1    0    0    -1  
$EndComp
$Comp
L A5C:NOR03 UCG270
U 1 1 601E0A48
P 6250 3600
AR Path="/5FC4E2F1/601E0A48" Ref="UCG270"  Part="1" 
AR Path="/5FBCE4A9/5FBD0B40/601E0A48" Ref="UCG270"  Part="1" 
F 0 "UCG270" H 6250 3916 50  0000 C CNN
F 1 "NOR03" H 6250 3825 50  0000 C CNN
F 2 "" H 6250 3600 50  0001 C CNN
F 3 "" H 6250 3600 50  0001 C CNN
	1    6250 3600
	1    0    0    -1  
$EndComp
$Comp
L A5C:NOR03 UCG11
U 1 1 5FC7283C
P 6350 8000
AR Path="/5FC4E2F1/5FC7283C" Ref="UCG11"  Part="1" 
AR Path="/5FBCE4A9/5FBD0B40/5FC7283C" Ref="UCG11"  Part="1" 
F 0 "UCG11" H 6350 8316 50  0000 C CNN
F 1 "NOR03" H 6350 8225 50  0000 C CNN
F 2 "" H 6350 8000 50  0001 C CNN
F 3 "" H 6350 8000 50  0001 C CNN
	1    6350 8000
	1    0    0    -1  
$EndComp
$Comp
L A5C:INV01 UCO17
U 1 1 601E0A63
P 6850 4350
AR Path="/5FC4E2F1/601E0A63" Ref="UCO17"  Part="1" 
AR Path="/5FBCE4A9/5FBD0B40/601E0A63" Ref="UCO17"  Part="1" 
F 0 "UCO17" H 6850 4666 50  0000 C CNN
F 1 "INV01" H 6850 4575 50  0000 C CNN
F 2 "" H 6850 4150 50  0001 C CNN
F 3 "" H 6850 4150 50  0001 C CNN
	1    6850 4350
	1    0    0    -1  
$EndComp
$Comp
L A5C:DFFCOO UCC243
U 1 1 5F9C464A
P 4700 1500
AR Path="/5FC4E2F1/5F9C464A" Ref="UCC243"  Part="1" 
AR Path="/5FBCE4A9/5FBD0B40/5F9C464A" Ref="UCC243"  Part="1" 
F 0 "UCC243" H 4700 1861 50  0000 C CNN
F 1 "DFFCOO" H 4700 1770 50  0000 C CNN
F 2 "" H 4700 1500 50  0001 C CNN
F 3 "" H 4700 1500 50  0001 C CNN
F 4 "UCC242" H 4700 1500 50  0001 C CNN "MiscRef"
	1    4700 1500
	1    0    0    -1  
$EndComp
$Comp
L A5C:DFFCOO UCC247
U 1 1 601E0A4E
P 4700 2300
AR Path="/5FC4E2F1/601E0A4E" Ref="UCC247"  Part="1" 
AR Path="/5FBCE4A9/5FBD0B40/601E0A4E" Ref="UCC247"  Part="1" 
F 0 "UCC247" H 4700 2661 50  0000 C CNN
F 1 "DFFCOO" H 4700 2570 50  0000 C CNN
F 2 "" H 4700 2300 50  0001 C CNN
F 3 "" H 4700 2300 50  0001 C CNN
	1    4700 2300
	1    0    0    -1  
$EndComp
$Comp
L A5C:DFFCOO UCC251
U 1 1 601E0A50
P 4700 3100
AR Path="/5FC4E2F1/601E0A50" Ref="UCC251"  Part="1" 
AR Path="/5FBCE4A9/5FBD0B40/601E0A50" Ref="UCC251"  Part="1" 
F 0 "UCC251" H 4700 3461 50  0000 C CNN
F 1 "DFFCOO" H 4700 3370 50  0000 C CNN
F 2 "" H 4700 3100 50  0001 C CNN
F 3 "" H 4700 3100 50  0001 C CNN
	1    4700 3100
	1    0    0    -1  
$EndComp
$Comp
L A5C:DFFCOO UCC255
U 1 1 601E0A53
P 4700 3900
AR Path="/5FC4E2F1/601E0A53" Ref="UCC255"  Part="1" 
AR Path="/5FBCE4A9/5FBD0B40/601E0A53" Ref="UCC255"  Part="1" 
F 0 "UCC255" H 4700 4261 50  0000 C CNN
F 1 "DFFCOO" H 4700 4170 50  0000 C CNN
F 2 "" H 4700 3900 50  0001 C CNN
F 3 "" H 4700 3900 50  0001 C CNN
	1    4700 3900
	1    0    0    -1  
$EndComp
$Comp
L A5C:DFFCOO UCC12
U 1 1 5FC727BC
P 4700 6700
AR Path="/5FC4E2F1/5FC727BC" Ref="UCC12"  Part="1" 
AR Path="/5FBCE4A9/5FBD0B40/5FC727BC" Ref="UCC12"  Part="1" 
F 0 "UCC12" H 4700 7061 50  0000 C CNN
F 1 "DFFCOO" H 4700 6970 50  0000 C CNN
F 2 "" H 4700 6700 50  0001 C CNN
F 3 "" H 4700 6700 50  0001 C CNN
F 4 "UCC10" H 4700 6700 50  0001 C CNN "MiscRef"
	1    4700 6700
	1    0    0    -1  
$EndComp
$Comp
L A5C:DFFCOO UCC16
U 1 1 601E0A5A
P 4700 7500
AR Path="/5FC4E2F1/601E0A5A" Ref="UCC16"  Part="1" 
AR Path="/5FBCE4A9/5FBD0B40/601E0A5A" Ref="UCC16"  Part="1" 
F 0 "UCC16" H 4700 7861 50  0000 C CNN
F 1 "DFFCOO" H 4700 7770 50  0000 C CNN
F 2 "" H 4700 7500 50  0001 C CNN
F 3 "" H 4700 7500 50  0001 C CNN
	1    4700 7500
	1    0    0    -1  
$EndComp
$Comp
L A5C:DFFCOO UCC19
U 1 1 5FC72707
P 4700 8300
AR Path="/5FC4E2F1/5FC72707" Ref="UCC19"  Part="1" 
AR Path="/5FBCE4A9/5FBD0B40/5FC72707" Ref="UCC19"  Part="1" 
F 0 "UCC19" H 4700 8661 50  0000 C CNN
F 1 "DFFCOO" H 4700 8570 50  0000 C CNN
F 2 "" H 4700 8300 50  0001 C CNN
F 3 "" H 4700 8300 50  0001 C CNN
	1    4700 8300
	1    0    0    -1  
$EndComp
$Comp
L A5C:DFFCOO UCC23
U 1 1 5FC72767
P 4700 9100
AR Path="/5FC4E2F1/5FC72767" Ref="UCC23"  Part="1" 
AR Path="/5FBCE4A9/5FBD0B40/5FC72767" Ref="UCC23"  Part="1" 
F 0 "UCC23" H 4700 9461 50  0000 C CNN
F 1 "DFFCOO" H 4700 9370 50  0000 C CNN
F 2 "" H 4700 9100 50  0001 C CNN
F 3 "" H 4700 9100 50  0001 C CNN
	1    4700 9100
	1    0    0    -1  
$EndComp
$Comp
L A5C:NOR04 UCG259
U 1 1 601E0A4A
P 6250 4350
AR Path="/5FC4E2F1/601E0A4A" Ref="UCG259"  Part="1" 
AR Path="/5FBCE4A9/5FBD0B40/601E0A4A" Ref="UCG259"  Part="1" 
F 0 "UCG259" H 6250 4691 50  0000 C CNN
F 1 "NOR04" H 6250 4600 50  0000 C CNN
F 2 "" H 6250 4350 50  0001 C CNN
F 3 "" H 6250 4350 50  0001 C CNN
	1    6250 4350
	1    0    0    -1  
$EndComp
$Comp
L A5C:NOR04 UCG14
U 1 1 601E0A62
P 6350 8750
AR Path="/5FC4E2F1/601E0A62" Ref="UCG14"  Part="1" 
AR Path="/5FBCE4A9/5FBD0B40/601E0A62" Ref="UCG14"  Part="1" 
F 0 "UCG14" H 6350 9091 50  0000 C CNN
F 1 "NOR04" H 6350 9000 50  0000 C CNN
F 2 "" H 6350 8750 50  0001 C CNN
F 3 "" H 6350 8750 50  0001 C CNN
	1    6350 8750
	1    0    0    -1  
$EndComp
$Comp
L A5C:NOR05 UCG17
U 1 1 5FC72855
P 6250 9600
AR Path="/5FC4E2F1/5FC72855" Ref="UCG17"  Part="1" 
AR Path="/5FBCE4A9/5FBD0B40/5FC72855" Ref="UCG17"  Part="1" 
F 0 "UCG17" H 6325 10011 50  0000 C CNN
F 1 "NOR05" H 6325 9920 50  0000 C CNN
F 2 "" H 6250 9650 50  0001 C CNN
F 3 "" H 6250 9650 50  0001 C CNN
	1    6250 9600
	1    0    0    -1  
$EndComp
$Comp
L A5C:M258C UCG221
U 1 1 5FC1E0D7
P 3400 2800
AR Path="/5FC4E2F1/5FC1E0D7" Ref="UCG221"  Part="1" 
AR Path="/5FBCE4A9/5FBD0B40/5FC1E0D7" Ref="UCG221"  Part="1" 
F 0 "UCG221" H 3400 3661 50  0000 C CNN
F 1 "M258C" H 3400 3570 50  0000 C CNN
F 2 "" H 3400 2800 50  0001 C CNN
F 3 "" H 3400 2800 50  0001 C CNN
	1    3400 2800
	1    0    0    -1  
$EndComp
$Comp
L A5C:M258C UCC31
U 1 1 601E0A54
P 3400 8000
AR Path="/5FC4E2F1/601E0A54" Ref="UCC31"  Part="1" 
AR Path="/5FBCE4A9/5FBD0B40/601E0A54" Ref="UCC31"  Part="1" 
F 0 "UCC31" H 3400 8861 50  0000 C CNN
F 1 "M258C" H 3400 8770 50  0000 C CNN
F 2 "" H 3400 8000 50  0001 C CNN
F 3 "" H 3400 8000 50  0001 C CNN
	1    3400 8000
	1    0    0    -1  
$EndComp
Wire Bus Line
	950  2000 950  2500
$EndSCHEMATC
