EESchema Schematic File Version 4
EELAYER 30 0
EELAYER END
$Descr A4 11693 8268
encoding utf-8
Sheet 13 69
Title ""
Date "2020-11-26"
Rev ""
Comp ""
Comment1 "Licence: CC-BY"
Comment2 "Author: Loïc *WydD* Petit"
Comment3 ""
Comment4 ""
$EndDescr
Entry Wire Line
	3550 1650 3450 1550
Entry Wire Line
	3550 2150 3450 2050
Entry Wire Line
	3550 2650 3450 2550
Entry Wire Line
	3550 3150 3450 3050
Entry Wire Line
	3550 3650 3450 3550
Entry Wire Line
	3550 4150 3450 4050
Entry Wire Line
	3550 4650 3450 4550
Entry Wire Line
	3550 5150 3450 5050
Entry Wire Line
	3550 5650 3450 5550
Entry Wire Line
	7950 1650 8050 1550
Entry Wire Line
	7950 2150 8050 2050
Entry Wire Line
	7950 2650 8050 2550
Entry Wire Line
	7950 3150 8050 3050
Entry Wire Line
	7950 3650 8050 3550
Entry Wire Line
	7950 4150 8050 4050
Entry Wire Line
	7950 4650 8050 4550
Entry Wire Line
	7950 5150 8050 5050
Entry Wire Line
	7950 5650 8050 5550
Wire Wire Line
	3550 1650 5450 1650
Wire Wire Line
	3550 2150 5450 2150
Wire Wire Line
	3550 2650 5450 2650
Wire Wire Line
	3550 3150 5450 3150
Wire Wire Line
	3550 3650 5450 3650
Wire Wire Line
	3550 4150 5450 4150
Wire Wire Line
	3550 4650 5450 4650
Wire Wire Line
	3550 5150 5450 5150
Wire Wire Line
	3550 5650 5450 5650
Wire Wire Line
	7950 1650 6050 1650
Wire Wire Line
	7950 2150 6050 2150
Wire Wire Line
	7950 2650 6050 2650
Wire Wire Line
	7950 3150 6050 3150
Wire Wire Line
	7950 3650 6050 3650
Wire Wire Line
	7950 4150 6050 4150
Wire Wire Line
	7950 4650 6050 4650
Wire Wire Line
	7950 5150 6050 5150
Wire Wire Line
	7950 5650 6050 5650
Wire Bus Line
	3150 1250 3450 1250
Wire Bus Line
	8350 1250 8050 1250
Text Label 3600 1650 0    50   ~ 0
IN0
Text Label 3600 2150 0    50   ~ 0
IN1
Text Label 3600 2650 0    50   ~ 0
IN2
Text Label 3600 3150 0    50   ~ 0
IN3
Text Label 3600 3650 0    50   ~ 0
IN4
Text Label 3600 4150 0    50   ~ 0
IN5
Text Label 3600 4650 0    50   ~ 0
IN6
Text Label 3600 5150 0    50   ~ 0
IN7
Text Label 3600 5650 0    50   ~ 0
IN8
Text HLabel 3150 1250 0    50   Input ~ 0
IN[0..8]
Text HLabel 8350 1250 2    50   Output ~ 0
~OUT[0..8]
$Comp
L A5C:INV01 UBU364
U 1 1 7FE35530
P 5750 1650
AR Path="/5FA1ABEC/7FE35530" Ref="UBU364"  Part="1" 
AR Path="/5FBC4837/5FBC4DCD/7FE35530" Ref="UBU364"  Part="1" 
F 0 "UBU364" H 5750 1967 50  0000 C CNN
F 1 "INV01" H 5750 1876 50  0000 C CNN
F 2 "" H 5750 1450 50  0001 C CNN
F 3 "" H 5750 1450 50  0001 C CNN
	1    5750 1650
	1    0    0    -1  
$EndComp
$Comp
L A5C:INV01 UBW364
U 1 1 7FE35542
P 5750 2150
AR Path="/5FA1ABEC/7FE35542" Ref="UBW364"  Part="1" 
AR Path="/5FBC4837/5FBC4DCD/7FE35542" Ref="UBW364"  Part="1" 
F 0 "UBW364" H 5750 2467 50  0000 C CNN
F 1 "INV01" H 5750 2376 50  0000 C CNN
F 2 "" H 5750 1950 50  0001 C CNN
F 3 "" H 5750 1950 50  0001 C CNN
	1    5750 2150
	1    0    0    -1  
$EndComp
$Comp
L A5C:INV01 UBW365
U 1 1 601E0A94
P 5750 2650
AR Path="/5FA1ABEC/601E0A94" Ref="UBW365"  Part="1" 
AR Path="/5FBC4837/5FBC4DCD/601E0A94" Ref="UBW365"  Part="1" 
F 0 "UBW365" H 5750 2967 50  0000 C CNN
F 1 "INV01" H 5750 2876 50  0000 C CNN
F 2 "" H 5750 2450 50  0001 C CNN
F 3 "" H 5750 2450 50  0001 C CNN
	1    5750 2650
	1    0    0    -1  
$EndComp
$Comp
L A5C:INV01 UBU365
U 1 1 7FE35536
P 5750 3150
AR Path="/5FA1ABEC/7FE35536" Ref="UBU365"  Part="1" 
AR Path="/5FBC4837/5FBC4DCD/7FE35536" Ref="UBU365"  Part="1" 
F 0 "UBU365" H 5750 3467 50  0000 C CNN
F 1 "INV01" H 5750 3376 50  0000 C CNN
F 2 "" H 5750 2950 50  0001 C CNN
F 3 "" H 5750 2950 50  0001 C CNN
	1    5750 3150
	1    0    0    -1  
$EndComp
$Comp
L A5C:INV01 UBU366
U 1 1 7FE3553C
P 5750 3650
AR Path="/5FA1ABEC/7FE3553C" Ref="UBU366"  Part="1" 
AR Path="/5FBC4837/5FBC4DCD/7FE3553C" Ref="UBU366"  Part="1" 
F 0 "UBU366" H 5750 3967 50  0000 C CNN
F 1 "INV01" H 5750 3876 50  0000 C CNN
F 2 "" H 5750 3450 50  0001 C CNN
F 3 "" H 5750 3450 50  0001 C CNN
	1    5750 3650
	1    0    0    -1  
$EndComp
$Comp
L A5C:INV01 UCC391
U 1 1 6A9471CB
P 5750 4150
AR Path="/5FA1ABEC/6A9471CB" Ref="UCC391"  Part="1" 
AR Path="/5FBC4837/5FBC4DCD/6A9471CB" Ref="UCC391"  Part="1" 
F 0 "UCC391" H 5750 4467 50  0000 C CNN
F 1 "INV01" H 5750 4376 50  0000 C CNN
F 2 "" H 5750 3950 50  0001 C CNN
F 3 "" H 5750 3950 50  0001 C CNN
	1    5750 4150
	1    0    0    -1  
$EndComp
$Comp
L A5C:INV01 UCG408
U 1 1 6A60C25D
P 5750 4650
AR Path="/5FA1ABEC/6A60C25D" Ref="UCG408"  Part="1" 
AR Path="/5FBC4837/5FBC4DCD/6A60C25D" Ref="UCG408"  Part="1" 
F 0 "UCG408" H 5750 4967 50  0000 C CNN
F 1 "INV01" H 5750 4876 50  0000 C CNN
F 2 "" H 5750 4450 50  0001 C CNN
F 3 "" H 5750 4450 50  0001 C CNN
	1    5750 4650
	1    0    0    -1  
$EndComp
$Comp
L A5C:INV01 UCG401
U 1 1 6A2D21A3
P 5750 5150
AR Path="/5FA1ABEC/6A2D21A3" Ref="UCG401"  Part="1" 
AR Path="/5FBC4837/5FBC4DCD/6A2D21A3" Ref="UCG401"  Part="1" 
F 0 "UCG401" H 5750 5467 50  0000 C CNN
F 1 "INV01" H 5750 5376 50  0000 C CNN
F 2 "" H 5750 4950 50  0001 C CNN
F 3 "" H 5750 4950 50  0001 C CNN
	1    5750 5150
	1    0    0    -1  
$EndComp
$Comp
L A5C:INV01 UCG414
U 1 1 69C45649
P 5750 5650
AR Path="/5FA1ABEC/69C45649" Ref="UCG414"  Part="1" 
AR Path="/5FBC4837/5FBC4DCD/69C45649" Ref="UCG414"  Part="1" 
F 0 "UCG414" H 5750 5967 50  0000 C CNN
F 1 "INV01" H 5750 5876 50  0000 C CNN
F 2 "" H 5750 5450 50  0001 C CNN
F 3 "" H 5750 5450 50  0001 C CNN
	1    5750 5650
	1    0    0    -1  
$EndComp
Text Label 7850 1650 2    50   ~ 0
~OUT0
Text Label 7850 2150 2    50   ~ 0
~OUT1
Text Label 7850 2650 2    50   ~ 0
~OUT2
Text Label 7850 3150 2    50   ~ 0
~OUT3
Text Label 7850 3650 2    50   ~ 0
~OUT4
Text Label 7850 4150 2    50   ~ 0
~OUT5
Text Label 7850 4650 2    50   ~ 0
~OUT6
Text Label 7850 5150 2    50   ~ 0
~OUT7
Text Label 7850 5650 2    50   ~ 0
~OUT8
Wire Bus Line
	8050 1250 8050 5550
Wire Bus Line
	3450 1250 3450 5550
$EndSCHEMATC
