EESchema Schematic File Version 4
EELAYER 30 0
EELAYER END
$Descr A4 11693 8268
encoding utf-8
Sheet 17 69
Title ""
Date "2020-11-26"
Rev ""
Comp ""
Comment1 "Licence: CC-BY"
Comment2 "Author: Loïc *WydD* Petit"
Comment3 ""
Comment4 ""
$EndDescr
Connection ~ 5250 5000
Connection ~ 3700 5050
Connection ~ 4450 5200
Connection ~ 5450 3400
Connection ~ 5750 3900
Connection ~ 5550 4000
Connection ~ 5550 3300
Connection ~ 5750 4600
Connection ~ 5450 4100
Connection ~ 5550 4700
Connection ~ 5450 4800
Connection ~ 5350 4900
Connection ~ 4450 4400
Connection ~ 5350 4200
Connection ~ 4450 3600
Connection ~ 3700 3450
Connection ~ 3700 4250
Connection ~ 5750 3200
Connection ~ 5750 2500
Connection ~ 5550 2600
NoConn ~ 5150 5100
NoConn ~ 5150 3500
NoConn ~ 5150 2700
NoConn ~ 5150 4300
Wire Wire Line
	3300 1700 3300 4950
Wire Wire Line
	3300 4950 3800 4950
Wire Wire Line
	3300 5350 3700 5350
Wire Wire Line
	3400 1800 3400 4150
Wire Wire Line
	3400 4150 3800 4150
Wire Wire Line
	3500 1900 3500 3350
Wire Wire Line
	3500 3350 3800 3350
Wire Wire Line
	3600 2000 3600 2550
Wire Wire Line
	3600 2550 3800 2550
Wire Wire Line
	3700 2650 3700 3450
Wire Wire Line
	3700 2650 3800 2650
Wire Wire Line
	3700 3450 3700 4250
Wire Wire Line
	3700 3450 3800 3450
Wire Wire Line
	3700 4250 3700 5050
Wire Wire Line
	3700 4250 3800 4250
Wire Wire Line
	3700 5050 3700 5350
Wire Wire Line
	3700 5050 3800 5050
Wire Wire Line
	3750 5550 3300 5550
Wire Wire Line
	4050 1550 4600 1550
Wire Wire Line
	4350 2600 4650 2600
Wire Wire Line
	4350 3400 4650 3400
Wire Wire Line
	4350 4200 4650 4200
Wire Wire Line
	4350 5000 4650 5000
Wire Wire Line
	4350 5550 4450 5550
Wire Wire Line
	4450 2800 4650 2800
Wire Wire Line
	4450 3600 4450 2800
Wire Wire Line
	4450 3600 4650 3600
Wire Wire Line
	4450 4400 4450 3600
Wire Wire Line
	4450 5200 4450 4400
Wire Wire Line
	4450 5200 4450 5550
Wire Wire Line
	4450 5200 4650 5200
Wire Wire Line
	4600 1450 4050 1450
Wire Wire Line
	4650 4400 4450 4400
Wire Wire Line
	5150 2600 5550 2600
Wire Wire Line
	5150 3400 5450 3400
Wire Wire Line
	5150 4200 5350 4200
Wire Wire Line
	5150 5000 5250 5000
Wire Wire Line
	5250 2200 5250 5000
Wire Wire Line
	5250 5000 5250 5800
Wire Wire Line
	5350 4200 5350 2200
Wire Wire Line
	5350 4200 5350 4900
Wire Wire Line
	5350 4900 5350 5700
Wire Wire Line
	5450 3400 5450 2200
Wire Wire Line
	5450 3400 5450 4100
Wire Wire Line
	5450 4100 5450 4800
Wire Wire Line
	5450 4800 5450 5600
Wire Wire Line
	5550 2200 5550 2600
Wire Wire Line
	5550 2600 5550 3300
Wire Wire Line
	5550 3300 5550 4000
Wire Wire Line
	5550 4000 5550 4700
Wire Wire Line
	5550 4000 6250 4000
Wire Wire Line
	5550 4700 5550 5500
Wire Wire Line
	5750 2500 5750 1500
Wire Wire Line
	5750 2500 5750 3200
Wire Wire Line
	5750 3200 5750 3900
Wire Wire Line
	5750 3900 5750 4600
Wire Wire Line
	5750 4600 5750 5400
Wire Wire Line
	6150 5400 5750 5400
Wire Wire Line
	6150 5500 5550 5500
Wire Wire Line
	6150 5600 5450 5600
Wire Wire Line
	6150 5700 5350 5700
Wire Wire Line
	6150 5800 5250 5800
Wire Wire Line
	6250 3900 5750 3900
Wire Wire Line
	6250 4100 5450 4100
Wire Wire Line
	6250 4600 5750 4600
Wire Wire Line
	6250 4700 5550 4700
Wire Wire Line
	6250 4800 5450 4800
Wire Wire Line
	6250 4900 5350 4900
Wire Wire Line
	6300 3200 5750 3200
Wire Wire Line
	6300 3300 5550 3300
Wire Wire Line
	6850 2500 5750 2500
Wire Wire Line
	6850 2600 5550 2600
Wire Wire Line
	6850 3300 6850 3250
Wire Wire Line
	6850 3400 5450 3400
Wire Wire Line
	6850 4100 6850 4000
Wire Wire Line
	6850 4200 5350 4200
Wire Wire Line
	6850 4750 6850 4900
Wire Wire Line
	6850 5000 5250 5000
Wire Wire Line
	7400 2550 7500 2550
Wire Wire Line
	7400 4150 7700 4150
Wire Wire Line
	7400 4950 7800 4950
Wire Wire Line
	7500 2000 3600 2000
Wire Wire Line
	7500 2550 7500 2000
Wire Wire Line
	7600 1900 3500 1900
Wire Wire Line
	7600 1900 7600 3350
Wire Wire Line
	7600 3350 7400 3350
Wire Wire Line
	7700 1800 3400 1800
Wire Wire Line
	7700 4150 7700 1800
Wire Wire Line
	7800 1700 3300 1700
Wire Wire Line
	7800 4950 7800 1700
Text HLabel 3300 5350 0    50   Input ~ 0
~RESETI
Text HLabel 3300 5550 0    50   Input ~ 0
CLK8M
Text HLabel 4050 1450 0    50   Input ~ 0
FI
Text HLabel 4050 1550 0    50   Input ~ 0
~CLK4M
Text HLabel 6900 5600 2    50   Output ~ 0
ZERO
$Comp
L A5C:NAND02 UCG59
U 1 1 686F0FC4
P 4050 2600
AR Path="/5F9EC137/686F0FC4" Ref="UCG59"  Part="1" 
AR Path="/5FBCE4A9/5FBD0B4A/686F0FC4" Ref="UCG59"  Part="1" 
F 0 "UCG59" H 4075 2867 50  0000 C CNN
F 1 "NAND02" H 4075 2776 50  0000 C CNN
F 2 "" H 4050 2600 50  0001 C CNN
F 3 "" H 4050 2600 50  0001 C CNN
	1    4050 2600
	1    0    0    -1  
$EndComp
$Comp
L A5C:NAND02 UCG57
U 1 1 686F0FBE
P 4050 3400
AR Path="/5F9EC137/686F0FBE" Ref="UCG57"  Part="1" 
AR Path="/5FBCE4A9/5FBD0B4A/686F0FBE" Ref="UCG57"  Part="1" 
F 0 "UCG57" H 4075 3667 50  0000 C CNN
F 1 "NAND02" H 4075 3576 50  0000 C CNN
F 2 "" H 4050 3400 50  0001 C CNN
F 3 "" H 4050 3400 50  0001 C CNN
	1    4050 3400
	1    0    0    -1  
$EndComp
$Comp
L A5C:NAND02 UCG56
U 1 1 686F0FB8
P 4050 4200
AR Path="/5F9EC137/686F0FB8" Ref="UCG56"  Part="1" 
AR Path="/5FBCE4A9/5FBD0B4A/686F0FB8" Ref="UCG56"  Part="1" 
F 0 "UCG56" H 4075 4467 50  0000 C CNN
F 1 "NAND02" H 4075 4376 50  0000 C CNN
F 2 "" H 4050 4200 50  0001 C CNN
F 3 "" H 4050 4200 50  0001 C CNN
	1    4050 4200
	1    0    0    -1  
$EndComp
$Comp
L A5C:NAND02 UCG54
U 1 1 686F0FB2
P 4050 5000
AR Path="/5F9EC137/686F0FB2" Ref="UCG54"  Part="1" 
AR Path="/5FBCE4A9/5FBD0B4A/686F0FB2" Ref="UCG54"  Part="1" 
F 0 "UCG54" H 4075 5267 50  0000 C CNN
F 1 "NAND02" H 4075 5176 50  0000 C CNN
F 2 "" H 4050 5000 50  0001 C CNN
F 3 "" H 4050 5000 50  0001 C CNN
	1    4050 5000
	1    0    0    -1  
$EndComp
$Comp
L A5C:AND02 UCC121
U 1 1 5F9B5C9C
P 4850 1500
AR Path="/5F9EC137/5F9B5C9C" Ref="UCC121"  Part="1" 
AR Path="/5FBCE4A9/5FBD0B4A/5F9B5C9C" Ref="UCC121"  Part="1" 
F 0 "UCC121" H 4875 1766 50  0000 C CNN
F 1 "AND02" H 4875 1675 50  0000 C CNN
F 2 "" H 4850 1500 50  0001 C CNN
F 3 "" H 4850 1500 50  0001 C CNN
	1    4850 1500
	1    0    0    -1  
$EndComp
$Comp
L A5C:NOR02 UCG31
U 1 1 5F7479D6
P 6550 3250
AR Path="/5F9EC137/5F7479D6" Ref="UCG31"  Part="1" 
AR Path="/5FBCE4A9/5FBD0B4A/5F7479D6" Ref="UCG31"  Part="1" 
F 0 "UCG31" H 6575 3516 50  0000 C CNN
F 1 "NOR02" H 6575 3425 50  0000 C CNN
F 2 "" H 6550 3250 50  0001 C CNN
F 3 "" H 6550 3250 50  0001 C CNN
	1    6550 3250
	1    0    0    -1  
$EndComp
$Comp
L A5C:XOR02 UCG64
U 1 1 5F6919F7
P 7100 2550
AR Path="/5F9EC137/5F6919F7" Ref="UCG64"  Part="1" 
AR Path="/5FBCE4A9/5FBD0B4A/5F6919F7" Ref="UCG64"  Part="1" 
F 0 "UCG64" H 7125 2817 50  0000 C CNN
F 1 "XOR02" H 7125 2726 50  0000 C CNN
F 2 "" H 7100 2550 50  0001 C CNN
F 3 "" H 7100 2550 50  0001 C CNN
	1    7100 2550
	1    0    0    -1  
$EndComp
$Comp
L A5C:XNOR02 UCG39
U 1 1 601E0A3E
P 7100 3350
AR Path="/5F9EC137/601E0A3E" Ref="UCG39"  Part="1" 
AR Path="/5FBCE4A9/5FBD0B4A/601E0A3E" Ref="UCG39"  Part="1" 
F 0 "UCG39" H 7100 3667 50  0000 C CNN
F 1 "XNOR02" H 7100 3576 50  0000 C CNN
F 2 "" H 7100 3350 50  0001 C CNN
F 3 "" H 7100 3350 50  0001 C CNN
	1    7100 3350
	1    0    0    -1  
$EndComp
$Comp
L A5C:XNOR02 UCG27
U 1 1 5F6919E5
P 7100 4150
AR Path="/5F9EC137/5F6919E5" Ref="UCG27"  Part="1" 
AR Path="/5FBCE4A9/5FBD0B4A/5F6919E5" Ref="UCG27"  Part="1" 
F 0 "UCG27" H 7100 4467 50  0000 C CNN
F 1 "XNOR02" H 7100 4376 50  0000 C CNN
F 2 "" H 7100 4150 50  0001 C CNN
F 3 "" H 7100 4150 50  0001 C CNN
	1    7100 4150
	1    0    0    -1  
$EndComp
$Comp
L A5C:XNOR02 UCG51
U 1 1 5F6919D3
P 7100 4950
AR Path="/5F9EC137/5F6919D3" Ref="UCG51"  Part="1" 
AR Path="/5FBCE4A9/5FBD0B4A/5F6919D3" Ref="UCG51"  Part="1" 
F 0 "UCG51" H 7100 5267 50  0000 C CNN
F 1 "XNOR02" H 7100 5176 50  0000 C CNN
F 2 "" H 7100 4950 50  0001 C CNN
F 3 "" H 7100 4950 50  0001 C CNN
	1    7100 4950
	1    0    0    -1  
$EndComp
$Comp
L A5C:NBUF03 UBR?
U 1 1 70D8599C
P 4050 5550
AR Path="/70D8599C" Ref="UBR?"  Part="1" 
AR Path="/5F9EC137/70D8599C" Ref="UBR271"  Part="1" 
AR Path="/5FBCE4A9/5FBD0B4A/70D8599C" Ref="UBR271"  Part="1" 
F 0 "UBR271" H 4050 5866 50  0000 C CNN
F 1 "NBUF03" H 4050 5775 50  0000 C CNN
F 2 "" H 4050 5350 50  0001 C CNN
F 3 "" H 4050 5350 50  0001 C CNN
	1    4050 5550
	1    0    0    -1  
$EndComp
$Comp
L A5C:INV01 UCJ44
U 1 1 5F9AFAFA
P 5450 1500
AR Path="/5F9EC137/5F9AFAFA" Ref="UCJ44"  Part="1" 
AR Path="/5FBCE4A9/5FBD0B4A/5F9AFAFA" Ref="UCJ44"  Part="1" 
F 0 "UCJ44" H 5450 1816 50  0000 C CNN
F 1 "INV01" H 5450 1725 50  0000 C CNN
F 2 "" H 5450 1300 50  0001 C CNN
F 3 "" H 5450 1300 50  0001 C CNN
	1    5450 1500
	1    0    0    -1  
$EndComp
$Comp
L A5C:NOR03 UCG34
U 1 1 601E0A49
P 6550 4000
AR Path="/5F9EC137/601E0A49" Ref="UCG34"  Part="1" 
AR Path="/5FBCE4A9/5FBD0B4A/601E0A49" Ref="UCG34"  Part="1" 
F 0 "UCG34" H 6550 4316 50  0000 C CNN
F 1 "NOR03" H 6550 4225 50  0000 C CNN
F 2 "" H 6550 4000 50  0001 C CNN
F 3 "" H 6550 4000 50  0001 C CNN
	1    6550 4000
	1    0    0    -1  
$EndComp
$Comp
L A5C:DFFCOO UCG69
U 1 1 601E0A4C
P 4900 2700
AR Path="/5F9EC137/601E0A4C" Ref="UCG69"  Part="1" 
AR Path="/5FBCE4A9/5FBD0B4A/601E0A4C" Ref="UCG69"  Part="1" 
F 0 "UCG69" H 4900 3061 50  0000 C CNN
F 1 "DFFCOO" H 4900 2970 50  0000 C CNN
F 2 "" H 4900 2700 50  0001 C CNN
F 3 "" H 4900 2700 50  0001 C CNN
F 4 "UCG67" H 4900 2700 50  0001 C CNN "MiscRef"
	1    4900 2700
	1    0    0    -1  
$EndComp
$Comp
L A5C:DFFCOO UCG73
U 1 1 601E0A4F
P 4900 3500
AR Path="/5F9EC137/601E0A4F" Ref="UCG73"  Part="1" 
AR Path="/5FBCE4A9/5FBD0B4A/601E0A4F" Ref="UCG73"  Part="1" 
F 0 "UCG73" H 4900 3861 50  0000 C CNN
F 1 "DFFCOO" H 4900 3770 50  0000 C CNN
F 2 "" H 4900 3500 50  0001 C CNN
F 3 "" H 4900 3500 50  0001 C CNN
	1    4900 3500
	1    0    0    -1  
$EndComp
$Comp
L A5C:DFFCOO UCG76
U 1 1 601E0A51
P 4900 4300
AR Path="/5F9EC137/601E0A51" Ref="UCG76"  Part="1" 
AR Path="/5FBCE4A9/5FBD0B4A/601E0A51" Ref="UCG76"  Part="1" 
F 0 "UCG76" H 4900 4661 50  0000 C CNN
F 1 "DFFCOO" H 4900 4570 50  0000 C CNN
F 2 "" H 4900 4300 50  0001 C CNN
F 3 "" H 4900 4300 50  0001 C CNN
	1    4900 4300
	1    0    0    -1  
$EndComp
$Comp
L A5C:DFFCOO UCG80
U 1 1 601E0A52
P 4900 5100
AR Path="/5F9EC137/601E0A52" Ref="UCG80"  Part="1" 
AR Path="/5FBCE4A9/5FBD0B4A/601E0A52" Ref="UCG80"  Part="1" 
F 0 "UCG80" H 4900 5461 50  0000 C CNN
F 1 "DFFCOO" H 4900 5370 50  0000 C CNN
F 2 "" H 4900 5100 50  0001 C CNN
F 3 "" H 4900 5100 50  0001 C CNN
	1    4900 5100
	1    0    0    -1  
$EndComp
$Comp
L A5C:NOR04 UCG42
U 1 1 601E0A4B
P 6550 4750
AR Path="/5F9EC137/601E0A4B" Ref="UCG42"  Part="1" 
AR Path="/5FBCE4A9/5FBD0B4A/601E0A4B" Ref="UCG42"  Part="1" 
F 0 "UCG42" H 6550 5091 50  0000 C CNN
F 1 "NOR04" H 6550 5000 50  0000 C CNN
F 2 "" H 6550 4750 50  0001 C CNN
F 3 "" H 6550 4750 50  0001 C CNN
	1    6550 4750
	1    0    0    -1  
$EndComp
$Comp
L A5C:NOR05 UCG60
U 1 1 5F74F5E0
P 6450 5600
AR Path="/5F9EC137/5F74F5E0" Ref="UCG60"  Part="1" 
AR Path="/5FBCE4A9/5FBD0B4A/5F74F5E0" Ref="UCG60"  Part="1" 
F 0 "UCG60" H 6525 6011 50  0000 C CNN
F 1 "NOR05" H 6525 5920 50  0000 C CNN
F 2 "" H 6450 5650 50  0001 C CNN
F 3 "" H 6450 5650 50  0001 C CNN
	1    6450 5600
	1    0    0    -1  
$EndComp
$EndSCHEMATC
