EESchema Schematic File Version 4
EELAYER 30 0
EELAYER END
$Descr A4 11693 8268
encoding utf-8
Sheet 4 69
Title ""
Date "2020-11-26"
Rev ""
Comp ""
Comment1 "Licence: CC-BY"
Comment2 "Author: Loïc *WydD* Petit"
Comment3 ""
Comment4 ""
$EndDescr
Connection ~ 3000 6200
Connection ~ 2900 6300
Connection ~ 3200 6900
Connection ~ 3100 7000
Connection ~ 2800 6400
Connection ~ 2800 7300
Connection ~ 2900 7200
Connection ~ 3000 7100
Connection ~ 3300 6800
Connection ~ 3500 6700
Connection ~ 2100 4150
Connection ~ 2100 3350
Connection ~ 2000 3150
Connection ~ 2000 3950
Connection ~ 2000 4750
Connection ~ 3100 4450
Connection ~ 3200 4350
Connection ~ 3000 4550
Connection ~ 3300 2850
Connection ~ 3500 2750
Connection ~ 3200 2950
Connection ~ 3300 2350
Connection ~ 3300 2150
Connection ~ 2100 5750
Connection ~ 2900 5450
Connection ~ 2100 6550
Connection ~ 2000 6350
Connection ~ 2100 4950
Connection ~ 2000 5550
Connection ~ 2800 6150
Connection ~ 3200 5150
Connection ~ 3100 5250
Connection ~ 3000 5350
Connection ~ 2900 5350
Connection ~ 3300 5900
Connection ~ 3200 6000
Connection ~ 3100 6100
Connection ~ 3500 5800
Connection ~ 3300 5050
Connection ~ 3500 4950
Connection ~ 3100 3750
Connection ~ 3300 4250
Connection ~ 3200 3650
Connection ~ 3300 3550
Connection ~ 3500 3450
Connection ~ 3500 4150
Connection ~ 3500 2250
Connection ~ 1400 6350
Connection ~ 6250 7050
Connection ~ 6850 5850
NoConn ~ 2700 4650
NoConn ~ 2700 3050
NoConn ~ 2700 2250
NoConn ~ 2700 5450
NoConn ~ 2700 6250
NoConn ~ 2700 3850
Wire Wire Line
	1400 6150 1400 1050
Wire Wire Line
	1400 6150 2200 6150
Wire Wire Line
	1400 6350 850  6350
Wire Wire Line
	1400 7650 1400 6350
Wire Wire Line
	1500 5350 1500 1150
Wire Wire Line
	1500 5350 2200 5350
Wire Wire Line
	1600 4550 1600 1250
Wire Wire Line
	1700 3750 1700 1350
Wire Wire Line
	1800 2950 1800 1450
Wire Wire Line
	1850 6950 2100 6950
Wire Wire Line
	1900 2150 1900 1550
Wire Wire Line
	2000 2350 2200 2350
Wire Wire Line
	2000 3150 2000 2350
Wire Wire Line
	2000 3150 2200 3150
Wire Wire Line
	2000 3950 2000 3150
Wire Wire Line
	2000 4750 2000 3950
Wire Wire Line
	2000 4750 2200 4750
Wire Wire Line
	2000 5550 2000 4750
Wire Wire Line
	2000 5550 2200 5550
Wire Wire Line
	2000 6350 2000 5550
Wire Wire Line
	2100 2550 2100 3350
Wire Wire Line
	2100 3350 2100 4150
Wire Wire Line
	2100 4150 2100 4950
Wire Wire Line
	2100 4950 2100 5750
Wire Wire Line
	2100 5750 2100 6550
Wire Wire Line
	2100 6950 2100 6550
Wire Wire Line
	2200 2150 1900 2150
Wire Wire Line
	2200 2950 1800 2950
Wire Wire Line
	2200 3750 1700 3750
Wire Wire Line
	2200 3950 2000 3950
Wire Wire Line
	2200 4550 1600 4550
Wire Wire Line
	2200 6350 2000 6350
Wire Wire Line
	2450 2550 2100 2550
Wire Wire Line
	2450 3350 2100 3350
Wire Wire Line
	2450 4150 2100 4150
Wire Wire Line
	2450 4950 2100 4950
Wire Wire Line
	2450 5750 2100 5750
Wire Wire Line
	2450 6550 2100 6550
Wire Wire Line
	2650 750  3500 750 
Wire Wire Line
	2700 2150 3300 2150
Wire Wire Line
	2700 2950 3200 2950
Wire Wire Line
	2700 3750 3100 3750
Wire Wire Line
	2700 4550 3000 4550
Wire Wire Line
	2700 5350 2900 5350
Wire Wire Line
	2700 6150 2800 6150
Wire Wire Line
	2800 6150 2800 1750
Wire Wire Line
	2800 6150 2800 6400
Wire Wire Line
	2800 6400 2800 7300
Wire Wire Line
	2800 7300 2800 7400
Wire Wire Line
	2900 5350 2900 1750
Wire Wire Line
	2900 5350 2900 5450
Wire Wire Line
	2900 5450 2900 6300
Wire Wire Line
	2900 6300 2900 7200
Wire Wire Line
	2900 7200 2900 7400
Wire Wire Line
	3000 1750 3000 4550
Wire Wire Line
	3000 4550 3000 5350
Wire Wire Line
	3000 5350 3000 6200
Wire Wire Line
	3000 6200 3000 7100
Wire Wire Line
	3000 7100 3000 7400
Wire Wire Line
	3100 3750 3100 1750
Wire Wire Line
	3100 3750 3100 4450
Wire Wire Line
	3100 4450 3100 5250
Wire Wire Line
	3100 5250 3100 6100
Wire Wire Line
	3100 6100 3100 7000
Wire Wire Line
	3100 7000 3100 7400
Wire Wire Line
	3200 2950 3200 1750
Wire Wire Line
	3200 2950 3200 3650
Wire Wire Line
	3200 3650 3200 4350
Wire Wire Line
	3200 4350 3200 5150
Wire Wire Line
	3200 5150 3200 6000
Wire Wire Line
	3200 6000 3200 6900
Wire Wire Line
	3200 6900 3200 7400
Wire Wire Line
	3300 2150 3300 1750
Wire Wire Line
	3300 2150 3300 2350
Wire Wire Line
	3300 2350 3300 2850
Wire Wire Line
	3300 2850 3300 3550
Wire Wire Line
	3300 3550 3300 4250
Wire Wire Line
	3300 3550 4000 3550
Wire Wire Line
	3300 4250 3300 5050
Wire Wire Line
	3300 5050 3300 5900
Wire Wire Line
	3300 5900 3300 6800
Wire Wire Line
	3300 7400 3300 6800
Wire Wire Line
	3500 2250 3500 750 
Wire Wire Line
	3500 2250 3500 2750
Wire Wire Line
	3500 2750 3500 3450
Wire Wire Line
	3500 3450 3500 4150
Wire Wire Line
	3500 4150 3500 4950
Wire Wire Line
	3500 4950 3500 5800
Wire Wire Line
	3500 5800 3500 6700
Wire Wire Line
	3500 6700 3500 7400
Wire Wire Line
	3700 7550 3950 7550
Wire Wire Line
	3900 4950 3500 4950
Wire Wire Line
	3900 5050 3300 5050
Wire Wire Line
	3900 5150 3200 5150
Wire Wire Line
	3900 5250 3100 5250
Wire Wire Line
	3900 5350 3000 5350
Wire Wire Line
	3900 5800 3500 5800
Wire Wire Line
	3900 5900 3300 5900
Wire Wire Line
	3900 6000 3200 6000
Wire Wire Line
	3900 6100 3100 6100
Wire Wire Line
	3900 6200 3000 6200
Wire Wire Line
	3900 6300 2900 6300
Wire Wire Line
	3950 6700 3500 6700
Wire Wire Line
	3950 6800 3300 6800
Wire Wire Line
	3950 6900 3200 6900
Wire Wire Line
	3950 7000 3100 7000
Wire Wire Line
	3950 7100 3000 7100
Wire Wire Line
	3950 7200 2900 7200
Wire Wire Line
	3950 7300 2800 7300
Wire Wire Line
	3950 7550 3950 7400
Wire Wire Line
	4000 3450 3500 3450
Wire Wire Line
	4000 3650 3200 3650
Wire Wire Line
	4000 4150 3500 4150
Wire Wire Line
	4000 4250 3300 4250
Wire Wire Line
	4000 4350 3200 4350
Wire Wire Line
	4000 4450 3100 4450
Wire Wire Line
	4050 2750 3500 2750
Wire Wire Line
	4050 2850 3300 2850
Wire Wire Line
	4500 6050 4600 6050
Wire Wire Line
	4600 2250 3500 2250
Wire Wire Line
	4600 2350 3300 2350
Wire Wire Line
	4600 2850 4600 2800
Wire Wire Line
	4600 2950 3200 2950
Wire Wire Line
	4600 3550 4550 3550
Wire Wire Line
	4600 3650 4600 3550
Wire Wire Line
	4600 3750 3100 3750
Wire Wire Line
	4600 4300 4600 4450
Wire Wire Line
	4600 4550 3000 4550
Wire Wire Line
	4600 5150 4550 5150
Wire Wire Line
	4600 5350 4600 5150
Wire Wire Line
	4600 5450 2900 5450
Wire Wire Line
	4600 6050 4600 6300
Wire Wire Line
	4600 6400 2800 6400
Wire Wire Line
	5150 2300 5250 2300
Wire Wire Line
	5150 3700 5450 3700
Wire Wire Line
	5150 4500 5550 4500
Wire Wire Line
	5150 5400 5650 5400
Wire Wire Line
	5150 6350 5750 6350
Wire Wire Line
	5150 7150 5150 7650
Wire Wire Line
	5150 7650 1400 7650
Wire Wire Line
	5250 1550 1900 1550
Wire Wire Line
	5250 2300 5250 1550
Wire Wire Line
	5350 1450 1800 1450
Wire Wire Line
	5350 1450 5350 2900
Wire Wire Line
	5350 2900 5150 2900
Wire Wire Line
	5450 1350 1700 1350
Wire Wire Line
	5450 3700 5450 1350
Wire Wire Line
	5450 6600 5700 6600
Wire Wire Line
	5550 1250 1600 1250
Wire Wire Line
	5550 4500 5550 1250
Wire Wire Line
	5650 1150 1500 1150
Wire Wire Line
	5650 5400 5650 1150
Wire Wire Line
	5700 6800 5700 6700
Wire Wire Line
	5700 6900 5700 7000
Wire Wire Line
	5750 1050 1400 1050
Wire Wire Line
	5750 6350 5750 1050
Wire Wire Line
	6250 6650 6250 6800
Wire Wire Line
	6250 6800 5700 6900
Wire Wire Line
	6250 6900 5700 6800
Wire Wire Line
	6250 7050 6250 6900
Wire Wire Line
	6250 7050 6850 7050
Wire Wire Line
	6750 5750 7400 5750
Wire Wire Line
	6850 5850 6850 5400
Wire Wire Line
	6850 5850 6850 7050
Wire Wire Line
	6850 5850 7400 5850
Wire Wire Line
	7000 5400 6850 5400
Wire Wire Line
	7950 5800 8550 5800
Text HLabel 850  6350 0    50   Input ~ 0
FI
Text HLabel 1850 6950 0    50   Input ~ 0
~RESET
Text HLabel 2650 750  0    50   Input ~ 0
INC-E
Text HLabel 5450 6600 0    50   Input ~ 0
~RESET
Text HLabel 6150 5750 0    50   Input ~ 0
~RESET
Text HLabel 7000 5400 2    50   Output ~ 0
~ENABLE-LUT
Text HLabel 8550 5800 2    50   Output ~ 0
~LUT-RESET
$Comp
L power:VCC #PWR0104
U 1 1 601E0AAE
P 3700 7550
F 0 "#PWR0104" H 3700 7400 50  0001 C CNN
F 1 "VCC" H 3715 7723 50  0000 C CNN
F 2 "" H 3700 7550 50  0001 C CNN
F 3 "" H 3700 7550 50  0001 C CNN
	1    3700 7550
	1    0    0    -1  
$EndComp
$Comp
L A5C:NAND02 UBR109
U 1 1 6FB13EFA
P 4300 2800
F 0 "UBR109" H 4325 3067 50  0000 C CNN
F 1 "NAND02" H 4325 2976 50  0000 C CNN
F 2 "" H 4300 2800 50  0001 C CNN
F 3 "" H 4300 2800 50  0001 C CNN
	1    4300 2800
	1    0    0    -1  
$EndComp
$Comp
L A5C:XOR02 UBR98
U 1 1 79C09AB6
P 4850 2300
F 0 "UBR98" H 4875 2567 50  0000 C CNN
F 1 "XOR02" H 4875 2476 50  0000 C CNN
F 2 "" H 4850 2300 50  0001 C CNN
F 3 "" H 4850 2300 50  0001 C CNN
	1    4850 2300
	1    0    0    -1  
$EndComp
$Comp
L A5C:XNOR02 UBR114
U 1 1 60820D43
P 4850 2900
F 0 "UBR114" H 4850 3217 50  0000 C CNN
F 1 "XNOR02" H 4850 3126 50  0000 C CNN
F 2 "" H 4850 2900 50  0001 C CNN
F 3 "" H 4850 2900 50  0001 C CNN
	1    4850 2900
	1    0    0    -1  
$EndComp
$Comp
L A5C:XNOR02 UBR8
U 1 1 60820D64
P 4850 3700
F 0 "UBR8" H 4850 4017 50  0000 C CNN
F 1 "XNOR02" H 4850 3926 50  0000 C CNN
F 2 "" H 4850 3700 50  0001 C CNN
F 3 "" H 4850 3700 50  0001 C CNN
	1    4850 3700
	1    0    0    -1  
$EndComp
$Comp
L A5C:XNOR02 UBR106
U 1 1 60820D52
P 4850 4500
F 0 "UBR106" H 4850 4817 50  0000 C CNN
F 1 "XNOR02" H 4850 4726 50  0000 C CNN
F 2 "" H 4850 4500 50  0001 C CNN
F 3 "" H 4850 4500 50  0001 C CNN
	1    4850 4500
	1    0    0    -1  
$EndComp
$Comp
L A5C:XNOR02 UBR139
U 1 1 7A797F12
P 4850 5400
F 0 "UBR139" H 4850 5717 50  0000 C CNN
F 1 "XNOR02" H 4850 5626 50  0000 C CNN
F 2 "" H 4850 5400 50  0001 C CNN
F 3 "" H 4850 5400 50  0001 C CNN
	1    4850 5400
	1    0    0    -1  
$EndComp
$Comp
L A5C:XNOR02 UBR148
U 1 1 7CA2C410
P 4850 6350
F 0 "UBR148" H 4850 6667 50  0000 C CNN
F 1 "XNOR02" H 4850 6576 50  0000 C CNN
F 2 "" H 4850 6350 50  0001 C CNN
F 3 "" H 4850 6350 50  0001 C CNN
	1    4850 6350
	1    0    0    -1  
$EndComp
$Comp
L A5C:NAND02 UBN?
U 1 1 601D441D
P 5400 7100
AR Path="/601D441D" Ref="UBN?"  Part="1" 
AR Path="/5F7ABA8F/601D441D" Ref="UBN?"  Part="1" 
AR Path="/5FB1A45D/601D441D" Ref="UBN277"  Part="1" 
F 0 "UBN277" H 5425 7367 50  0000 C CNN
F 1 "NAND02" H 5425 7276 50  0000 C CNN
F 2 "" H 5400 7100 50  0001 C CNN
F 3 "" H 5400 7100 50  0001 C CNN
	1    5400 7100
	1    0    0    1   
$EndComp
$Comp
L A5C:NAND02 UBN?
U 1 1 601D442A
P 5950 6650
AR Path="/601D442A" Ref="UBN?"  Part="1" 
AR Path="/5F7ABA8F/601D442A" Ref="UBN?"  Part="1" 
AR Path="/5FB1A45D/601D442A" Ref="UBN279"  Part="1" 
F 0 "UBN279" H 5975 6917 50  0000 C CNN
F 1 "NAND02" H 5975 6826 50  0000 C CNN
F 2 "" H 5950 6650 50  0001 C CNN
F 3 "" H 5950 6650 50  0001 C CNN
	1    5950 6650
	1    0    0    -1  
$EndComp
$Comp
L A5C:NAND02 UBN?
U 1 1 601D4424
P 5950 7050
AR Path="/601D4424" Ref="UBN?"  Part="1" 
AR Path="/5F7ABA8F/601D4424" Ref="UBN?"  Part="1" 
AR Path="/5FB1A45D/601D4424" Ref="UBN281"  Part="1" 
F 0 "UBN281" H 5975 7317 50  0000 C CNN
F 1 "NAND02" H 5975 7226 50  0000 C CNN
F 2 "" H 5950 7050 50  0001 C CNN
F 3 "" H 5950 7050 50  0001 C CNN
	1    5950 7050
	1    0    0    1   
$EndComp
$Comp
L A5C:NOR02 UBW?
U 1 1 5FF92B00
P 7650 5800
AR Path="/5FF92B00" Ref="UBW?"  Part="1" 
AR Path="/5FB1A45D/5FF92B00" Ref="UBW275"  Part="1" 
F 0 "UBW275" H 7675 6067 50  0000 C CNN
F 1 "NOR02" H 7675 5976 50  0000 C CNN
F 2 "" H 7650 5800 50  0001 C CNN
F 3 "" H 7650 5800 50  0001 C CNN
	1    7650 5800
	1    0    0    -1  
$EndComp
$Comp
L A5C:NAND03 UBR13
U 1 1 6FB0F30E
P 4250 3550
F 0 "UBR13" H 4275 3842 50  0000 C CNN
F 1 "NAND03" H 4275 3751 50  0000 C CNN
F 2 "" H 4250 3550 50  0001 C CNN
F 3 "" H 4250 3550 50  0001 C CNN
	1    4250 3550
	1    0    0    -1  
$EndComp
$Comp
L A5C:INV01 UBZ133
U 1 1 601E0AB4
P 1700 6350
F 0 "UBZ133" H 1700 6667 50  0000 C CNN
F 1 "INV01" H 1700 6576 50  0000 C CNN
F 2 "" H 1700 6150 50  0001 C CNN
F 3 "" H 1700 6150 50  0001 C CNN
	1    1700 6350
	1    0    0    1   
$EndComp
$Comp
L A5C:INV01 UBR274
U 1 1 7D5C298B
P 4850 7050
F 0 "UBR274" H 4850 7367 50  0000 C CNN
F 1 "INV01" H 4850 7276 50  0000 C CNN
F 2 "" H 4850 6850 50  0001 C CNN
F 3 "" H 4850 6850 50  0001 C CNN
	1    4850 7050
	1    0    0    -1  
$EndComp
$Comp
L A5C:INV01 UBZ?
U 1 1 5FF92B06
P 6450 5750
AR Path="/5FF92B06" Ref="UBZ?"  Part="1" 
AR Path="/5FB1A45D/5FF92B06" Ref="UBZ242"  Part="1" 
F 0 "UBZ242" H 6450 6067 50  0000 C CNN
F 1 "INV01" H 6450 5976 50  0000 C CNN
F 2 "" H 6450 5550 50  0001 C CNN
F 3 "" H 6450 5550 50  0001 C CNN
	1    6450 5750
	1    0    0    -1  
$EndComp
$Comp
L A5C:NAND04 UBR11
U 1 1 6FB0A3F2
P 4300 4300
F 0 "UBR11" H 4300 4642 50  0000 C CNN
F 1 "NAND04" H 4300 4551 50  0000 C CNN
F 2 "" H 4300 4050 50  0001 C CNN
F 3 "" H 4300 4050 50  0001 C CNN
	1    4300 4300
	1    0    0    -1  
$EndComp
$Comp
L A5C:DFFCOR UBR161
U 1 1 6907713D
P 2450 2250
F 0 "UBR161" H 2450 2615 50  0000 C CNN
F 1 "DFFCOR" H 2450 2524 50  0000 C CNN
F 2 "" H 2450 2250 50  0001 C CNN
F 3 "" H 2450 2250 50  0001 C CNN
F 4 "UBR159;UBR188" H 2450 2250 50  0001 C CNN "MiscRef"
	1    2450 2250
	1    0    0    -1  
$EndComp
$Comp
L A5C:DFFCOR UBR166
U 1 1 69077137
P 2450 3050
F 0 "UBR166" H 2450 3415 50  0000 C CNN
F 1 "DFFCOR" H 2450 3324 50  0000 C CNN
F 2 "" H 2450 3050 50  0001 C CNN
F 3 "" H 2450 3050 50  0001 C CNN
	1    2450 3050
	1    0    0    -1  
$EndComp
$Comp
L A5C:DFFCOR UBR170
U 1 1 69077131
P 2450 3850
F 0 "UBR170" H 2450 4215 50  0000 C CNN
F 1 "DFFCOR" H 2450 4124 50  0000 C CNN
F 2 "" H 2450 3850 50  0001 C CNN
F 3 "" H 2450 3850 50  0001 C CNN
	1    2450 3850
	1    0    0    -1  
$EndComp
$Comp
L A5C:DFFCOR UBR175
U 1 1 69540FFE
P 2450 4650
F 0 "UBR175" H 2450 5015 50  0000 C CNN
F 1 "DFFCOR" H 2450 4924 50  0000 C CNN
F 2 "" H 2450 4650 50  0001 C CNN
F 3 "" H 2450 4650 50  0001 C CNN
	1    2450 4650
	1    0    0    -1  
$EndComp
$Comp
L A5C:DFFCOR UBR179
U 1 1 69540FF8
P 2450 5450
F 0 "UBR179" H 2450 5815 50  0000 C CNN
F 1 "DFFCOR" H 2450 5724 50  0000 C CNN
F 2 "" H 2450 5450 50  0001 C CNN
F 3 "" H 2450 5450 50  0001 C CNN
	1    2450 5450
	1    0    0    -1  
$EndComp
$Comp
L A5C:DFFCOR UBR184
U 1 1 69540FF2
P 2450 6250
F 0 "UBR184" H 2450 6615 50  0000 C CNN
F 1 "DFFCOR" H 2450 6524 50  0000 C CNN
F 2 "" H 2450 6250 50  0001 C CNN
F 3 "" H 2450 6250 50  0001 C CNN
	1    2450 6250
	1    0    0    -1  
$EndComp
$Comp
L A5C:NAND05 UBR111
U 1 1 6D85AC43
P 4200 5150
F 0 "UBR111" H 4225 5540 50  0000 C CNN
F 1 "NAND05" H 4225 5449 50  0000 C CNN
F 2 "" H 4200 4850 50  0001 C CNN
F 3 "" H 4200 4850 50  0001 C CNN
	1    4200 5150
	1    0    0    -1  
$EndComp
$Comp
L A5C:NAND06 UBR143
U 1 1 614488FB
P 4200 6050
F 0 "UBR143" H 4200 6490 50  0000 C CNN
F 1 "NAND06" H 4200 6399 50  0000 C CNN
F 2 "" H 4150 6150 50  0001 C CNN
F 3 "" H 4150 6150 50  0001 C CNN
	1    4200 6050
	1    0    0    -1  
$EndComp
$Comp
L A5C:NAND08 UBR151
U 1 1 61449EE8
P 4250 7050
F 0 "UBR151" H 4250 7590 50  0000 C CNN
F 1 "NAND08" H 4250 7499 50  0000 C CNN
F 2 "" H 4200 7250 50  0001 C CNN
F 3 "" H 4200 7250 50  0001 C CNN
	1    4250 7050
	1    0    0    -1  
$EndComp
$EndSCHEMATC
