EESchema Schematic File Version 4
EELAYER 30 0
EELAYER END
$Descr A3 16535 11693
encoding utf-8
Sheet 10 69
Title ""
Date "2020-11-26"
Rev ""
Comp ""
Comment1 "Licence: CC-BY"
Comment2 "Author: Loïc *WydD* Petit"
Comment3 ""
Comment4 ""
$EndDescr
Connection ~ 11850 4700
Connection ~ 12550 5050
Connection ~ 12550 4300
Connection ~ 11850 7700
Connection ~ 11850 6950
Connection ~ 11850 8450
Connection ~ 12550 7300
Connection ~ 12550 8050
Connection ~ 11850 5450
Connection ~ 11850 6200
Connection ~ 12550 5800
Connection ~ 12550 6550
Connection ~ 11850 3950
Connection ~ 11850 3200
Connection ~ 12550 2800
Connection ~ 12550 3550
Connection ~ 7700 2800
Connection ~ 7700 3550
Connection ~ 8500 3000
Connection ~ 8400 2850
Connection ~ 8500 2150
Connection ~ 8500 2750
Connection ~ 7000 3200
Connection ~ 8600 2250
Connection ~ 8600 2650
Connection ~ 8600 4850
Connection ~ 8400 3750
Connection ~ 8400 4200
Connection ~ 8500 4100
Connection ~ 8500 4950
Connection ~ 7000 3950
Connection ~ 8300 3650
Connection ~ 8000 6100
Connection ~ 8400 3550
Connection ~ 8500 3450
Connection ~ 8600 3350
Connection ~ 8600 4000
Connection ~ 7900 9000
Connection ~ 7800 9100
Connection ~ 7900 6200
Connection ~ 7800 6300
Connection ~ 8100 6850
Connection ~ 8000 7550
Connection ~ 7000 8450
Connection ~ 7000 6950
Connection ~ 7700 6550
Connection ~ 7000 6200
Connection ~ 7000 5450
Connection ~ 7700 5050
Connection ~ 7700 5800
Connection ~ 7700 4300
Connection ~ 7000 4700
Connection ~ 7700 7300
Connection ~ 7000 7700
Connection ~ 8300 5150
Connection ~ 8400 5050
Connection ~ 8100 6000
Connection ~ 8300 4500
Connection ~ 8200 5250
Connection ~ 8300 4300
Connection ~ 8200 4400
Connection ~ 8000 8900
Connection ~ 8200 8700
Connection ~ 8100 8150
Connection ~ 8200 8050
Connection ~ 8100 7450
Connection ~ 7900 7500
Connection ~ 8000 6750
Connection ~ 8200 6950
Connection ~ 8200 7350
Connection ~ 8100 8800
Connection ~ 8000 8250
Connection ~ 7900 8350
Connection ~ 7800 8250
Connection ~ 7350 2050
Connection ~ 1450 9600
Connection ~ 2000 8250
Connection ~ 4650 6700
Connection ~ 2000 6700
Connection ~ 2850 6250
Connection ~ 2100 8350
Connection ~ 2000 9150
Connection ~ 11300 9150
Connection ~ 12550 9150
Connection ~ 2100 5300
Connection ~ 3650 8650
Connection ~ 2000 8850
NoConn ~ 3550 6150
NoConn ~ 3550 6800
NoConn ~ 3550 8750
Entry Wire Line
	1550 4550 1450 4450
Entry Wire Line
	1550 4650 1450 4550
Entry Wire Line
	1550 4750 1450 4650
Entry Wire Line
	1550 4850 1450 4750
Entry Wire Line
	1550 4950 1450 4850
Entry Wire Line
	1550 7700 1450 7600
Entry Wire Line
	1550 7800 1450 7700
Entry Wire Line
	1550 7900 1450 7800
Entry Wire Line
	1550 8000 1450 7900
Entry Wire Line
	13450 2250 13550 2350
Entry Wire Line
	13450 3000 13550 3100
Entry Wire Line
	13450 3750 13550 3850
Entry Wire Line
	13450 4500 13550 4600
Entry Wire Line
	13450 5250 13550 5350
Entry Wire Line
	13450 6000 13550 6100
Entry Wire Line
	13450 6750 13550 6850
Entry Wire Line
	13450 7500 13550 7600
Entry Wire Line
	13450 8250 13550 8350
Wire Wire Line
	900  9100 1450 9100
Wire Wire Line
	900  9600 1450 9600
Wire Wire Line
	900  10100 1450 10100
Wire Wire Line
	1450 9200 1450 9600
Wire Wire Line
	1450 9600 1450 10000
Wire Wire Line
	1550 4550 2200 4550
Wire Wire Line
	1550 4650 2200 4650
Wire Wire Line
	1550 4750 2200 4750
Wire Wire Line
	1550 4850 2200 4850
Wire Wire Line
	1550 4950 2200 4950
Wire Wire Line
	1550 7700 2200 7700
Wire Wire Line
	1550 7800 2200 7800
Wire Wire Line
	1550 7900 2200 7900
Wire Wire Line
	1550 8000 2200 8000
Wire Wire Line
	1750 8350 2100 8350
Wire Wire Line
	2000 5200 2000 6700
Wire Wire Line
	2000 5200 2200 5200
Wire Wire Line
	2000 6700 2000 8250
Wire Wire Line
	2000 6700 3050 6700
Wire Wire Line
	2000 8250 2000 8850
Wire Wire Line
	2000 8250 2200 8250
Wire Wire Line
	2000 8850 2000 9150
Wire Wire Line
	2000 8850 2200 8850
Wire Wire Line
	2000 9150 6150 9150
Wire Wire Line
	2000 10050 11300 10050
Wire Wire Line
	2100 2050 2100 5300
Wire Wire Line
	2100 2050 7350 2050
Wire Wire Line
	2100 5300 2100 8350
Wire Wire Line
	2100 8350 2100 9050
Wire Wire Line
	2100 9050 3300 9050
Wire Wire Line
	2200 5300 2100 5300
Wire Wire Line
	2200 8350 2100 8350
Wire Wire Line
	2600 6250 2850 6250
Wire Wire Line
	2800 4550 4750 4550
Wire Wire Line
	2800 4650 4750 4650
Wire Wire Line
	2800 4750 4750 4750
Wire Wire Line
	2800 4850 4750 4850
Wire Wire Line
	2800 4950 4750 4950
Wire Wire Line
	2800 7700 4750 7700
Wire Wire Line
	2800 7800 4750 7800
Wire Wire Line
	2800 7900 4750 7900
Wire Wire Line
	2800 8000 4750 8000
Wire Wire Line
	2800 8850 3050 8850
Wire Wire Line
	2850 6250 2850 6900
Wire Wire Line
	2850 6250 3050 6250
Wire Wire Line
	2850 6900 3050 6900
Wire Wire Line
	2950 6050 3050 6050
Wire Wire Line
	2950 7300 2950 6050
Wire Wire Line
	3550 6050 3800 6050
Wire Wire Line
	3550 6700 3800 6700
Wire Wire Line
	3550 8650 3650 8650
Wire Wire Line
	3600 7150 3800 7150
Wire Wire Line
	3650 7300 2950 7300
Wire Wire Line
	3650 7300 3650 8650
Wire Wire Line
	3650 8650 3650 9050
Wire Wire Line
	3650 9050 6150 9050
Wire Wire Line
	3800 6600 3800 6050
Wire Wire Line
	3800 6800 3800 7150
Wire Wire Line
	4150 800  10650 800 
Wire Wire Line
	4150 5550 4150 800 
Wire Wire Line
	4250 900  4250 5450
Wire Wire Line
	4250 900  10550 900 
Wire Wire Line
	4250 5450 4750 5450
Wire Wire Line
	4250 8200 4250 10450
Wire Wire Line
	4250 10450 10650 10450
Wire Wire Line
	4350 1000 4350 5350
Wire Wire Line
	4350 1000 10450 1000
Wire Wire Line
	4350 5350 4750 5350
Wire Wire Line
	4350 8300 4350 10350
Wire Wire Line
	4350 8300 4750 8300
Wire Wire Line
	4350 10350 10550 10350
Wire Wire Line
	4450 1100 10350 1100
Wire Wire Line
	4450 5250 4450 1100
Wire Wire Line
	4450 8400 4450 10250
Wire Wire Line
	4450 10250 10450 10250
Wire Wire Line
	4550 1200 4550 5150
Wire Wire Line
	4550 1200 10250 1200
Wire Wire Line
	4550 5150 4750 5150
Wire Wire Line
	4550 8500 4550 10150
Wire Wire Line
	4550 8500 4750 8500
Wire Wire Line
	4550 10150 10350 10150
Wire Wire Line
	4650 5750 4650 6700
Wire Wire Line
	4650 5750 4750 5750
Wire Wire Line
	4650 6700 4650 8700
Wire Wire Line
	4650 8700 4750 8700
Wire Wire Line
	4750 5250 4450 5250
Wire Wire Line
	4750 5550 4150 5550
Wire Wire Line
	4750 8200 4250 8200
Wire Wire Line
	4750 8400 4450 8400
Wire Wire Line
	5750 4950 6700 4950
Wire Wire Line
	5750 5150 6900 5150
Wire Wire Line
	5750 7950 6700 7950
Wire Wire Line
	5750 8050 6800 8050
Wire Wire Line
	5750 8150 6900 8150
Wire Wire Line
	5750 8250 7100 8250
Wire Wire Line
	6600 2250 6600 4850
Wire Wire Line
	6600 2250 7100 2250
Wire Wire Line
	6600 4850 5750 4850
Wire Wire Line
	6700 3000 7100 3000
Wire Wire Line
	6700 4950 6700 3000
Wire Wire Line
	6700 6000 6700 7950
Wire Wire Line
	6700 6000 7100 6000
Wire Wire Line
	6800 3750 6800 5050
Wire Wire Line
	6800 3750 7100 3750
Wire Wire Line
	6800 5050 5750 5050
Wire Wire Line
	6800 6750 6800 8050
Wire Wire Line
	6800 6750 7100 6750
Wire Wire Line
	6900 4500 7100 4500
Wire Wire Line
	6900 5150 6900 4500
Wire Wire Line
	6900 7500 7100 7500
Wire Wire Line
	6900 8150 6900 7500
Wire Wire Line
	7000 2450 7000 3200
Wire Wire Line
	7000 3200 7000 3950
Wire Wire Line
	7000 3950 7000 4700
Wire Wire Line
	7000 4700 7000 5450
Wire Wire Line
	7000 5450 7000 6200
Wire Wire Line
	7000 5450 7100 5450
Wire Wire Line
	7000 6200 7000 6950
Wire Wire Line
	7000 6950 7000 7700
Wire Wire Line
	7000 7700 7000 8450
Wire Wire Line
	7000 8450 7000 9150
Wire Wire Line
	7100 2450 7000 2450
Wire Wire Line
	7100 3200 7000 3200
Wire Wire Line
	7100 3950 7000 3950
Wire Wire Line
	7100 4700 7000 4700
Wire Wire Line
	7100 5250 5750 5250
Wire Wire Line
	7100 6200 7000 6200
Wire Wire Line
	7100 6950 7000 6950
Wire Wire Line
	7100 7700 7000 7700
Wire Wire Line
	7100 8450 7000 8450
Wire Wire Line
	7350 2050 7700 2050
Wire Wire Line
	7350 2800 7700 2800
Wire Wire Line
	7350 4300 7700 4300
Wire Wire Line
	7350 5800 7700 5800
Wire Wire Line
	7350 6550 7700 6550
Wire Wire Line
	7350 8050 7700 8050
Wire Wire Line
	7600 2250 8600 2250
Wire Wire Line
	7600 3000 8500 3000
Wire Wire Line
	7600 3750 8400 3750
Wire Wire Line
	7600 4500 8300 4500
Wire Wire Line
	7600 5250 8200 5250
Wire Wire Line
	7600 6000 8100 6000
Wire Wire Line
	7600 6750 8000 6750
Wire Wire Line
	7600 7500 7900 7500
Wire Wire Line
	7600 8250 7800 8250
Wire Wire Line
	7700 2050 7700 2800
Wire Wire Line
	7700 2800 7700 3550
Wire Wire Line
	7700 3550 7350 3550
Wire Wire Line
	7700 3550 7700 4300
Wire Wire Line
	7700 4300 7700 5050
Wire Wire Line
	7700 5050 7350 5050
Wire Wire Line
	7700 5050 7700 5800
Wire Wire Line
	7700 5800 7700 6550
Wire Wire Line
	7700 6550 7700 7300
Wire Wire Line
	7700 7300 7350 7300
Wire Wire Line
	7700 7300 7700 8050
Wire Wire Line
	7800 1600 7800 6300
Wire Wire Line
	7800 6300 7800 8250
Wire Wire Line
	7800 6300 11050 6300
Wire Wire Line
	7800 8250 7800 9100
Wire Wire Line
	7800 9100 9650 9100
Wire Wire Line
	7800 9950 7800 9100
Wire Wire Line
	7800 9950 8900 9950
Wire Wire Line
	7900 1600 7900 6200
Wire Wire Line
	7900 6200 7900 7500
Wire Wire Line
	7900 6200 11150 6200
Wire Wire Line
	7900 7500 7900 8350
Wire Wire Line
	7900 8350 7900 9000
Wire Wire Line
	7900 8350 9650 8350
Wire Wire Line
	7900 9000 9050 9000
Wire Wire Line
	7900 9850 7900 9000
Wire Wire Line
	7900 9850 8900 9850
Wire Wire Line
	8000 1600 8000 6100
Wire Wire Line
	8000 6100 8000 6750
Wire Wire Line
	8000 6100 11250 6100
Wire Wire Line
	8000 6750 8000 7550
Wire Wire Line
	8000 7550 8000 8250
Wire Wire Line
	8000 7550 9650 7550
Wire Wire Line
	8000 8250 8000 8900
Wire Wire Line
	8000 8250 9050 8250
Wire Wire Line
	8000 8900 9050 8900
Wire Wire Line
	8000 9750 8000 8900
Wire Wire Line
	8000 9750 8900 9750
Wire Wire Line
	8100 1600 8100 6000
Wire Wire Line
	8100 6000 8100 6850
Wire Wire Line
	8100 6000 11950 6000
Wire Wire Line
	8100 6850 8100 7450
Wire Wire Line
	8100 6850 9650 6850
Wire Wire Line
	8100 7450 8100 8150
Wire Wire Line
	8100 7450 9100 7450
Wire Wire Line
	8100 8150 8100 8800
Wire Wire Line
	8100 8150 9050 8150
Wire Wire Line
	8100 8800 9050 8800
Wire Wire Line
	8100 9650 8100 8800
Wire Wire Line
	8100 9650 8900 9650
Wire Wire Line
	8200 1600 8200 4400
Wire Wire Line
	8200 4400 8200 5250
Wire Wire Line
	8200 5900 8200 5250
Wire Wire Line
	8200 5900 11250 5900
Wire Wire Line
	8200 6400 8200 6950
Wire Wire Line
	8200 6950 8200 7350
Wire Wire Line
	8200 6950 9650 6950
Wire Wire Line
	8200 7350 8200 8050
Wire Wire Line
	8200 7350 9100 7350
Wire Wire Line
	8200 8050 8200 8700
Wire Wire Line
	8200 8050 9050 8050
Wire Wire Line
	8200 8700 9050 8700
Wire Wire Line
	8200 9550 8200 8700
Wire Wire Line
	8200 9550 8900 9550
Wire Wire Line
	8300 1600 8300 3650
Wire Wire Line
	8300 3650 8300 4300
Wire Wire Line
	8300 4300 8300 4500
Wire Wire Line
	8300 4500 8300 5150
Wire Wire Line
	8300 5800 8300 5150
Wire Wire Line
	8300 5800 11150 5800
Wire Wire Line
	8400 1600 8400 2850
Wire Wire Line
	8400 2850 8400 3550
Wire Wire Line
	8400 3550 8400 3750
Wire Wire Line
	8400 3750 8400 4200
Wire Wire Line
	8400 4200 8400 5050
Wire Wire Line
	8400 5700 8400 5050
Wire Wire Line
	8400 5700 11050 5700
Wire Wire Line
	8500 1600 8500 2150
Wire Wire Line
	8500 2150 8500 2750
Wire Wire Line
	8500 2750 8500 3000
Wire Wire Line
	8500 3000 8500 3450
Wire Wire Line
	8500 3450 8500 4100
Wire Wire Line
	8500 4100 8500 4950
Wire Wire Line
	8500 5600 8500 4950
Wire Wire Line
	8500 5600 10950 5600
Wire Wire Line
	8600 1600 8600 2250
Wire Wire Line
	8600 2250 8600 2650
Wire Wire Line
	8600 2650 8600 3350
Wire Wire Line
	8600 3350 8600 4000
Wire Wire Line
	8600 4000 8600 4850
Wire Wire Line
	8600 5500 8600 4850
Wire Wire Line
	8600 5500 10850 5500
Wire Wire Line
	8900 4850 8600 4850
Wire Wire Line
	8900 4950 8500 4950
Wire Wire Line
	8900 5050 8400 5050
Wire Wire Line
	8900 5150 8300 5150
Wire Wire Line
	8900 5250 8200 5250
Wire Wire Line
	9050 3350 8600 3350
Wire Wire Line
	9050 3450 8500 3450
Wire Wire Line
	9050 3550 8400 3550
Wire Wire Line
	9050 4000 8600 4000
Wire Wire Line
	9050 4100 8500 4100
Wire Wire Line
	9050 4200 8400 4200
Wire Wire Line
	9050 4300 8300 4300
Wire Wire Line
	9100 2650 8600 2650
Wire Wire Line
	9100 2750 8500 2750
Wire Wire Line
	9650 1600 8600 1600
Wire Wire Line
	9650 2150 8500 2150
Wire Wire Line
	9650 2250 8600 2250
Wire Wire Line
	9650 2750 9650 2700
Wire Wire Line
	9650 2850 8400 2850
Wire Wire Line
	9650 3550 9650 3450
Wire Wire Line
	9650 3650 8300 3650
Wire Wire Line
	9650 4150 9650 4300
Wire Wire Line
	9650 4400 8200 4400
Wire Wire Line
	9650 7450 9650 7400
Wire Wire Line
	9650 8250 9650 8150
Wire Wire Line
	9650 8850 9650 9000
Wire Wire Line
	10200 2200 10350 2200
Wire Wire Line
	10200 2800 10450 2800
Wire Wire Line
	10200 3600 10550 3600
Wire Wire Line
	10200 4350 10650 4350
Wire Wire Line
	10200 6900 10650 6900
Wire Wire Line
	10200 7500 10550 7500
Wire Wire Line
	10200 8300 10450 8300
Wire Wire Line
	10200 9050 10350 9050
Wire Wire Line
	10250 1600 10250 1200
Wire Wire Line
	10250 5050 10250 6400
Wire Wire Line
	10250 6400 8200 6400
Wire Wire Line
	10250 9750 13450 9750
Wire Wire Line
	10350 1100 10350 2200
Wire Wire Line
	10350 9050 10350 10150
Wire Wire Line
	10450 1000 10450 2800
Wire Wire Line
	10450 8300 10450 10250
Wire Wire Line
	10550 900  10550 3600
Wire Wire Line
	10550 7500 10550 10350
Wire Wire Line
	10650 800  10650 4350
Wire Wire Line
	10650 6900 10650 10450
Wire Wire Line
	10850 2250 10850 5500
Wire Wire Line
	10850 2250 11950 2250
Wire Wire Line
	10950 3000 10950 5600
Wire Wire Line
	11050 3750 11050 5700
Wire Wire Line
	11050 8250 11050 6300
Wire Wire Line
	11050 8250 11950 8250
Wire Wire Line
	11150 4500 11150 5800
Wire Wire Line
	11150 7500 11150 6200
Wire Wire Line
	11150 7500 11950 7500
Wire Wire Line
	11250 5250 11250 5900
Wire Wire Line
	11250 6750 11250 6100
Wire Wire Line
	11250 6750 11950 6750
Wire Wire Line
	11300 8650 11300 9150
Wire Wire Line
	11300 9150 11300 10050
Wire Wire Line
	11850 2450 11850 3200
Wire Wire Line
	11850 3200 11850 3950
Wire Wire Line
	11850 3950 11850 4700
Wire Wire Line
	11850 4700 11850 5450
Wire Wire Line
	11850 5450 11850 6200
Wire Wire Line
	11850 6200 11850 6950
Wire Wire Line
	11850 6950 11850 7700
Wire Wire Line
	11850 7700 11850 8450
Wire Wire Line
	11850 8450 11950 8450
Wire Wire Line
	11850 8600 11850 8450
Wire Wire Line
	11950 2450 11850 2450
Wire Wire Line
	11950 3000 10950 3000
Wire Wire Line
	11950 3200 11850 3200
Wire Wire Line
	11950 3750 11050 3750
Wire Wire Line
	11950 3950 11850 3950
Wire Wire Line
	11950 4500 11150 4500
Wire Wire Line
	11950 4700 11850 4700
Wire Wire Line
	11950 5250 11250 5250
Wire Wire Line
	11950 5450 11850 5450
Wire Wire Line
	11950 6200 11850 6200
Wire Wire Line
	11950 6950 11850 6950
Wire Wire Line
	11950 7700 11850 7700
Wire Wire Line
	12200 2050 12550 2050
Wire Wire Line
	12200 2800 12550 2800
Wire Wire Line
	12200 4300 12550 4300
Wire Wire Line
	12200 5800 12550 5800
Wire Wire Line
	12200 6550 12550 6550
Wire Wire Line
	12200 8050 12550 8050
Wire Wire Line
	12450 2250 13450 2250
Wire Wire Line
	12450 3000 13450 3000
Wire Wire Line
	12450 3750 13450 3750
Wire Wire Line
	12450 4500 13450 4500
Wire Wire Line
	12450 5250 13450 5250
Wire Wire Line
	12450 6000 13450 6000
Wire Wire Line
	12450 6750 13450 6750
Wire Wire Line
	12450 7500 13450 7500
Wire Wire Line
	12450 8250 13450 8250
Wire Wire Line
	12550 2050 12550 2800
Wire Wire Line
	12550 2800 12550 3550
Wire Wire Line
	12550 3550 12200 3550
Wire Wire Line
	12550 3550 12550 4300
Wire Wire Line
	12550 4300 12550 5050
Wire Wire Line
	12550 5050 12200 5050
Wire Wire Line
	12550 5050 12550 5800
Wire Wire Line
	12550 5800 12550 6550
Wire Wire Line
	12550 6550 12550 7300
Wire Wire Line
	12550 7300 12200 7300
Wire Wire Line
	12550 7300 12550 8050
Wire Wire Line
	12550 8050 12550 9150
Wire Wire Line
	12550 9150 11300 9150
Wire Wire Line
	12550 9150 12650 9150
Wire Bus Line
	1150 4300 1450 4300
Wire Bus Line
	13550 8650 13750 8650
Text Label 1650 4550 0    50   ~ 0
~BUS0
Text Label 1650 4650 0    50   ~ 0
~BUS1
Text Label 1650 4750 0    50   ~ 0
~BUS2
Text Label 1650 4850 0    50   ~ 0
~BUS3
Text Label 1650 4950 0    50   ~ 0
~BUS4
Text Label 1650 7700 0    50   ~ 0
~BUS5
Text Label 1650 7800 0    50   ~ 0
~BUS6
Text Label 1650 7900 0    50   ~ 0
~BUS7
Text Label 1650 8000 0    50   ~ 0
~BUS8
Text Label 2850 6900 2    50   ~ 0
~CLK4M
Text Label 11300 8550 2    50   ~ 0
~CLK4M
Text HLabel 900  9100 0    50   Input ~ 0
WR
Text HLabel 900  9600 0    50   Input ~ 0
ENABLE
Text HLabel 900  10100 0    50   Input ~ 0
RD
Text HLabel 1150 4300 0    50   Input ~ 0
~BUS[0..8]
Text HLabel 1750 8350 0    50   Input ~ 0
~RESET
Text HLabel 2600 6250 0    50   Input ~ 0
~CLK4M
Text HLabel 3050 8650 0    50   Input ~ 0
UK
Text HLabel 3600 7150 0    50   Input ~ 0
SET-~INC
Text HLabel 6150 9250 0    50   Input ~ 0
LI
Text HLabel 12650 9150 2    50   Output ~ 0
~OUT-ENABLE
Text HLabel 13450 9750 2    50   Output ~ 0
~ZERO
Text HLabel 13750 8650 2    50   3State ~ 0
BUS-OUT[0..8]
$Comp
L A5C:NOR02 UBR365
U 1 1 5FE51992
P 1700 9150
AR Path="/5F8B10F1/5FE51992" Ref="UBR365"  Part="1" 
AR Path="/5FBC4837/5FBC4DDD/5FE51992" Ref="UBR365"  Part="1" 
F 0 "UBR365" H 1725 9417 50  0000 C CNN
F 1 "NOR02" H 1725 9326 50  0000 C CNN
F 2 "" H 1700 9150 50  0001 C CNN
F 3 "" H 1700 9150 50  0001 C CNN
	1    1700 9150
	1    0    0    -1  
$EndComp
$Comp
L A5C:OR02 UBR367
U 1 1 601E0A95
P 1700 10050
AR Path="/5F8B10F1/601E0A95" Ref="UBR367"  Part="1" 
AR Path="/5FBC4837/5FBC4DDD/601E0A95" Ref="UBR367"  Part="1" 
F 0 "UBR367" H 1725 10317 50  0000 C CNN
F 1 "OR02" H 1725 10226 50  0000 C CNN
F 2 "" H 1750 10050 50  0001 C CNN
F 3 "" H 1750 10050 50  0001 C CNN
	1    1700 10050
	1    0    0    -1  
$EndComp
$Comp
L A5C:OR02 UBR296
U 1 1 601E0A96
P 9350 2700
AR Path="/5F8B10F1/601E0A96" Ref="UBR296"  Part="1" 
AR Path="/5FBC4837/5FBC4DDD/601E0A96" Ref="UBR296"  Part="1" 
F 0 "UBR296" H 9375 2967 50  0000 C CNN
F 1 "OR02" H 9375 2876 50  0000 C CNN
F 2 "" H 9400 2700 50  0001 C CNN
F 3 "" H 9400 2700 50  0001 C CNN
	1    9350 2700
	1    0    0    -1  
$EndComp
$Comp
L A5C:OR02 UBW110
U 1 1 6FE3C07A
P 9350 7400
AR Path="/5F8B10F1/6FE3C07A" Ref="UBW110"  Part="1" 
AR Path="/5FBC4837/5FBC4DDD/6FE3C07A" Ref="UBW110"  Part="1" 
F 0 "UBW110" H 9375 7667 50  0000 C CNN
F 1 "OR02" H 9375 7576 50  0000 C CNN
F 2 "" H 9400 7400 50  0001 C CNN
F 3 "" H 9400 7400 50  0001 C CNN
	1    9350 7400
	1    0    0    -1  
$EndComp
$Comp
L A5C:XNOR02 UBR293
U 1 1 601E0A97
P 9900 2200
AR Path="/5F8B10F1/601E0A97" Ref="UBR293"  Part="1" 
AR Path="/5FBC4837/5FBC4DDD/601E0A97" Ref="UBR293"  Part="1" 
F 0 "UBR293" H 9900 2517 50  0000 C CNN
F 1 "XNOR02" H 9900 2426 50  0000 C CNN
F 2 "" H 9900 2200 50  0001 C CNN
F 3 "" H 9900 2200 50  0001 C CNN
	1    9900 2200
	1    0    0    -1  
$EndComp
$Comp
L A5C:XNOR02 UBR300
U 1 1 601E0A98
P 9900 2800
AR Path="/5F8B10F1/601E0A98" Ref="UBR300"  Part="1" 
AR Path="/5FBC4837/5FBC4DDD/601E0A98" Ref="UBR300"  Part="1" 
F 0 "UBR300" H 9900 3117 50  0000 C CNN
F 1 "XNOR02" H 9900 3026 50  0000 C CNN
F 2 "" H 9900 2800 50  0001 C CNN
F 3 "" H 9900 2800 50  0001 C CNN
	1    9900 2800
	1    0    0    -1  
$EndComp
$Comp
L A5C:XNOR02 UBK301
U 1 1 601E0AE1
P 9900 3600
AR Path="/5F8B10F1/601E0AE1" Ref="UBK301"  Part="1" 
AR Path="/5FBC4837/5FBC4DDD/601E0AE1" Ref="UBK301"  Part="1" 
F 0 "UBK301" H 9900 3917 50  0000 C CNN
F 1 "XNOR02" H 9900 3826 50  0000 C CNN
F 2 "" H 9900 3600 50  0001 C CNN
F 3 "" H 9900 3600 50  0001 C CNN
	1    9900 3600
	1    0    0    -1  
$EndComp
$Comp
L A5C:XNOR02 UBN319
U 1 1 601E0AC0
P 9900 4350
AR Path="/5F8B10F1/601E0AC0" Ref="UBN319"  Part="1" 
AR Path="/5FBC4837/5FBC4DDD/601E0AC0" Ref="UBN319"  Part="1" 
F 0 "UBN319" H 9900 4667 50  0000 C CNN
F 1 "XNOR02" H 9900 4576 50  0000 C CNN
F 2 "" H 9900 4350 50  0001 C CNN
F 3 "" H 9900 4350 50  0001 C CNN
	1    9900 4350
	1    0    0    -1  
$EndComp
$Comp
L A5C:XNOR02 UBW146
U 1 1 6FE3C064
P 9900 6900
AR Path="/5F8B10F1/6FE3C064" Ref="UBW146"  Part="1" 
AR Path="/5FBC4837/5FBC4DDD/6FE3C064" Ref="UBW146"  Part="1" 
F 0 "UBW146" H 9900 7217 50  0000 C CNN
F 1 "XNOR02" H 9900 7126 50  0000 C CNN
F 2 "" H 9900 6900 50  0001 C CNN
F 3 "" H 9900 6900 50  0001 C CNN
	1    9900 6900
	1    0    0    -1  
$EndComp
$Comp
L A5C:XNOR02 UBW127
U 1 1 6FE3C074
P 9900 7500
AR Path="/5F8B10F1/6FE3C074" Ref="UBW127"  Part="1" 
AR Path="/5FBC4837/5FBC4DDD/6FE3C074" Ref="UBW127"  Part="1" 
F 0 "UBW127" H 9900 7817 50  0000 C CNN
F 1 "XNOR02" H 9900 7726 50  0000 C CNN
F 2 "" H 9900 7500 50  0001 C CNN
F 3 "" H 9900 7500 50  0001 C CNN
	1    9900 7500
	1    0    0    -1  
$EndComp
$Comp
L A5C:XNOR02 UBW122
U 1 1 6FE3C08F
P 9900 8300
AR Path="/5F8B10F1/6FE3C08F" Ref="UBW122"  Part="1" 
AR Path="/5FBC4837/5FBC4DDD/6FE3C08F" Ref="UBW122"  Part="1" 
F 0 "UBW122" H 9900 8617 50  0000 C CNN
F 1 "XNOR02" H 9900 8526 50  0000 C CNN
F 2 "" H 9900 8300 50  0001 C CNN
F 3 "" H 9900 8300 50  0001 C CNN
	1    9900 8300
	1    0    0    -1  
$EndComp
$Comp
L A5C:XNOR02 UBR192
U 1 1 6FE3C083
P 9900 9050
AR Path="/5F8B10F1/6FE3C083" Ref="UBR192"  Part="1" 
AR Path="/5FBC4837/5FBC4DDD/6FE3C083" Ref="UBR192"  Part="1" 
F 0 "UBR192" H 9900 9367 50  0000 C CNN
F 1 "XNOR02" H 9900 9276 50  0000 C CNN
F 2 "" H 9900 9050 50  0001 C CNN
F 3 "" H 9900 9050 50  0001 C CNN
	1    9900 9050
	1    0    0    -1  
$EndComp
$Comp
L A5C:NAND02 UBU367
U 1 1 601E0AC9
P 11550 8600
AR Path="/5F8B10F1/601E0AC9" Ref="UBU367"  Part="1" 
AR Path="/5FBC4837/5FBC4DDD/601E0AC9" Ref="UBU367"  Part="1" 
F 0 "UBU367" H 11575 8867 50  0000 C CNN
F 1 "NAND02" H 11575 8776 50  0000 C CNN
F 2 "" H 11550 8600 50  0001 C CNN
F 3 "" H 11550 8600 50  0001 C CNN
	1    11550 8600
	1    0    0    -1  
$EndComp
$Comp
L A5C:INV01 UBW274
U 1 1 601E0A44
P 2500 8850
AR Path="/5F8B10F1/601E0A44" Ref="UBW274"  Part="1" 
AR Path="/5FBC4837/5FBC4DDD/601E0A44" Ref="UBW274"  Part="1" 
F 0 "UBW274" H 2500 9166 50  0000 C CNN
F 1 "INV01" H 2500 9075 50  0000 C CNN
F 2 "" H 2500 8650 50  0001 C CNN
F 3 "" H 2500 8650 50  0001 C CNN
	1    2500 8850
	1    0    0    -1  
$EndComp
$Comp
L A5C:OR03 UBK298
U 1 1 601E0ACA
P 9350 3450
AR Path="/5F8B10F1/601E0ACA" Ref="UBK298"  Part="1" 
AR Path="/5FBC4837/5FBC4DDD/601E0ACA" Ref="UBK298"  Part="1" 
F 0 "UBK298" H 9350 3767 50  0000 C CNN
F 1 "OR03" H 9350 3676 50  0000 C CNN
F 2 "" H 9350 3450 50  0001 C CNN
F 3 "" H 9350 3450 50  0001 C CNN
	1    9350 3450
	1    0    0    -1  
$EndComp
$Comp
L A5C:OR03 UBW119
U 1 1 6FE3C095
P 9350 8150
AR Path="/5F8B10F1/6FE3C095" Ref="UBW119"  Part="1" 
AR Path="/5FBC4837/5FBC4DDD/6FE3C095" Ref="UBW119"  Part="1" 
F 0 "UBW119" H 9350 8467 50  0000 C CNN
F 1 "OR03" H 9350 8376 50  0000 C CNN
F 2 "" H 9350 8150 50  0001 C CNN
F 3 "" H 9350 8150 50  0001 C CNN
	1    9350 8150
	1    0    0    -1  
$EndComp
$Comp
L A5C:INV01 UBR298
U 1 1 601E0A79
P 9950 1600
AR Path="/5F8B10F1/601E0A79" Ref="UBR298"  Part="1" 
AR Path="/5FBC4837/5FBC4DDD/601E0A79" Ref="UBR298"  Part="1" 
F 0 "UBR298" H 9950 1917 50  0000 C CNN
F 1 "INV01" H 9950 1826 50  0000 C CNN
F 2 "" H 9950 1400 50  0001 C CNN
F 3 "" H 9950 1400 50  0001 C CNN
	1    9950 1600
	1    0    0    -1  
$EndComp
$Comp
L A5C:INV01 UBK308
U 1 1 601E0A78
P 9950 5050
AR Path="/5F8B10F1/601E0A78" Ref="UBK308"  Part="1" 
AR Path="/5FBC4837/5FBC4DDD/601E0A78" Ref="UBK308"  Part="1" 
F 0 "UBK308" H 9950 5367 50  0000 C CNN
F 1 "INV01" H 9950 5276 50  0000 C CNN
F 2 "" H 9950 4850 50  0001 C CNN
F 3 "" H 9950 4850 50  0001 C CNN
	1    9950 5050
	1    0    0    -1  
$EndComp
$Comp
L A5C:INV01 UBZ192
U 1 1 6FE3C057
P 9950 9750
AR Path="/5F8B10F1/6FE3C057" Ref="UBZ192"  Part="1" 
AR Path="/5FBC4837/5FBC4DDD/6FE3C057" Ref="UBZ192"  Part="1" 
F 0 "UBZ192" H 9950 10067 50  0000 C CNN
F 1 "INV01" H 9950 9976 50  0000 C CNN
F 2 "" H 9950 9550 50  0001 C CNN
F 3 "" H 9950 9550 50  0001 C CNN
	1    9950 9750
	1    0    0    -1  
$EndComp
$Comp
L A5C:DFFCOO UBW314
U 1 1 5F9F119D
P 3300 6150
AR Path="/5F8B10F1/5F9F119D" Ref="UBW314"  Part="1" 
AR Path="/5FBC4837/5FBC4DDD/5F9F119D" Ref="UBW314"  Part="1" 
F 0 "UBW314" H 3300 6511 50  0000 C CNN
F 1 "DFFCOO" H 3300 6420 50  0000 C CNN
F 2 "" H 3300 6150 50  0001 C CNN
F 3 "" H 3300 6150 50  0001 C CNN
F 4 "UBW313" H 3300 6150 50  0001 C CNN "MiscRef"
	1    3300 6150
	1    0    0    -1  
$EndComp
$Comp
L A5C:DFFCOO UBW318
U 1 1 5F9F1A58
P 3300 6800
AR Path="/5F8B10F1/5F9F1A58" Ref="UBW318"  Part="1" 
AR Path="/5FBC4837/5FBC4DDD/5F9F1A58" Ref="UBW318"  Part="1" 
F 0 "UBW318" H 3300 7161 50  0000 C CNN
F 1 "DFFCOO" H 3300 7070 50  0000 C CNN
F 2 "" H 3300 6800 50  0001 C CNN
F 3 "" H 3300 6800 50  0001 C CNN
	1    3300 6800
	1    0    0    -1  
$EndComp
$Comp
L A5C:OR04 UBK312
U 1 1 601E0A80
P 9350 4150
AR Path="/5F8B10F1/601E0A80" Ref="UBK312"  Part="1" 
AR Path="/5FBC4837/5FBC4DDD/601E0A80" Ref="UBK312"  Part="1" 
F 0 "UBK312" H 9350 4492 50  0000 C CNN
F 1 "OR04" H 9350 4401 50  0000 C CNN
F 2 "" H 9350 4150 50  0001 C CNN
F 3 "" H 9350 4150 50  0001 C CNN
	1    9350 4150
	1    0    0    -1  
$EndComp
$Comp
L A5C:OR04 UBW217
U 1 1 6FE3C089
P 9350 8850
AR Path="/5F8B10F1/6FE3C089" Ref="UBW217"  Part="1" 
AR Path="/5FBC4837/5FBC4DDD/6FE3C089" Ref="UBW217"  Part="1" 
F 0 "UBW217" H 9350 9192 50  0000 C CNN
F 1 "OR04" H 9350 9101 50  0000 C CNN
F 2 "" H 9350 8850 50  0001 C CNN
F 3 "" H 9350 8850 50  0001 C CNN
	1    9350 8850
	1    0    0    -1  
$EndComp
$Comp
L A5C:AOI21 UBW310
U 1 1 601E0A6C
P 4200 6700
AR Path="/5F8B10F1/601E0A6C" Ref="UBW310"  Part="1" 
AR Path="/5FBC4837/5FBC4DDD/601E0A6C" Ref="UBW310"  Part="1" 
F 0 "UBW310" H 4225 7017 50  0000 C CNN
F 1 "AOI21" H 4225 6926 50  0000 C CNN
F 2 "" H 4350 6700 50  0001 C CNN
F 3 "" H 4350 6700 50  0001 C CNN
	1    4200 6700
	1    0    0    -1  
$EndComp
$Comp
L A5C:AOI21 UBU291
U 1 1 680574D2
P 6550 9150
AR Path="/5F8B10F1/680574D2" Ref="UBU291"  Part="1" 
AR Path="/5FBC4837/5FBC4DDD/680574D2" Ref="UBU291"  Part="1" 
F 0 "UBU291" H 6575 9467 50  0000 C CNN
F 1 "AOI21" H 6575 9376 50  0000 C CNN
F 2 "" H 6700 9150 50  0001 C CNN
F 3 "" H 6700 9150 50  0001 C CNN
	1    6550 9150
	1    0    0    -1  
$EndComp
$Comp
L A5C:DFFCOR UBU271
U 1 1 601E0A45
P 3300 8750
AR Path="/5F8B10F1/601E0A45" Ref="UBU271"  Part="1" 
AR Path="/5FBC4837/5FBC4DDD/601E0A45" Ref="UBU271"  Part="1" 
F 0 "UBU271" H 3300 9111 50  0000 C CNN
F 1 "DFFCOR" H 3300 9020 50  0000 C CNN
F 2 "" H 3300 8750 50  0001 C CNN
F 3 "" H 3300 8750 50  0001 C CNN
F 4 "UBU269;UBU276" H 3300 8750 50  0001 C CNN "MiscRef"
	1    3300 8750
	1    0    0    -1  
$EndComp
$Comp
L A5C:DFFCOS UBN295
U 1 1 601E0A7F
P 7350 2350
AR Path="/5F8B10F1/601E0A7F" Ref="UBN295"  Part="1" 
AR Path="/5FBC4837/5FBC4DDD/601E0A7F" Ref="UBN295"  Part="1" 
F 0 "UBN295" H 7350 2077 50  0000 C CNN
F 1 "DFFCOS" H 7350 1986 50  0000 C CNN
F 2 "" H 7350 2350 50  0001 C CNN
F 3 "" H 7350 2350 50  0001 C CNN
F 4 "UBN292;UBN317" H 7350 2350 50  0001 C CNN "MiscRef"
	1    7350 2350
	1    0    0    -1  
$EndComp
$Comp
L A5C:DFFCOS UBN299
U 1 1 601E0A7D
P 7350 3100
AR Path="/5F8B10F1/601E0A7D" Ref="UBN299"  Part="1" 
AR Path="/5FBC4837/5FBC4DDD/601E0A7D" Ref="UBN299"  Part="1" 
F 0 "UBN299" H 7350 2827 50  0000 C CNN
F 1 "DFFCOS" H 7350 2736 50  0000 C CNN
F 2 "" H 7350 3100 50  0001 C CNN
F 3 "" H 7350 3100 50  0001 C CNN
	1    7350 3100
	1    0    0    -1  
$EndComp
$Comp
L A5C:DFFCOS UBN304
U 1 1 601E0A6A
P 7350 3850
AR Path="/5F8B10F1/601E0A6A" Ref="UBN304"  Part="1" 
AR Path="/5FBC4837/5FBC4DDD/601E0A6A" Ref="UBN304"  Part="1" 
F 0 "UBN304" H 7350 3577 50  0000 C CNN
F 1 "DFFCOS" H 7350 3486 50  0000 C CNN
F 2 "" H 7350 3850 50  0001 C CNN
F 3 "" H 7350 3850 50  0001 C CNN
	1    7350 3850
	1    0    0    -1  
$EndComp
$Comp
L A5C:DFFCOS UBN308
U 1 1 601E0A74
P 7350 4600
AR Path="/5F8B10F1/601E0A74" Ref="UBN308"  Part="1" 
AR Path="/5FBC4837/5FBC4DDD/601E0A74" Ref="UBN308"  Part="1" 
F 0 "UBN308" H 7350 4327 50  0000 C CNN
F 1 "DFFCOS" H 7350 4236 50  0000 C CNN
F 2 "" H 7350 4600 50  0001 C CNN
F 3 "" H 7350 4600 50  0001 C CNN
	1    7350 4600
	1    0    0    -1  
$EndComp
$Comp
L A5C:DFFCOS UBN313
U 1 1 601E0A75
P 7350 5350
AR Path="/5F8B10F1/601E0A75" Ref="UBN313"  Part="1" 
AR Path="/5FBC4837/5FBC4DDD/601E0A75" Ref="UBN313"  Part="1" 
F 0 "UBN313" H 7350 5077 50  0000 C CNN
F 1 "DFFCOS" H 7350 4986 50  0000 C CNN
F 2 "" H 7350 5350 50  0001 C CNN
F 3 "" H 7350 5350 50  0001 C CNN
	1    7350 5350
	1    0    0    -1  
$EndComp
$Comp
L A5C:DFFCOS UBU161
U 1 1 5F3160B2
P 7350 6100
AR Path="/5F8B10F1/5F3160B2" Ref="UBU161"  Part="1" 
AR Path="/5FBC4837/5FBC4DDD/5F3160B2" Ref="UBU161"  Part="1" 
F 0 "UBU161" H 7350 5827 50  0000 C CNN
F 1 "DFFCOS" H 7350 5736 50  0000 C CNN
F 2 "" H 7350 6100 50  0001 C CNN
F 3 "" H 7350 6100 50  0001 C CNN
F 4 "UBU159;UBU179" H 7350 6100 50  0001 C CNN "MiscRef"
	1    7350 6100
	1    0    0    -1  
$EndComp
$Comp
L A5C:DFFCOS UBU165
U 1 1 5F3160B8
P 7350 6850
AR Path="/5F8B10F1/5F3160B8" Ref="UBU165"  Part="1" 
AR Path="/5FBC4837/5FBC4DDD/5F3160B8" Ref="UBU165"  Part="1" 
F 0 "UBU165" H 7350 6577 50  0000 C CNN
F 1 "DFFCOS" H 7350 6486 50  0000 C CNN
F 2 "" H 7350 6850 50  0001 C CNN
F 3 "" H 7350 6850 50  0001 C CNN
	1    7350 6850
	1    0    0    -1  
$EndComp
$Comp
L A5C:DFFCOS UBU170
U 1 1 5F3160BE
P 7350 7600
AR Path="/5F8B10F1/5F3160BE" Ref="UBU170"  Part="1" 
AR Path="/5FBC4837/5FBC4DDD/5F3160BE" Ref="UBU170"  Part="1" 
F 0 "UBU170" H 7350 7327 50  0000 C CNN
F 1 "DFFCOS" H 7350 7236 50  0000 C CNN
F 2 "" H 7350 7600 50  0001 C CNN
F 3 "" H 7350 7600 50  0001 C CNN
	1    7350 7600
	1    0    0    -1  
$EndComp
$Comp
L A5C:DFFCOS UBU174
U 1 1 5F3160C4
P 7350 8350
AR Path="/5F8B10F1/5F3160C4" Ref="UBU174"  Part="1" 
AR Path="/5FBC4837/5FBC4DDD/5F3160C4" Ref="UBU174"  Part="1" 
F 0 "UBU174" H 7350 8077 50  0000 C CNN
F 1 "DFFCOS" H 7350 7986 50  0000 C CNN
F 2 "" H 7350 8350 50  0001 C CNN
F 3 "" H 7350 8350 50  0001 C CNN
	1    7350 8350
	1    0    0    -1  
$EndComp
$Comp
L A5C:DFGOO UBK344
U 1 1 601E0A7A
P 12200 2350
AR Path="/5F8B10F1/601E0A7A" Ref="UBK344"  Part="1" 
AR Path="/5FBC4837/5FBC4DDD/601E0A7A" Ref="UBK344"  Part="1" 
F 0 "UBK344" H 12200 2077 50  0000 C CNN
F 1 "DFGOO" H 12200 1986 50  0000 C CNN
F 2 "" H 12200 2350 50  0001 C CNN
F 3 "" H 12200 2350 50  0001 C CNN
F 4 "UBK341;UBK373" H 12200 2350 50  0001 C CNN "MiscRef"
	1    12200 2350
	1    0    0    -1  
$EndComp
$Comp
L A5C:DFGOO UBK349
U 1 1 601E0A71
P 12200 3100
AR Path="/5F8B10F1/601E0A71" Ref="UBK349"  Part="1" 
AR Path="/5FBC4837/5FBC4DDD/601E0A71" Ref="UBK349"  Part="1" 
F 0 "UBK349" H 12200 2827 50  0000 C CNN
F 1 "DFGOO" H 12200 2736 50  0000 C CNN
F 2 "" H 12200 3100 50  0001 C CNN
F 3 "" H 12200 3100 50  0001 C CNN
	1    12200 3100
	1    0    0    -1  
$EndComp
$Comp
L A5C:DFGOO UBK355
U 1 1 601E0A7C
P 12200 3850
AR Path="/5F8B10F1/601E0A7C" Ref="UBK355"  Part="1" 
AR Path="/5FBC4837/5FBC4DDD/601E0A7C" Ref="UBK355"  Part="1" 
F 0 "UBK355" H 12200 3577 50  0000 C CNN
F 1 "DFGOO" H 12200 3486 50  0000 C CNN
F 2 "" H 12200 3850 50  0001 C CNN
F 3 "" H 12200 3850 50  0001 C CNN
	1    12200 3850
	1    0    0    -1  
$EndComp
$Comp
L A5C:DFGOO UBK361
U 1 1 601E0A7E
P 12200 4600
AR Path="/5F8B10F1/601E0A7E" Ref="UBK361"  Part="1" 
AR Path="/5FBC4837/5FBC4DDD/601E0A7E" Ref="UBK361"  Part="1" 
F 0 "UBK361" H 12200 4327 50  0000 C CNN
F 1 "DFGOO" H 12200 4236 50  0000 C CNN
F 2 "" H 12200 4600 50  0001 C CNN
F 3 "" H 12200 4600 50  0001 C CNN
	1    12200 4600
	1    0    0    -1  
$EndComp
$Comp
L A5C:DFGOO UBK367
U 1 1 601E0A70
P 12200 5350
AR Path="/5F8B10F1/601E0A70" Ref="UBK367"  Part="1" 
AR Path="/5FBC4837/5FBC4DDD/601E0A70" Ref="UBK367"  Part="1" 
F 0 "UBK367" H 12200 5077 50  0000 C CNN
F 1 "DFGOO" H 12200 4986 50  0000 C CNN
F 2 "" H 12200 5350 50  0001 C CNN
F 3 "" H 12200 5350 50  0001 C CNN
	1    12200 5350
	1    0    0    -1  
$EndComp
$Comp
L A5C:DFGOO UBU298
U 1 1 601E0ADE
P 12200 6100
AR Path="/5F8B10F1/601E0ADE" Ref="UBU298"  Part="1" 
AR Path="/5FBC4837/5FBC4DDD/601E0ADE" Ref="UBU298"  Part="1" 
F 0 "UBU298" H 12200 5827 50  0000 C CNN
F 1 "DFGOO" H 12200 5736 50  0000 C CNN
F 2 "" H 12200 6100 50  0001 C CNN
F 3 "" H 12200 6100 50  0001 C CNN
F 4 "UBU296" H 12200 6100 50  0001 C CNN "MiscRef"
	1    12200 6100
	1    0    0    -1  
$EndComp
$Comp
L A5C:DFGOO UBU303
U 1 1 601E0AD0
P 12200 6850
AR Path="/5F8B10F1/601E0AD0" Ref="UBU303"  Part="1" 
AR Path="/5FBC4837/5FBC4DDD/601E0AD0" Ref="UBU303"  Part="1" 
F 0 "UBU303" H 12200 6577 50  0000 C CNN
F 1 "DFGOO" H 12200 6486 50  0000 C CNN
F 2 "" H 12200 6850 50  0001 C CNN
F 3 "" H 12200 6850 50  0001 C CNN
	1    12200 6850
	1    0    0    -1  
$EndComp
$Comp
L A5C:DFGOO UBU309
U 1 1 601E0ACF
P 12200 7600
AR Path="/5F8B10F1/601E0ACF" Ref="UBU309"  Part="1" 
AR Path="/5FBC4837/5FBC4DDD/601E0ACF" Ref="UBU309"  Part="1" 
F 0 "UBU309" H 12200 7327 50  0000 C CNN
F 1 "DFGOO" H 12200 7236 50  0000 C CNN
F 2 "" H 12200 7600 50  0001 C CNN
F 3 "" H 12200 7600 50  0001 C CNN
	1    12200 7600
	1    0    0    -1  
$EndComp
$Comp
L A5C:DFGOO UBU315
U 1 1 601E0ACE
P 12200 8350
AR Path="/5F8B10F1/601E0ACE" Ref="UBU315"  Part="1" 
AR Path="/5FBC4837/5FBC4DDD/601E0ACE" Ref="UBU315"  Part="1" 
F 0 "UBU315" H 12200 8077 50  0000 C CNN
F 1 "DFGOO" H 12200 7986 50  0000 C CNN
F 2 "" H 12200 8350 50  0001 C CNN
F 3 "" H 12200 8350 50  0001 C CNN
	1    12200 8350
	1    0    0    -1  
$EndComp
$Comp
L A5C:NOR05 UBK304
U 1 1 601E0ACD
P 9200 5050
AR Path="/5F8B10F1/601E0ACD" Ref="UBK304"  Part="1" 
AR Path="/5FBC4837/5FBC4DDD/601E0ACD" Ref="UBK304"  Part="1" 
F 0 "UBK304" H 9275 5465 50  0000 C CNN
F 1 "NOR05" H 9275 5374 50  0000 C CNN
F 2 "" H 9200 5100 50  0001 C CNN
F 3 "" H 9200 5100 50  0001 C CNN
	1    9200 5050
	1    0    0    -1  
$EndComp
$Comp
L A5C:NOR05 UBZ193
U 1 1 6FE3C051
P 9200 9750
AR Path="/5F8B10F1/6FE3C051" Ref="UBZ193"  Part="1" 
AR Path="/5FBC4837/5FBC4DDD/6FE3C051" Ref="UBZ193"  Part="1" 
F 0 "UBZ193" H 9275 10165 50  0000 C CNN
F 1 "NOR05" H 9275 10074 50  0000 C CNN
F 2 "" H 9200 9800 50  0001 C CNN
F 3 "" H 9200 9800 50  0001 C CNN
	1    9200 9750
	1    0    0    -1  
$EndComp
$Comp
L A5C:R42 UBU349
U 1 1 7758C838
P 2500 8050
AR Path="/5F8B10F1/7758C838" Ref="UBU349"  Part="1" 
AR Path="/5FBC4837/5FBC4DDD/7758C838" Ref="UBU349"  Part="1" 
F 0 "UBU349" H 2500 8665 50  0000 C CNN
F 1 "R42" H 2500 8574 50  0000 C CNN
F 2 "" H 2450 8300 50  0001 C CNN
F 3 "" H 2450 8300 50  0001 C CNN
	1    2500 8050
	1    0    0    -1  
$EndComp
$Comp
L A5C:R52 UBU329
U 1 1 7AD9ABC7
P 2500 4950
AR Path="/5F8B10F1/7AD9ABC7" Ref="UBU329"  Part="1" 
AR Path="/5FBC4837/5FBC4DDD/7AD9ABC7" Ref="UBU329"  Part="1" 
F 0 "UBU329" H 2500 5615 50  0000 C CNN
F 1 "R52" H 2500 5524 50  0000 C CNN
F 2 "" H 2450 5250 50  0001 C CNN
F 3 "" H 2450 5250 50  0001 C CNN
	1    2500 4950
	1    0    0    -1  
$EndComp
$Comp
L A5C:MUX24H UBW160
U 1 1 601E0ACC
P 5250 8300
AR Path="/5F8B10F1/601E0ACC" Ref="UBW160"  Part="1" 
AR Path="/5FBC4837/5FBC4DDD/601E0ACC" Ref="UBW160"  Part="1" 
F 0 "UBW160" H 5250 9165 50  0000 C CNN
F 1 "MUX24H" H 5250 9074 50  0000 C CNN
F 2 "" H 5250 8300 50  0001 C CNN
F 3 "" H 5250 8300 50  0001 C CNN
F 4 "UBW162;UBW165;UBW169;UBW172" H 5250 8300 50  0001 C CNN "MiscRef"
	1    5250 8300
	1    0    0    -1  
$EndComp
$Comp
L A5C:MUX25H UBR302
U 1 1 601E0ACB
P 5250 5050
AR Path="/5F8B10F1/601E0ACB" Ref="UBR302"  Part="1" 
AR Path="/5FBC4837/5FBC4DDD/601E0ACB" Ref="UBR302"  Part="1" 
F 0 "UBR302" H 5250 5815 50  0000 C CNN
F 1 "MUX25H" H 5250 5724 50  0000 C CNN
F 2 "" H 5300 5100 50  0001 C CNN
F 3 "" H 5300 5100 50  0001 C CNN
F 4 "UBR305;UBR308;UBR312;UBR315;UBR318" H 5250 5050 50  0001 C CNN "MiscRef"
	1    5250 5050
	1    0    0    -1  
$EndComp
Text Label 13350 2250 2    50   ~ 0
BUS-OUT0
Text Label 13350 3000 2    50   ~ 0
BUS-OUT1
Text Label 13350 3750 2    50   ~ 0
BUS-OUT2
Text Label 13350 4500 2    50   ~ 0
BUS-OUT3
Text Label 13350 5250 2    50   ~ 0
BUS-OUT4
Text Label 13350 6000 2    50   ~ 0
BUS-OUT5
Text Label 13350 6750 2    50   ~ 0
BUS-OUT6
Text Label 13350 7500 2    50   ~ 0
BUS-OUT7
Text Label 13350 8250 2    50   ~ 0
BUS-OUT8
Wire Bus Line
	13550 2350 13550 8650
Wire Bus Line
	1450 4300 1450 7900
$EndSCHEMATC
