EESchema Schematic File Version 4
EELAYER 30 0
EELAYER END
$Descr A4 11693 8268
encoding utf-8
Sheet 6 69
Title ""
Date "2020-11-26"
Rev ""
Comp ""
Comment1 "Licence: CC-BY"
Comment2 "Author: Loïc *WydD* Petit"
Comment3 ""
Comment4 ""
$EndDescr
Connection ~ 4350 4650
Connection ~ 4350 4750
Connection ~ 4050 3100
Connection ~ 4150 3000
Connection ~ 4350 3600
Wire Wire Line
	2450 3200 3300 3200
Wire Wire Line
	3300 4550 4450 4550
Wire Wire Line
	3350 3400 3300 3400
Wire Wire Line
	3950 3400 4450 3400
Wire Wire Line
	4050 3100 4450 3100
Wire Wire Line
	4050 4250 4050 3100
Wire Wire Line
	4050 4250 4450 4250
Wire Wire Line
	4150 3000 4150 4150
Wire Wire Line
	4150 3000 4450 3000
Wire Wire Line
	4150 4150 4450 4150
Wire Wire Line
	4250 2900 4450 2900
Wire Wire Line
	4250 4050 4250 2900
Wire Wire Line
	4250 4050 4450 4050
Wire Wire Line
	4350 3500 4350 3600
Wire Wire Line
	4350 3500 4450 3500
Wire Wire Line
	4350 3600 4350 4650
Wire Wire Line
	4350 3600 4450 3600
Wire Wire Line
	4350 4650 4350 4750
Wire Wire Line
	4350 4650 4450 4650
Wire Wire Line
	4350 4750 4450 4750
Wire Bus Line
	7500 3500 7050 3500
Text Notes 3000 2700 0    50   ~ 0
On release boards, TIx are all wired to GND so \n  ~BH396-Q0~ is LOW\n  everything else is HIGH
$Comp
L power:GND #PWR0105
U 1 1 5FC678E8
P 4350 4750
F 0 "#PWR0105" H 4350 4500 50  0001 C CNN
F 1 "GND" H 4355 4580 50  0000 C CNN
F 2 "" H 4350 4750 50  0001 C CNN
F 3 "" H 4350 4750 50  0001 C CNN
	1    4350 4750
	1    0    0    -1  
$EndComp
$Comp
L A5C:INV01 UBH423
U 1 1 5FC67B96
P 3650 3400
F 0 "UBH423" H 3650 3084 50  0000 C CNN
F 1 "INV01" H 3650 3175 50  0000 C CNN
F 2 "" H 3650 3200 50  0001 C CNN
F 3 "" H 3650 3200 50  0001 C CNN
	1    3650 3400
	1    0    0    -1  
$EndComp
$Comp
L A5C:D38GL UBH396
U 1 1 5FC57D97
P 4950 3250
F 0 "UBH396" H 4950 3866 50  0000 C CNN
F 1 "D38GL" H 4950 3775 50  0000 C CNN
F 2 "" H 4950 3775 50  0001 C CNN
F 3 "" H 4950 3775 50  0001 C CNN
	1    4950 3250
	1    0    0    -1  
$EndComp
$Comp
L A5C:D38GL UBK384
U 1 1 5FC59E74
P 4950 4400
F 0 "UBK384" H 4950 5016 50  0000 C CNN
F 1 "D38GL" H 4950 4925 50  0000 C CNN
F 2 "" H 4950 4925 50  0001 C CNN
F 3 "" H 4950 4925 50  0001 C CNN
	1    4950 4400
	1    0    0    -1  
$EndComp
$Sheet
S 7500 3300 1100 400 
U 5FBDAC10
F0 "td-io" 50
F1 "td-io.sch" 50
F2 "OUT[0..11]" O R 8600 3500 50 
F3 "IN[0..11]" I L 7500 3500 50 
$EndSheet
Text Label 5450 2900 0    50   ~ 0
~DEBUG0
Text Label 5450 3000 0    50   ~ 0
~DEBUG1
Text Label 5450 3100 0    50   ~ 0
~DEBUG2
Text Label 5450 3200 0    50   ~ 0
~DEBUG3
Text Label 5450 3300 0    50   ~ 0
~DEBUG4
Text Label 5450 3400 0    50   ~ 0
~DEBUG5
Text Label 5450 3500 0    50   ~ 0
~DEBUG6
Text Label 5450 3600 0    50   ~ 0
~DEBUG7
Text Label 5450 4050 0    50   ~ 0
~DEBUG8
Text Label 5450 4150 0    50   ~ 0
~DEBUG9
Text Label 5450 4250 0    50   ~ 0
~DEBUG10
Text Label 5450 4350 0    50   ~ 0
~DEBUG11
Text Label 5450 4450 0    50   ~ 0
~DEBUG12
Text Label 5450 4550 0    50   ~ 0
~DEBUG13
Text Label 5450 4650 0    50   ~ 0
~DEBUG14
Text Label 5450 4750 0    50   ~ 0
~DEBUG15
Wire Wire Line
	5450 2900 5900 2900
Wire Wire Line
	5450 3000 5900 3000
Wire Wire Line
	5450 3100 5900 3100
Wire Wire Line
	5450 3200 5900 3200
Wire Wire Line
	5450 3300 5900 3300
Wire Wire Line
	5450 3400 5900 3400
Wire Wire Line
	5450 3500 5900 3500
Wire Wire Line
	5450 3600 5900 3600
Wire Wire Line
	5450 4050 5900 4050
Wire Wire Line
	5450 4150 5900 4150
Wire Wire Line
	5450 4250 5900 4250
Wire Wire Line
	5450 4350 5900 4350
Wire Wire Line
	5450 4450 5900 4450
Wire Wire Line
	5450 4550 5900 4550
Wire Wire Line
	5450 4650 5900 4650
Wire Wire Line
	5450 4750 5900 4750
Entry Wire Line
	5900 2900 6000 3000
Entry Wire Line
	5900 3000 6000 3100
Entry Wire Line
	5900 3100 6000 3200
Entry Wire Line
	5900 3200 6000 3300
Entry Wire Line
	5900 3300 6000 3400
Entry Wire Line
	5900 3400 6000 3500
Entry Wire Line
	5900 3500 6000 3600
Entry Wire Line
	5900 3600 6000 3700
Entry Wire Line
	5900 4050 6000 4150
Entry Wire Line
	5900 4150 6000 4250
Entry Wire Line
	5900 4250 6000 4350
Entry Wire Line
	5900 4350 6000 4450
Entry Wire Line
	5900 4450 6000 4550
Entry Wire Line
	5900 4550 6000 4650
Entry Wire Line
	5900 4650 6000 4750
Entry Wire Line
	5900 4750 6000 4850
Wire Bus Line
	6000 4950 6150 4950
Text HLabel 6150 4950 2    50   Output ~ 0
~DEBUG[0..15]
Wire Wire Line
	2450 3000 4150 3000
Wire Wire Line
	2450 3100 4050 3100
Wire Wire Line
	3300 3400 3300 4550
Text HLabel 8750 3500 2    50   Output ~ 0
_TD[0..11]
Wire Bus Line
	8750 3500 8600 3500
Wire Wire Line
	3300 3200 3300 3400
Connection ~ 3300 3400
Text Label 2550 2900 0    50   ~ 0
TI0
Connection ~ 4250 2900
Wire Wire Line
	2450 2900 4250 2900
Text Label 2550 3000 0    50   ~ 0
TI1
Text Label 2550 3100 0    50   ~ 0
TI2
Text Label 2550 3200 0    50   ~ 0
TI3
Entry Wire Line
	2350 2800 2450 2900
Entry Wire Line
	2350 2900 2450 3000
Entry Wire Line
	2350 3000 2450 3100
Entry Wire Line
	2350 3100 2450 3200
Wire Bus Line
	2350 2650 2250 2650
Text HLabel 2250 2650 0    50   Input ~ 0
TI[0..3]
Text HLabel 7050 3500 0    50   Input ~ 0
TD[0..11]
Wire Bus Line
	2350 2650 2350 3100
Wire Bus Line
	6000 3000 6000 4950
$EndSCHEMATC
