EESchema Schematic File Version 4
EELAYER 30 0
EELAYER END
$Descr A2 23386 16535
encoding utf-8
Sheet 1 69
Title "CPS2 Reverse Engineering: DL-0921"
Date "2020-11-26"
Rev ""
Comp ""
Comment1 "Licence: CC-BY"
Comment2 "Author: Loïc *WydD* Petit"
Comment3 ""
Comment4 ""
$EndDescr
Connection ~ 21300 12650
Entry Wire Line
	2700 3350 2800 3450
Entry Wire Line
	2700 4100 2800 4200
Entry Wire Line
	2700 3850 2800 3950
Entry Wire Line
	2700 3600 2800 3700
Entry Wire Line
	2700 4350 2800 4250
Entry Wire Line
	2700 4600 2800 4500
Entry Wire Line
	2700 4850 2800 4750
Entry Wire Line
	2700 5100 2800 5000
Entry Wire Line
	2700 5350 2800 5450
Entry Wire Line
	2700 5600 2800 5700
Entry Wire Line
	2700 5850 2800 5950
Entry Wire Line
	2700 6100 2800 6200
Entry Wire Line
	2700 6850 2800 6750
Entry Wire Line
	2700 6600 2800 6500
Entry Wire Line
	2700 6350 2800 6250
Entry Wire Line
	2700 7100 2800 7000
Entry Wire Line
	2700 7350 2800 7450
Entry Wire Line
	2700 8100 2800 8200
Entry Wire Line
	2700 7850 2800 7950
Entry Wire Line
	2700 7600 2800 7700
Entry Wire Line
	2700 8350 2800 8250
Entry Wire Line
	2700 8600 2800 8500
Entry Wire Line
	2700 8850 2800 8750
Entry Wire Line
	2700 9100 2800 9000
Entry Wire Line
	2700 9350 2800 9450
Entry Wire Line
	2700 9600 2800 9700
Entry Wire Line
	2700 9850 2800 9950
Entry Wire Line
	2700 10100 2800 10200
Entry Wire Line
	2700 10850 2800 10750
Entry Wire Line
	2700 10600 2800 10500
Entry Wire Line
	2700 10350 2800 10250
Entry Wire Line
	2700 11100 2800 11000
Entry Wire Line
	9800 1500 9700 1600
Entry Wire Line
	9800 1250 9700 1350
Entry Wire Line
	9800 2250 9700 2350
Entry Wire Line
	9800 2000 9700 2100
Entry Wire Line
	9800 1750 9700 1850
Entry Wire Line
	20700 2200 20600 2300
Entry Wire Line
	20700 1950 20600 2050
Entry Wire Line
	20700 1700 20600 1800
Entry Wire Line
	20700 1450 20600 1550
Entry Wire Line
	20700 1200 20600 1300
Entry Wire Line
	20700 950  20600 1050
Entry Wire Line
	20700 2450 20600 2350
Entry Wire Line
	20700 2700 20600 2600
Entry Wire Line
	20700 2950 20600 2850
Entry Wire Line
	20700 3200 20600 3100
Entry Wire Line
	20700 3450 20600 3350
Entry Wire Line
	20700 3700 20600 3600
Entry Wire Line
	21300 10900 21400 10800
Entry Wire Line
	21300 11150 21400 11050
Entry Wire Line
	21300 11400 21400 11300
Entry Wire Line
	21300 11650 21400 11550
Entry Wire Line
	21300 11900 21400 11800
Entry Wire Line
	21300 12150 21400 12050
Entry Wire Line
	21300 12400 21400 12300
Entry Wire Line
	21300 12650 21400 12550
Entry Wire Line
	21300 12700 21400 12800
Entry Wire Line
	21300 12950 21400 13050
Entry Wire Line
	21300 13200 21400 13300
Entry Wire Line
	21300 13450 21400 13550
Entry Wire Line
	21300 13700 21400 13800
Entry Wire Line
	21300 13950 21400 14050
Entry Wire Line
	21300 14200 21400 14300
Entry Wire Line
	21300 14450 21400 14550
Wire Wire Line
	2150 6350 2700 6350
Wire Wire Line
	2150 10350 2700 10350
Wire Wire Line
	10350 2250 9800 2250
Wire Wire Line
	2700 3350 2150 3350
Wire Wire Line
	2700 3600 2150 3600
Wire Wire Line
	2700 3850 2150 3850
Wire Wire Line
	2700 4100 2150 4100
Wire Wire Line
	2700 4350 2150 4350
Wire Wire Line
	2700 4600 2150 4600
Wire Wire Line
	2700 4850 2150 4850
Wire Wire Line
	2700 5100 2150 5100
Wire Wire Line
	2700 5350 2150 5350
Wire Wire Line
	2700 5600 2150 5600
Wire Wire Line
	2700 5850 2150 5850
Wire Wire Line
	2700 6100 2150 6100
Wire Wire Line
	2700 6600 2150 6600
Wire Wire Line
	2700 6850 2150 6850
Wire Wire Line
	2700 7100 2150 7100
Wire Wire Line
	2700 7350 2150 7350
Wire Wire Line
	2700 7600 2150 7600
Wire Wire Line
	2700 7850 2150 7850
Wire Wire Line
	2700 8100 2150 8100
Wire Wire Line
	2700 8350 2150 8350
Wire Wire Line
	2700 8600 2150 8600
Wire Wire Line
	2700 8850 2150 8850
Wire Wire Line
	2700 9100 2150 9100
Wire Wire Line
	2700 9350 2150 9350
Wire Wire Line
	2700 9600 2150 9600
Wire Wire Line
	2700 9850 2150 9850
Wire Wire Line
	2700 10100 2150 10100
Wire Wire Line
	2700 10600 2150 10600
Wire Wire Line
	2700 10850 2150 10850
Wire Wire Line
	2700 11100 2150 11100
Wire Wire Line
	9800 1250 10350 1250
Wire Wire Line
	9800 1500 10350 1500
Wire Wire Line
	9800 1750 10350 1750
Wire Wire Line
	9800 2000 10350 2000
Wire Wire Line
	7400 13800 7850 13800
Wire Wire Line
	7850 14050 7400 14050
Wire Wire Line
	20700 950  21250 950 
Wire Wire Line
	20700 1200 21250 1200
Wire Wire Line
	20700 1450 21250 1450
Wire Wire Line
	20700 1700 21250 1700
Wire Wire Line
	20700 1950 21250 1950
Wire Wire Line
	20700 2200 21250 2200
Wire Wire Line
	20700 2450 21250 2450
Wire Wire Line
	20700 2700 21250 2700
Wire Wire Line
	20700 3200 21250 3200
Wire Wire Line
	20700 3450 21250 3450
Wire Wire Line
	5950 12400 5450 12400
Wire Wire Line
	21250 2950 20700 2950
Wire Wire Line
	21250 3700 20700 3700
Wire Wire Line
	21400 10800 21950 10800
Wire Wire Line
	21400 11050 21950 11050
Wire Wire Line
	21400 11300 21950 11300
Wire Wire Line
	21400 11550 21950 11550
Wire Wire Line
	21400 11800 21950 11800
Wire Wire Line
	21400 12050 21950 12050
Wire Wire Line
	21400 12300 21950 12300
Wire Wire Line
	21400 12550 21950 12550
Wire Wire Line
	21400 12800 21950 12800
Wire Wire Line
	21400 13050 21950 13050
Wire Wire Line
	21400 13300 21950 13300
Wire Wire Line
	21400 13550 21950 13550
Wire Wire Line
	21400 13800 21950 13800
Wire Wire Line
	21400 14050 21950 14050
Wire Wire Line
	21400 14300 21950 14300
Wire Wire Line
	21400 14550 21950 14550
Wire Wire Line
	19150 6500 18950 6500
Wire Bus Line
	2800 6250 3250 6250
Wire Bus Line
	2800 8250 3250 8250
Wire Bus Line
	2800 10250 3350 10250
Wire Bus Line
	7400 13350 7500 13350
Wire Bus Line
	20900 12650 21300 12650
Wire Bus Line
	19150 6200 18050 6200
Text Notes 1750 3250 3    236  ~ 0
APD[0..7]
Text Notes 1750 5250 3    236  ~ 0
BPD[0..7]
Text Notes 1750 7300 3    236  ~ 0
CPD[0..7]
Text Notes 1750 9300 3    236  ~ 0
DPD[0..7]
Text Notes 10900 1000 3    197  ~ 0
XS[0..4]
Text Notes 12700 7850 1    100  ~ 0
FAD[0-3]
Text Notes 4450 13850 2    50   ~ 0
LUTPRO
Text Notes 4450 14100 2    50   ~ 0
~WR
Text Notes 4450 14350 2    50   ~ 0
~CS
Text Notes 4450 14600 2    50   ~ 0
~RD
Text Notes 8150 15200 2    200  ~ 0
BUS SIGNAL CONTROL
Text Notes 16300 9200 0    200  ~ 0
RASTER\nINTERRUPTS MODULE
Text Notes 8250 13750 0    50   ~ 0
~CK500
Text Notes 8250 14000 0    50   ~ 0
~CK10
Text Notes 13550 14300 0    50   ~ 0
~CLK8M
Text Notes 7100 12100 2    157  ~ 0
GFX OUTPUT
Text Notes 5200 12350 2    50   ~ 0
~ROMOE
Text Notes 16100 12300 0    50   ~ 0
0x32
Text Notes 19100 13750 0    200  ~ 0
MAIN BUS IO
Text Notes 16300 11800 0    200  ~ 0
CPS-ID\nMODULE
Text Notes 21350 6800 0    50   ~ 0
~WSTROM
Text Notes 21350 7050 0    50   ~ 0
WSTLUT
Text Notes 19100 8300 0    200  ~ 0
PALETTE COPY\nMODULE
Text Notes 22700 11350 3    315  ~ 0
BUS-DATA
Text Notes 16750 7400 2    50   ~ 0
~LUT-OE
Text Notes 16750 7700 2    50   ~ 0
~LUT-WR
Text Label 2250 3350 0    50   ~ 0
APD0
Text Label 2250 3600 0    50   ~ 0
APD1
Text Label 2250 3850 0    50   ~ 0
APD2
Text Label 2250 4100 0    50   ~ 0
APD3
Text Label 2250 4350 0    50   ~ 0
APD4
Text Label 2250 4600 0    50   ~ 0
APD5
Text Label 2250 4850 0    50   ~ 0
APD6
Text Label 2250 5100 0    50   ~ 0
APD7
Text Label 2250 5350 0    50   ~ 0
BPD0
Text Label 2250 5600 0    50   ~ 0
BPD1
Text Label 2250 5850 0    50   ~ 0
BPD2
Text Label 2250 6100 0    50   ~ 0
BPD3
Text Label 2250 6350 0    50   ~ 0
BPD4
Text Label 2250 6600 0    50   ~ 0
BPD5
Text Label 2250 6850 0    50   ~ 0
BPD6
Text Label 2250 7100 0    50   ~ 0
BPD7
Text Label 2250 7350 0    50   ~ 0
CPD0
Text Label 2250 7600 0    50   ~ 0
CPD1
Text Label 2250 7850 0    50   ~ 0
CPD2
Text Label 2250 8100 0    50   ~ 0
CPD3
Text Label 2250 8350 0    50   ~ 0
CPD4
Text Label 2250 8600 0    50   ~ 0
CPD5
Text Label 2250 8850 0    50   ~ 0
CPD6
Text Label 2250 9100 0    50   ~ 0
CPD7
Text Label 2250 9350 0    50   ~ 0
DPD0
Text Label 2250 9600 0    50   ~ 0
DPD1
Text Label 2250 9850 0    50   ~ 0
DPD2
Text Label 2250 10100 0    50   ~ 0
DPD3
Text Label 2250 10350 0    50   ~ 0
DPD4
Text Label 2250 10600 0    50   ~ 0
DPD5
Text Label 2250 10850 0    50   ~ 0
DPD6
Text Label 2250 11100 0    50   ~ 0
DPD7
Text Label 10250 1000 2    50   ~ 0
XSEL
Text Label 10250 1250 2    50   ~ 0
XS0
Text Label 10250 1500 2    50   ~ 0
XS1
Text Label 10250 1750 2    50   ~ 0
XS2
Text Label 10250 2000 2    50   ~ 0
XS3
Text Label 10250 2250 2    50   ~ 0
XS4
Text Label 17750 1950 0    50   ~ 0
TI0
Text Label 17750 2200 0    50   ~ 0
TI1
Text Label 17750 2450 0    50   ~ 0
TI2
Text Label 17750 2700 0    50   ~ 0
TI3
Text Label 5650 12550 2    50   ~ 0
APD[0..7]
Text Label 5650 12650 2    50   ~ 0
BPD[0..7]
Text Label 5650 12750 2    50   ~ 0
CPD[0..7]
Text Label 5650 12850 2    50   ~ 0
DPD[0..7]
Text Label 15950 12550 0    50   ~ 0
~RESETI2
Text Label 20700 6550 2    50   ~ 0
~CLK4M
Text Label 18050 7450 2    50   ~ 0
~LUT-OE
$Comp
L A5C:PIN P121
U 1 1 6489DC38
P 2150 3350
F 0 "P121" H 2228 3442 50  0000 L CNN
F 1 "PIN" H 2228 3397 50  0001 L CNN
F 2 "" H 2150 3350 50  0001 C CNN
F 3 "" H 2150 3350 50  0001 C CNN
	1    2150 3350
	-1   0    0    -1  
$EndComp
$Comp
L A5C:PIN P122
U 1 1 6489DC3E
P 2150 3600
F 0 "P122" H 2228 3692 50  0000 L CNN
F 1 "PIN" H 2228 3647 50  0001 L CNN
F 2 "" H 2150 3600 50  0001 C CNN
F 3 "" H 2150 3600 50  0001 C CNN
	1    2150 3600
	-1   0    0    -1  
$EndComp
$Comp
L A5C:PIN P123
U 1 1 6489DC44
P 2150 3850
F 0 "P123" H 2228 3942 50  0000 L CNN
F 1 "PIN" H 2228 3897 50  0001 L CNN
F 2 "" H 2150 3850 50  0001 C CNN
F 3 "" H 2150 3850 50  0001 C CNN
	1    2150 3850
	-1   0    0    -1  
$EndComp
$Comp
L A5C:PIN P124
U 1 1 6489DC4A
P 2150 4100
F 0 "P124" H 2228 4192 50  0000 L CNN
F 1 "PIN" H 2228 4147 50  0001 L CNN
F 2 "" H 2150 4100 50  0001 C CNN
F 3 "" H 2150 4100 50  0001 C CNN
	1    2150 4100
	-1   0    0    -1  
$EndComp
$Comp
L A5C:PIN P125
U 1 1 6489DC50
P 2150 4350
F 0 "P125" H 2228 4442 50  0000 L CNN
F 1 "PIN" H 2228 4397 50  0001 L CNN
F 2 "" H 2150 4350 50  0001 C CNN
F 3 "" H 2150 4350 50  0001 C CNN
	1    2150 4350
	-1   0    0    -1  
$EndComp
$Comp
L A5C:PIN P126
U 1 1 6489DC56
P 2150 4600
F 0 "P126" H 2228 4692 50  0000 L CNN
F 1 "PIN" H 2228 4647 50  0001 L CNN
F 2 "" H 2150 4600 50  0001 C CNN
F 3 "" H 2150 4600 50  0001 C CNN
	1    2150 4600
	-1   0    0    -1  
$EndComp
$Comp
L A5C:PIN P127
U 1 1 6489DC5C
P 2150 4850
F 0 "P127" H 2228 4942 50  0000 L CNN
F 1 "PIN" H 2228 4897 50  0001 L CNN
F 2 "" H 2150 4850 50  0001 C CNN
F 3 "" H 2150 4850 50  0001 C CNN
	1    2150 4850
	-1   0    0    -1  
$EndComp
$Comp
L A5C:PIN P128
U 1 1 6489DC62
P 2150 5100
F 0 "P128" H 2228 5192 50  0000 L CNN
F 1 "PIN" H 2228 5147 50  0001 L CNN
F 2 "" H 2150 5100 50  0001 C CNN
F 3 "" H 2150 5100 50  0001 C CNN
	1    2150 5100
	-1   0    0    -1  
$EndComp
$Comp
L A5C:PIN P129
U 1 1 6489DC68
P 2150 5350
F 0 "P129" H 2062 5442 50  0000 R CNN
F 1 "PIN" H 2228 5397 50  0001 L CNN
F 2 "" H 2150 5350 50  0001 C CNN
F 3 "" H 2150 5350 50  0001 C CNN
	1    2150 5350
	1    0    0    -1  
$EndComp
$Comp
L A5C:PIN P130
U 1 1 6489DC6E
P 2150 5600
F 0 "P130" H 2228 5692 50  0000 L CNN
F 1 "PIN" H 2228 5647 50  0001 L CNN
F 2 "" H 2150 5600 50  0001 C CNN
F 3 "" H 2150 5600 50  0001 C CNN
	1    2150 5600
	-1   0    0    -1  
$EndComp
$Comp
L A5C:PIN P131
U 1 1 6489DC74
P 2150 5850
F 0 "P131" H 2228 5942 50  0000 L CNN
F 1 "PIN" H 2228 5897 50  0001 L CNN
F 2 "" H 2150 5850 50  0001 C CNN
F 3 "" H 2150 5850 50  0001 C CNN
	1    2150 5850
	-1   0    0    -1  
$EndComp
$Comp
L A5C:PIN P132
U 1 1 6489DC7A
P 2150 6100
F 0 "P132" H 2228 6192 50  0000 L CNN
F 1 "PIN" H 2228 6147 50  0001 L CNN
F 2 "" H 2150 6100 50  0001 C CNN
F 3 "" H 2150 6100 50  0001 C CNN
	1    2150 6100
	-1   0    0    -1  
$EndComp
$Comp
L A5C:PIN P133
U 1 1 6489DC80
P 2150 6350
F 0 "P133" H 2228 6442 50  0000 L CNN
F 1 "PIN" H 2228 6397 50  0001 L CNN
F 2 "" H 2150 6350 50  0001 C CNN
F 3 "" H 2150 6350 50  0001 C CNN
	1    2150 6350
	-1   0    0    -1  
$EndComp
$Comp
L A5C:PIN P134
U 1 1 6489DC86
P 2150 6600
F 0 "P134" H 2228 6692 50  0000 L CNN
F 1 "PIN" H 2228 6647 50  0001 L CNN
F 2 "" H 2150 6600 50  0001 C CNN
F 3 "" H 2150 6600 50  0001 C CNN
	1    2150 6600
	-1   0    0    -1  
$EndComp
$Comp
L A5C:PIN P135
U 1 1 6489DC8C
P 2150 6850
F 0 "P135" H 2228 6942 50  0000 L CNN
F 1 "PIN" H 2228 6897 50  0001 L CNN
F 2 "" H 2150 6850 50  0001 C CNN
F 3 "" H 2150 6850 50  0001 C CNN
	1    2150 6850
	-1   0    0    -1  
$EndComp
$Comp
L A5C:PIN P136
U 1 1 6489DC92
P 2150 7100
F 0 "P136" H 2228 7192 50  0000 L CNN
F 1 "PIN" H 2228 7147 50  0001 L CNN
F 2 "" H 2150 7100 50  0001 C CNN
F 3 "" H 2150 7100 50  0001 C CNN
	1    2150 7100
	-1   0    0    -1  
$EndComp
$Comp
L A5C:PIN P137
U 1 1 66550121
P 2150 7350
F 0 "P137" H 2228 7442 50  0000 L CNN
F 1 "PIN" H 2228 7397 50  0001 L CNN
F 2 "" H 2150 7350 50  0001 C CNN
F 3 "" H 2150 7350 50  0001 C CNN
	1    2150 7350
	-1   0    0    -1  
$EndComp
$Comp
L A5C:PIN P138
U 1 1 66550127
P 2150 7600
F 0 "P138" H 2228 7692 50  0000 L CNN
F 1 "PIN" H 2228 7647 50  0001 L CNN
F 2 "" H 2150 7600 50  0001 C CNN
F 3 "" H 2150 7600 50  0001 C CNN
	1    2150 7600
	-1   0    0    -1  
$EndComp
$Comp
L A5C:PIN P139
U 1 1 6655012D
P 2150 7850
F 0 "P139" H 2228 7942 50  0000 L CNN
F 1 "PIN" H 2228 7897 50  0001 L CNN
F 2 "" H 2150 7850 50  0001 C CNN
F 3 "" H 2150 7850 50  0001 C CNN
	1    2150 7850
	-1   0    0    -1  
$EndComp
$Comp
L A5C:PIN P140
U 1 1 66550133
P 2150 8100
F 0 "P140" H 2228 8192 50  0000 L CNN
F 1 "PIN" H 2228 8147 50  0001 L CNN
F 2 "" H 2150 8100 50  0001 C CNN
F 3 "" H 2150 8100 50  0001 C CNN
	1    2150 8100
	-1   0    0    -1  
$EndComp
$Comp
L A5C:PIN P141
U 1 1 66550139
P 2150 8350
F 0 "P141" H 2228 8442 50  0000 L CNN
F 1 "PIN" H 2228 8397 50  0001 L CNN
F 2 "" H 2150 8350 50  0001 C CNN
F 3 "" H 2150 8350 50  0001 C CNN
	1    2150 8350
	-1   0    0    -1  
$EndComp
$Comp
L A5C:PIN P142
U 1 1 6655013F
P 2150 8600
F 0 "P142" H 2228 8692 50  0000 L CNN
F 1 "PIN" H 2228 8647 50  0001 L CNN
F 2 "" H 2150 8600 50  0001 C CNN
F 3 "" H 2150 8600 50  0001 C CNN
	1    2150 8600
	-1   0    0    -1  
$EndComp
$Comp
L A5C:PIN P143
U 1 1 66550145
P 2150 8850
F 0 "P143" H 2228 8942 50  0000 L CNN
F 1 "PIN" H 2228 8897 50  0001 L CNN
F 2 "" H 2150 8850 50  0001 C CNN
F 3 "" H 2150 8850 50  0001 C CNN
	1    2150 8850
	-1   0    0    -1  
$EndComp
$Comp
L A5C:PIN P144
U 1 1 6655014B
P 2150 9100
F 0 "P144" H 2228 9192 50  0000 L CNN
F 1 "PIN" H 2228 9147 50  0001 L CNN
F 2 "" H 2150 9100 50  0001 C CNN
F 3 "" H 2150 9100 50  0001 C CNN
	1    2150 9100
	-1   0    0    -1  
$EndComp
$Comp
L A5C:PIN P145
U 1 1 66550151
P 2150 9350
F 0 "P145" H 2062 9442 50  0000 R CNN
F 1 "PIN" H 2228 9397 50  0001 L CNN
F 2 "" H 2150 9350 50  0001 C CNN
F 3 "" H 2150 9350 50  0001 C CNN
	1    2150 9350
	1    0    0    -1  
$EndComp
$Comp
L A5C:PIN P146
U 1 1 66550157
P 2150 9600
F 0 "P146" H 2228 9692 50  0000 L CNN
F 1 "PIN" H 2228 9647 50  0001 L CNN
F 2 "" H 2150 9600 50  0001 C CNN
F 3 "" H 2150 9600 50  0001 C CNN
	1    2150 9600
	-1   0    0    -1  
$EndComp
$Comp
L A5C:PIN P147
U 1 1 6655015D
P 2150 9850
F 0 "P147" H 2228 9942 50  0000 L CNN
F 1 "PIN" H 2228 9897 50  0001 L CNN
F 2 "" H 2150 9850 50  0001 C CNN
F 3 "" H 2150 9850 50  0001 C CNN
	1    2150 9850
	-1   0    0    -1  
$EndComp
$Comp
L A5C:PIN P148
U 1 1 66550163
P 2150 10100
F 0 "P148" H 2228 10192 50  0000 L CNN
F 1 "PIN" H 2228 10147 50  0001 L CNN
F 2 "" H 2150 10100 50  0001 C CNN
F 3 "" H 2150 10100 50  0001 C CNN
	1    2150 10100
	-1   0    0    -1  
$EndComp
$Comp
L A5C:PIN P149
U 1 1 66550169
P 2150 10350
F 0 "P149" H 2228 10442 50  0000 L CNN
F 1 "PIN" H 2228 10397 50  0001 L CNN
F 2 "" H 2150 10350 50  0001 C CNN
F 3 "" H 2150 10350 50  0001 C CNN
	1    2150 10350
	-1   0    0    -1  
$EndComp
$Comp
L A5C:PIN P150
U 1 1 6655016F
P 2150 10600
F 0 "P150" H 2228 10692 50  0000 L CNN
F 1 "PIN" H 2228 10647 50  0001 L CNN
F 2 "" H 2150 10600 50  0001 C CNN
F 3 "" H 2150 10600 50  0001 C CNN
	1    2150 10600
	-1   0    0    -1  
$EndComp
$Comp
L A5C:PIN P151
U 1 1 66550175
P 2150 10850
F 0 "P151" H 2228 10942 50  0000 L CNN
F 1 "PIN" H 2228 10897 50  0001 L CNN
F 2 "" H 2150 10850 50  0001 C CNN
F 3 "" H 2150 10850 50  0001 C CNN
	1    2150 10850
	-1   0    0    -1  
$EndComp
$Comp
L A5C:PIN P152
U 1 1 6655017B
P 2150 11100
F 0 "P152" H 2228 11192 50  0000 L CNN
F 1 "PIN" H 2228 11147 50  0001 L CNN
F 2 "" H 2150 11100 50  0001 C CNN
F 3 "" H 2150 11100 50  0001 C CNN
	1    2150 11100
	-1   0    0    -1  
$EndComp
$Comp
L A5C:PIN P1
U 1 1 6768477B
P 10350 1000
F 0 "P1" H 10428 1092 50  0000 L CNN
F 1 "PIN" H 10428 1047 50  0001 L CNN
F 2 "" H 10350 1000 50  0001 C CNN
F 3 "" H 10350 1000 50  0001 C CNN
	1    10350 1000
	1    0    0    -1  
$EndComp
$Comp
L A5C:PIN P2
U 1 1 5FBE5D50
P 10350 1250
F 0 "P2" H 10428 1342 50  0000 L CNN
F 1 "PIN" H 10428 1297 50  0001 L CNN
F 2 "" H 10350 1250 50  0001 C CNN
F 3 "" H 10350 1250 50  0001 C CNN
	1    10350 1250
	1    0    0    -1  
$EndComp
$Comp
L A5C:PIN P3
U 1 1 5FBE5D5C
P 10350 1500
F 0 "P3" H 10428 1592 50  0000 L CNN
F 1 "PIN" H 10428 1547 50  0001 L CNN
F 2 "" H 10350 1500 50  0001 C CNN
F 3 "" H 10350 1500 50  0001 C CNN
	1    10350 1500
	1    0    0    -1  
$EndComp
$Comp
L A5C:PIN P4
U 1 1 5FBE5D44
P 10350 1750
F 0 "P4" H 10428 1842 50  0000 L CNN
F 1 "PIN" H 10428 1797 50  0001 L CNN
F 2 "" H 10350 1750 50  0001 C CNN
F 3 "" H 10350 1750 50  0001 C CNN
	1    10350 1750
	1    0    0    -1  
$EndComp
$Comp
L A5C:PIN P5
U 1 1 5FBE5D36
P 10350 2000
F 0 "P5" H 10428 2092 50  0000 L CNN
F 1 "PIN" H 10428 2047 50  0001 L CNN
F 2 "" H 10350 2000 50  0001 C CNN
F 3 "" H 10350 2000 50  0001 C CNN
	1    10350 2000
	1    0    0    -1  
$EndComp
$Comp
L A5C:PIN P6
U 1 1 5FBE5D2A
P 10350 2250
F 0 "P6" H 10428 2342 50  0000 L CNN
F 1 "PIN" H 10428 2297 50  0001 L CNN
F 2 "" H 10350 2250 50  0001 C CNN
F 3 "" H 10350 2250 50  0001 C CNN
	1    10350 2250
	1    0    0    -1  
$EndComp
$Comp
L A5C:PIN P48
U 1 1 69CE382F
P 12250 7250
F 0 "P48" H 12162 7342 50  0000 R CNN
F 1 "PIN" H 12328 7297 50  0001 L CNN
F 2 "" H 12250 7250 50  0001 C CNN
F 3 "" H 12250 7250 50  0001 C CNN
	1    12250 7250
	-1   0    0    -1  
$EndComp
$Comp
L A5C:PIN P49
U 1 1 6A210A9B
P 12250 7500
F 0 "P49" H 12162 7592 50  0000 R CNN
F 1 "PIN" H 12328 7547 50  0001 L CNN
F 2 "" H 12250 7500 50  0001 C CNN
F 3 "" H 12250 7500 50  0001 C CNN
	1    12250 7500
	-1   0    0    -1  
$EndComp
$Comp
L A5C:PIN P50
U 1 1 6A31A469
P 12250 7750
F 0 "P50" H 12162 7842 50  0000 R CNN
F 1 "PIN" H 12328 7797 50  0001 L CNN
F 2 "" H 12250 7750 50  0001 C CNN
F 3 "" H 12250 7750 50  0001 C CNN
	1    12250 7750
	-1   0    0    -1  
$EndComp
$Comp
L A5C:PIN P51
U 1 1 6A4248F0
P 12250 8000
F 0 "P51" H 12162 8092 50  0000 R CNN
F 1 "PIN" H 12328 8047 50  0001 L CNN
F 2 "" H 12250 8000 50  0001 C CNN
F 3 "" H 12250 8000 50  0001 C CNN
	1    12250 8000
	-1   0    0    -1  
$EndComp
$Comp
L A5C:PIN P52
U 1 1 6A52F7BB
P 12250 8250
F 0 "P52" H 12162 8342 50  0000 R CNN
F 1 "PIN" H 12328 8297 50  0001 L CNN
F 2 "" H 12250 8250 50  0001 C CNN
F 3 "" H 12250 8250 50  0001 C CNN
	1    12250 8250
	-1   0    0    -1  
$EndComp
$Comp
L A5C:PIN P53
U 1 1 6A63B205
P 12250 8500
F 0 "P53" H 12162 8592 50  0000 R CNN
F 1 "PIN" H 12328 8547 50  0001 L CNN
F 2 "" H 12250 8500 50  0001 C CNN
F 3 "" H 12250 8500 50  0001 C CNN
	1    12250 8500
	-1   0    0    -1  
$EndComp
$Comp
L A5C:PIN P54
U 1 1 6A74783F
P 12250 8750
F 0 "P54" H 12162 8842 50  0000 R CNN
F 1 "PIN" H 12328 8797 50  0001 L CNN
F 2 "" H 12250 8750 50  0001 C CNN
F 3 "" H 12250 8750 50  0001 C CNN
	1    12250 8750
	-1   0    0    -1  
$EndComp
$Comp
L A5C:PIN P55
U 1 1 6A854A5C
P 12250 9000
F 0 "P55" H 12162 9092 50  0000 R CNN
F 1 "PIN" H 12328 9047 50  0001 L CNN
F 2 "" H 12250 9000 50  0001 C CNN
F 3 "" H 12250 9000 50  0001 C CNN
	1    12250 9000
	-1   0    0    -1  
$EndComp
$Comp
L A5C:PIN P107
U 1 1 5FC7526A
P 17650 1950
F 0 "P107" H 17728 2042 50  0000 L CNN
F 1 "PIN" H 17728 1997 50  0001 L CNN
F 2 "" H 17650 1950 50  0001 C CNN
F 3 "" H 17650 1950 50  0001 C CNN
	1    17650 1950
	-1   0    0    -1  
$EndComp
$Comp
L A5C:PIN P109
U 1 1 5FC7525E
P 17650 2200
F 0 "P109" H 17728 2292 50  0000 L CNN
F 1 "PIN" H 17728 2247 50  0001 L CNN
F 2 "" H 17650 2200 50  0001 C CNN
F 3 "" H 17650 2200 50  0001 C CNN
	1    17650 2200
	-1   0    0    -1  
$EndComp
$Comp
L A5C:PIN P111
U 1 1 5FC7527E
P 17650 2450
F 0 "P111" H 17728 2542 50  0000 L CNN
F 1 "PIN" H 17728 2497 50  0001 L CNN
F 2 "" H 17650 2450 50  0001 C CNN
F 3 "" H 17650 2450 50  0001 C CNN
	1    17650 2450
	-1   0    0    -1  
$EndComp
$Comp
L A5C:PIN P112
U 1 1 5FC7528A
P 17650 2700
F 0 "P112" H 17728 2792 50  0000 L CNN
F 1 "PIN" H 17728 2747 50  0001 L CNN
F 2 "" H 17650 2700 50  0001 C CNN
F 3 "" H 17650 2700 50  0001 C CNN
	1    17650 2700
	-1   0    0    -1  
$EndComp
$Comp
L A5C:PIN P?
U 1 1 5FC3175E
P 4750 13900
AR Path="/643110BF/5FC3175E" Ref="P?"  Part="1" 
AR Path="/5FC3175E" Ref="P86"  Part="1" 
F 0 "P86" H 4662 13992 50  0000 R CNN
F 1 "PIN" H 4828 13947 50  0001 L CNN
F 2 "" H 4750 13900 50  0001 C CNN
F 3 "" H 4750 13900 50  0001 C CNN
	1    4750 13900
	1    0    0    -1  
$EndComp
$Comp
L A5C:PIN P85
U 1 1 601E0A69
P 4750 14150
F 0 "P85" H 4662 14242 50  0000 R CNN
F 1 "PIN" H 4828 14197 50  0001 L CNN
F 2 "" H 4750 14150 50  0001 C CNN
F 3 "" H 4750 14150 50  0001 C CNN
	1    4750 14150
	1    0    0    -1  
$EndComp
$Comp
L A5C:PIN P83
U 1 1 601E0A68
P 4750 14400
F 0 "P83" H 4662 14492 50  0000 R CNN
F 1 "PIN" H 4828 14447 50  0001 L CNN
F 2 "" H 4750 14400 50  0001 C CNN
F 3 "" H 4750 14400 50  0001 C CNN
	1    4750 14400
	1    0    0    -1  
$EndComp
$Comp
L A5C:PIN P84
U 1 1 601E0A67
P 4750 14650
F 0 "P84" H 4662 14742 50  0000 R CNN
F 1 "PIN" H 4828 14697 50  0001 L CNN
F 2 "" H 4750 14650 50  0001 C CNN
F 3 "" H 4750 14650 50  0001 C CNN
	1    4750 14650
	1    0    0    -1  
$EndComp
$Comp
L A5C:PIN P108
U 1 1 5F7930B6
P 7850 13800
F 0 "P108" H 7762 13892 50  0000 R CNN
F 1 "PIN" H 7928 13847 50  0001 L CNN
F 2 "" H 7850 13800 50  0001 C CNN
F 3 "" H 7850 13800 50  0001 C CNN
	1    7850 13800
	-1   0    0    -1  
$EndComp
$Comp
L A5C:PIN P?
U 1 1 5FCE0D92
P 7850 14050
AR Path="/643110BF/5FCE0D92" Ref="P?"  Part="1" 
AR Path="/5FCE0D92" Ref="P106"  Part="1" 
F 0 "P106" H 7762 14142 50  0000 R CNN
F 1 "PIN" H 7928 14097 50  0001 L CNN
F 2 "" H 7850 14050 50  0001 C CNN
F 3 "" H 7850 14050 50  0001 C CNN
	1    7850 14050
	-1   0    0    -1  
$EndComp
$Comp
L A5C:PIN P9
U 1 1 5FAC63FA
P 21250 950
F 0 "P9" H 21328 1042 50  0000 L CNN
F 1 "PIN" H 21328 997 50  0001 L CNN
F 2 "" H 21250 950 50  0001 C CNN
F 3 "" H 21250 950 50  0001 C CNN
	1    21250 950 
	1    0    0    -1  
$EndComp
$Comp
L A5C:PIN P10
U 1 1 5FAC6406
P 21250 1200
F 0 "P10" H 21328 1292 50  0000 L CNN
F 1 "PIN" H 21328 1247 50  0001 L CNN
F 2 "" H 21250 1200 50  0001 C CNN
F 3 "" H 21250 1200 50  0001 C CNN
	1    21250 1200
	1    0    0    -1  
$EndComp
$Comp
L A5C:PIN P11
U 1 1 5FAC6432
P 21250 1450
F 0 "P11" H 21328 1542 50  0000 L CNN
F 1 "PIN" H 21328 1497 50  0001 L CNN
F 2 "" H 21250 1450 50  0001 C CNN
F 3 "" H 21250 1450 50  0001 C CNN
	1    21250 1450
	1    0    0    -1  
$EndComp
$Comp
L A5C:PIN P12
U 1 1 5FAC643E
P 21250 1700
F 0 "P12" H 21328 1792 50  0000 L CNN
F 1 "PIN" H 21328 1747 50  0001 L CNN
F 2 "" H 21250 1700 50  0001 C CNN
F 3 "" H 21250 1700 50  0001 C CNN
	1    21250 1700
	1    0    0    -1  
$EndComp
$Comp
L A5C:PIN P13
U 1 1 5FAC6416
P 21250 1950
F 0 "P13" H 21328 2042 50  0000 L CNN
F 1 "PIN" H 21328 1997 50  0001 L CNN
F 2 "" H 21250 1950 50  0001 C CNN
F 3 "" H 21250 1950 50  0001 C CNN
	1    21250 1950
	1    0    0    -1  
$EndComp
$Comp
L A5C:PIN P14
U 1 1 5FAC6422
P 21250 2200
F 0 "P14" H 21328 2292 50  0000 L CNN
F 1 "PIN" H 21328 2247 50  0001 L CNN
F 2 "" H 21250 2200 50  0001 C CNN
F 3 "" H 21250 2200 50  0001 C CNN
	1    21250 2200
	1    0    0    -1  
$EndComp
$Comp
L A5C:PIN P15
U 1 1 5FAC63EA
P 21250 2450
F 0 "P15" H 21328 2542 50  0000 L CNN
F 1 "PIN" H 21328 2497 50  0001 L CNN
F 2 "" H 21250 2450 50  0001 C CNN
F 3 "" H 21250 2450 50  0001 C CNN
	1    21250 2450
	1    0    0    -1  
$EndComp
$Comp
L A5C:PIN P16
U 1 1 5FAC644D
P 21250 2700
F 0 "P16" H 21328 2792 50  0000 L CNN
F 1 "PIN" H 21328 2747 50  0001 L CNN
F 2 "" H 21250 2700 50  0001 C CNN
F 3 "" H 21250 2700 50  0001 C CNN
	1    21250 2700
	1    0    0    -1  
$EndComp
$Comp
L A5C:PIN P17
U 1 1 5FAC6459
P 21250 2950
F 0 "P17" H 21162 3042 50  0000 R CNN
F 1 "PIN" H 21328 2997 50  0001 L CNN
F 2 "" H 21250 2950 50  0001 C CNN
F 3 "" H 21250 2950 50  0001 C CNN
	1    21250 2950
	-1   0    0    -1  
$EndComp
$Comp
L A5C:PIN P18
U 1 1 5FACCE5D
P 21250 3200
F 0 "P18" H 21328 3292 50  0000 L CNN
F 1 "PIN" H 21328 3247 50  0001 L CNN
F 2 "" H 21250 3200 50  0001 C CNN
F 3 "" H 21250 3200 50  0001 C CNN
	1    21250 3200
	1    0    0    -1  
$EndComp
$Comp
L A5C:PIN P19
U 1 1 5FACCE6C
P 21250 3450
F 0 "P19" H 21328 3542 50  0000 L CNN
F 1 "PIN" H 21328 3497 50  0001 L CNN
F 2 "" H 21250 3450 50  0001 C CNN
F 3 "" H 21250 3450 50  0001 C CNN
	1    21250 3450
	1    0    0    -1  
$EndComp
$Comp
L A5C:PIN P20
U 1 1 5FACCE78
P 21250 3700
F 0 "P20" H 21162 3792 50  0000 R CNN
F 1 "PIN" H 21328 3747 50  0001 L CNN
F 2 "" H 21250 3700 50  0001 C CNN
F 3 "" H 21250 3700 50  0001 C CNN
	1    21250 3700
	-1   0    0    -1  
$EndComp
$Comp
L A5C:PIN P7
U 1 1 64FF2495
P 5450 12400
F 0 "P7" H 5362 12492 50  0000 R CNN
F 1 "PIN" H 5528 12447 50  0001 L CNN
F 2 "" H 5450 12400 50  0001 C CNN
F 3 "" H 5450 12400 50  0001 C CNN
	1    5450 12400
	1    0    0    -1  
$EndComp
$Comp
L A5C:PIN P61
U 1 1 638D6BA5
P 21950 10800
F 0 "P61" H 22028 10892 50  0000 L CNN
F 1 "PIN" H 22028 10847 50  0001 L CNN
F 2 "" H 21950 10800 50  0001 C CNN
F 3 "" H 21950 10800 50  0001 C CNN
	1    21950 10800
	1    0    0    -1  
$EndComp
$Comp
L A5C:PIN P62
U 1 1 6384D7E0
P 21950 11050
F 0 "P62" H 22028 11142 50  0000 L CNN
F 1 "PIN" H 22028 11097 50  0001 L CNN
F 2 "" H 21950 11050 50  0001 C CNN
F 3 "" H 21950 11050 50  0001 C CNN
	1    21950 11050
	1    0    0    -1  
$EndComp
$Comp
L A5C:PIN P63
U 1 1 63F4F821
P 21950 11300
F 0 "P63" H 22028 11392 50  0000 L CNN
F 1 "PIN" H 22028 11347 50  0001 L CNN
F 2 "" H 21950 11300 50  0001 C CNN
F 3 "" H 21950 11300 50  0001 C CNN
	1    21950 11300
	1    0    0    -1  
$EndComp
$Comp
L A5C:PIN P64
U 1 1 63F4F81B
P 21950 11550
F 0 "P64" H 22028 11642 50  0000 L CNN
F 1 "PIN" H 22028 11597 50  0001 L CNN
F 2 "" H 21950 11550 50  0001 C CNN
F 3 "" H 21950 11550 50  0001 C CNN
	1    21950 11550
	1    0    0    -1  
$EndComp
$Comp
L A5C:PIN P65
U 1 1 63FD8006
P 21950 11800
F 0 "P65" H 22028 11892 50  0000 L CNN
F 1 "PIN" H 22028 11847 50  0001 L CNN
F 2 "" H 21950 11800 50  0001 C CNN
F 3 "" H 21950 11800 50  0001 C CNN
	1    21950 11800
	1    0    0    -1  
$EndComp
$Comp
L A5C:PIN P66
U 1 1 63FD8000
P 21950 12050
F 0 "P66" H 22028 12142 50  0000 L CNN
F 1 "PIN" H 22028 12097 50  0001 L CNN
F 2 "" H 21950 12050 50  0001 C CNN
F 3 "" H 21950 12050 50  0001 C CNN
	1    21950 12050
	1    0    0    -1  
$EndComp
$Comp
L A5C:PIN P67
U 1 1 64060F78
P 21950 12300
F 0 "P67" H 22028 12392 50  0000 L CNN
F 1 "PIN" H 22028 12347 50  0001 L CNN
F 2 "" H 21950 12300 50  0001 C CNN
F 3 "" H 21950 12300 50  0001 C CNN
	1    21950 12300
	1    0    0    -1  
$EndComp
$Comp
L A5C:PIN P68
U 1 1 64060F72
P 21950 12550
F 0 "P68" H 22028 12642 50  0000 L CNN
F 1 "PIN" H 22028 12597 50  0001 L CNN
F 2 "" H 21950 12550 50  0001 C CNN
F 3 "" H 21950 12550 50  0001 C CNN
	1    21950 12550
	1    0    0    -1  
$EndComp
$Comp
L A5C:PIN P69
U 1 1 5EF71098
P 21950 12800
F 0 "P69" H 22028 12892 50  0000 L CNN
F 1 "PIN" H 22028 12847 50  0001 L CNN
F 2 "" H 21950 12800 50  0001 C CNN
F 3 "" H 21950 12800 50  0001 C CNN
	1    21950 12800
	1    0    0    -1  
$EndComp
$Comp
L A5C:PIN P70
U 1 1 5EF71092
P 21950 13050
F 0 "P70" H 22028 13142 50  0000 L CNN
F 1 "PIN" H 22028 13097 50  0001 L CNN
F 2 "" H 21950 13050 50  0001 C CNN
F 3 "" H 21950 13050 50  0001 C CNN
	1    21950 13050
	1    0    0    -1  
$EndComp
$Comp
L A5C:PIN P71
U 1 1 5EF710AC
P 21950 13300
F 0 "P71" H 22028 13392 50  0000 L CNN
F 1 "PIN" H 22028 13347 50  0001 L CNN
F 2 "" H 21950 13300 50  0001 C CNN
F 3 "" H 21950 13300 50  0001 C CNN
	1    21950 13300
	1    0    0    -1  
$EndComp
$Comp
L A5C:PIN P72
U 1 1 5EF710A6
P 21950 13550
F 0 "P72" H 22028 13642 50  0000 L CNN
F 1 "PIN" H 22028 13597 50  0001 L CNN
F 2 "" H 21950 13550 50  0001 C CNN
F 3 "" H 21950 13550 50  0001 C CNN
	1    21950 13550
	1    0    0    -1  
$EndComp
$Comp
L A5C:PIN P73
U 1 1 5EF710BA
P 21950 13800
F 0 "P73" H 22028 13892 50  0000 L CNN
F 1 "PIN" H 22028 13847 50  0001 L CNN
F 2 "" H 21950 13800 50  0001 C CNN
F 3 "" H 21950 13800 50  0001 C CNN
	1    21950 13800
	1    0    0    -1  
$EndComp
$Comp
L A5C:PIN P74
U 1 1 5EF710B4
P 21950 14050
F 0 "P74" H 22028 14142 50  0000 L CNN
F 1 "PIN" H 22028 14097 50  0001 L CNN
F 2 "" H 21950 14050 50  0001 C CNN
F 3 "" H 21950 14050 50  0001 C CNN
	1    21950 14050
	1    0    0    -1  
$EndComp
$Comp
L A5C:PIN P75
U 1 1 5EF710C8
P 21950 14300
F 0 "P75" H 22028 14392 50  0000 L CNN
F 1 "PIN" H 22028 14347 50  0001 L CNN
F 2 "" H 21950 14300 50  0001 C CNN
F 3 "" H 21950 14300 50  0001 C CNN
	1    21950 14300
	1    0    0    -1  
$EndComp
$Comp
L A5C:PIN P76
U 1 1 5EF710C2
P 21950 14550
F 0 "P76" H 22028 14642 50  0000 L CNN
F 1 "PIN" H 22028 14597 50  0001 L CNN
F 2 "" H 21950 14550 50  0001 C CNN
F 3 "" H 21950 14550 50  0001 C CNN
	1    21950 14550
	1    0    0    -1  
$EndComp
$Comp
L A5C:PIN P87
U 1 1 63169B36
P 21050 6850
AR Path="/63169B36" Ref="P87"  Part="1" 
AR Path="/5FBBEA1C/63169B36" Ref="P?"  Part="1" 
F 0 "P87" H 20962 6942 50  0000 R CNN
F 1 "PIN" H 21128 6897 50  0001 L CNN
F 2 "" H 21050 6850 50  0001 C CNN
F 3 "" H 21050 6850 50  0001 C CNN
	1    21050 6850
	-1   0    0    -1  
$EndComp
$Comp
L A5C:PIN P88
U 1 1 63169B3C
P 21050 7100
AR Path="/63169B3C" Ref="P88"  Part="1" 
AR Path="/5FBBEA1C/63169B3C" Ref="P?"  Part="1" 
F 0 "P88" H 20962 7192 50  0000 R CNN
F 1 "PIN" H 21128 7147 50  0001 L CNN
F 2 "" H 21050 7100 50  0001 C CNN
F 3 "" H 21050 7100 50  0001 C CNN
	1    21050 7100
	-1   0    0    -1  
$EndComp
$Comp
L A5C:PIN P101
U 1 1 60B4AD2B
P 17150 7450
F 0 "P101" H 17062 7542 50  0000 R CNN
F 1 "PIN" H 17228 7497 50  0001 L CNN
F 2 "" H 17150 7450 50  0001 C CNN
F 3 "" H 17150 7450 50  0001 C CNN
	1    17150 7450
	1    0    0    -1  
$EndComp
$Comp
L A5C:PIN P102
U 1 1 6071E02D
P 17150 7750
F 0 "P102" H 17062 7842 50  0000 R CNN
F 1 "PIN" H 17228 7797 50  0001 L CNN
F 2 "" H 17150 7750 50  0001 C CNN
F 3 "" H 17150 7750 50  0001 C CNN
	1    17150 7750
	1    0    0    -1  
$EndComp
$Comp
L A5C:BUF12 UBR508
U 1 1 601E0A9F
P 17450 7450
F 0 "UBR508" H 17450 7767 50  0000 C CNN
F 1 "BUF12" H 17450 7676 50  0000 C CNN
F 2 "" H 17450 7450 50  0001 C CNN
F 3 "" H 17450 7450 50  0001 C CNN
	1    17450 7450
	-1   0    0    -1  
$EndComp
$Sheet
S 19550 12500 1350 800 
U 5FB062CA
F0 "bus-io" 50
F1 "bus-io.sch" 50
F2 "BUS-DATA[0..15]" T L 19550 12650 50 
F3 "IN-LE" I L 19550 13050 50 
F4 "IN-RD" I L 19550 13150 50 
F5 "MUTE-OUT" I L 19550 12850 50 
F6 "CD[0..15]" B R 20900 12650 50 
$EndSheet
$Sheet
S 5950 13200 1450 1500
U 643110BF
F0 "bus-signal-control" 50
F1 "bus-signal-control.sch" 50
F2 "~WR" I L 5950 14050 50 
F3 "~CS" I L 5950 14150 50 
F4 "~RD" I L 5950 14250 50 
F5 "~BUS-RD" O R 7400 14450 50 
F6 "~RESETI" I L 5950 14550 50 
F7 "~BUS-WR" O R 7400 14550 50 
F8 "~IO-READ" O R 7400 14350 50 
F9 "~LUT-OE" I L 5950 13800 50 
F10 "LUTPRO" I L 5950 13900 50 
F11 "GFX-OUT-LMSB" I L 5950 13600 50 
F12 "~CLK4M" I L 5950 14400 50 
F13 "GFX-CHNL" I L 5950 13500 50 
F14 "~CK500" O R 7400 13800 50 
F15 "BUS-DATA[0..15]" I L 5950 13350 50 
F16 "XPD-OUT[0..7]" O R 7400 13350 50 
F17 "~XPD-OE" O R 7400 13450 50 
F18 "~CK10" O R 7400 14050 50 
$EndSheet
$Sheet
S 17100 4950 950  600 
U 5FB1A45D
F0 "counter-fi" 50
F1 "counter-fi.sch" 50
F2 "FI" I R 18050 5100 50 
F3 "INC-E" I R 18050 5250 50 
F4 "~RESET" I R 18050 5400 50 
F5 "~ENABLE-LUT" O L 17100 5400 50 
F6 "~LUT-RESET" O L 17100 5100 50 
$EndSheet
$Sheet
S 16350 11950 1550 750 
U 5FD87927
F0 "cps-id" 50
F1 "cps-id.sch" 50
F2 "~RESET" I L 16350 12550 50 
F3 "DATA[0..15]" T R 17900 12100 50 
F4 "CPS-ID-D[0..15]" I L 16350 12100 50 
F5 "~RD" I L 16350 12400 50 
F6 "~E" I L 16350 12300 50 
$EndSheet
$Sheet
S 18750 2050 1350 450 
U 5FBDA2C0
F0 "debug" 50
F1 "debug.sch" 50
F2 "~DEBUG[0..15]" O L 18750 2200 50 
F3 "TI[0..3]" I L 18750 2350 50 
F4 "TD[0..11]" I R 20100 2200 50 
F5 "_TD[0..11]" O R 20100 2350 50 
$EndSheet
$Sheet
S 16750 6050 1300 900 
U 5F78A177
F0 "lut-counter" 50
F1 "lut-counter.sch" 50
F2 "INC" I R 18050 6500 50 
F3 "OUT[0..11]" O L 16750 6200 50 
F4 "SET[9..11]" I R 18050 6200 50 
F5 "CLK4M" I R 18050 6600 50 
F6 "~LOAD" I R 18050 6350 50 
F7 "~RESETI" I R 18050 6800 50 
$EndSheet
$Sheet
S 16350 9400 1250 1400
U 5FBC4837
F0 "raster-interrupts" 50
F1 "raster-interrupts.sch" 50
F2 "~CLK4M" I L 16350 10550 50 
F3 "~OBJUP" O R 17600 9850 50 
F4 "~BUS-WR" I L 16350 10350 50 
F5 "~BUS-RD" I L 16350 10250 50 
F6 "~LUT-RESET" I L 16350 10650 50 
F7 "LI" I L 16350 9550 50 
F8 "~RASTER3" I L 16350 10050 50 
F9 "~RASTER2" I L 16350 9950 50 
F10 "~RASTER1" I L 16350 9850 50 
F11 "FI" I L 16350 9650 50 
F12 "BUS-DATA[0..15]" B R 17600 9550 50 
$EndSheet
$Sheet
S 19350 4300 1050 1250
U 5FA67724
F0 "security-check" 50
F1 "security-check.sch" 50
F2 "~WR" I R 20400 5250 50 
F3 "~RESETI" I R 20400 5400 50 
F4 "OUT" O L 19350 5250 50 
F5 "~E2" I R 20400 4750 50 
F6 "~E1" I R 20400 4650 50 
F7 "DATA[0..15]" I R 20400 4450 50 
F8 "CHECK2-D[0..15]" I R 20400 5050 50 
F9 "CHECK1-D[0..15]" I R 20400 4950 50 
$EndSheet
$Sheet
S 8500 2750 1300 1600
U 5FBCE4A9
F0 "stars" 50
F1 "stars.sch" 50
F2 "~RESET" I R 9800 4200 50 
F3 "CLK8M" I R 9800 4100 50 
F4 "STARS-LOAD2" I L 8500 4200 50 
F5 "STARS-LOAD1" I L 8500 4100 50 
F6 "STARS-SERIAL" I L 8500 4000 50 
F7 "FI" I L 8500 3350 50 
F8 "~CLK4M" I R 9800 4000 50 
F9 "TD[0..11]" O R 9800 3450 50 
F10 "STARS2[0..6]" O R 9800 3000 50 
F11 "~STARS2-E" O R 9800 3300 50 
F12 "STARS1[0..6]" O R 9800 2900 50 
F13 "~STARS1-E" O R 9800 3200 50 
F14 "XS[0..4]" I L 8500 3100 50 
F15 "APD[0..7]" I L 8500 2900 50 
F16 "FLIP" I L 8500 3250 50 
F17 "~LAYERS-E[3..4]" I R 9800 3850 50 
F18 "~DEBUG[6..14]" I R 9800 3550 50 
$EndSheet
$Sheet
S 8500 4550 1300 2200
U 5FBBD4DB
F0 "tilemaps" 50
F1 "tilemaps.sch" 50
F2 "CLK8M" I R 9800 6400 50 
F3 "CDEN" I L 8500 6600 50 
F4 "CPC[0..1]" I L 8500 6500 50 
F5 "CB[0..4]" I L 8500 6400 50 
F6 "XS[0..3]" I L 8500 5200 50 
F7 "XSEL" I L 8500 5300 50 
F8 "APD[0..7]" I L 8500 4700 50 
F9 "BPD[0..7]" I L 8500 4800 50 
F10 "CPD[0..7]" I L 8500 4900 50 
F11 "DPD[0..7]" I L 8500 5000 50 
F12 "GFX-CHNL" I L 8500 5900 50 
F13 "SERIAL-LOAD" I L 8500 6000 50 
F14 "SERIAL-CHNL" I L 8500 6100 50 
F15 "~RESET" I R 9800 6500 50 
F16 "LOAD-XPD1" I L 8500 5450 50 
F17 "LOAD-XPD2" I L 8500 5550 50 
F18 "LOAD-XPD3" I L 8500 5650 50 
F19 "SCROLL1-D[0..11]" O R 9800 5450 50 
F20 "TD[0..11]" T R 9800 4700 50 
F21 "SCROLL2-D[0..11]" O R 9800 5550 50 
F22 "SCROLL3-D[0..11]" O R 9800 5650 50 
F23 "~LAYERS-E[0..2]" I R 9800 6000 50 
F24 "~DEBUG[3..5]" I R 9800 4800 50 
$EndSheet
$Sheet
S 5000 2750 1300 3600
U 5FC16B93
F0 "video-signals" 50
F1 "video-signals.sch" 50
F2 "TD[0..11]" T L 5000 4850 50 
F3 "~DEBUG[0..12]" I L 5000 4750 50 
F4 "FI" I L 5000 2900 50 
F5 "LI" I L 5000 3000 50 
F6 "FLIP" I L 5000 3100 50 
F7 "~CLK4M" I L 5000 3300 50 
F8 "~RESET" I L 5000 6200 50 
F9 "BUS-DATA[0..15]" I L 5000 5750 50 
F10 "~SCANLINE" I L 5000 5900 50 
F11 "~BUS-WR" I L 5000 6000 50 
F12 "LOAD-XPD1" O R 6300 5450 50 
F13 "LOAD-XPD2" O R 6300 5550 50 
F14 "LOAD-XPD3" O R 6300 5650 50 
F15 "LOAD-XPD4" O R 6300 5750 50 
F16 "GFX-CHNL" O R 6300 5900 50 
F17 "GFX-OUT-LMSB" O L 5000 5550 50 
F18 "SERIAL-LOAD" O R 6300 6000 50 
F19 "SERIAL-CHNL" O R 6300 6100 50 
F20 "STARS2-LOAD" O R 6300 4200 50 
F21 "STARS1-LOAD" O R 6300 4100 50 
F22 "SERIAL-LOAD-XPD4" O R 6300 6200 50 
F23 "STARS-SERIAL" O R 6300 4000 50 
F24 "~HBLANK" O R 6300 2900 50 
F25 "~VBLANK" O R 6300 3000 50 
F26 "HSYNC" O R 6300 3150 50 
F27 "VSYNC" O R 6300 3250 50 
F28 "BLANK" O R 6300 3400 50 
$EndSheet
$Sheet
S 5950 12250 900  750 
U 62E6B083
F0 "xpd-out" 50
F1 "xpd-out.sch" 50
F2 "~OE" I R 6850 12500 50 
F3 "~ROMOE" O L 5950 12400 50 
F4 "APD[0..7]" T L 5950 12550 50 
F5 "BPD[0..7]" T L 5950 12650 50 
F6 "DPD[0..7]" T L 5950 12850 50 
F7 "CPD[0..7]" T L 5950 12750 50 
F8 "OUT[0..7]" I R 6850 12400 50 
$EndSheet
Text Label 20950 950  0    50   ~ 0
_TD0
Text Label 20950 1200 0    50   ~ 0
_TD1
Text Label 20950 1450 0    50   ~ 0
_TD2
Text Label 20950 1700 0    50   ~ 0
_TD3
Text Label 20950 1950 0    50   ~ 0
_TD4
Text Label 20950 2200 0    50   ~ 0
_TD5
Text Label 20950 2450 0    50   ~ 0
_TD6
Text Label 20950 2700 0    50   ~ 0
_TD7
Text Label 20950 2950 0    50   ~ 0
_TD8
Text Label 20950 3200 0    50   ~ 0
_TD9
Text Label 20950 3450 0    50   ~ 0
_TD10
Text Label 20950 3700 0    50   ~ 0
_TD11
Entry Wire Line
	17950 2700 18050 2600
Entry Wire Line
	17950 2450 18050 2350
Entry Wire Line
	17950 1950 18050 2050
Entry Wire Line
	17950 2200 18050 2300
Wire Wire Line
	17650 1950 17950 1950
Wire Wire Line
	17650 2200 17950 2200
Wire Wire Line
	17650 2450 17950 2450
Wire Wire Line
	17650 2700 17950 2700
Text Notes 12700 8850 1    100  ~ 0
FBD[0-3]
Text Notes 7350 8800 0    50   ~ 0
FRAME
$Comp
L A5C:PIN P?
U 1 1 603B7F03
P 7950 8850
AR Path="/5FC1A6C6/603B7F03" Ref="P?"  Part="1" 
AR Path="/603B7F03" Ref="P58"  Part="1" 
F 0 "P58" H 7862 8942 50  0000 R CNN
F 1 "PIN" H 8028 8897 50  0001 L CNN
F 2 "" H 7950 8850 50  0001 C CNN
F 3 "" H 7950 8850 50  0001 C CNN
	1    7950 8850
	1    0    0    -1  
$EndComp
Text Notes 7600 8550 2    50   ~ 0
OBJEO
$Comp
L A5C:PIN P?
U 1 1 60402148
P 7950 8600
AR Path="/5FC1A6C6/60402148" Ref="P?"  Part="1" 
AR Path="/60402148" Ref="P56"  Part="1" 
F 0 "P56" H 7862 8692 50  0000 R CNN
F 1 "PIN" H 8028 8647 50  0001 L CNN
F 2 "" H 7950 8600 50  0001 C CNN
F 3 "" H 7950 8600 50  0001 C CNN
	1    7950 8600
	1    0    0    -1  
$EndComp
Text Notes 11200 8100 2    50   ~ 0
~REWEN
$Comp
L A5C:PIN P?
U 1 1 60447948
P 11050 8350
AR Path="/5FC1A6C6/60447948" Ref="P?"  Part="1" 
AR Path="/60447948" Ref="P59"  Part="1" 
F 0 "P59" H 10962 8442 50  0000 R CNN
F 1 "PIN" H 11128 8397 50  0001 L CNN
F 2 "" H 11050 8350 50  0001 C CNN
F 3 "" H 11050 8350 50  0001 C CNN
	1    11050 8350
	-1   0    0    -1  
$EndComp
$Sheet
S 8500 6950 1300 2050
U 5FC1A6C6
F0 "obj-manager" 50
F1 "obj-manager.sch" 50
F2 "CLK8M" I R 9800 8750 50 
F3 "XSEL" I L 8500 8050 50 
F4 "APD[0..7]" I L 8500 7100 50 
F5 "BPD[0..7]" I L 8500 7200 50 
F6 "CPD[0..7]" I L 8500 7300 50 
F7 "DPD[0..7]" I L 8500 7400 50 
F8 "GFX-CHNL" I L 8500 7700 50 
F9 "SERIAL-LOAD" I L 8500 7800 50 
F10 "SERIAL-CHNL" I L 8500 7900 50 
F11 "~RESET" I R 9800 8850 50 
F12 "LOAD-XPD4" I L 8500 7600 50 
F13 "ASD[0..8]" I L 8500 8250 50 
F14 "BSD[0..8]" I L 8500 8350 50 
F15 "OBJEO" I L 8500 8600 50 
F16 "FRAME" I L 8500 8850 50 
F17 "~DEBUG[2..2]" I R 9800 8600 50 
F18 "~REWEN" O R 9800 8350 50 
F19 "TD[0..11]" T R 9800 8500 50 
F20 "SPRITES[0..8]" O R 9800 8250 50 
F21 "FBD[0..3]" O R 9800 7200 50 
F22 "FAD[0..3]" O R 9800 7100 50 
$EndSheet
Text Label 20200 2200 0    50   ~ 0
TD[0..11]
Text Label 18700 2200 2    50   ~ 0
~DEBUG[0..15]
Wire Bus Line
	18150 2200 18750 2200
Text Notes 18400 1800 0    200  ~ 0
DEBUG BUS
Text Notes 22100 1100 3    315  ~ 0
TD[0..11]
$Comp
L A5C:PIN P?
U 1 1 5FC104F5
P 17850 9850
AR Path="/5FBC4837/5FC104F5" Ref="P?"  Part="1" 
AR Path="/5FC104F5" Ref="P57"  Part="1" 
F 0 "P57" H 17762 9942 50  0000 R CNN
F 1 "PIN" H 17928 9897 50  0001 L CNN
F 2 "" H 17850 9850 50  0001 C CNN
F 3 "" H 17850 9850 50  0001 C CNN
	1    17850 9850
	-1   0    0    -1  
$EndComp
Text Notes 18400 9800 2    50   ~ 0
~OBJUP
Wire Wire Line
	8500 5900 8300 5900
Wire Wire Line
	8300 7700 8500 7700
Wire Wire Line
	8200 7800 8500 7800
Wire Wire Line
	8100 6100 8500 6100
Wire Wire Line
	8500 5300 8000 5300
Wire Bus Line
	7500 2900 7500 4700
Wire Wire Line
	7950 8600 8500 8600
Wire Wire Line
	7950 8850 8500 8850
Wire Wire Line
	8400 7600 8500 7600
Connection ~ 8300 5900
Connection ~ 8100 6100
Wire Bus Line
	8100 3100 8100 5200
Wire Bus Line
	7500 4700 7500 7100
Wire Bus Line
	7200 5000 7200 7400
Wire Bus Line
	7300 4900 7300 7300
Wire Bus Line
	7400 4800 7400 7200
Wire Wire Line
	8300 5900 8300 7700
Wire Wire Line
	8100 6100 8100 7900
Wire Wire Line
	10200 6400 10200 4100
Connection ~ 10200 6400
Wire Wire Line
	10300 4000 10300 6300
Wire Wire Line
	10850 5300 10850 3300
Wire Wire Line
	10950 3200 10950 5200
Wire Bus Line
	11050 5000 11050 3000
Wire Bus Line
	11150 2900 11150 4900
Connection ~ 10000 4800
Connection ~ 10100 4700
Wire Bus Line
	10100 4700 10100 3450
Wire Bus Line
	10650 6000 10650 3850
Wire Wire Line
	10200 6400 10200 8750
Wire Bus Line
	9800 3450 10100 3450
Wire Wire Line
	9800 4000 10300 4000
Wire Wire Line
	9800 4100 10200 4100
Wire Wire Line
	9800 4200 9900 4200
Wire Bus Line
	9800 4700 10100 4700
Wire Bus Line
	9800 4800 10000 4800
Wire Wire Line
	9800 8750 10200 8750
Wire Wire Line
	9800 8850 9900 8850
Wire Wire Line
	9900 8850 9900 6500
Wire Wire Line
	9900 6500 9800 6500
Wire Wire Line
	9800 6400 10200 6400
Wire Wire Line
	9900 6500 9900 4200
Connection ~ 9900 6500
Text Label 12150 7250 2    50   ~ 0
FAD0
Text Label 12150 7500 2    50   ~ 0
FAD1
Text Label 12150 7750 2    50   ~ 0
FAD2
Text Label 12150 8000 2    50   ~ 0
FAD3
Text Label 12150 8250 2    50   ~ 0
FBD0
Text Label 12150 8500 2    50   ~ 0
FBD1
Text Label 12150 8750 2    50   ~ 0
FBD2
Text Label 12150 9000 2    50   ~ 0
FBD3
Wire Wire Line
	12250 7250 11850 7250
Wire Wire Line
	12250 7500 11850 7500
Wire Wire Line
	12250 7750 11850 7750
Wire Wire Line
	12250 8000 11850 8000
Entry Wire Line
	11750 7150 11850 7250
Entry Wire Line
	11750 7400 11850 7500
Entry Wire Line
	11750 7650 11850 7750
Entry Wire Line
	11750 7900 11850 8000
Entry Wire Line
	11650 8150 11750 8250
Entry Wire Line
	11650 8400 11750 8500
Entry Wire Line
	11650 8650 11750 8750
Entry Wire Line
	11650 8900 11750 9000
Text Label 10200 8850 2    50   ~ 0
~RESET
Wire Wire Line
	11550 4700 11250 4700
Wire Bus Line
	11550 4900 11150 4900
Wire Bus Line
	11050 5000 11550 5000
Wire Wire Line
	11550 5200 10950 5200
Wire Wire Line
	10850 5300 11550 5300
Text Label 11200 6400 0    50   ~ 0
CLK8M
Connection ~ 2800 10250
Connection ~ 2800 8250
Connection ~ 2800 4250
Connection ~ 2800 6250
Text Label 8250 3250 0    50   ~ 0
FLIP
Text Label 8250 3350 0    50   ~ 0
FI
Connection ~ 2850 14650
Connection ~ 2850 12400
$Comp
L A5C:PIN P39
U 1 1 6E6B9F8D
P 2200 15750
F 0 "P39" H 2112 15842 50  0000 R CNN
F 1 "PIN" H 2278 15797 50  0001 L CNN
F 2 "" H 2200 15750 50  0001 C CNN
F 3 "" H 2200 15750 50  0001 C CNN
	1    2200 15750
	1    0    0    -1  
$EndComp
$Comp
L A5C:PIN P38
U 1 1 5F756CCF
P 2200 15500
F 0 "P38" H 2278 15592 50  0000 L CNN
F 1 "PIN" H 2278 15547 50  0001 L CNN
F 2 "" H 2200 15500 50  0001 C CNN
F 3 "" H 2200 15500 50  0001 C CNN
	1    2200 15500
	-1   0    0    -1  
$EndComp
$Comp
L A5C:PIN P37
U 1 1 5F756CDB
P 2200 15250
F 0 "P37" H 2278 15342 50  0000 L CNN
F 1 "PIN" H 2278 15297 50  0001 L CNN
F 2 "" H 2200 15250 50  0001 C CNN
F 3 "" H 2200 15250 50  0001 C CNN
	1    2200 15250
	-1   0    0    -1  
$EndComp
$Comp
L A5C:PIN P36
U 1 1 5F756CB1
P 2200 15000
F 0 "P36" H 2278 15092 50  0000 L CNN
F 1 "PIN" H 2278 15047 50  0001 L CNN
F 2 "" H 2200 15000 50  0001 C CNN
F 3 "" H 2200 15000 50  0001 C CNN
	1    2200 15000
	-1   0    0    -1  
$EndComp
$Comp
L A5C:PIN P35
U 1 1 5F756CBD
P 2200 14750
F 0 "P35" H 2278 14842 50  0000 L CNN
F 1 "PIN" H 2278 14797 50  0001 L CNN
F 2 "" H 2200 14750 50  0001 C CNN
F 3 "" H 2200 14750 50  0001 C CNN
	1    2200 14750
	-1   0    0    -1  
$EndComp
$Comp
L A5C:PIN P34
U 1 1 5F65939A
P 2200 14500
F 0 "P34" H 2278 14592 50  0000 L CNN
F 1 "PIN" H 2278 14547 50  0001 L CNN
F 2 "" H 2200 14500 50  0001 C CNN
F 3 "" H 2200 14500 50  0001 C CNN
	1    2200 14500
	-1   0    0    -1  
$EndComp
$Comp
L A5C:PIN P33
U 1 1 5F65938E
P 2200 14250
F 0 "P33" H 2278 14342 50  0000 L CNN
F 1 "PIN" H 2278 14297 50  0001 L CNN
F 2 "" H 2200 14250 50  0001 C CNN
F 3 "" H 2200 14250 50  0001 C CNN
	1    2200 14250
	-1   0    0    -1  
$EndComp
$Comp
L A5C:PIN P32
U 1 1 5F659382
P 2200 14000
F 0 "P32" H 2278 14092 50  0000 L CNN
F 1 "PIN" H 2278 14047 50  0001 L CNN
F 2 "" H 2200 14000 50  0001 C CNN
F 3 "" H 2200 14000 50  0001 C CNN
	1    2200 14000
	-1   0    0    -1  
$EndComp
$Comp
L A5C:PIN P31
U 1 1 5F659375
P 2200 13750
F 0 "P31" H 2278 13842 50  0000 L CNN
F 1 "PIN" H 2278 13797 50  0001 L CNN
F 2 "" H 2200 13750 50  0001 C CNN
F 3 "" H 2200 13750 50  0001 C CNN
	1    2200 13750
	-1   0    0    -1  
$EndComp
$Comp
L A5C:PIN P30
U 1 1 6E34305E
P 2200 13500
F 0 "P30" H 2112 13592 50  0000 R CNN
F 1 "PIN" H 2278 13547 50  0001 L CNN
F 2 "" H 2200 13500 50  0001 C CNN
F 3 "" H 2200 13500 50  0001 C CNN
	1    2200 13500
	1    0    0    -1  
$EndComp
$Comp
L A5C:PIN P29
U 1 1 5F65935D
P 2200 13250
F 0 "P29" H 2278 13342 50  0000 L CNN
F 1 "PIN" H 2278 13297 50  0001 L CNN
F 2 "" H 2200 13250 50  0001 C CNN
F 3 "" H 2200 13250 50  0001 C CNN
	1    2200 13250
	-1   0    0    -1  
$EndComp
$Comp
L A5C:PIN P28
U 1 1 5F659351
P 2200 13000
F 0 "P28" H 2278 13092 50  0000 L CNN
F 1 "PIN" H 2278 13047 50  0001 L CNN
F 2 "" H 2200 13000 50  0001 C CNN
F 3 "" H 2200 13000 50  0001 C CNN
	1    2200 13000
	-1   0    0    -1  
$EndComp
$Comp
L A5C:PIN P27
U 1 1 5F65932D
P 2200 12750
F 0 "P27" H 2278 12842 50  0000 L CNN
F 1 "PIN" H 2278 12797 50  0001 L CNN
F 2 "" H 2200 12750 50  0001 C CNN
F 3 "" H 2200 12750 50  0001 C CNN
	1    2200 12750
	-1   0    0    -1  
$EndComp
$Comp
L A5C:PIN P26
U 1 1 5F65930A
P 2200 12500
F 0 "P26" H 2278 12592 50  0000 L CNN
F 1 "PIN" H 2278 12547 50  0001 L CNN
F 2 "" H 2200 12500 50  0001 C CNN
F 3 "" H 2200 12500 50  0001 C CNN
	1    2200 12500
	-1   0    0    -1  
$EndComp
$Comp
L A5C:PIN P25
U 1 1 5F6592FE
P 2200 12250
F 0 "P25" H 2278 12342 50  0000 L CNN
F 1 "PIN" H 2278 12297 50  0001 L CNN
F 2 "" H 2200 12250 50  0001 C CNN
F 3 "" H 2200 12250 50  0001 C CNN
	1    2200 12250
	-1   0    0    -1  
$EndComp
$Comp
L A5C:PIN P24
U 1 1 5F659339
P 2200 12000
F 0 "P24" H 2278 12092 50  0000 L CNN
F 1 "PIN" H 2278 12047 50  0001 L CNN
F 2 "" H 2200 12000 50  0001 C CNN
F 3 "" H 2200 12000 50  0001 C CNN
	1    2200 12000
	-1   0    0    -1  
$EndComp
$Comp
L A5C:PIN P23
U 1 1 5F659345
P 2200 11750
F 0 "P23" H 2278 11842 50  0000 L CNN
F 1 "PIN" H 2278 11797 50  0001 L CNN
F 2 "" H 2200 11750 50  0001 C CNN
F 3 "" H 2200 11750 50  0001 C CNN
	1    2200 11750
	-1   0    0    -1  
$EndComp
$Comp
L A5C:PIN P22
U 1 1 5F6592F2
P 2200 11500
F 0 "P22" H 2278 11592 50  0000 L CNN
F 1 "PIN" H 2278 11547 50  0001 L CNN
F 2 "" H 2200 11500 50  0001 C CNN
F 3 "" H 2200 11500 50  0001 C CNN
	1    2200 11500
	-1   0    0    -1  
$EndComp
Text Label 2300 15750 0    50   ~ 0
BSD8
Text Label 2300 15500 0    50   ~ 0
BSD7
Text Label 2300 15250 0    50   ~ 0
BSD6
Text Label 2300 15000 0    50   ~ 0
BSD5
Text Label 2300 14750 0    50   ~ 0
BSD4
Text Label 2300 14500 0    50   ~ 0
BSD3
Text Label 2300 14250 0    50   ~ 0
BSD2
Text Label 2300 14000 0    50   ~ 0
BSD1
Text Label 2300 13750 0    50   ~ 0
BSD0
Text Label 2300 13500 0    50   ~ 0
ASD8
Text Label 2300 13250 0    50   ~ 0
ASD7
Text Label 2300 13000 0    50   ~ 0
ASD6
Text Label 2300 12750 0    50   ~ 0
ASD5
Text Label 2300 12500 0    50   ~ 0
ASD4
Text Label 2300 12250 0    50   ~ 0
ASD3
Text Label 2300 12000 0    50   ~ 0
ASD2
Text Label 2300 11750 0    50   ~ 0
ASD1
Text Label 2300 11500 0    50   ~ 0
ASD0
Text Notes 1800 13700 3    236  ~ 0
BSD[0..8]
Text Notes 1800 11550 3    236  ~ 0
ASD[0..8]
Wire Wire Line
	2750 15500 2200 15500
Wire Wire Line
	2750 15250 2200 15250
Wire Wire Line
	2750 15000 2200 15000
Wire Wire Line
	2750 14500 2200 14500
Wire Wire Line
	2750 14250 2200 14250
Wire Wire Line
	2750 14000 2200 14000
Wire Wire Line
	2750 13750 2200 13750
Wire Wire Line
	2750 13250 2200 13250
Wire Wire Line
	2750 13000 2200 13000
Wire Wire Line
	2750 12750 2200 12750
Wire Wire Line
	2750 12500 2200 12500
Wire Wire Line
	2750 12250 2200 12250
Wire Wire Line
	2750 12000 2200 12000
Wire Wire Line
	2750 11750 2200 11750
Wire Wire Line
	2750 11500 2200 11500
Wire Wire Line
	2200 15750 2750 15750
Wire Wire Line
	2200 14750 2750 14750
Wire Wire Line
	2200 13500 2750 13500
Entry Wire Line
	2750 15750 2850 15650
Entry Wire Line
	2750 14750 2850 14650
Entry Wire Line
	2750 15000 2850 14900
Entry Wire Line
	2750 15250 2850 15150
Entry Wire Line
	2750 15500 2850 15400
Entry Wire Line
	2750 14500 2850 14600
Entry Wire Line
	2750 14250 2850 14350
Entry Wire Line
	2750 14000 2850 14100
Entry Wire Line
	2750 13750 2850 13850
Entry Wire Line
	2750 13500 2850 13400
Entry Wire Line
	2750 13250 2850 13150
Entry Wire Line
	2750 13000 2850 12900
Entry Wire Line
	2750 12750 2850 12650
Entry Wire Line
	2750 11750 2850 11850
Entry Wire Line
	2750 12000 2850 12100
Entry Wire Line
	2750 12250 2850 12350
Entry Wire Line
	2750 12500 2850 12400
Entry Wire Line
	2750 11500 2850 11600
Entry Wire Line
	2700 1250 2800 1350
Entry Wire Line
	2700 1000 2800 1100
Entry Wire Line
	2700 1500 2800 1400
Entry Wire Line
	2700 1750 2800 1650
Entry Wire Line
	2700 2000 2800 1900
Wire Wire Line
	2150 2000 2700 2000
Wire Wire Line
	2700 1250 2150 1250
Wire Wire Line
	2700 1500 2150 1500
Wire Wire Line
	2700 1750 2150 1750
Text Notes 1700 800  3    197  ~ 0
CB[0..4]
Text Label 2250 1000 0    50   ~ 0
CB0
Text Label 2250 1250 0    50   ~ 0
CB1
Text Label 2250 1500 0    50   ~ 0
CB2
Text Label 2250 1750 0    50   ~ 0
CB3
Text Label 2250 2000 0    50   ~ 0
CB4
Text Label 2850 1400 0    50   ~ 0
CB[0..4]
$Comp
L A5C:PIN P153
U 1 1 62A58D5F
P 2150 1000
F 0 "P153" H 2228 1092 50  0000 L CNN
F 1 "PIN" H 2228 1047 50  0001 L CNN
F 2 "" H 2150 1000 50  0001 C CNN
F 3 "" H 2150 1000 50  0001 C CNN
	1    2150 1000
	-1   0    0    -1  
$EndComp
$Comp
L A5C:PIN P154
U 1 1 62A58D65
P 2150 1250
F 0 "P154" H 2228 1342 50  0000 L CNN
F 1 "PIN" H 2228 1297 50  0001 L CNN
F 2 "" H 2150 1250 50  0001 C CNN
F 3 "" H 2150 1250 50  0001 C CNN
	1    2150 1250
	-1   0    0    -1  
$EndComp
$Comp
L A5C:PIN P155
U 1 1 62A58D6B
P 2150 1500
F 0 "P155" H 2228 1592 50  0000 L CNN
F 1 "PIN" H 2228 1547 50  0001 L CNN
F 2 "" H 2150 1500 50  0001 C CNN
F 3 "" H 2150 1500 50  0001 C CNN
	1    2150 1500
	-1   0    0    -1  
$EndComp
$Comp
L A5C:PIN P156
U 1 1 62A58D71
P 2150 1750
F 0 "P156" H 2228 1842 50  0000 L CNN
F 1 "PIN" H 2228 1797 50  0001 L CNN
F 2 "" H 2150 1750 50  0001 C CNN
F 3 "" H 2150 1750 50  0001 C CNN
	1    2150 1750
	-1   0    0    -1  
$EndComp
$Comp
L A5C:PIN P157
U 1 1 62A58D77
P 2150 2000
F 0 "P157" H 2228 2092 50  0000 L CNN
F 1 "PIN" H 2228 2047 50  0001 L CNN
F 2 "" H 2150 2000 50  0001 C CNN
F 3 "" H 2150 2000 50  0001 C CNN
	1    2150 2000
	-1   0    0    -1  
$EndComp
Entry Wire Line
	2700 2250 2800 2350
Entry Wire Line
	2700 2500 2800 2400
Wire Wire Line
	2150 2500 2700 2500
Wire Wire Line
	2700 2250 2150 2250
Text Label 2250 2250 0    50   ~ 0
CPC0
Text Label 2250 2500 0    50   ~ 0
CPC1
$Comp
L A5C:PIN P158
U 1 1 62A836F0
P 2150 2250
F 0 "P158" H 2228 2342 50  0000 L CNN
F 1 "PIN" H 2228 2297 50  0001 L CNN
F 2 "" H 2150 2250 50  0001 C CNN
F 3 "" H 2150 2250 50  0001 C CNN
	1    2150 2250
	-1   0    0    -1  
$EndComp
$Comp
L A5C:PIN P159
U 1 1 62A836F6
P 2150 2500
F 0 "P159" H 2228 2592 50  0000 L CNN
F 1 "PIN" H 2228 2547 50  0001 L CNN
F 2 "" H 2150 2500 50  0001 C CNN
F 3 "" H 2150 2500 50  0001 C CNN
	1    2150 2500
	-1   0    0    -1  
$EndComp
Text Label 2250 2750 0    50   ~ 0
CDEN
$Comp
L A5C:PIN P160
U 1 1 62B5A946
P 2150 2750
F 0 "P160" H 2228 2842 50  0000 L CNN
F 1 "PIN" H 2228 2797 50  0001 L CNN
F 2 "" H 2150 2750 50  0001 C CNN
F 3 "" H 2150 2750 50  0001 C CNN
	1    2150 2750
	-1   0    0    -1  
$EndComp
Connection ~ 2800 1400
Wire Bus Line
	2800 2350 2800 2400
Text Notes 1200 2400 0    100  ~ 0
CPC[01]
Wire Bus Line
	3350 4250 3350 7100
Wire Bus Line
	2800 4250 3350 4250
Wire Bus Line
	3250 7300 3250 8250
Wire Bus Line
	3350 7400 3350 10250
Wire Wire Line
	8000 5300 8000 2350
Connection ~ 8000 5300
Wire Wire Line
	2150 2750 3450 2750
Wire Bus Line
	2800 2350 3550 2350
Wire Bus Line
	2800 1400 3650 1400
Text Notes 1400 2700 0    100  ~ 0
CDEN
Wire Bus Line
	3450 12400 3450 8250
Wire Bus Line
	2850 12400 3450 12400
Wire Bus Line
	2850 14650 3550 14650
Wire Wire Line
	4200 2600 4600 2600
Wire Wire Line
	4600 2600 4600 2900
Wire Wire Line
	4500 2850 4200 2850
Wire Wire Line
	4500 3000 4500 2850
Text Label 4300 2850 0    50   ~ 0
LI
$Comp
L A5C:PIN P113
U 1 1 601E0A66
P 4200 2600
F 0 "P113" H 4112 2692 50  0000 R CNN
F 1 "PIN" H 4278 2647 50  0001 L CNN
F 2 "" H 4200 2600 50  0001 C CNN
F 3 "" H 4200 2600 50  0001 C CNN
	1    4200 2600
	1    0    0    -1  
$EndComp
$Comp
L A5C:PIN P114
U 1 1 601E0A6B
P 4200 2850
F 0 "P114" H 4112 2942 50  0000 R CNN
F 1 "PIN" H 4278 2897 50  0001 L CNN
F 2 "" H 4200 2850 50  0001 C CNN
F 3 "" H 4200 2850 50  0001 C CNN
	1    4200 2850
	1    0    0    -1  
$EndComp
$Comp
L A5C:PIN P115
U 1 1 5FBD44A7
P 4200 3100
F 0 "P115" H 4278 3192 50  0000 L CNN
F 1 "PIN" H 4278 3147 50  0001 L CNN
F 2 "" H 4200 3100 50  0001 C CNN
F 3 "" H 4200 3100 50  0001 C CNN
	1    4200 3100
	-1   0    0    -1  
$EndComp
Text Label 4300 2600 0    50   ~ 0
FI
Text Label 4300 3100 0    50   ~ 0
FLIP
Text Notes 11000 950  2    100  ~ 0
XSEL
Wire Wire Line
	5000 3300 4700 3300
Text Label 4700 3300 0    50   ~ 0
~CLK4M
Wire Wire Line
	4950 14150 4950 14050
Wire Wire Line
	4950 14050 5950 14050
Wire Wire Line
	5050 14400 5050 14150
Wire Wire Line
	5050 14150 5950 14150
Wire Wire Line
	5950 14250 5150 14250
Wire Wire Line
	5150 14250 5150 14650
Text Label 11200 6300 0    50   ~ 0
~CLK4M
Text Label 4450 4750 0    50   ~ 0
~DEBUG[0..15]
Text Label 4450 4850 0    50   ~ 0
TD[0..11]
Text Label 4600 6200 0    50   ~ 0
~RESETI1
Text Label 4600 5900 0    50   ~ 0
~SCANLINE
Wire Bus Line
	16650 6200 16750 6200
Wire Wire Line
	17750 7450 18450 7450
Wire Bus Line
	6850 12400 7500 12400
Wire Bus Line
	7500 12400 7500 13350
Wire Wire Line
	7600 13450 7600 12500
Wire Wire Line
	7600 12500 6850 12500
Wire Wire Line
	7600 13450 7400 13450
Connection ~ 18050 2350
Wire Bus Line
	18050 2350 18050 2600
Wire Bus Line
	20600 2350 20600 2400
Connection ~ 20600 2350
Wire Bus Line
	20100 2350 20600 2350
Wire Bus Line
	18050 2350 18750 2350
Text Notes 19250 4550 2    200  ~ 0
PALETTE LOCKDOWN\nMODULE
Wire Wire Line
	8000 2350 9600 2350
Wire Wire Line
	9600 1000 10350 1000
Wire Wire Line
	2150 1000 2700 1000
Wire Bus Line
	8100 2450 8100 3100
Wire Wire Line
	9600 1000 9600 2350
Text Label 11350 13450 0    50   ~ 0
LI
Wire Wire Line
	11600 13450 11350 13450
Text Label 13100 13950 2    50   ~ 0
CLK8M
Wire Wire Line
	12800 13950 13100 13950
Text Label 13100 13850 2    50   ~ 0
~CLK4M
Wire Wire Line
	12800 13850 13100 13850
$Sheet
S 11600 13200 1200 1300
U 5FBAA8BE
F0 "main-signals" 50
F1 "main-signals.sch" 50
F2 "~RESETI" I L 11600 14350 50 
F3 "MAIN-~RESETI" O R 12800 13350 50 
F4 "~RESETI2" O R 12800 13550 50 
F5 "~RESETI1" O R 12800 13450 50 
F6 "LI" I L 11600 13450 50 
F7 "CLK16M" I L 11600 14100 50 
F8 "SEC-MODE1" I L 11600 13850 50 
F9 "SEC-MODE0" I L 11600 13600 50 
F10 "DEFAULT" O L 11600 13350 50 
F11 "~CLK8M" O R 12800 14350 50 
F12 "CLK8M" O R 12800 13950 50 
F13 "~CLK4M" O R 12800 13850 50 
$EndSheet
$Comp
L A5C:PIN P104
U 1 1 601E0AC7
P 13150 14350
F 0 "P104" H 13062 14442 50  0000 R CNN
F 1 "PIN" H 13228 14397 50  0001 L CNN
F 2 "" H 13150 14350 50  0001 C CNN
F 3 "" H 13150 14350 50  0001 C CNN
	1    13150 14350
	-1   0    0    -1  
$EndComp
$Comp
L A5C:PIN P103
U 1 1 5F2737B2
P 11050 14350
F 0 "P103" H 10962 14442 50  0000 R CNN
F 1 "PIN" H 11128 14397 50  0001 L CNN
F 2 "" H 11050 14350 50  0001 C CNN
F 3 "" H 11050 14350 50  0001 C CNN
	1    11050 14350
	1    0    0    -1  
$EndComp
$Comp
L A5C:PIN P110
U 1 1 601E0A6D
P 11050 14100
F 0 "P110" H 10962 14192 50  0000 R CNN
F 1 "PIN" H 11128 14147 50  0001 L CNN
F 2 "" H 11050 14100 50  0001 C CNN
F 3 "" H 11050 14100 50  0001 C CNN
	1    11050 14100
	1    0    0    -1  
$EndComp
$Comp
L A5C:PIN P46
U 1 1 65284196
P 11050 13850
F 0 "P46" H 10962 13942 50  0000 R CNN
F 1 "PIN" H 11128 13897 50  0001 L CNN
F 2 "" H 11050 13850 50  0001 C CNN
F 3 "" H 11050 13850 50  0001 C CNN
	1    11050 13850
	1    0    0    -1  
$EndComp
$Comp
L A5C:PIN P45
U 1 1 651F70F3
P 11050 13600
F 0 "P45" H 10962 13692 50  0000 R CNN
F 1 "PIN" H 11128 13647 50  0001 L CNN
F 2 "" H 11050 13600 50  0001 C CNN
F 3 "" H 11050 13600 50  0001 C CNN
	1    11050 13600
	1    0    0    -1  
$EndComp
Text Label 13200 13550 2    50   ~ 0
~RESETI2
Text Label 13200 13450 2    50   ~ 0
~RESETI1
Text Label 13200 13350 2    50   ~ 0
~RESET
Text Notes 11700 15000 0    200  ~ 0
~RESET
Text Notes 11200 15300 0    200  ~ 0
MAIN CLOCKS
Text Notes 10650 14050 2    50   ~ 0
CLK16M
Text Notes 10400 14300 0    50   ~ 0
~RESETI
Text Notes 10200 13800 0    50   ~ 0
SEC-MODE1
Text Notes 10200 13550 0    50   ~ 0
SEC-MODE0
Wire Wire Line
	11600 14350 11050 14350
Wire Wire Line
	11600 13850 11050 13850
Wire Wire Line
	11600 13600 11050 13600
Wire Wire Line
	11050 14100 11600 14100
$Sheet
S 16350 13850 1200 1350
U 5FAA7657
F0 "multiplier" 50
F1 "multiplier.sch" 50
F2 "BUS-DATA[0..15]" B R 17550 14400 50 
F3 "CLK8M" I L 16350 14950 50 
F4 "~TC-E" I L 16350 14200 50 
F5 "~X-E" I L 16350 14000 50 
F6 "~Y-E" I L 16350 14100 50 
F7 "~MSB-E" I L 16350 14500 50 
F8 "~LSB-E" I L 16350 14400 50 
F9 "~RD" I L 16350 14700 50 
F10 "~WR" I L 16350 14800 50 
F11 "~RESET" I L 16350 15050 50 
$EndSheet
Text Notes 16300 13650 0    200  ~ 0
MULTIPLIER\nMODULE
Text Notes 13150 12250 0    50   ~ 0
0x06
Text Notes 13150 12150 0    50   ~ 0
0x04
Text Notes 13150 12050 0    50   ~ 0
0x08
Text Notes 13150 11950 0    50   ~ 0
0x02
Text Notes 13150 11850 0    50   ~ 0
0x00
$Sheet
S 11600 10400 1500 2600
U 5FBF8EAD
F0 "security-management" 50
F1 "security-management.sch" 50
F2 "BUS-DATA[0..7]" I L 11600 10550 50 
F3 "SEC-STROBE" I L 11600 12400 50 
F4 "~SEC-E1" I L 11600 12500 50 
F5 "SEC-E2" I L 11600 12600 50 
F6 "STAGE1-Q" O R 13100 12850 50 
F7 "CHECK2-D[0..15]" O R 13100 12500 50 
F8 "CHECK1-D[0..15]" O R 13100 12400 50 
F9 "CPS-ID-D[0..15]" O R 13100 11600 50 
F10 "DEFAULT" I L 11600 12850 50 
F11 "TD[0..11]" T L 11600 11250 50 
F12 "~BUS-RD" I L 11600 11400 50 
F13 "~BUS-WR" I L 11600 11500 50 
F14 "CA[1..5]" I L 11600 10650 50 
F15 "~IO-READ" I L 11600 10850 50 
F16 "~MULT-X" O R 13100 11850 50 
F17 "~MULT-Y" O R 13100 11950 50 
F18 "~MULT-LSB" O R 13100 12150 50 
F19 "~MULT-MSB" O R 13100 12250 50 
F20 "~MULT-TC" O R 13100 12050 50 
F21 "~CHECK1" O R 13100 12600 50 
F22 "~CHECK2" O R 13100 12700 50 
F23 "~LAYER-CTRL" O R 13100 10650 50 
F24 "~PAL-CTRL" O R 13100 10900 50 
F25 "~CPS-ID" O R 13100 11700 50 
F26 "~SCANLINE" O R 13100 11050 50 
F27 "LAYER-D[1..5]" O R 13100 10550 50 
F28 "~RASTER1" O R 13100 11250 50 
F29 "~RASTER2" O R 13100 11350 50 
F30 "~RASTER3" O R 13100 11450 50 
F31 "~PRIORITY[0..3]" O R 13100 10750 50 
F32 "SEC-DATA" I L 11600 12200 50 
F33 "SEC-CLK" I L 11600 12300 50 
F34 "~DEBUG[8..15]" I L 11600 11150 50 
F35 "VBAT" I L 11600 11950 50 
$EndSheet
$Comp
L A5C:PIN P44
U 1 1 60634CD2
P 10200 12600
F 0 "P44" H 10112 12692 50  0000 R CNN
F 1 "PIN" H 10278 12647 50  0001 L CNN
F 2 "" H 10200 12600 50  0001 C CNN
F 3 "" H 10200 12600 50  0001 C CNN
	1    10200 12600
	1    0    0    -1  
$EndComp
$Comp
L A5C:PIN P43
U 1 1 60634A5E
P 10200 12350
F 0 "P43" H 10112 12442 50  0000 R CNN
F 1 "PIN" H 10278 12397 50  0001 L CNN
F 2 "" H 10200 12350 50  0001 C CNN
F 3 "" H 10200 12350 50  0001 C CNN
	1    10200 12350
	1    0    0    -1  
$EndComp
$Comp
L A5C:PIN P42
U 1 1 60333353
P 10200 12100
F 0 "P42" H 10112 12192 50  0000 R CNN
F 1 "PIN" H 10278 12147 50  0001 L CNN
F 2 "" H 10200 12100 50  0001 C CNN
F 3 "" H 10200 12100 50  0001 C CNN
	1    10200 12100
	1    0    0    -1  
$EndComp
$Comp
L A5C:PIN P82
U 1 1 72BC9473
P 10200 11850
F 0 "P82" H 10112 11942 50  0000 R CNN
F 1 "PIN" H 10278 11897 50  0001 L CNN
F 2 "" H 10200 11850 50  0001 C CNN
F 3 "" H 10200 11850 50  0001 C CNN
	1    10200 11850
	1    0    0    -1  
$EndComp
$Comp
L A5C:PIN P81
U 1 1 72BC946C
P 10200 11600
F 0 "P81" H 10112 11692 50  0000 R CNN
F 1 "PIN" H 10278 11647 50  0001 L CNN
F 2 "" H 10200 11600 50  0001 C CNN
F 3 "" H 10200 11600 50  0001 C CNN
	1    10200 11600
	1    0    0    -1  
$EndComp
$Comp
L A5C:PIN P80
U 1 1 72BC9465
P 10200 11350
F 0 "P80" H 10112 11442 50  0000 R CNN
F 1 "PIN" H 10278 11397 50  0001 L CNN
F 2 "" H 10200 11350 50  0001 C CNN
F 3 "" H 10200 11350 50  0001 C CNN
	1    10200 11350
	1    0    0    -1  
$EndComp
$Comp
L A5C:PIN P79
U 1 1 72BC945E
P 10200 11100
F 0 "P79" H 10112 11192 50  0000 R CNN
F 1 "PIN" H 10278 11147 50  0001 L CNN
F 2 "" H 10200 11100 50  0001 C CNN
F 3 "" H 10200 11100 50  0001 C CNN
	1    10200 11100
	1    0    0    -1  
$EndComp
$Comp
L A5C:PIN P78
U 1 1 72BC9457
P 10200 10850
F 0 "P78" H 10112 10942 50  0000 R CNN
F 1 "PIN" H 10278 10897 50  0001 L CNN
F 2 "" H 10200 10850 50  0001 C CNN
F 3 "" H 10200 10850 50  0001 C CNN
	1    10200 10850
	1    0    0    -1  
$EndComp
Text Label 10350 11850 0    50   ~ 0
CA5
Text Label 10350 11600 0    50   ~ 0
CA4
Text Label 10350 11350 0    50   ~ 0
CA3
Text Label 10350 11100 0    50   ~ 0
CA2
Text Label 10350 10850 0    50   ~ 0
CA1
Text Notes 9801 10600 3    201  ~ 0
CA[1-5]
Text Notes 9350 12550 0    50   ~ 0
SEC-E2
Text Notes 9350 12300 0    50   ~ 0
SEC-~E1
Text Notes 9350 12050 0    50   ~ 0
SEC-STROBE
Wire Wire Line
	10750 11850 10200 11850
Wire Wire Line
	10750 11600 10200 11600
Wire Wire Line
	10750 11350 10200 11350
Wire Wire Line
	10750 11100 10200 11100
Wire Wire Line
	10750 10850 10200 10850
Entry Wire Line
	10750 11850 10850 11750
Entry Wire Line
	10750 11600 10850 11500
Entry Wire Line
	10750 11350 10850 11250
Entry Wire Line
	10750 11100 10850 11000
Entry Wire Line
	10750 10850 10850 10750
Text Notes 19150 7650 0    50   ~ 0
During blanking (WSTLUT phase)\nThe palette is copied from GFXRAM to PALETTE\nThis part iterates on LUT addresses and send the WR signal
Wire Bus Line
	4400 4750 5000 4750
Wire Bus Line
	4400 4850 5000 4850
Wire Bus Line
	18500 12650 19550 12650
Connection ~ 18500 12650
Wire Bus Line
	4000 13350 4000 15450
Text Label 11200 10850 0    50   ~ 0
~IO-READ
Text Label 11200 11400 0    50   ~ 0
~BUS-RD
Text Label 11200 11500 0    50   ~ 0
~BUS-WR
Wire Wire Line
	11600 11400 11200 11400
Wire Wire Line
	11600 11500 11200 11500
Text Label 11550 11250 2    50   ~ 0
TD[0..11]
Wire Wire Line
	11500 12850 11600 12850
Wire Wire Line
	11500 13350 11600 13350
Wire Wire Line
	13150 14350 12800 14350
Wire Wire Line
	11500 12850 11500 13350
Text Label 15950 12400 0    50   ~ 0
~BUS-RD
Wire Wire Line
	16350 12400 15950 12400
Wire Bus Line
	13100 11600 15750 11600
Text Label 15950 14700 0    50   ~ 0
~BUS-RD
Wire Wire Line
	16350 14700 15950 14700
Text Label 15950 14800 0    50   ~ 0
~BUS-WR
Wire Wire Line
	16350 14800 15950 14800
Wire Wire Line
	15550 11850 13100 11850
Wire Wire Line
	15550 14000 16350 14000
Wire Wire Line
	13100 11950 15450 11950
Wire Wire Line
	15450 14100 16350 14100
Wire Wire Line
	15350 12050 13100 12050
Wire Wire Line
	15350 14200 16350 14200
Wire Wire Line
	13100 12150 15250 12150
Wire Wire Line
	15250 14400 16350 14400
Wire Wire Line
	15150 12250 13100 12250
Wire Wire Line
	15150 14500 16350 14500
Text Label 16050 14950 0    50   ~ 0
CLK8M
Wire Wire Line
	16350 14950 16050 14950
Wire Wire Line
	15650 11700 13100 11700
Wire Wire Line
	15650 12300 16350 12300
Wire Bus Line
	15750 12100 16350 12100
Wire Wire Line
	13100 11450 15750 11450
Wire Wire Line
	15750 10050 16350 10050
Wire Wire Line
	16350 9950 15650 9950
Wire Wire Line
	15650 9950 15650 11350
Wire Wire Line
	15650 11350 13100 11350
Wire Wire Line
	13100 11250 15550 11250
Wire Wire Line
	15550 9850 16350 9850
Text Label 16150 9550 0    50   ~ 0
LI
Wire Wire Line
	16150 9550 16350 9550
Text Label 16150 9650 0    50   ~ 0
FI
Wire Wire Line
	16150 9650 16350 9650
Text Label 15950 10250 0    50   ~ 0
~BUS-RD
Wire Wire Line
	16350 10250 15950 10250
Text Label 15950 10350 0    50   ~ 0
~BUS-WR
Wire Wire Line
	16350 10350 15950 10350
Text Label 16050 10550 0    50   ~ 0
~CLK4M
Wire Wire Line
	16350 10550 16050 10550
Text Notes 14300 1350 3    201  ~ 0
LUT[0..11]
$Comp
L A5C:PIN P100
U 1 1 5F85046F
P 14700 3750
F 0 "P100" H 14612 3842 50  0000 R CNN
F 1 "PIN" H 14778 3797 50  0001 L CNN
F 2 "" H 14700 3750 50  0001 C CNN
F 3 "" H 14700 3750 50  0001 C CNN
	1    14700 3750
	1    0    0    -1  
$EndComp
$Comp
L A5C:PIN P99
U 1 1 5F850463
P 14700 3500
F 0 "P99" H 14778 3592 50  0000 L CNN
F 1 "PIN" H 14778 3547 50  0001 L CNN
F 2 "" H 14700 3500 50  0001 C CNN
F 3 "" H 14700 3500 50  0001 C CNN
	1    14700 3500
	-1   0    0    -1  
$EndComp
$Comp
L A5C:PIN P98
U 1 1 5F850431
P 14700 3250
F 0 "P98" H 14778 3342 50  0000 L CNN
F 1 "PIN" H 14778 3297 50  0001 L CNN
F 2 "" H 14700 3250 50  0001 C CNN
F 3 "" H 14700 3250 50  0001 C CNN
	1    14700 3250
	-1   0    0    -1  
$EndComp
$Comp
L A5C:PIN P97
U 1 1 5F85043D
P 14700 3000
F 0 "P97" H 14612 3092 50  0000 R CNN
F 1 "PIN" H 14778 3047 50  0001 L CNN
F 2 "" H 14700 3000 50  0001 C CNN
F 3 "" H 14700 3000 50  0001 C CNN
	1    14700 3000
	1    0    0    -1  
$EndComp
$Comp
L A5C:PIN P96
U 1 1 5F850453
P 14700 2750
F 0 "P96" H 14778 2842 50  0000 L CNN
F 1 "PIN" H 14778 2797 50  0001 L CNN
F 2 "" H 14700 2750 50  0001 C CNN
F 3 "" H 14700 2750 50  0001 C CNN
	1    14700 2750
	-1   0    0    -1  
$EndComp
$Comp
L A5C:PIN P95
U 1 1 5F850400
P 14700 2500
F 0 "P95" H 14778 2592 50  0000 L CNN
F 1 "PIN" H 14778 2547 50  0001 L CNN
F 2 "" H 14700 2500 50  0001 C CNN
F 3 "" H 14700 2500 50  0001 C CNN
	1    14700 2500
	-1   0    0    -1  
$EndComp
$Comp
L A5C:PIN P94
U 1 1 5F85040C
P 14700 2250
F 0 "P94" H 14778 2342 50  0000 L CNN
F 1 "PIN" H 14778 2297 50  0001 L CNN
F 2 "" H 14700 2250 50  0001 C CNN
F 3 "" H 14700 2250 50  0001 C CNN
	1    14700 2250
	-1   0    0    -1  
$EndComp
$Comp
L A5C:PIN P93
U 1 1 5F850418
P 14700 2000
F 0 "P93" H 14778 2092 50  0000 L CNN
F 1 "PIN" H 14778 2047 50  0001 L CNN
F 2 "" H 14700 2000 50  0001 C CNN
F 3 "" H 14700 2000 50  0001 C CNN
	1    14700 2000
	-1   0    0    -1  
$EndComp
$Comp
L A5C:PIN P92
U 1 1 5F8503CD
P 14700 1750
F 0 "P92" H 14778 1842 50  0000 L CNN
F 1 "PIN" H 14778 1797 50  0001 L CNN
F 2 "" H 14700 1750 50  0001 C CNN
F 3 "" H 14700 1750 50  0001 C CNN
	1    14700 1750
	-1   0    0    -1  
$EndComp
$Comp
L A5C:PIN P91
U 1 1 5F8503DB
P 14700 1500
F 0 "P91" H 14778 1592 50  0000 L CNN
F 1 "PIN" H 14778 1547 50  0001 L CNN
F 2 "" H 14700 1500 50  0001 C CNN
F 3 "" H 14700 1500 50  0001 C CNN
	1    14700 1500
	-1   0    0    -1  
$EndComp
$Comp
L A5C:PIN P90
U 1 1 5F8503E7
P 14700 1250
F 0 "P90" H 14778 1342 50  0000 L CNN
F 1 "PIN" H 14778 1297 50  0001 L CNN
F 2 "" H 14700 1250 50  0001 C CNN
F 3 "" H 14700 1250 50  0001 C CNN
	1    14700 1250
	-1   0    0    -1  
$EndComp
$Comp
L A5C:PIN P89
U 1 1 5F8503F3
P 14700 1000
F 0 "P89" H 14778 1092 50  0000 L CNN
F 1 "PIN" H 14778 1047 50  0001 L CNN
F 2 "" H 14700 1000 50  0001 C CNN
F 3 "" H 14700 1000 50  0001 C CNN
	1    14700 1000
	-1   0    0    -1  
$EndComp
Text Label 14800 3750 0    50   ~ 0
LUT11
Text Label 14800 3500 0    50   ~ 0
LUT10
Text Label 14800 3250 0    50   ~ 0
LUT9
Text Label 14800 3000 0    50   ~ 0
LUT8
Text Label 14800 2750 0    50   ~ 0
LUT7
Text Label 14800 2500 0    50   ~ 0
LUT6
Text Label 14800 2250 0    50   ~ 0
LUT5
Text Label 14800 2000 0    50   ~ 0
LUT4
Text Label 14800 1750 0    50   ~ 0
LUT3
Text Label 14800 1500 0    50   ~ 0
LUT2
Text Label 14800 1250 0    50   ~ 0
LUT1
Text Label 14800 1000 0    50   ~ 0
LUT0
Wire Wire Line
	14700 3750 15250 3750
Wire Wire Line
	14700 3000 15250 3000
Wire Wire Line
	15250 3500 14700 3500
Wire Wire Line
	15250 3250 14700 3250
Wire Wire Line
	15250 2750 14700 2750
Wire Wire Line
	15250 2500 14700 2500
Wire Wire Line
	15250 2250 14700 2250
Wire Wire Line
	15250 2000 14700 2000
Wire Wire Line
	15250 1750 14700 1750
Wire Wire Line
	15250 1500 14700 1500
Wire Wire Line
	15250 1250 14700 1250
Wire Wire Line
	15250 1000 14700 1000
Entry Wire Line
	15250 1000 15350 1100
Entry Wire Line
	15250 1250 15350 1350
Entry Wire Line
	15250 1500 15350 1600
Entry Wire Line
	15250 1750 15350 1850
Entry Wire Line
	15250 2000 15350 2100
Entry Wire Line
	15250 2250 15350 2350
Entry Wire Line
	15250 2500 15350 2600
Entry Wire Line
	15250 2750 15350 2850
Entry Wire Line
	15250 3000 15350 3100
Entry Wire Line
	15250 3250 15350 3350
Entry Wire Line
	15250 3500 15350 3600
Entry Wire Line
	15250 3750 15350 3850
Text Notes 11550 4300 0    200  ~ 0
VIDEO LAYERS\nASSEMBLY MODULE
Wire Bus Line
	4700 7200 4700 12650
Wire Bus Line
	4600 7300 4600 12750
Wire Bus Line
	4500 7400 4500 12850
Wire Bus Line
	4800 12550 5950 12550
Wire Bus Line
	4700 12650 5950 12650
Wire Bus Line
	4600 12750 5950 12750
Wire Bus Line
	4500 12850 5950 12850
Wire Bus Line
	3450 8250 8500 8250
Wire Bus Line
	3550 8350 8500 8350
Connection ~ 4500 7400
Connection ~ 4600 7300
Connection ~ 4700 7200
Wire Bus Line
	4800 7100 4800 12550
Connection ~ 4800 7100
Wire Bus Line
	22100 9550 22100 8500
Wire Bus Line
	22100 6050 20400 6050
Wire Wire Line
	11600 12200 11200 12200
Wire Wire Line
	11200 12300 11600 12300
Wire Wire Line
	11200 10850 11600 10850
Wire Bus Line
	22100 6050 22100 4450
Wire Bus Line
	22100 4450 20400 4450
Connection ~ 22100 6050
Connection ~ 18500 9550
Wire Bus Line
	18500 9550 22100 9550
Wire Bus Line
	17600 9550 18500 9550
Wire Wire Line
	17850 9850 17600 9850
Wire Bus Line
	17900 12100 18500 12100
Connection ~ 18500 12100
Wire Bus Line
	18500 12100 18500 12650
Wire Bus Line
	3550 6800 6600 6800
Wire Wire Line
	3450 6900 6700 6900
Wire Bus Line
	3350 7100 4800 7100
Wire Bus Line
	3250 6250 3250 7200
Wire Bus Line
	3250 7200 4700 7200
Wire Bus Line
	3250 7300 4600 7300
Wire Bus Line
	3350 7400 4500 7400
Wire Bus Line
	4000 5750 5000 5750
Connection ~ 4000 13350
Wire Bus Line
	4000 13350 5950 13350
Wire Wire Line
	5150 14650 4750 14650
Wire Wire Line
	5050 14400 4750 14400
Wire Wire Line
	4750 14150 4950 14150
Wire Wire Line
	4750 13900 5950 13900
Wire Bus Line
	4000 15450 9100 15450
Wire Bus Line
	10850 10650 11600 10650
Text Notes 5250 9550 0    236  ~ 0
STARS &\nTILEMAPS &\nSPRITES ASSEMBLY
$Comp
L A5C:PIN P118
U 1 1 60B7D0BB
P 8400 1650
F 0 "P118" H 8478 1742 50  0000 L CNN
F 1 "PIN" H 8478 1697 50  0001 L CNN
F 2 "" H 8400 1650 50  0001 C CNN
F 3 "" H 8400 1650 50  0001 C CNN
	1    8400 1650
	1    0    0    -1  
$EndComp
$Comp
L A5C:PIN P116
U 1 1 60B7D0B5
P 8400 1400
F 0 "P116" H 8478 1492 50  0000 L CNN
F 1 "PIN" H 8478 1447 50  0001 L CNN
F 2 "" H 8400 1400 50  0001 C CNN
F 3 "" H 8400 1400 50  0001 C CNN
	1    8400 1400
	1    0    0    -1  
$EndComp
$Comp
L A5C:PIN P119
U 1 1 60B7D0AF
P 8400 1150
F 0 "P119" H 8478 1242 50  0000 L CNN
F 1 "PIN" H 8478 1197 50  0001 L CNN
F 2 "" H 8400 1150 50  0001 C CNN
F 3 "" H 8400 1150 50  0001 C CNN
	1    8400 1150
	1    0    0    -1  
$EndComp
$Comp
L A5C:PIN P117
U 1 1 60B7D0A9
P 8400 900
F 0 "P117" H 8478 992 50  0000 L CNN
F 1 "PIN" H 8478 947 50  0001 L CNN
F 2 "" H 8400 900 50  0001 C CNN
F 3 "" H 8400 900 50  0001 C CNN
	1    8400 900 
	1    0    0    -1  
$EndComp
Text Label 8300 1650 2    50   ~ 0
VSYNC
Text Label 8300 1400 2    50   ~ 0
HSYNC
Text Label 8300 1150 2    50   ~ 0
~VBLANK
Text Label 8300 900  2    50   ~ 0
~HBLANK
Wire Wire Line
	7000 900  8400 900 
Wire Wire Line
	7000 900  7000 2900
Wire Wire Line
	7100 1150 7100 3000
Wire Wire Line
	7100 1150 8400 1150
Wire Wire Line
	7200 1400 8400 1400
Wire Wire Line
	7200 1400 7200 3150
Wire Wire Line
	7300 1650 7300 3250
Wire Wire Line
	7300 1650 8400 1650
Text Notes 5000 2250 0    200  ~ 0
VIDEO\nSIGNALS\nGENERATOR\nMODULE
Wire Wire Line
	6300 2900 7000 2900
Wire Wire Line
	6300 3000 7100 3000
Wire Wire Line
	6300 3150 7200 3150
Wire Wire Line
	6300 3250 7300 3250
Wire Wire Line
	6300 4000 8500 4000
Wire Wire Line
	6300 4100 8500 4100
Wire Wire Line
	6300 4200 8500 4200
Wire Wire Line
	8400 5750 8400 7600
Wire Wire Line
	6300 5450 8500 5450
Wire Wire Line
	6300 5550 8500 5550
Wire Wire Line
	6300 5650 8500 5650
Wire Wire Line
	6300 5750 8400 5750
Wire Wire Line
	6300 5900 6400 5900
Wire Wire Line
	6300 6000 8500 6000
Wire Wire Line
	6300 6100 8100 6100
Wire Wire Line
	6300 6200 8200 6200
Wire Bus Line
	6500 6400 8500 6400
Wire Bus Line
	6600 6500 8500 6500
Wire Wire Line
	6700 6600 8500 6600
Wire Bus Line
	4500 7400 7200 7400
Wire Bus Line
	4600 7300 7300 7300
Wire Bus Line
	4700 7200 7400 7200
Wire Bus Line
	4800 7100 7500 7100
Wire Bus Line
	7200 5000 8500 5000
Connection ~ 7200 7400
Wire Bus Line
	7200 7400 8500 7400
Wire Bus Line
	7300 4900 8500 4900
Connection ~ 7300 7300
Wire Bus Line
	7300 7300 8500 7300
Wire Bus Line
	7400 4800 8500 4800
Connection ~ 7400 7200
Wire Bus Line
	7400 7200 8500 7200
Connection ~ 7500 7100
Wire Bus Line
	7500 7100 8500 7100
Connection ~ 7500 4700
Wire Bus Line
	7500 4700 8500 4700
Wire Bus Line
	7500 2900 8500 2900
Wire Wire Line
	6300 3400 7400 3400
Wire Wire Line
	9800 3300 10850 3300
Wire Wire Line
	9800 3200 10950 3200
Wire Bus Line
	9800 3000 11050 3000
Wire Bus Line
	9800 2900 11150 2900
Wire Wire Line
	7400 2600 11250 2600
Wire Bus Line
	9800 5450 11550 5450
Wire Bus Line
	9800 5550 11550 5550
Wire Bus Line
	9800 5650 11550 5650
Wire Wire Line
	10300 6300 11550 6300
Wire Wire Line
	10200 6400 11550 6400
Text Label 4600 6000 0    50   ~ 0
~BUS-WR
Wire Wire Line
	5000 6000 4600 6000
Wire Wire Line
	5000 5900 4600 5900
Wire Wire Line
	4600 6200 5000 6200
Wire Wire Line
	4600 2900 5000 2900
Wire Wire Line
	4500 3000 5000 3000
Wire Wire Line
	4200 3100 5000 3100
Wire Wire Line
	6400 5900 6400 6500
Connection ~ 6400 5900
Wire Wire Line
	6400 5900 8300 5900
Wire Wire Line
	3900 5550 3900 13600
Wire Wire Line
	4100 6500 4100 13500
Wire Wire Line
	3900 5550 5000 5550
Wire Wire Line
	4100 6500 6400 6500
Wire Wire Line
	4100 13500 5950 13500
Wire Wire Line
	3900 13600 5950 13600
Wire Wire Line
	13200 13450 12800 13450
Wire Wire Line
	12800 13550 13200 13550
Wire Wire Line
	12800 13350 13200 13350
$Sheet
S 19150 5900 1250 1350
U 5FBBEA1C
F0 "palette-control" 50
F1 "palette-control.sch" 50
F2 "BUS[0..5]" I R 20400 6050 50 
F3 "~RESET" I R 20400 6650 50 
F4 "LUT[9..11]" I L 19150 6050 50 
F5 "~LUT-WR" O L 19150 6750 50 
F6 "WSTLUT" I R 20400 7100 50 
F7 "~CLK4M" I R 20400 6550 50 
F8 "~E" I R 20400 6250 50 
F9 "WR" I R 20400 6350 50 
F10 "BASE[9..11]" O L 19150 6200 50 
F11 "~WSTROM" I R 20400 6850 50 
F12 "~LUT-OE" O L 19150 6350 50 
F13 "CLK4M" O L 19150 6600 50 
F14 "~LUT-RESET" I L 19150 7100 50 
F15 "CPY-LUT" O L 19150 6500 50 
$EndSheet
Text Label 20700 6650 2    50   ~ 0
~RESET
Wire Wire Line
	18950 5900 18950 6500
$Sheet
S 15450 5400 900  650 
U 5F7ABA8F
F0 "lut-io" 50
F1 "lut-io.sch" 50
F2 "OUT[0..11]" O L 15450 5550 50 
F3 "A[0..11]" I L 15450 5750 50 
F4 "B[0..11]" I R 16350 5750 50 
F5 "~E" I R 16350 5550 50 
F6 "~A~B" I R 16350 5900 50 
$EndSheet
Wire Bus Line
	16350 5750 16650 5750
Wire Wire Line
	20400 6550 20700 6550
Wire Wire Line
	20700 6650 20400 6650
Text Label 18350 6800 2    50   ~ 0
~RESET
Wire Wire Line
	18350 6800 18050 6800
Wire Wire Line
	15550 11250 15550 9850
Wire Wire Line
	15750 11450 15750 10050
Wire Bus Line
	15750 11600 15750 12100
Wire Wire Line
	15650 11700 15650 12300
Wire Wire Line
	15550 11850 15550 14000
Wire Wire Line
	15450 11950 15450 14100
Wire Wire Line
	15350 12050 15350 14200
Wire Wire Line
	15250 12150 15250 14400
Wire Wire Line
	15150 12250 15150 14500
Wire Bus Line
	13500 10550 13500 6050
Text Label 13350 6400 2    50   ~ 0
~BUS-WR
Wire Wire Line
	12950 6400 13350 6400
Wire Wire Line
	15950 12550 16350 12550
Text Notes 13050 6250 0    50   ~ 0
0x26
Text Notes 13150 11250 0    50   ~ 0
0x0E
Text Notes 13150 11350 0    50   ~ 0
0x10
Text Notes 13150 11450 0    50   ~ 0
0x12
Connection ~ 10650 6000
Wire Bus Line
	10650 6000 11550 6000
Wire Bus Line
	9800 6000 10650 6000
Wire Bus Line
	9800 3850 10650 3850
Wire Bus Line
	8100 2450 9700 2450
Connection ~ 8100 3100
Wire Bus Line
	8100 3100 8500 3100
Wire Bus Line
	8100 5200 8500 5200
Wire Wire Line
	8500 3250 8250 3250
Wire Wire Line
	8500 3350 8250 3350
Wire Wire Line
	7400 2600 7400 3400
Wire Wire Line
	11250 2600 11250 4700
Wire Bus Line
	12950 5750 15450 5750
Wire Wire Line
	16650 5400 16650 5550
Connection ~ 16650 5750
Wire Bus Line
	16650 5750 16650 6200
Wire Bus Line
	19050 5750 19050 6050
Wire Wire Line
	17150 7750 18650 7750
Text Notes 4350 5900 0    50   ~ 0
0x3E
Text Label 13750 11050 2    50   ~ 0
~SCANLINE
Text Notes 13150 11050 0    50   ~ 0
0x3E
Wire Wire Line
	13100 11050 13750 11050
Wire Bus Line
	12950 6050 13500 6050
Wire Bus Line
	13100 10550 13500 10550
Text Notes 13150 10750 0    50   ~ 0
0x28-0x2E
Text Notes 13150 10550 0    50   ~ 0
BUS[1..5]
Text Notes 13150 10650 0    50   ~ 0
0x26
Wire Wire Line
	13100 10900 13750 10900
Text Notes 13050 6150 0    50   ~ 0
0x28-0x2E
Text Notes 13050 6050 0    50   ~ 0
BUS[1..5]
Text Notes 13150 10900 0    50   ~ 0
0x30
Text Label 13750 10900 2    50   ~ 0
~PAL-CTRL
Text Notes 16300 9850 2    50   ~ 0
0x0E
Text Notes 16300 9950 2    50   ~ 0
0x10
Text Notes 16300 10050 2    50   ~ 0
0x12
Text Notes 13150 11700 0    50   ~ 0
0x32
Text Notes 13150 11600 0    50   ~ 0
0x0000
Text Notes 13150 12400 0    50   ~ 0
0x0000
Text Notes 13150 12500 0    50   ~ 0
0x0000
Text Notes 16100 14500 0    50   ~ 0
0x06
Text Notes 16100 14400 0    50   ~ 0
0x04
Text Notes 16100 14200 0    50   ~ 0
0x08
Text Notes 16100 14100 0    50   ~ 0
0x02
Text Notes 16100 14000 0    50   ~ 0
0x00
Text Notes 13150 12600 0    50   ~ 0
0x0A
Text Notes 13150 12700 0    50   ~ 0
0x0C
Text Label 14150 12600 2    50   ~ 0
~CHECK1
Text Label 14150 12700 2    50   ~ 0
~CHECK2
Text Label 14150 12400 2    50   ~ 0
CHECK1-D[0..15]
Wire Bus Line
	13100 12400 14150 12400
Wire Bus Line
	13100 12500 14150 12500
Text Label 14150 12500 2    50   ~ 0
CHECK2-D[0..15]
Wire Wire Line
	13100 12600 14150 12600
Wire Wire Line
	13100 12700 14150 12700
Wire Bus Line
	18500 12650 18500 14400
Wire Bus Line
	17550 14400 18500 14400
Connection ~ 18500 14400
Wire Bus Line
	18500 14400 18500 15450
Text Label 5550 14400 0    50   ~ 0
~CLK4M
Wire Wire Line
	20400 6250 21050 6250
Text Notes 20450 6250 0    50   ~ 0
0x30
Text Label 21050 6250 2    50   ~ 0
~PAL-CTRL
Text Label 21050 6350 2    50   ~ 0
~BUS-WR
Wire Wire Line
	20400 6350 21050 6350
Text Notes 20450 4950 0    50   ~ 0
0x0000
Text Notes 20450 5050 0    50   ~ 0
0x0000
Text Notes 20450 4650 0    50   ~ 0
0x0A
Text Notes 20450 4750 0    50   ~ 0
0x0C
Text Label 21450 4650 2    50   ~ 0
~CHECK1
Text Label 21450 4750 2    50   ~ 0
~CHECK2
Text Label 21450 4950 2    50   ~ 0
CHECK1-D[0..15]
Wire Bus Line
	20400 4950 21450 4950
Wire Bus Line
	20400 5050 21450 5050
Text Label 21450 5050 2    50   ~ 0
CHECK2-D[0..15]
Wire Wire Line
	20400 4650 21450 4650
Wire Wire Line
	20400 4750 21450 4750
Text Label 20800 5250 2    50   ~ 0
~BUS-WR
Wire Wire Line
	20400 5250 20800 5250
Text Label 18350 5400 2    50   ~ 0
~RESET
Wire Wire Line
	18350 5400 18050 5400
Text Label 18350 5100 2    50   ~ 0
FI
Wire Wire Line
	18350 5100 18050 5100
Text Label 20800 5400 2    50   ~ 0
~RESET
Wire Wire Line
	20400 5400 20800 5400
Wire Wire Line
	21050 6850 20400 6850
Wire Wire Line
	20400 7100 21050 7100
Wire Wire Line
	17100 5400 16650 5400
Wire Wire Line
	18050 5250 19350 5250
Wire Bus Line
	19050 6050 19150 6050
Wire Bus Line
	16650 5750 19050 5750
Connection ~ 18950 6500
Wire Wire Line
	18050 6500 18950 6500
Wire Wire Line
	16350 5900 18950 5900
Text Label 19150 13150 0    50   ~ 0
~BUS-RD
Text Label 19150 13050 0    50   ~ 0
~IO-READ
Wire Wire Line
	19150 13050 19550 13050
Wire Wire Line
	19150 13150 19550 13150
Wire Wire Line
	13100 12850 19550 12850
Text Label 7800 14450 2    50   ~ 0
~BUS-RD
Text Label 7800 14350 2    50   ~ 0
~IO-READ
Wire Wire Line
	7800 14350 7400 14350
Wire Wire Line
	7800 14450 7400 14450
Text Label 7800 14550 2    50   ~ 0
~BUS-WR
Wire Wire Line
	7800 14550 7400 14550
Text Label 5550 14550 0    50   ~ 0
~RESETI2
Text Label 5550 13800 0    50   ~ 0
~LUT-OE
Wire Wire Line
	5550 13800 5950 13800
Wire Wire Line
	3450 2750 3450 6900
Wire Bus Line
	3550 2350 3550 6800
Wire Bus Line
	3650 1400 3650 6700
Wire Bus Line
	3650 6700 6500 6700
Wire Bus Line
	6500 6400 6500 6700
Wire Bus Line
	6600 6500 6600 6800
Wire Wire Line
	6700 6600 6700 6900
Wire Wire Line
	15200 8400 18800 8400
Wire Wire Line
	15200 10650 16350 10650
Wire Bus Line
	15350 5550 15450 5550
Wire Wire Line
	16350 5550 16650 5550
Text Notes 9900 10400 0    200  ~ 0
ADDRESS & SECURITY\nDECODER
$Sheet
S 11550 4550 1400 2000
U 5FBEEC97
F0 "lut-assembly" 50
F1 "lut-assembly.sch" 50
F2 "CLK8M" I L 11550 6400 50 
F3 "BLANK" I L 11550 4700 50 
F4 "~STARS2-E" I L 11550 5300 50 
F5 "~STARS1-E" I L 11550 5200 50 
F6 "~LAYERS-E[0..4]" O L 11550 6000 50 
F7 "BUS-DATA[0..15]" I R 12950 5900 50 
F8 "~CLK4M" I L 11550 6300 50 
F9 "~LAYER-CTRL" I R 12950 6150 50 
F10 "~BUS-WR" I R 12950 6400 50 
F11 "~LUT-RESET" I R 12950 5100 50 
F12 "~PRIORITY[0..3]" I R 12950 6250 50 
F13 "SCROLL1[0..11]" I L 11550 5450 50 
F14 "SCROLL2[0..11]" I L 11550 5550 50 
F15 "SCROLL3[0..11]" I L 11550 5650 50 
F16 "STARS1[0..6]" I L 11550 4900 50 
F17 "STARS2[0..6]" I L 11550 5000 50 
F18 "SPRITES[0..8]" I L 11550 5750 50 
F19 "LUT[0..11]" O R 12950 5750 50 
F20 "LAYER-D[1..5]" I R 12950 6050 50 
$EndSheet
Connection ~ 22100 8500
Wire Bus Line
	22100 8500 22100 6050
Wire Bus Line
	18500 9550 18500 12100
Wire Wire Line
	18050 6350 18450 6350
Wire Wire Line
	18050 6600 19150 6600
Wire Wire Line
	18450 7450 18450 6350
Connection ~ 18450 6350
Wire Wire Line
	18450 6350 19150 6350
Wire Wire Line
	18650 6750 18650 7750
Wire Wire Line
	18650 6750 19150 6750
Wire Wire Line
	19150 7100 18800 7100
Connection ~ 15200 8400
Wire Wire Line
	15200 8400 15200 10650
Wire Wire Line
	18800 7100 18800 8400
Wire Bus Line
	15100 8500 22100 8500
Wire Bus Line
	15100 5900 15100 8500
Wire Bus Line
	12950 5900 15100 5900
Text Label 11550 11150 2    50   ~ 0
~DEBUG[8..15]
Wire Bus Line
	11000 11150 11600 11150
Wire Bus Line
	11000 11250 11600 11250
Wire Wire Line
	10200 12600 11600 12600
Wire Wire Line
	10500 12500 10500 12350
Wire Wire Line
	10500 12500 11600 12500
Wire Wire Line
	10600 12400 10600 12100
Wire Wire Line
	10600 12100 10200 12100
Wire Wire Line
	10600 12400 11600 12400
Wire Wire Line
	10200 12350 10500 12350
Wire Wire Line
	17100 5100 15200 5100
Connection ~ 15200 5100
Wire Wire Line
	15200 5100 12950 5100
Wire Wire Line
	15200 5100 15200 8400
Wire Bus Line
	9100 10550 9100 15450
Wire Bus Line
	9100 10550 11600 10550
Connection ~ 9100 15450
Wire Bus Line
	9100 15450 18500 15450
Wire Bus Line
	4000 5750 4000 13350
Wire Bus Line
	10000 8500 9800 8500
Wire Bus Line
	9800 8600 10100 8600
Wire Bus Line
	10000 3550 10650 3550
Wire Bus Line
	10650 3450 10100 3450
Text Label 10650 3450 2    50   ~ 0
TD[0..11]
Text Label 10650 3550 2    50   ~ 0
~DEBUG[0..15]
Wire Bus Line
	10000 4800 10000 8500
Wire Bus Line
	10100 4700 10100 8600
Wire Wire Line
	11750 8250 12250 8250
Wire Wire Line
	11750 8500 12250 8500
Wire Wire Line
	11750 8750 12250 8750
Wire Wire Line
	11750 9000 12250 9000
Wire Wire Line
	8100 7900 8500 7900
Wire Wire Line
	8200 7800 8200 6200
Wire Wire Line
	8500 8050 8000 8050
Wire Wire Line
	8000 5300 8000 8050
Wire Bus Line
	3550 8350 3550 14650
Wire Bus Line
	10800 8250 10800 5750
Wire Bus Line
	10800 5750 11550 5750
Wire Bus Line
	9800 8250 10800 8250
Wire Wire Line
	9800 8350 11050 8350
Wire Bus Line
	9800 7100 11750 7100
Wire Bus Line
	9800 7200 11650 7200
Text Notes 1250 9950 1    500  ~ 0
GFX ROM DATA
Text Notes 1200 15000 1    315  ~ 0
OBJRAM DATA
Text Notes 10050 2500 0    50   ~ 0
Provides the X-shift\nand XSEL means X-mirrored
Text Notes 19350 4150 0    50   ~ 0
First: check if the program wrote the right values\non the CHECK1 and CHECK2 registries
Text Notes 17100 4800 0    50   ~ 0
Second: if values differs,\nafter 64 frames deactivate palette management
Text Notes 18600 10000 0    50   ~ 0
Provides raster data.\nIt can also trigger ~OBJUP~\non programmed values.\nUsed for raster effects.
Text Notes 16350 11200 0    50   ~ 0
Provides identification\nUsed as a security check
Text Notes 15900 14800 2    50   ~ 0
Provides a full 16 bits\nmultiplier. Used for\nsecurity checks (?)
Text Notes 3850 4100 0    50   ~ 0
FI = Frame Increment\nLI = Line Increment\nFLIP = 90º rotation\n\nThose are the base for \ngenerating the small video\nsignals used to generate the\npalette address stream
Text Notes 5250 8100 0    50   ~ 0
The role of the assembly is to stream the content\nof the gfx rom into a layer. A layer is a stream of\npalette addresses.\n\nThe 4 LSB of the palette is the colour, created by XPD buses\nThe next 5 bits are for the bloc selection (CB[0..4])\nThe final 3 bits are used for priority selection (CPC[0..1], CDEN)
Text Notes 13050 5000 0    50   ~ 0
The assembly takes the different layers\nand selects which is shown right now based on\n- If the layer is enabled (LAYER-D + LAYER-CTRL)\n- The order of the layers (LAYER-CTRL)\n- If the colour is transparent (4LSB == 15)\n- The priority masks (PRIORITY[0..3])
Text Notes 9500 13250 0    50   ~ 0
The security and decoder bloc provides\nthe different enable signals based the\ncurrent address and on its internal \n144 bits programmable configuration.\n\nIn this document, all values assumes the\ndefault configuration when no battery is present
$Comp
L A5C:PIN P40
U 1 1 62DC11D9
P 11200 11950
F 0 "P40" H 11112 12042 50  0000 R CNN
F 1 "PIN" H 11278 11997 50  0001 L CNN
F 2 "" H 11200 11950 50  0001 C CNN
F 3 "" H 11200 11950 50  0001 C CNN
	1    11200 11950
	1    0    0    -1  
$EndComp
Text Notes 11100 11700 0    50   ~ 0
VBAT
Wire Wire Line
	11600 11950 11200 11950
$Comp
L A5C:PIN P47
U 1 1 62ECF246
P 16400 2750
F 0 "P47" H 16312 2842 50  0000 R CNN
F 1 "PIN" H 16478 2797 50  0001 L CNN
F 2 "" H 16400 2750 50  0001 C CNN
F 3 "" H 16400 2750 50  0001 C CNN
	1    16400 2750
	1    0    0    -1  
$EndComp
$Comp
L A5C:PIN P77
U 1 1 62ECF667
P 16400 3000
F 0 "P77" H 16312 3092 50  0000 R CNN
F 1 "PIN" H 16478 3047 50  0001 L CNN
F 2 "" H 16400 3000 50  0001 C CNN
F 3 "" H 16400 3000 50  0001 C CNN
	1    16400 3000
	1    0    0    -1  
$EndComp
$Comp
L A5C:PIN P60
U 1 1 62ED0190
P 16400 1600
F 0 "P60" H 16312 1692 50  0000 R CNN
F 1 "PIN" H 16478 1647 50  0001 L CNN
F 2 "" H 16400 1600 50  0001 C CNN
F 3 "" H 16400 1600 50  0001 C CNN
	1    16400 1600
	1    0    0    -1  
$EndComp
$Comp
L A5C:PIN P105
U 1 1 62ED0620
P 16400 1850
F 0 "P105" H 16312 1942 50  0000 R CNN
F 1 "PIN" H 16478 1897 50  0001 L CNN
F 2 "" H 16400 1850 50  0001 C CNN
F 3 "" H 16400 1850 50  0001 C CNN
	1    16400 1850
	1    0    0    -1  
$EndComp
$Comp
L A5C:PIN P120
U 1 1 62ED1BFE
P 16400 3250
F 0 "P120" H 16312 3342 50  0000 R CNN
F 1 "PIN" H 16478 3297 50  0001 L CNN
F 2 "" H 16400 3250 50  0001 C CNN
F 3 "" H 16400 3250 50  0001 C CNN
	1    16400 3250
	1    0    0    -1  
$EndComp
$Comp
L A5C:PIN P8
U 1 1 62ED28E5
P 16400 1350
F 0 "P8" H 16312 1442 50  0000 R CNN
F 1 "PIN" H 16478 1397 50  0001 L CNN
F 2 "" H 16400 1350 50  0001 C CNN
F 3 "" H 16400 1350 50  0001 C CNN
	1    16400 1350
	1    0    0    -1  
$EndComp
$Comp
L A5C:PIN P21
U 1 1 62ED36BD
P 16400 2250
F 0 "P21" H 16312 2342 50  0000 R CNN
F 1 "PIN" H 16478 2297 50  0001 L CNN
F 2 "" H 16400 2250 50  0001 C CNN
F 3 "" H 16400 2250 50  0001 C CNN
	1    16400 2250
	1    0    0    -1  
$EndComp
$Comp
L A5C:PIN P41
U 1 1 62ED45FB
P 16400 2500
F 0 "P41" H 16312 2592 50  0000 R CNN
F 1 "PIN" H 16478 2547 50  0001 L CNN
F 2 "" H 16400 2500 50  0001 C CNN
F 3 "" H 16400 2500 50  0001 C CNN
	1    16400 2500
	1    0    0    -1  
$EndComp
$Comp
L power:VCC #PWR0101
U 1 1 62F12CA9
P 16800 1350
F 0 "#PWR0101" H 16800 1200 50  0001 C CNN
F 1 "VCC" H 16815 1523 50  0000 C CNN
F 2 "" H 16800 1350 50  0001 C CNN
F 3 "" H 16800 1350 50  0001 C CNN
	1    16800 1350
	1    0    0    -1  
$EndComp
Wire Wire Line
	16800 1350 16400 1350
Wire Wire Line
	16800 1350 16800 1600
Wire Wire Line
	16800 1600 16400 1600
Connection ~ 16800 1350
Wire Wire Line
	16800 1600 16800 1850
Wire Wire Line
	16800 1850 16400 1850
Connection ~ 16800 1600
Wire Wire Line
	16800 2750 16800 3000
Wire Wire Line
	16800 3000 16400 3000
Wire Wire Line
	16800 3000 16800 3250
Wire Wire Line
	16800 3250 16400 3250
Connection ~ 16800 3000
Wire Wire Line
	16800 2750 16400 2750
Wire Wire Line
	16400 2500 16800 2500
Wire Wire Line
	16800 2500 16800 2750
Connection ~ 16800 2750
Wire Wire Line
	16400 2250 16800 2250
Wire Wire Line
	16800 2250 16800 2500
Connection ~ 16800 2500
$Comp
L power:PWR_FLAG #FLG0101
U 1 1 630D6000
P 16950 1850
F 0 "#FLG0101" H 16950 1925 50  0001 C CNN
F 1 "PWR_FLAG" H 16950 2023 50  0001 C CNN
F 2 "" H 16950 1850 50  0001 C CNN
F 3 "~" H 16950 1850 50  0001 C CNN
	1    16950 1850
	1    0    0    -1  
$EndComp
Wire Wire Line
	16950 1850 16800 1850
Connection ~ 16800 1850
$Comp
L power:PWR_FLAG #FLG0102
U 1 1 631199BE
P 16950 2250
F 0 "#FLG0102" H 16950 2325 50  0001 C CNN
F 1 "PWR_FLAG" H 16950 2423 50  0001 C CNN
F 2 "" H 16950 2250 50  0001 C CNN
F 3 "~" H 16950 2250 50  0001 C CNN
	1    16950 2250
	1    0    0    -1  
$EndComp
Wire Wire Line
	16950 2250 16800 2250
Connection ~ 16800 2250
$Comp
L power:GND #PWR0102
U 1 1 6319E1FC
P 16800 3250
F 0 "#PWR0102" H 16800 3000 50  0001 C CNN
F 1 "GND" H 16805 3077 50  0000 C CNN
F 2 "" H 16800 3250 50  0001 C CNN
F 3 "" H 16800 3250 50  0001 C CNN
	1    16800 3250
	1    0    0    -1  
$EndComp
Connection ~ 16800 3250
Text Label 15350 4000 2    50   ~ 0
LUT[0..11]
Text Label 11200 10650 0    50   ~ 0
CA[1..5]
Text Label 2900 12400 0    50   ~ 0
ASD[0..8]
Text Label 2900 14650 0    50   ~ 0
BSD[0..8]
Text Label 2850 10250 0    50   ~ 0
DPD[0..7]
Text Label 2850 8250 0    50   ~ 0
CPD[0..7]
Text Label 2850 6250 0    50   ~ 0
BPD[0..7]
Text Label 2850 4250 0    50   ~ 0
APD[0..7]
Text Label 2850 2350 0    50   ~ 0
CPC[0..1]
Text Label 9650 2450 2    50   ~ 0
XS[0..4]
Text Label 20150 2350 0    50   ~ 0
_TD[0..11]
Wire Bus Line
	20100 2200 20500 2200
Text Label 18700 2350 2    50   ~ 0
TI[0..3]
Text Label 21300 12650 2    50   ~ 0
CD[0..15]
Text Label 11600 7200 2    50   ~ 0
FBD[0..3]
Text Label 11600 7100 2    50   ~ 0
FAD[0..3]
Wire Wire Line
	12950 6150 13600 6150
Wire Wire Line
	13600 6150 13600 10650
Wire Wire Line
	13600 10650 13100 10650
Wire Bus Line
	13100 10750 13700 10750
Wire Bus Line
	13700 10750 13700 6250
Wire Bus Line
	13700 6250 12950 6250
Wire Wire Line
	5550 14400 5950 14400
Wire Wire Line
	5550 14550 5950 14550
Text Label 16050 15050 0    50   ~ 0
~RESET
Wire Wire Line
	16350 15050 16050 15050
Wire Bus Line
	10000 3550 9800 3550
Connection ~ 10000 3550
Wire Bus Line
	10000 3550 10000 4800
Connection ~ 10100 3450
Wire Bus Line
	10100 3450 9900 3450
Wire Wire Line
	10200 8850 9900 8850
Connection ~ 9900 8850
Text Label 21500 10800 0    50   ~ 0
CD0
Text Label 21500 11050 0    50   ~ 0
CD1
Text Label 21500 11300 0    50   ~ 0
CD2
Text Label 21500 11550 0    50   ~ 0
CD3
Text Label 21500 11800 0    50   ~ 0
CD4
Text Label 21500 12050 0    50   ~ 0
CD5
Text Label 21500 12300 0    50   ~ 0
CD6
Text Label 21500 12550 0    50   ~ 0
CD7
Text Label 21500 12800 0    50   ~ 0
CD8
Text Label 21500 13050 0    50   ~ 0
CD9
Text Label 21500 13300 0    50   ~ 0
CD10
Text Label 21500 13550 0    50   ~ 0
CD11
Text Label 21500 13800 0    50   ~ 0
CD12
Text Label 21500 14050 0    50   ~ 0
CD13
Text Label 21500 14300 0    50   ~ 0
CD14
Text Label 21500 14550 0    50   ~ 0
CD15
Text Label 11200 12200 0    50   ~ 0
CD0
Text Label 11200 12300 0    50   ~ 0
CD1
Wire Bus Line
	2800 1400 2800 1900
Wire Bus Line
	2800 1100 2800 1400
Wire Bus Line
	18050 2050 18050 2350
Wire Bus Line
	2800 4250 2800 5000
Wire Bus Line
	2800 6250 2800 7000
Wire Bus Line
	2800 8250 2800 9000
Wire Bus Line
	2800 10250 2800 11000
Wire Bus Line
	2850 11600 2850 12400
Wire Bus Line
	2850 12400 2850 13400
Wire Bus Line
	2850 13850 2850 14650
Wire Bus Line
	2850 14650 2850 15650
Wire Bus Line
	11650 7200 11650 8900
Wire Bus Line
	11750 7100 11750 7900
Wire Bus Line
	20600 2350 20600 3600
Wire Bus Line
	2800 9450 2800 10250
Wire Bus Line
	2800 7450 2800 8250
Wire Bus Line
	2800 5450 2800 6250
Wire Bus Line
	2800 3450 2800 4250
Wire Bus Line
	9700 1350 9700 2450
Wire Bus Line
	20600 1050 20600 2350
Wire Bus Line
	21300 10900 21300 12650
Wire Bus Line
	10850 10650 10850 11750
Wire Bus Line
	21300 12650 21300 14450
Wire Bus Line
	15350 1100 15350 5550
$EndSCHEMATC
