EESchema Schematic File Version 4
EELAYER 30 0
EELAYER END
$Descr A4 11693 8268
encoding utf-8
Sheet 63 69
Title ""
Date "2020-11-26"
Rev ""
Comp ""
Comment1 "Licence: CC-BY"
Comment2 "Author: Loïc *WydD* Petit"
Comment3 ""
Comment4 ""
$EndDescr
Connection ~ 6850 4100
Connection ~ 2700 4750
Connection ~ 2800 4900
Connection ~ 2800 7050
Connection ~ 2700 6900
Entry Wire Line
	2050 1450 2150 1550
Entry Wire Line
	2050 1550 2150 1650
Entry Wire Line
	2050 1650 2150 1750
Entry Wire Line
	2050 1750 2150 1850
Entry Wire Line
	2050 3650 2150 3750
Entry Wire Line
	2050 3750 2150 3850
Entry Wire Line
	2050 3850 2150 3950
Entry Wire Line
	2050 3950 2150 4050
Entry Wire Line
	2050 5800 2150 5900
Entry Wire Line
	2050 5900 2150 6000
Entry Wire Line
	2050 6000 2150 6100
Entry Wire Line
	2050 6100 2150 6200
Entry Wire Line
	2200 1950 2300 2050
Entry Wire Line
	2200 2050 2300 2150
Entry Wire Line
	2200 2150 2300 2250
Entry Wire Line
	2200 2250 2300 2350
Entry Wire Line
	2200 4150 2300 4250
Entry Wire Line
	2200 4250 2300 4350
Entry Wire Line
	2200 4350 2300 4450
Entry Wire Line
	2200 4450 2300 4550
Entry Wire Line
	2200 6300 2300 6400
Entry Wire Line
	2200 6400 2300 6500
Entry Wire Line
	2200 6500 2300 6600
Entry Wire Line
	2200 6600 2300 6700
Entry Wire Line
	6850 1200 6750 1100
Entry Wire Line
	6850 1750 6750 1650
Entry Wire Line
	6850 2300 6750 2200
Entry Wire Line
	6850 2850 6750 2750
Entry Wire Line
	6850 3400 6750 3300
Entry Wire Line
	6850 3950 6750 3850
Entry Wire Line
	6850 4300 6750 4400
Entry Wire Line
	6850 4850 6750 4950
Entry Wire Line
	6850 5400 6750 5500
Entry Wire Line
	6850 5950 6750 6050
Entry Wire Line
	6850 6500 6750 6600
Entry Wire Line
	6850 7050 6750 7150
Wire Wire Line
	2150 1550 2900 1550
Wire Wire Line
	2150 1650 2900 1650
Wire Wire Line
	2150 1750 2900 1750
Wire Wire Line
	2150 1850 2900 1850
Wire Wire Line
	2150 3750 2900 3750
Wire Wire Line
	2150 3850 2900 3850
Wire Wire Line
	2150 3950 2900 3950
Wire Wire Line
	2150 4050 2900 4050
Wire Wire Line
	2150 5900 2900 5900
Wire Wire Line
	2150 6000 2900 6000
Wire Wire Line
	2150 6100 2900 6100
Wire Wire Line
	2150 6200 2900 6200
Wire Wire Line
	2300 2050 2900 2050
Wire Wire Line
	2300 2150 2900 2150
Wire Wire Line
	2300 2250 2900 2250
Wire Wire Line
	2300 2350 2900 2350
Wire Wire Line
	2300 4250 2900 4250
Wire Wire Line
	2300 4350 2900 4350
Wire Wire Line
	2300 4450 2900 4450
Wire Wire Line
	2300 4550 2900 4550
Wire Wire Line
	2300 6400 2900 6400
Wire Wire Line
	2300 6500 2900 6500
Wire Wire Line
	2300 6600 2900 6600
Wire Wire Line
	2300 6700 2900 6700
Wire Wire Line
	2300 6900 2700 6900
Wire Wire Line
	2700 2550 2900 2550
Wire Wire Line
	2700 4750 2700 2550
Wire Wire Line
	2700 4750 2700 6900
Wire Wire Line
	2700 6900 2900 6900
Wire Wire Line
	2800 2700 2800 4900
Wire Wire Line
	2800 4900 2800 7050
Wire Wire Line
	2800 4900 2900 4900
Wire Wire Line
	2800 7050 2300 7050
Wire Wire Line
	2900 2700 2800 2700
Wire Wire Line
	2900 4750 2700 4750
Wire Wire Line
	2900 7050 2800 7050
Wire Wire Line
	3900 1800 4300 1800
Wire Wire Line
	3900 1900 4400 1900
Wire Wire Line
	3900 2100 4300 2100
Wire Wire Line
	3900 4000 4300 4000
Wire Wire Line
	3900 4100 4400 4100
Wire Wire Line
	3900 4300 4300 4300
Wire Wire Line
	3900 6150 4300 6150
Wire Wire Line
	3900 6250 4400 6250
Wire Wire Line
	3900 6450 4300 6450
Wire Wire Line
	4300 1100 4600 1100
Wire Wire Line
	4300 1800 4300 1100
Wire Wire Line
	4300 2100 4300 2750
Wire Wire Line
	4300 2750 4600 2750
Wire Wire Line
	4300 3300 4600 3300
Wire Wire Line
	4300 4000 4300 3300
Wire Wire Line
	4300 4300 4300 4950
Wire Wire Line
	4300 4950 4600 4950
Wire Wire Line
	4300 5500 4600 5500
Wire Wire Line
	4300 6150 4300 5500
Wire Wire Line
	4300 6450 4300 7150
Wire Wire Line
	4300 7150 4600 7150
Wire Wire Line
	4400 1650 4600 1650
Wire Wire Line
	4400 1900 4400 1650
Wire Wire Line
	4400 2000 3900 2000
Wire Wire Line
	4400 2200 4400 2000
Wire Wire Line
	4400 3850 4600 3850
Wire Wire Line
	4400 4100 4400 3850
Wire Wire Line
	4400 4200 3900 4200
Wire Wire Line
	4400 4400 4400 4200
Wire Wire Line
	4400 6050 4600 6050
Wire Wire Line
	4400 6250 4400 6050
Wire Wire Line
	4400 6350 3900 6350
Wire Wire Line
	4400 6600 4400 6350
Wire Wire Line
	4600 2200 4400 2200
Wire Wire Line
	4600 4400 4400 4400
Wire Wire Line
	4600 6600 4400 6600
Wire Wire Line
	6400 1100 6750 1100
Wire Wire Line
	6400 1650 6750 1650
Wire Wire Line
	6400 2200 6750 2200
Wire Wire Line
	6400 2750 6750 2750
Wire Wire Line
	6400 3300 6750 3300
Wire Wire Line
	6400 3850 6750 3850
Wire Wire Line
	6400 4400 6750 4400
Wire Wire Line
	6400 4950 6750 4950
Wire Wire Line
	6400 5500 6750 5500
Wire Wire Line
	6400 6050 6750 6050
Wire Wire Line
	6400 6600 6750 6600
Wire Wire Line
	6400 7150 6750 7150
Wire Bus Line
	1850 650  2200 650 
Wire Bus Line
	2050 800  1850 800 
Wire Bus Line
	6850 4100 7350 4100
Text Label 2400 1550 0    50   ~ 0
A0
Text Label 2400 1650 0    50   ~ 0
A1
Text Label 2400 1750 0    50   ~ 0
A2
Text Label 2400 1850 0    50   ~ 0
A3
Text Label 2400 2050 0    50   ~ 0
B0
Text Label 2400 2150 0    50   ~ 0
B1
Text Label 2400 2250 0    50   ~ 0
B2
Text Label 2400 2350 0    50   ~ 0
B3
Text Label 2400 3750 0    50   ~ 0
A4
Text Label 2400 3850 0    50   ~ 0
A5
Text Label 2400 3950 0    50   ~ 0
A6
Text Label 2400 4050 0    50   ~ 0
A7
Text Label 2400 4250 0    50   ~ 0
B4
Text Label 2400 4350 0    50   ~ 0
B5
Text Label 2400 4450 0    50   ~ 0
B6
Text Label 2400 4550 0    50   ~ 0
B7
Text Label 2400 5900 0    50   ~ 0
A8
Text Label 2400 6000 0    50   ~ 0
A9
Text Label 2400 6100 0    50   ~ 0
A10
Text Label 2400 6200 0    50   ~ 0
A11
Text Label 2400 6400 0    50   ~ 0
B8
Text Label 2400 6500 0    50   ~ 0
B9
Text Label 2400 6600 0    50   ~ 0
B10
Text Label 2400 6700 0    50   ~ 0
B11
Text Label 6500 1100 0    50   ~ 0
OUT0
Text Label 6500 1650 0    50   ~ 0
OUT1
Text Label 6500 2200 0    50   ~ 0
OUT2
Text Label 6500 2750 0    50   ~ 0
OUT3
Text Label 6500 3300 0    50   ~ 0
OUT4
Text Label 6500 3850 0    50   ~ 0
OUT5
Text Label 6500 4400 0    50   ~ 0
OUT6
Text Label 6500 4950 0    50   ~ 0
OUT7
Text Label 6500 5500 0    50   ~ 0
OUT8
Text Label 6500 6050 0    50   ~ 0
OUT9
Text Label 6500 6600 0    50   ~ 0
OUT10
Text Label 6500 7150 0    50   ~ 0
OUT11
Text HLabel 1850 650  0    50   Input ~ 0
B[0..11]
Text HLabel 1850 800  0    50   Input ~ 0
A[0..11]
Text HLabel 2300 6900 0    50   Input ~ 0
~A~B
Text HLabel 2300 7050 0    50   Input ~ 0
~E
Text HLabel 7350 4100 2    50   Output ~ 0
OUT[0..11]
$Comp
L A5C:BUF12 UBK454
U 1 1 5F7BAB75
P 4900 1100
F 0 "UBK454" H 4900 1416 50  0000 C CNN
F 1 "BUF11" H 4900 1325 50  0000 C CNN
F 2 "" H 4900 1100 50  0001 C CNN
F 3 "" H 4900 1100 50  0001 C CNN
	1    4900 1100
	1    0    0    -1  
$EndComp
$Comp
L A5C:BUF12 UBN416
U 1 1 5F7BF60C
P 4900 1650
F 0 "UBN416" H 4900 1966 50  0000 C CNN
F 1 "BUF11" H 4900 1875 50  0000 C CNN
F 2 "" H 4900 1650 50  0001 C CNN
F 3 "" H 4900 1650 50  0001 C CNN
	1    4900 1650
	1    0    0    -1  
$EndComp
$Comp
L A5C:BUF12 UBN355
U 1 1 5F7C475D
P 4900 2200
F 0 "UBN355" H 4900 2516 50  0000 C CNN
F 1 "BUF11" H 4900 2425 50  0000 C CNN
F 2 "" H 4900 2200 50  0001 C CNN
F 3 "" H 4900 2200 50  0001 C CNN
	1    4900 2200
	1    0    0    -1  
$EndComp
$Comp
L A5C:BUF12 UBH505
U 1 1 5F7D2943
P 4900 2750
F 0 "UBH505" H 4900 3066 50  0000 C CNN
F 1 "BUF11" H 4900 2975 50  0000 C CNN
F 2 "" H 4900 2750 50  0001 C CNN
F 3 "" H 4900 2750 50  0001 C CNN
	1    4900 2750
	1    0    0    -1  
$EndComp
$Comp
L A5C:BUF12 UCG490
U 1 1 5F7D2934
P 4900 3300
F 0 "UCG490" H 4900 3616 50  0000 C CNN
F 1 "BUF11" H 4900 3525 50  0000 C CNN
F 2 "" H 4900 3300 50  0001 C CNN
F 3 "" H 4900 3300 50  0001 C CNN
	1    4900 3300
	1    0    0    -1  
$EndComp
$Comp
L A5C:BUF12 UCG486
U 1 1 5F7D2925
P 4900 3850
F 0 "UCG486" H 4900 4166 50  0000 C CNN
F 1 "BUF11" H 4900 4075 50  0000 C CNN
F 2 "" H 4900 3850 50  0001 C CNN
F 3 "" H 4900 3850 50  0001 C CNN
	1    4900 3850
	1    0    0    -1  
$EndComp
$Comp
L A5C:BUF12 UCG336
U 1 1 5F7DC771
P 4900 4400
F 0 "UCG336" H 4900 4716 50  0000 C CNN
F 1 "BUF11" H 4900 4625 50  0000 C CNN
F 2 "" H 4900 4400 50  0001 C CNN
F 3 "" H 4900 4400 50  0001 C CNN
	1    4900 4400
	1    0    0    -1  
$EndComp
$Comp
L A5C:BUF12 UCC420
U 1 1 5F7DC762
P 4900 4950
F 0 "UCC420" H 4900 5266 50  0000 C CNN
F 1 "BUF11" H 4900 5175 50  0000 C CNN
F 2 "" H 4900 4950 50  0001 C CNN
F 3 "" H 4900 4950 50  0001 C CNN
	1    4900 4950
	1    0    0    -1  
$EndComp
$Comp
L A5C:BUF12 UBU412
U 1 1 5F7DC753
P 4900 5500
F 0 "UBU412" H 4900 5816 50  0000 C CNN
F 1 "BUF11" H 4900 5725 50  0000 C CNN
F 2 "" H 4900 5500 50  0001 C CNN
F 3 "" H 4900 5500 50  0001 C CNN
	1    4900 5500
	1    0    0    -1  
$EndComp
$Comp
L A5C:BUF12 UBR494
U 1 1 5F7DC780
P 4900 6050
F 0 "UBR494" H 4900 6366 50  0000 C CNN
F 1 "BUF11" H 4900 6275 50  0000 C CNN
F 2 "" H 4900 6050 50  0001 C CNN
F 3 "" H 4900 6050 50  0001 C CNN
	1    4900 6050
	1    0    0    -1  
$EndComp
$Comp
L A5C:BUF12 UBH427
U 1 1 5F7DC7AD
P 4900 6600
F 0 "UBH427" H 4900 6916 50  0000 C CNN
F 1 "BUF11" H 4900 6825 50  0000 C CNN
F 2 "" H 4900 6600 50  0001 C CNN
F 3 "" H 4900 6600 50  0001 C CNN
	1    4900 6600
	1    0    0    -1  
$EndComp
$Comp
L A5C:BUF12 UBN446
U 1 1 5F7DC79E
P 4900 7150
F 0 "UBN446" H 4900 7466 50  0000 C CNN
F 1 "BUF11" H 4900 7375 50  0000 C CNN
F 2 "" H 4900 7150 50  0001 C CNN
F 3 "" H 4900 7150 50  0001 C CNN
	1    4900 7150
	1    0    0    -1  
$EndComp
$Comp
L A5C:BUF12 UBH503
U 1 1 5F7B1F68
P 5500 1100
F 0 "UBH503" H 5500 1416 50  0000 C CNN
F 1 "BUF11" H 5500 1325 50  0000 C CNN
F 2 "" H 5500 1100 50  0001 C CNN
F 3 "" H 5500 1100 50  0001 C CNN
	1    5500 1100
	1    0    0    -1  
$EndComp
$Comp
L A5C:BUF12 UBN441
U 1 1 5F7BF5EE
P 5500 1650
F 0 "UBN441" H 5500 1966 50  0000 C CNN
F 1 "BUF11" H 5500 1875 50  0000 C CNN
F 2 "" H 5500 1650 50  0001 C CNN
F 3 "" H 5500 1650 50  0001 C CNN
	1    5500 1650
	1    0    0    -1  
$EndComp
$Comp
L A5C:BUF12 UBN477
U 1 1 5F7C476C
P 5500 2200
F 0 "UBN477" H 5500 2516 50  0000 C CNN
F 1 "BUF11" H 5500 2425 50  0000 C CNN
F 2 "" H 5500 2200 50  0001 C CNN
F 3 "" H 5500 2200 50  0001 C CNN
	1    5500 2200
	1    0    0    -1  
$EndComp
$Comp
L A5C:BUF12 UBH512
U 1 1 5F7D2916
P 5500 2750
F 0 "UBH512" H 5500 3066 50  0000 C CNN
F 1 "BUF11" H 5500 2975 50  0000 C CNN
F 2 "" H 5500 2750 50  0001 C CNN
F 3 "" H 5500 2750 50  0001 C CNN
	1    5500 2750
	1    0    0    -1  
$EndComp
$Comp
L A5C:BUF12 UCG502
U 1 1 5F7D297F
P 5500 3300
F 0 "UCG502" H 5500 3616 50  0000 C CNN
F 1 "BUF11" H 5500 3525 50  0000 C CNN
F 2 "" H 5500 3300 50  0001 C CNN
F 3 "" H 5500 3300 50  0001 C CNN
	1    5500 3300
	1    0    0    -1  
$EndComp
$Comp
L A5C:BUF12 UCG487
U 1 1 5F7D2952
P 5500 3850
F 0 "UCG487" H 5500 4166 50  0000 C CNN
F 1 "BUF11" H 5500 4075 50  0000 C CNN
F 2 "" H 5500 3850 50  0001 C CNN
F 3 "" H 5500 3850 50  0001 C CNN
	1    5500 3850
	1    0    0    -1  
$EndComp
$Comp
L A5C:BUF12 UCG460
U 1 1 5F7DC744
P 5500 4400
F 0 "UCG460" H 5500 4716 50  0000 C CNN
F 1 "BUF11" H 5500 4625 50  0000 C CNN
F 2 "" H 5500 4400 50  0001 C CNN
F 3 "" H 5500 4400 50  0001 C CNN
	1    5500 4400
	1    0    0    -1  
$EndComp
$Comp
L A5C:BUF12 UBW504
U 1 1 5F7DC7E9
P 5500 4950
F 0 "UBW504" H 5500 5266 50  0000 C CNN
F 1 "BUF11" H 5500 5175 50  0000 C CNN
F 2 "" H 5500 4950 50  0001 C CNN
F 3 "" H 5500 4950 50  0001 C CNN
	1    5500 4950
	1    0    0    -1  
$EndComp
$Comp
L A5C:BUF12 UBR487
U 1 1 5F7DC7BC
P 5500 5500
F 0 "UBR487" H 5500 5816 50  0000 C CNN
F 1 "BUF11" H 5500 5725 50  0000 C CNN
F 2 "" H 5500 5500 50  0001 C CNN
F 3 "" H 5500 5500 50  0001 C CNN
	1    5500 5500
	1    0    0    -1  
$EndComp
$Comp
L A5C:BUF12 UBR509
U 1 1 5F7DC717
P 5500 6050
F 0 "UBR509" H 5500 6366 50  0000 C CNN
F 1 "BUF11" H 5500 6275 50  0000 C CNN
F 2 "" H 5500 6050 50  0001 C CNN
F 3 "" H 5500 6050 50  0001 C CNN
	1    5500 6050
	1    0    0    -1  
$EndComp
$Comp
L A5C:BUF12 UBH428
U 1 1 5F7DC726
P 5500 6600
F 0 "UBH428" H 5500 6916 50  0000 C CNN
F 1 "BUF11" H 5500 6825 50  0000 C CNN
F 2 "" H 5500 6600 50  0001 C CNN
F 3 "" H 5500 6600 50  0001 C CNN
	1    5500 6600
	1    0    0    -1  
$EndComp
$Comp
L A5C:BUF12 UBK498
U 1 1 5F7DC78F
P 5500 7150
F 0 "UBK498" H 5500 7466 50  0000 C CNN
F 1 "BUF11" H 5500 7375 50  0000 C CNN
F 2 "" H 5500 7150 50  0001 C CNN
F 3 "" H 5500 7150 50  0001 C CNN
	1    5500 7150
	1    0    0    -1  
$EndComp
$Comp
L A5C:BUF12 UBH519
U 1 1 5F7ABE5A
P 6100 1100
F 0 "UBH519" H 6100 1416 50  0000 C CNN
F 1 "BUF12" H 6100 1325 50  0000 C CNN
F 2 "" H 6100 1100 50  0001 C CNN
F 3 "" H 6100 1100 50  0001 C CNN
	1    6100 1100
	1    0    0    -1  
$EndComp
$Comp
L A5C:BUF12 UBR512
U 1 1 5F7BF5FD
P 6100 1650
F 0 "UBR512" H 6100 1966 50  0000 C CNN
F 1 "BUF12" H 6100 1875 50  0000 C CNN
F 2 "" H 6100 1650 50  0001 C CNN
F 3 "" H 6100 1650 50  0001 C CNN
	1    6100 1650
	1    0    0    -1  
$EndComp
$Comp
L A5C:BUF12 UBU521
U 1 1 5F7C474E
P 6100 2200
F 0 "UBU521" H 6100 2516 50  0000 C CNN
F 1 "BUF12" H 6100 2425 50  0000 C CNN
F 2 "" H 6100 2200 50  0001 C CNN
F 3 "" H 6100 2200 50  0001 C CNN
	1    6100 2200
	1    0    0    -1  
$EndComp
$Comp
L A5C:BUF12 UBR515
U 1 1 5F7D2970
P 6100 2750
F 0 "UBR515" H 6100 3066 50  0000 C CNN
F 1 "BUF12" H 6100 2975 50  0000 C CNN
F 2 "" H 6100 2750 50  0001 C CNN
F 3 "" H 6100 2750 50  0001 C CNN
	1    6100 2750
	1    0    0    -1  
$EndComp
$Comp
L A5C:BUF12 UBW517
U 1 1 5F7D2961
P 6100 3300
F 0 "UBW517" H 6100 3616 50  0000 C CNN
F 1 "BUF12" H 6100 3525 50  0000 C CNN
F 2 "" H 6100 3300 50  0001 C CNN
F 3 "" H 6100 3300 50  0001 C CNN
	1    6100 3300
	1    0    0    -1  
$EndComp
$Comp
L A5C:BUF12 UBW515
U 1 1 5F7D298E
P 6100 3850
F 0 "UBW515" H 6100 4166 50  0000 C CNN
F 1 "BUF12" H 6100 4075 50  0000 C CNN
F 2 "" H 6100 3850 50  0001 C CNN
F 3 "" H 6100 3850 50  0001 C CNN
	1    6100 3850
	1    0    0    -1  
$EndComp
$Comp
L A5C:BUF12 UBW502
U 1 1 5F7DC7DA
P 6100 4400
F 0 "UBW502" H 6100 4716 50  0000 C CNN
F 1 "BUF12" H 6100 4625 50  0000 C CNN
F 2 "" H 6100 4400 50  0001 C CNN
F 3 "" H 6100 4400 50  0001 C CNN
	1    6100 4400
	1    0    0    -1  
$EndComp
$Comp
L A5C:BUF12 UBU519
U 1 1 5F7DC7CB
P 6100 4950
F 0 "UBU519" H 6100 5266 50  0000 C CNN
F 1 "BUF12" H 6100 5175 50  0000 C CNN
F 2 "" H 6100 4950 50  0001 C CNN
F 3 "" H 6100 4950 50  0001 C CNN
	1    6100 4950
	1    0    0    -1  
$EndComp
$Comp
L A5C:BUF12 UBR520
U 1 1 5F7DC7F8
P 6100 5500
F 0 "UBR520" H 6100 5816 50  0000 C CNN
F 1 "BUF12" H 6100 5725 50  0000 C CNN
F 2 "" H 6100 5500 50  0001 C CNN
F 3 "" H 6100 5500 50  0001 C CNN
	1    6100 5500
	1    0    0    -1  
$EndComp
$Comp
L A5C:BUF12 UBR518
U 1 1 5F7DC708
P 6100 6050
F 0 "UBR518" H 6100 6366 50  0000 C CNN
F 1 "BUF12" H 6100 6275 50  0000 C CNN
F 2 "" H 6100 6050 50  0001 C CNN
F 3 "" H 6100 6050 50  0001 C CNN
	1    6100 6050
	1    0    0    -1  
$EndComp
$Comp
L A5C:BUF12 UBH500
U 1 1 5F7DC735
P 6100 6600
F 0 "UBH500" H 6100 6916 50  0000 C CNN
F 1 "BUF12" H 6100 6825 50  0000 C CNN
F 2 "" H 6100 6600 50  0001 C CNN
F 3 "" H 6100 6600 50  0001 C CNN
	1    6100 6600
	1    0    0    -1  
$EndComp
$Comp
L A5C:BUF12 UBK521
U 1 1 5F7DC6F9
P 6100 7150
F 0 "UBK521" H 6100 7466 50  0000 C CNN
F 1 "BUF12" H 6100 7375 50  0000 C CNN
F 2 "" H 6100 7150 50  0001 C CNN
F 3 "" H 6100 7150 50  0001 C CNN
	1    6100 7150
	1    0    0    -1  
$EndComp
$Comp
L A5C:M157C U?
U 1 1 5FEFAEA9
P 3400 2150
AR Path="/5FEE4ABA/5FEFAEA9" Ref="U?"  Part="1" 
AR Path="/5F7ABA8F/5FEFAEA9" Ref="UBN328"  Part="1" 
F 0 "UBN328" H 3400 3015 50  0000 C CNN
F 1 "M157C" H 3400 2924 50  0000 C CNN
F 2 "" H 3400 2150 50  0001 C CNN
F 3 "" H 3400 2150 50  0001 C CNN
	1    3400 2150
	1    0    0    -1  
$EndComp
$Comp
L A5C:M157C U?
U 1 1 5FEFAEAF
P 3400 4350
AR Path="/5FEE4ABA/5FEFAEAF" Ref="U?"  Part="1" 
AR Path="/5F7ABA8F/5FEFAEAF" Ref="UCG292"  Part="1" 
F 0 "UCG292" H 3400 5215 50  0000 C CNN
F 1 "M157C" H 3400 5124 50  0000 C CNN
F 2 "" H 3400 4350 50  0001 C CNN
F 3 "" H 3400 4350 50  0001 C CNN
	1    3400 4350
	1    0    0    -1  
$EndComp
$Comp
L A5C:M157C U?
U 1 1 5FEFAEB5
P 3400 6500
AR Path="/5FEE4ABA/5FEFAEB5" Ref="U?"  Part="1" 
AR Path="/5F7ABA8F/5FEFAEB5" Ref="UBR383"  Part="1" 
F 0 "UBR383" H 3400 7365 50  0000 C CNN
F 1 "M157C" H 3400 7274 50  0000 C CNN
F 2 "" H 3400 6500 50  0001 C CNN
F 3 "" H 3400 6500 50  0001 C CNN
	1    3400 6500
	1    0    0    -1  
$EndComp
Wire Bus Line
	6850 1200 6850 4100
Wire Bus Line
	6850 4100 6850 7050
Wire Bus Line
	2050 800  2050 6100
Wire Bus Line
	2200 650  2200 6600
$EndSCHEMATC
