EESchema Schematic File Version 4
EELAYER 30 0
EELAYER END
$Descr A4 11693 8268
encoding utf-8
Sheet 54 69
Title ""
Date "2020-11-26"
Rev ""
Comp ""
Comment1 "Licence: CC-BY"
Comment2 "Author: Loïc *WydD* Petit"
Comment3 ""
Comment4 ""
$EndDescr
Connection ~ 4650 3350
Connection ~ 3700 4650
Connection ~ 2700 6400
Connection ~ 6000 1300
Connection ~ 2950 3950
Connection ~ 6700 2000
Connection ~ 4850 4650
Connection ~ 2550 1750
Connection ~ 2300 2400
Connection ~ 9300 4600
Connection ~ 1650 2450
Connection ~ 2050 6000
Connection ~ 1650 4900
NoConn ~ 4850 5150
NoConn ~ 3300 6800
NoConn ~ 5050 3400
Entry Wire Line
	6000 2400 6100 2500
Entry Wire Line
	6000 2500 6100 2600
Entry Wire Line
	6000 2600 6100 2700
Entry Wire Line
	6000 2700 6100 2800
Entry Wire Line
	6000 2800 6100 2900
Entry Wire Line
	6000 2900 6100 3000
Entry Wire Line
	6000 3000 6100 3100
Entry Wire Line
	6000 3100 6100 3200
Entry Wire Line
	6000 3200 6100 3300
Entry Wire Line
	6000 3300 6100 3400
Entry Wire Line
	6000 3400 6100 3500
Entry Wire Line
	6000 3500 6100 3600
Entry Wire Line
	6000 3600 6100 3700
Entry Wire Line
	6000 3700 6100 3800
Entry Wire Line
	6000 3800 6100 3900
Entry Wire Line
	6000 3900 6100 4000
Entry Wire Line
	7100 5300 7200 5200
Entry Wire Line
	7200 1400 7300 1300
Entry Wire Line
	7200 5300 7300 5200
Entry Wire Line
	7300 1400 7400 1300
Entry Wire Line
	7300 5300 7400 5200
Entry Wire Line
	7400 1400 7500 1300
Entry Wire Line
	7400 5300 7500 5200
Entry Wire Line
	7500 1400 7600 1300
Entry Wire Line
	7500 5300 7600 5200
Entry Wire Line
	7600 1400 7700 1300
Entry Wire Line
	7600 5300 7700 5200
Entry Wire Line
	7700 1400 7800 1300
Entry Wire Line
	7700 5300 7800 5200
Entry Wire Line
	7800 1400 7900 1300
Entry Wire Line
	7800 5300 7900 5200
Entry Wire Line
	7900 1400 8000 1300
Entry Wire Line
	7900 5300 8000 5200
Entry Wire Line
	8000 1400 8100 1300
Entry Wire Line
	8000 5300 8100 5200
Entry Wire Line
	8100 1400 8200 1300
Entry Wire Line
	8100 5300 8200 5200
Entry Wire Line
	8200 1400 8300 1300
Entry Wire Line
	8200 5300 8300 5200
Entry Wire Line
	8300 1400 8400 1300
Entry Wire Line
	8300 5300 8400 5200
Entry Wire Line
	8400 1400 8500 1300
Entry Wire Line
	8400 5300 8500 5200
Entry Wire Line
	8500 1400 8600 1300
Entry Wire Line
	8500 5300 8600 5200
Entry Wire Line
	8600 1400 8700 1300
Entry Wire Line
	8600 5300 8700 5200
Entry Wire Line
	8700 1400 8800 1300
Entry Wire Line
	10000 2600 9900 2500
Entry Wire Line
	10000 2700 9900 2600
Entry Wire Line
	10000 2800 9900 2700
Entry Wire Line
	10000 2900 9900 2800
Entry Wire Line
	10000 3000 9900 2900
Entry Wire Line
	10000 3100 9900 3000
Entry Wire Line
	10000 3200 9900 3100
Entry Wire Line
	10000 3300 9900 3200
Entry Wire Line
	10000 3400 9900 3300
Entry Wire Line
	10000 3500 9900 3400
Entry Wire Line
	10000 3600 9900 3500
Entry Wire Line
	10000 3700 9900 3600
Entry Wire Line
	10000 3800 9900 3700
Entry Wire Line
	10000 3900 9900 3800
Entry Wire Line
	10000 4000 9900 3900
Entry Wire Line
	10000 4100 9900 4000
Wire Wire Line
	1400 2350 1750 2350
Wire Wire Line
	1450 4900 1650 4900
Wire Wire Line
	1650 1800 1650 2450
Wire Wire Line
	1650 2450 1650 4900
Wire Wire Line
	1650 4900 1750 4900
Wire Wire Line
	1750 1700 1400 1700
Wire Wire Line
	1750 1800 1650 1800
Wire Wire Line
	1750 2450 1650 2450
Wire Wire Line
	1750 4800 1450 4800
Wire Wire Line
	1900 6000 2050 6000
Wire Wire Line
	2050 6000 2050 6450
Wire Wire Line
	2050 6450 2150 6450
Wire Wire Line
	2150 5900 1900 5900
Wire Wire Line
	2150 6000 2050 6000
Wire Wire Line
	2150 6350 1900 6350
Wire Wire Line
	2300 2400 2300 4150
Wire Wire Line
	2300 4150 3050 4150
Wire Wire Line
	2300 4850 3050 4850
Wire Wire Line
	2450 1050 2450 2400
Wire Wire Line
	2450 1050 8900 1050
Wire Wire Line
	2450 2400 2300 2400
Wire Wire Line
	2550 1750 2300 1750
Wire Wire Line
	2550 1750 5450 1750
Wire Wire Line
	2550 3500 2550 1750
Wire Wire Line
	2550 3500 3050 3500
Wire Wire Line
	2700 5950 7050 5950
Wire Wire Line
	2700 6400 10100 6400
Wire Wire Line
	2700 6800 2700 6400
Wire Wire Line
	2950 3300 3050 3300
Wire Wire Line
	2950 3950 2450 3950
Wire Wire Line
	2950 3950 2950 3300
Wire Wire Line
	3050 3950 2950 3950
Wire Wire Line
	3300 5050 3050 5050
Wire Wire Line
	3550 4650 3700 4650
Wire Wire Line
	3650 5400 4300 5400
Wire Wire Line
	3700 4650 3700 5100
Wire Wire Line
	3700 4650 4850 4650
Wire Wire Line
	3750 3400 3750 3950
Wire Wire Line
	3750 3950 3550 3950
Wire Wire Line
	4100 3300 3550 3300
Wire Wire Line
	4100 3400 3750 3400
Wire Wire Line
	4300 5200 4300 5400
Wire Wire Line
	4650 3350 4650 3450
Wire Wire Line
	4850 4650 4850 3550
Wire Wire Line
	5450 1750 5450 4200
Wire Wire Line
	5450 4200 6700 4200
Wire Wire Line
	5550 2000 5550 4650
Wire Wire Line
	5550 4650 4850 4650
Wire Wire Line
	6700 2000 5550 2000
Wire Wire Line
	6700 2000 7050 2000
Wire Wire Line
	6700 2350 6700 2000
Wire Wire Line
	6700 2500 6100 2500
Wire Wire Line
	6700 2600 6100 2600
Wire Wire Line
	6700 2700 6100 2700
Wire Wire Line
	6700 2800 6100 2800
Wire Wire Line
	6700 2900 6100 2900
Wire Wire Line
	6700 3000 6100 3000
Wire Wire Line
	6700 3100 6100 3100
Wire Wire Line
	6700 3200 6100 3200
Wire Wire Line
	6700 3300 6100 3300
Wire Wire Line
	6700 3400 6100 3400
Wire Wire Line
	6700 3500 6100 3500
Wire Wire Line
	6700 3600 6100 3600
Wire Wire Line
	6700 3700 6100 3700
Wire Wire Line
	6700 3800 6100 3800
Wire Wire Line
	6700 3900 6100 3900
Wire Wire Line
	6700 4000 6100 4000
Wire Wire Line
	7050 5950 7050 4600
Wire Wire Line
	7200 2000 7200 1400
Wire Wire Line
	7200 4600 7200 5200
Wire Wire Line
	7300 2000 7300 1400
Wire Wire Line
	7300 4600 7300 5200
Wire Wire Line
	7400 2000 7400 1400
Wire Wire Line
	7400 4600 7400 5200
Wire Wire Line
	7500 2000 7500 1400
Wire Wire Line
	7500 4600 7500 5200
Wire Wire Line
	7600 2000 7600 1400
Wire Wire Line
	7600 4600 7600 5200
Wire Wire Line
	7700 2000 7700 1400
Wire Wire Line
	7700 4600 7700 5200
Wire Wire Line
	7800 2000 7800 1400
Wire Wire Line
	7800 4600 7800 5200
Wire Wire Line
	7900 2000 7900 1400
Wire Wire Line
	7900 4600 7900 5200
Wire Wire Line
	8000 2000 8000 1400
Wire Wire Line
	8000 4600 8000 5200
Wire Wire Line
	8100 2000 8100 1400
Wire Wire Line
	8100 4600 8100 5200
Wire Wire Line
	8200 2000 8200 1400
Wire Wire Line
	8200 4600 8200 5200
Wire Wire Line
	8300 2000 8300 1400
Wire Wire Line
	8300 4600 8300 5200
Wire Wire Line
	8400 2000 8400 1400
Wire Wire Line
	8400 4600 8400 5200
Wire Wire Line
	8500 2000 8500 1400
Wire Wire Line
	8500 4600 8500 5200
Wire Wire Line
	8600 2000 8600 1400
Wire Wire Line
	8600 4600 8600 5200
Wire Wire Line
	8700 2000 8700 1400
Wire Wire Line
	8700 4600 8700 5200
Wire Wire Line
	8900 2000 8900 1050
Wire Wire Line
	8900 4600 9300 4600
Wire Wire Line
	9300 2350 10100 2350
Wire Wire Line
	9300 2500 9900 2500
Wire Wire Line
	9300 2600 9900 2600
Wire Wire Line
	9300 2700 9900 2700
Wire Wire Line
	9300 2800 9900 2800
Wire Wire Line
	9300 2900 9900 2900
Wire Wire Line
	9300 3000 9900 3000
Wire Wire Line
	9300 3100 9900 3100
Wire Wire Line
	9300 3200 9900 3200
Wire Wire Line
	9300 3300 9900 3300
Wire Wire Line
	9300 3400 9900 3400
Wire Wire Line
	9300 3500 9900 3500
Wire Wire Line
	9300 3600 9900 3600
Wire Wire Line
	9300 3700 9900 3700
Wire Wire Line
	9300 3800 9900 3800
Wire Wire Line
	9300 3900 9900 3900
Wire Wire Line
	9300 4000 9900 4000
Wire Wire Line
	9300 4600 9300 4200
Wire Wire Line
	9300 4600 9450 4600
Wire Wire Line
	10100 2350 10100 6400
Wire Bus Line
	6000 1300 5550 1300
Text Notes 3800 5500 0    50   ~ 0
USELESS BITS OF GATES
Text Notes 4150 2950 0    50   ~ 0
USELESS BITS OF GATES
Text Label 2950 3950 2    50   ~ 0
BUS-DATA15
Text Label 3050 4650 2    50   ~ 0
BUS-DATA0
Text Label 3750 5400 0    50   ~ 0
BUS-DATA15
Text Label 6150 2500 0    50   ~ 0
BUS-DATA0
Text Label 6150 2600 0    50   ~ 0
BUS-DATA1
Text Label 6150 2700 0    50   ~ 0
BUS-DATA2
Text Label 6150 2800 0    50   ~ 0
BUS-DATA3
Text Label 6150 2900 0    50   ~ 0
BUS-DATA4
Text Label 6150 3000 0    50   ~ 0
BUS-DATA5
Text Label 6150 3100 0    50   ~ 0
BUS-DATA6
Text Label 6150 3200 0    50   ~ 0
BUS-DATA7
Text Label 6150 3300 0    50   ~ 0
BUS-DATA8
Text Label 6150 3400 0    50   ~ 0
BUS-DATA9
Text Label 6150 3500 0    50   ~ 0
BUS-DATA10
Text Label 6150 3600 0    50   ~ 0
BUS-DATA11
Text Label 6150 3700 0    50   ~ 0
BUS-DATA12
Text Label 6150 3800 0    50   ~ 0
BUS-DATA13
Text Label 6150 3900 0    50   ~ 0
BUS-DATA14
Text Label 6150 4000 0    50   ~ 0
BUS-DATA15
Text Label 7200 1450 3    50   ~ 0
BUS-DATA0
Text Label 7200 5150 1    50   ~ 0
BUS-DATA0
Text Label 7300 1450 3    50   ~ 0
BUS-DATA1
Text Label 7300 5150 1    50   ~ 0
BUS-DATA1
Text Label 7400 1450 3    50   ~ 0
BUS-DATA2
Text Label 7400 5150 1    50   ~ 0
BUS-DATA2
Text Label 7500 1450 3    50   ~ 0
BUS-DATA3
Text Label 7500 5150 1    50   ~ 0
BUS-DATA3
Text Label 7600 1450 3    50   ~ 0
BUS-DATA4
Text Label 7600 5150 1    50   ~ 0
BUS-DATA4
Text Label 7700 1450 3    50   ~ 0
BUS-DATA5
Text Label 7700 5150 1    50   ~ 0
BUS-DATA5
Text Label 7800 1450 3    50   ~ 0
BUS-DATA6
Text Label 7800 5150 1    50   ~ 0
BUS-DATA6
Text Label 7900 1450 3    50   ~ 0
BUS-DATA7
Text Label 7900 5150 1    50   ~ 0
BUS-DATA7
Text Label 8000 1450 3    50   ~ 0
BUS-DATA8
Text Label 8000 5150 1    50   ~ 0
BUS-DATA8
Text Label 8100 1450 3    50   ~ 0
BUS-DATA9
Text Label 8100 5150 1    50   ~ 0
BUS-DATA9
Text Label 8200 1450 3    50   ~ 0
BUS-DATA10
Text Label 8200 5150 1    50   ~ 0
BUS-DATA10
Text Label 8300 1450 3    50   ~ 0
BUS-DATA11
Text Label 8300 5150 1    50   ~ 0
BUS-DATA11
Text Label 8400 1450 3    50   ~ 0
BUS-DATA12
Text Label 8400 5150 1    50   ~ 0
BUS-DATA12
Text Label 8500 1450 3    50   ~ 0
BUS-DATA13
Text Label 8500 5150 1    50   ~ 0
BUS-DATA13
Text Label 8600 1450 3    50   ~ 0
BUS-DATA14
Text Label 8600 5150 1    50   ~ 0
BUS-DATA14
Text Label 8700 1450 3    50   ~ 0
BUS-DATA15
Text Label 8700 5150 1    50   ~ 0
BUS-DATA15
Text Label 9850 2500 2    50   ~ 0
BUS-DATA0
Text Label 9850 2600 2    50   ~ 0
BUS-DATA1
Text Label 9850 2700 2    50   ~ 0
BUS-DATA2
Text Label 9850 2800 2    50   ~ 0
BUS-DATA3
Text Label 9850 2900 2    50   ~ 0
BUS-DATA4
Text Label 9850 3000 2    50   ~ 0
BUS-DATA5
Text Label 9850 3100 2    50   ~ 0
BUS-DATA6
Text Label 9850 3200 2    50   ~ 0
BUS-DATA7
Text Label 9850 3300 2    50   ~ 0
BUS-DATA8
Text Label 9850 3400 2    50   ~ 0
BUS-DATA9
Text Label 9850 3500 2    50   ~ 0
BUS-DATA10
Text Label 9850 3600 2    50   ~ 0
BUS-DATA11
Text Label 9850 3700 2    50   ~ 0
BUS-DATA12
Text Label 9850 3800 2    50   ~ 0
BUS-DATA13
Text Label 9850 3900 2    50   ~ 0
BUS-DATA14
Text Label 9850 4000 2    50   ~ 0
BUS-DATA15
Text HLabel 1400 1700 0    50   Input ~ 0
~X-E
Text HLabel 1400 2350 0    50   Input ~ 0
~Y-E
Text HLabel 1450 4800 0    50   Input ~ 0
~TC-E
Text HLabel 1450 4900 0    50   Input ~ 0
~WR
Text HLabel 1900 5900 0    50   Input ~ 0
~LSB-E
Text HLabel 1900 6000 0    50   Input ~ 0
~RD
Text HLabel 1900 6350 0    50   Input ~ 0
~MSB-E
Text HLabel 5550 1300 0    50   BiDi ~ 0
BUS-DATA[0..15]
Text HLabel 9450 4600 2    50   Input ~ 0
CLK8M
$Comp
L A5C:MUX2H UBN467
U 1 1 6A619D11
P 4850 3400
F 0 "UBN467" H 4850 3667 50  0000 C CNN
F 1 "MUX2H" H 4850 3576 50  0000 C CNN
F 2 "" H 4850 3400 50  0001 C CNN
F 3 "" H 4850 3400 50  0001 C CNN
F 4 "UBN465" H 4850 3400 50  0001 C CNN "MiscRef"
	1    4850 3400
	1    0    0    -1  
$EndComp
$Comp
L A5C:OR02 UBK376
U 1 1 6BC967F0
P 2000 1750
F 0 "UBK376" H 2025 2017 50  0000 C CNN
F 1 "OR02" H 2025 1926 50  0000 C CNN
F 2 "" H 2050 1750 50  0001 C CNN
F 3 "" H 2050 1750 50  0001 C CNN
	1    2000 1750
	1    0    0    -1  
$EndComp
$Comp
L A5C:OR02 UBU347
U 1 1 6BEC59D1
P 2000 2400
F 0 "UBU347" H 2025 2667 50  0000 C CNN
F 1 "OR02" H 2025 2576 50  0000 C CNN
F 2 "" H 2050 2400 50  0001 C CNN
F 3 "" H 2050 2400 50  0001 C CNN
	1    2000 2400
	1    0    0    -1  
$EndComp
$Comp
L A5C:OR02 UBW398
U 1 1 6A9508FF
P 2000 4850
F 0 "UBW398" H 2025 5117 50  0000 C CNN
F 1 "OR02" H 2025 5026 50  0000 C CNN
F 2 "" H 2050 4850 50  0001 C CNN
F 3 "" H 2050 4850 50  0001 C CNN
	1    2000 4850
	1    0    0    -1  
$EndComp
$Comp
L A5C:OR02 UBN357
U 1 1 6C201D65
P 2400 5950
F 0 "UBN357" H 2425 6217 50  0000 C CNN
F 1 "OR02" H 2425 6126 50  0000 C CNN
F 2 "" H 2450 5950 50  0001 C CNN
F 3 "" H 2450 5950 50  0001 C CNN
	1    2400 5950
	1    0    0    -1  
$EndComp
$Comp
L A5C:OR02 UBW387
U 1 1 6B736852
P 2400 6400
F 0 "UBW387" H 2425 6667 50  0000 C CNN
F 1 "OR02" H 2425 6576 50  0000 C CNN
F 2 "" H 2450 6400 50  0001 C CNN
F 3 "" H 2450 6400 50  0001 C CNN
	1    2400 6400
	1    0    0    -1  
$EndComp
$Comp
L A5C:XOR02 UBH463
U 1 1 6A3F7981
P 4350 3350
F 0 "UBH463" H 4375 3617 50  0000 C CNN
F 1 "XOR02" H 4375 3526 50  0000 C CNN
F 2 "" H 4350 3350 50  0001 C CNN
F 3 "" H 4350 3350 50  0001 C CNN
	1    4350 3350
	1    0    0    -1  
$EndComp
$Comp
L A5C:AND02 UBN462
U 1 1 6AEA6009
P 4550 5150
F 0 "UBN462" H 4575 5417 50  0000 C CNN
F 1 "AND02" H 4575 5326 50  0000 C CNN
F 2 "" H 4550 5150 50  0001 C CNN
F 3 "" H 4550 5150 50  0001 C CNN
	1    4550 5150
	1    0    0    -1  
$EndComp
$Comp
L A5C:INV01 UBN445
U 1 1 6B736BC4
P 3000 6800
F 0 "UBN445" H 3000 7117 50  0000 C CNN
F 1 "INV01" H 3000 7026 50  0000 C CNN
F 2 "" H 3000 6600 50  0001 C CNN
F 3 "" H 3000 6600 50  0001 C CNN
	1    3000 6800
	1    0    0    -1  
$EndComp
$Comp
L A5C:INV01 UBN461
U 1 1 6AEA5AF8
P 4000 5100
F 0 "UBN461" H 4000 5417 50  0000 C CNN
F 1 "INV01" H 4000 5326 50  0000 C CNN
F 2 "" H 4000 4900 50  0001 C CNN
F 3 "" H 4000 4900 50  0001 C CNN
	1    4000 5100
	1    0    0    -1  
$EndComp
$Comp
L A5C:DFFCOO UBH388
U 1 1 69FC31CA
P 3300 3400
F 0 "UBH388" H 3300 3765 50  0000 C CNN
F 1 "DFFCOO" H 3300 3674 50  0000 C CNN
F 2 "" H 3300 3400 50  0001 C CNN
F 3 "" H 3300 3400 50  0001 C CNN
F 4 "UBH387" H 3300 3400 50  0001 C CNN "MiscRef"
	1    3300 3400
	1    0    0    -1  
$EndComp
$Comp
L A5C:DFFCOO UBH371
U 1 1 69FC3290
P 3300 4050
F 0 "UBH371" H 3300 4415 50  0000 C CNN
F 1 "DFFCOO" H 3300 4324 50  0000 C CNN
F 2 "" H 3300 4050 50  0001 C CNN
F 3 "" H 3300 4050 50  0001 C CNN
F 4 "UBH369" H 3300 4050 50  0001 C CNN "MiscRef"
	1    3300 4050
	1    0    0    -1  
$EndComp
$Comp
L A5C:DFFCOR UBN455
U 1 1 60260203
P 3300 4750
F 0 "UBN455" H 3300 5115 50  0000 C CNN
F 1 "DFFCOR" H 3300 5024 50  0000 C CNN
F 2 "" H 3300 4750 50  0001 C CNN
F 3 "" H 3300 4750 50  0001 C CNN
F 4 "UBN453;UBN459" H 3300 4750 50  0001 C CNN "MiscRef"
	1    3300 4750
	1    0    0    -1  
$EndComp
$Comp
L A5C:MULT UAF386
U 1 1 5FB936A4
P 8000 3300
F 0 "UAF386" H 8000 3450 150 0000 C CNN
F 1 "MULT" H 8000 3200 150 0000 C CNN
F 2 "" H 6650 3050 50  0001 C CNN
F 3 "" H 6650 3050 50  0001 C CNN
	1    8000 3300
	1    0    0    -1  
$EndComp
NoConn ~ 3550 4750
NoConn ~ 3550 4050
NoConn ~ 3550 3400
Text HLabel 3050 5050 0    50   Input ~ 0
~RESET
Wire Bus Line
	6000 1300 6000 5300
Wire Bus Line
	6000 1300 10000 1300
Wire Bus Line
	6000 5300 10000 5300
Wire Bus Line
	10000 1300 10000 5300
$EndSCHEMATC
