EESchema Schematic File Version 4
EELAYER 30 0
EELAYER END
$Descr A3 16535 11693
encoding utf-8
Sheet 67 69
Title ""
Date "2020-11-26"
Rev ""
Comp ""
Comment1 "Licence: CC-BY"
Comment2 "Author: Loïc *WydD* Petit"
Comment3 ""
Comment4 ""
$EndDescr
Connection ~ 10950 5150
Connection ~ 11050 5250
Connection ~ 10850 5050
Connection ~ 10850 6900
Connection ~ 11050 7100
Connection ~ 10950 7000
Connection ~ 9450 7000
Connection ~ 9450 5150
Connection ~ 3700 3400
Connection ~ 3700 2000
Connection ~ 3100 4750
Connection ~ 3800 3300
Connection ~ 5200 5150
Connection ~ 8650 4850
Connection ~ 8750 4750
Connection ~ 8850 4650
Connection ~ 9350 4150
Connection ~ 9250 4250
Connection ~ 9450 3300
Connection ~ 8650 3000
Connection ~ 9150 4350
Connection ~ 8950 4550
Connection ~ 9050 4450
Connection ~ 8850 2800
Connection ~ 9050 2600
Connection ~ 8950 2700
Connection ~ 8750 2900
Connection ~ 9250 2400
Connection ~ 9350 2300
Connection ~ 9150 2500
Connection ~ 12900 2000
Connection ~ 12800 1900
Connection ~ 13100 2200
Connection ~ 13000 2100
Connection ~ 3300 4550
Connection ~ 3500 4350
Connection ~ 3400 4450
Connection ~ 3600 4250
Connection ~ 3200 4650
Connection ~ 3000 6700
Connection ~ 2900 6800
Connection ~ 3000 4850
Connection ~ 2900 4950
Connection ~ 3100 6600
Connection ~ 3400 6300
Connection ~ 3300 6400
Connection ~ 3200 6500
Connection ~ 3500 6200
Connection ~ 3600 6100
Connection ~ 3700 5250
Connection ~ 3700 7100
Connection ~ 5300 8950
Connection ~ 5400 9050
Connection ~ 7000 8400
Connection ~ 3800 8850
Connection ~ 3800 7000
Connection ~ 5400 5350
Connection ~ 5300 5250
Connection ~ 3800 5150
Connection ~ 5300 7100
Connection ~ 5200 7000
Connection ~ 5400 7200
Connection ~ 7000 4700
Connection ~ 7000 6550
Connection ~ 5200 8850
Connection ~ 9350 6000
Connection ~ 8850 6500
Connection ~ 9150 6200
Connection ~ 8650 6700
Connection ~ 8750 6600
Connection ~ 9050 6300
Connection ~ 8950 6400
Connection ~ 9250 6100
Connection ~ 10850 8750
Connection ~ 12700 6450
Connection ~ 12700 4600
Connection ~ 12700 8300
Connection ~ 10950 8850
Connection ~ 11050 8950
Connection ~ 2150 6950
Connection ~ 2150 5100
Connection ~ 1450 7100
Connection ~ 1450 5250
Connection ~ 1450 3400
Connection ~ 2150 3250
Connection ~ 7000 9650
Connection ~ 5200 9350
Connection ~ 5300 9450
Connection ~ 5400 9550
Connection ~ 2900 3100
Connection ~ 3000 3000
Connection ~ 3100 2900
Connection ~ 3200 2800
Connection ~ 3300 2700
Connection ~ 3400 2600
Connection ~ 3500 2500
Connection ~ 3600 2400
Entry Wire Line
	2100 900  2200 800 
Entry Wire Line
	2100 1000 2200 900 
Entry Wire Line
	2100 1100 2200 1000
Entry Wire Line
	2100 1200 2200 1100
Entry Wire Line
	2100 1300 2200 1200
Entry Wire Line
	2100 1400 2200 1300
Entry Wire Line
	2100 1500 2200 1400
Entry Wire Line
	2100 1600 2200 1500
Entry Wire Line
	4850 9450 4950 9350
Entry Wire Line
	4850 9550 4950 9450
Entry Wire Line
	4850 9650 4950 9550
Entry Wire Line
	4850 9750 4950 9650
Entry Wire Line
	4850 9850 4950 9750
Entry Wire Line
	4850 9950 4950 9850
Entry Wire Line
	7850 800  7950 700 
Entry Wire Line
	7850 900  7950 800 
Entry Wire Line
	7850 1000 7950 900 
Entry Wire Line
	7850 1100 7950 1000
Entry Wire Line
	7850 1200 7950 1100
Entry Wire Line
	7850 1300 7950 1200
Entry Wire Line
	7850 1400 7950 1300
Entry Wire Line
	7850 1500 7950 1400
Wire Wire Line
	1350 3300 1550 3300
Wire Wire Line
	1350 3400 1450 3400
Wire Wire Line
	1350 5150 1550 5150
Wire Wire Line
	1350 7000 1550 7000
Wire Wire Line
	1350 8850 1550 8850
Wire Wire Line
	1450 3400 1450 5250
Wire Wire Line
	1450 5250 1450 7100
Wire Wire Line
	1450 5250 1550 5250
Wire Wire Line
	1450 7100 1450 8950
Wire Wire Line
	1450 7100 1550 7100
Wire Wire Line
	1450 8950 1550 8950
Wire Wire Line
	1550 3400 1450 3400
Wire Wire Line
	2000 2950 2150 2950
Wire Wire Line
	2100 3350 2250 3350
Wire Wire Line
	2100 5200 2250 5200
Wire Wire Line
	2100 7050 2250 7050
Wire Wire Line
	2100 8900 2250 8900
Wire Wire Line
	2150 2950 2150 3250
Wire Wire Line
	2150 3250 2150 5100
Wire Wire Line
	2150 5100 2150 6950
Wire Wire Line
	2150 5100 2250 5100
Wire Wire Line
	2150 6950 2150 8800
Wire Wire Line
	2150 8800 2250 8800
Wire Wire Line
	2200 800  3600 800 
Wire Wire Line
	2200 900  3500 900 
Wire Wire Line
	2200 1000 3400 1000
Wire Wire Line
	2200 1100 3300 1100
Wire Wire Line
	2200 1200 3200 1200
Wire Wire Line
	2200 1300 3100 1300
Wire Wire Line
	2200 1400 3000 1400
Wire Wire Line
	2200 1500 2900 1500
Wire Wire Line
	2250 3250 2150 3250
Wire Wire Line
	2250 6950 2150 6950
Wire Wire Line
	2400 2000 3700 2000
Wire Wire Line
	2800 3300 3800 3300
Wire Wire Line
	2800 5150 3800 5150
Wire Wire Line
	2800 7000 3800 7000
Wire Wire Line
	2800 8850 3800 8850
Wire Wire Line
	2900 1500 2900 3100
Wire Wire Line
	2900 3100 2900 4950
Wire Wire Line
	2900 3100 3900 3100
Wire Wire Line
	2900 4950 2900 6800
Wire Wire Line
	2900 4950 3900 4950
Wire Wire Line
	2900 6800 2900 8650
Wire Wire Line
	2900 6800 3900 6800
Wire Wire Line
	2900 8650 3900 8650
Wire Wire Line
	3000 1400 3000 3000
Wire Wire Line
	3000 3000 3000 4850
Wire Wire Line
	3000 3000 3900 3000
Wire Wire Line
	3000 4850 3000 6700
Wire Wire Line
	3000 4850 3900 4850
Wire Wire Line
	3000 6700 3000 8550
Wire Wire Line
	3000 6700 3900 6700
Wire Wire Line
	3000 8550 3900 8550
Wire Wire Line
	3100 1300 3100 2900
Wire Wire Line
	3100 2900 3100 4750
Wire Wire Line
	3100 2900 3900 2900
Wire Wire Line
	3100 4750 3100 6600
Wire Wire Line
	3100 4750 3900 4750
Wire Wire Line
	3100 6600 3100 8450
Wire Wire Line
	3100 6600 3900 6600
Wire Wire Line
	3100 8450 3900 8450
Wire Wire Line
	3200 1200 3200 2800
Wire Wire Line
	3200 2800 3200 4650
Wire Wire Line
	3200 2800 3900 2800
Wire Wire Line
	3200 4650 3200 6500
Wire Wire Line
	3200 4650 3900 4650
Wire Wire Line
	3200 6500 3200 8350
Wire Wire Line
	3200 6500 3900 6500
Wire Wire Line
	3200 8350 3900 8350
Wire Wire Line
	3300 1100 3300 2700
Wire Wire Line
	3300 2700 3300 4550
Wire Wire Line
	3300 2700 3900 2700
Wire Wire Line
	3300 4550 3300 6400
Wire Wire Line
	3300 4550 3900 4550
Wire Wire Line
	3300 6400 3300 8250
Wire Wire Line
	3300 6400 3900 6400
Wire Wire Line
	3300 8250 3900 8250
Wire Wire Line
	3400 1000 3400 2600
Wire Wire Line
	3400 2600 3400 4450
Wire Wire Line
	3400 2600 3900 2600
Wire Wire Line
	3400 4450 3400 6300
Wire Wire Line
	3400 4450 3900 4450
Wire Wire Line
	3400 6300 3400 8150
Wire Wire Line
	3400 6300 3900 6300
Wire Wire Line
	3400 8150 3900 8150
Wire Wire Line
	3500 900  3500 2500
Wire Wire Line
	3500 2500 3500 4350
Wire Wire Line
	3500 2500 3900 2500
Wire Wire Line
	3500 4350 3500 6200
Wire Wire Line
	3500 4350 3900 4350
Wire Wire Line
	3500 6200 3500 8050
Wire Wire Line
	3500 6200 3900 6200
Wire Wire Line
	3500 8050 3900 8050
Wire Wire Line
	3600 800  3600 2400
Wire Wire Line
	3600 2400 3600 4250
Wire Wire Line
	3600 2400 3900 2400
Wire Wire Line
	3600 4250 3600 6100
Wire Wire Line
	3600 4250 3900 4250
Wire Wire Line
	3600 6100 3600 7950
Wire Wire Line
	3600 6100 3900 6100
Wire Wire Line
	3600 7950 3900 7950
Wire Wire Line
	3700 2000 9450 2000
Wire Wire Line
	3700 3400 3700 2000
Wire Wire Line
	3700 3400 3700 5250
Wire Wire Line
	3700 3400 3900 3400
Wire Wire Line
	3700 5250 3700 7100
Wire Wire Line
	3700 5250 3900 5250
Wire Wire Line
	3700 7100 3700 8950
Wire Wire Line
	3700 7100 3900 7100
Wire Wire Line
	3700 8950 3900 8950
Wire Wire Line
	3800 3300 3800 3700
Wire Wire Line
	3800 3700 8550 3700
Wire Wire Line
	3800 5150 3800 5550
Wire Wire Line
	3800 5550 8550 5550
Wire Wire Line
	3800 7000 3900 7000
Wire Wire Line
	3800 7400 3800 7000
Wire Wire Line
	3800 7400 8550 7400
Wire Wire Line
	3800 8850 3900 8850
Wire Wire Line
	3800 9250 3800 8850
Wire Wire Line
	3800 9250 8550 9250
Wire Wire Line
	3900 3300 3800 3300
Wire Wire Line
	3900 5150 3800 5150
Wire Wire Line
	4900 2400 5500 2400
Wire Wire Line
	4900 2500 5500 2500
Wire Wire Line
	4900 2600 5500 2600
Wire Wire Line
	4900 2700 5500 2700
Wire Wire Line
	4900 2800 5500 2800
Wire Wire Line
	4900 2900 5500 2900
Wire Wire Line
	4900 3000 5500 3000
Wire Wire Line
	4900 3100 5500 3100
Wire Wire Line
	4900 4250 5500 4250
Wire Wire Line
	4900 4350 5500 4350
Wire Wire Line
	4900 4450 5500 4450
Wire Wire Line
	4900 4550 5500 4550
Wire Wire Line
	4900 4650 5500 4650
Wire Wire Line
	4900 4750 5500 4750
Wire Wire Line
	4900 4850 5500 4850
Wire Wire Line
	4900 4950 5500 4950
Wire Wire Line
	4900 6100 5500 6100
Wire Wire Line
	4900 6200 5500 6200
Wire Wire Line
	4900 6300 5500 6300
Wire Wire Line
	4900 6400 5500 6400
Wire Wire Line
	4900 6500 5500 6500
Wire Wire Line
	4900 6600 5500 6600
Wire Wire Line
	4900 6700 5500 6700
Wire Wire Line
	4900 6800 5500 6800
Wire Wire Line
	4900 7950 5500 7950
Wire Wire Line
	4900 8050 5500 8050
Wire Wire Line
	4900 8150 5500 8150
Wire Wire Line
	4900 8250 5500 8250
Wire Wire Line
	4900 8350 5500 8350
Wire Wire Line
	4900 8450 5500 8450
Wire Wire Line
	4900 8550 5500 8550
Wire Wire Line
	4900 8650 5500 8650
Wire Wire Line
	4950 9350 5200 9350
Wire Wire Line
	4950 9450 5300 9450
Wire Wire Line
	4950 9550 5400 9550
Wire Wire Line
	4950 9650 7000 9650
Wire Wire Line
	4950 9750 13200 9750
Wire Wire Line
	4950 9850 13300 9850
Wire Wire Line
	5200 3300 5200 5150
Wire Wire Line
	5200 3300 5500 3300
Wire Wire Line
	5200 5150 5200 7000
Wire Wire Line
	5200 7000 5200 8850
Wire Wire Line
	5200 8850 5200 9350
Wire Wire Line
	5200 8850 5500 8850
Wire Wire Line
	5200 9350 10850 9350
Wire Wire Line
	5300 3400 5300 5250
Wire Wire Line
	5300 5250 5300 7100
Wire Wire Line
	5300 7100 5300 8950
Wire Wire Line
	5300 8950 5500 8950
Wire Wire Line
	5300 9450 5300 8950
Wire Wire Line
	5400 3500 5400 5350
Wire Wire Line
	5400 5350 5400 7200
Wire Wire Line
	5400 7200 5400 9050
Wire Wire Line
	5400 9050 5400 9550
Wire Wire Line
	5400 9050 5500 9050
Wire Wire Line
	5400 9550 11050 9550
Wire Wire Line
	5500 3400 5300 3400
Wire Wire Line
	5500 3500 5400 3500
Wire Wire Line
	5500 5150 5200 5150
Wire Wire Line
	5500 5250 5300 5250
Wire Wire Line
	5500 5350 5400 5350
Wire Wire Line
	5500 7000 5200 7000
Wire Wire Line
	5500 7100 5300 7100
Wire Wire Line
	5500 7200 5400 7200
Wire Wire Line
	6800 2850 7000 2850
Wire Wire Line
	6800 6550 7000 6550
Wire Wire Line
	6800 8400 7000 8400
Wire Wire Line
	6900 2750 7100 2750
Wire Wire Line
	6900 4600 7200 4600
Wire Wire Line
	6900 6450 7300 6450
Wire Wire Line
	7000 2850 7000 4700
Wire Wire Line
	7000 4700 6800 4700
Wire Wire Line
	7000 6550 7000 4700
Wire Wire Line
	7000 8400 7000 6550
Wire Wire Line
	7000 9650 7000 8400
Wire Wire Line
	7100 1900 12800 1900
Wire Wire Line
	7100 2750 7100 1900
Wire Wire Line
	7200 1800 12900 1800
Wire Wire Line
	7200 4600 7200 1800
Wire Wire Line
	7300 1700 13000 1700
Wire Wire Line
	7300 6450 7300 1700
Wire Wire Line
	7400 1600 7400 8300
Wire Wire Line
	7400 8300 6900 8300
Wire Wire Line
	7950 700  9350 700 
Wire Wire Line
	7950 800  9250 800 
Wire Wire Line
	7950 900  9150 900 
Wire Wire Line
	7950 1000 9050 1000
Wire Wire Line
	7950 1100 8950 1100
Wire Wire Line
	7950 1200 8850 1200
Wire Wire Line
	7950 1300 8750 1300
Wire Wire Line
	7950 1400 8650 1400
Wire Wire Line
	8550 3200 9550 3200
Wire Wire Line
	8550 3700 8550 3200
Wire Wire Line
	8550 5050 9550 5050
Wire Wire Line
	8550 5550 8550 5050
Wire Wire Line
	8550 6900 8550 7400
Wire Wire Line
	8550 8750 8550 9250
Wire Wire Line
	8650 1400 8650 3000
Wire Wire Line
	8650 3000 8650 4850
Wire Wire Line
	8650 3000 9550 3000
Wire Wire Line
	8650 4850 8650 6700
Wire Wire Line
	8650 4850 9550 4850
Wire Wire Line
	8650 6700 8650 8550
Wire Wire Line
	8650 6700 9550 6700
Wire Wire Line
	8650 8550 9550 8550
Wire Wire Line
	8750 1300 8750 2900
Wire Wire Line
	8750 2900 8750 4750
Wire Wire Line
	8750 2900 9550 2900
Wire Wire Line
	8750 4750 8750 6600
Wire Wire Line
	8750 4750 9550 4750
Wire Wire Line
	8750 6600 8750 8450
Wire Wire Line
	8750 6600 9550 6600
Wire Wire Line
	8750 8450 9550 8450
Wire Wire Line
	8850 1200 8850 2800
Wire Wire Line
	8850 2800 8850 4650
Wire Wire Line
	8850 2800 9550 2800
Wire Wire Line
	8850 4650 8850 6500
Wire Wire Line
	8850 4650 9550 4650
Wire Wire Line
	8850 6500 8850 8350
Wire Wire Line
	8850 6500 9550 6500
Wire Wire Line
	8850 8350 9550 8350
Wire Wire Line
	8950 1100 8950 2700
Wire Wire Line
	8950 2700 8950 4550
Wire Wire Line
	8950 2700 9550 2700
Wire Wire Line
	8950 4550 8950 6400
Wire Wire Line
	8950 4550 9550 4550
Wire Wire Line
	8950 6400 8950 8250
Wire Wire Line
	8950 6400 9550 6400
Wire Wire Line
	8950 8250 9550 8250
Wire Wire Line
	9050 1000 9050 2600
Wire Wire Line
	9050 2600 9050 4450
Wire Wire Line
	9050 2600 9550 2600
Wire Wire Line
	9050 4450 9050 6300
Wire Wire Line
	9050 4450 9550 4450
Wire Wire Line
	9050 6300 9050 8150
Wire Wire Line
	9050 6300 9550 6300
Wire Wire Line
	9050 8150 9550 8150
Wire Wire Line
	9150 900  9150 2500
Wire Wire Line
	9150 2500 9150 4350
Wire Wire Line
	9150 2500 9550 2500
Wire Wire Line
	9150 4350 9150 6200
Wire Wire Line
	9150 4350 9550 4350
Wire Wire Line
	9150 6200 9150 8050
Wire Wire Line
	9150 6200 9550 6200
Wire Wire Line
	9150 8050 9550 8050
Wire Wire Line
	9250 800  9250 2400
Wire Wire Line
	9250 2400 9250 4250
Wire Wire Line
	9250 2400 9550 2400
Wire Wire Line
	9250 4250 9250 6100
Wire Wire Line
	9250 4250 9550 4250
Wire Wire Line
	9250 6100 9250 7950
Wire Wire Line
	9250 6100 9550 6100
Wire Wire Line
	9250 7950 9550 7950
Wire Wire Line
	9350 700  9350 2300
Wire Wire Line
	9350 2300 9350 4150
Wire Wire Line
	9350 2300 9550 2300
Wire Wire Line
	9350 4150 9350 6000
Wire Wire Line
	9350 4150 9550 4150
Wire Wire Line
	9350 6000 9350 7850
Wire Wire Line
	9350 6000 9550 6000
Wire Wire Line
	9350 7850 9550 7850
Wire Wire Line
	9450 2000 9450 3300
Wire Wire Line
	9450 3300 9450 5150
Wire Wire Line
	9450 5150 9450 7000
Wire Wire Line
	9450 7000 9450 8850
Wire Wire Line
	9450 8850 9550 8850
Wire Wire Line
	9550 3300 9450 3300
Wire Wire Line
	9550 5150 9450 5150
Wire Wire Line
	9550 6900 8550 6900
Wire Wire Line
	9550 7000 9450 7000
Wire Wire Line
	9550 8750 8550 8750
Wire Wire Line
	10550 2300 11150 2300
Wire Wire Line
	10550 2400 11150 2400
Wire Wire Line
	10550 2500 11150 2500
Wire Wire Line
	10550 2600 11150 2600
Wire Wire Line
	10550 2700 11150 2700
Wire Wire Line
	10550 2800 11150 2800
Wire Wire Line
	10550 2900 11150 2900
Wire Wire Line
	10550 3000 11150 3000
Wire Wire Line
	10550 4150 11150 4150
Wire Wire Line
	10550 4250 11150 4250
Wire Wire Line
	10550 4350 11150 4350
Wire Wire Line
	10550 4450 11150 4450
Wire Wire Line
	10550 4550 11150 4550
Wire Wire Line
	10550 4650 11150 4650
Wire Wire Line
	10550 4750 11150 4750
Wire Wire Line
	10550 4850 11150 4850
Wire Wire Line
	10550 6000 11150 6000
Wire Wire Line
	10550 6100 11150 6100
Wire Wire Line
	10550 6200 11150 6200
Wire Wire Line
	10550 6300 11150 6300
Wire Wire Line
	10550 6400 11150 6400
Wire Wire Line
	10550 6500 11150 6500
Wire Wire Line
	10550 6600 11150 6600
Wire Wire Line
	10550 6700 11150 6700
Wire Wire Line
	10550 7850 11150 7850
Wire Wire Line
	10550 7950 11150 7950
Wire Wire Line
	10550 8050 11150 8050
Wire Wire Line
	10550 8150 11150 8150
Wire Wire Line
	10550 8250 11150 8250
Wire Wire Line
	10550 8350 11150 8350
Wire Wire Line
	10550 8450 11150 8450
Wire Wire Line
	10550 8550 11150 8550
Wire Wire Line
	10850 3200 10850 5050
Wire Wire Line
	10850 3200 11150 3200
Wire Wire Line
	10850 5050 10850 6900
Wire Wire Line
	10850 6900 10850 8750
Wire Wire Line
	10850 8750 11150 8750
Wire Wire Line
	10850 9350 10850 8750
Wire Wire Line
	10950 3300 10950 5150
Wire Wire Line
	10950 5150 10950 7000
Wire Wire Line
	10950 7000 10950 8850
Wire Wire Line
	10950 8850 10950 9450
Wire Wire Line
	10950 8850 11150 8850
Wire Wire Line
	10950 9450 5300 9450
Wire Wire Line
	11050 3400 11050 5250
Wire Wire Line
	11050 5250 11050 7100
Wire Wire Line
	11050 7100 11050 8950
Wire Wire Line
	11050 8950 11150 8950
Wire Wire Line
	11050 9550 11050 8950
Wire Wire Line
	11150 3300 10950 3300
Wire Wire Line
	11150 3400 11050 3400
Wire Wire Line
	11150 5050 10850 5050
Wire Wire Line
	11150 5150 10950 5150
Wire Wire Line
	11150 5250 11050 5250
Wire Wire Line
	11150 6900 10850 6900
Wire Wire Line
	11150 7000 10950 7000
Wire Wire Line
	11150 7100 11050 7100
Wire Wire Line
	11150 9500 11350 9500
Wire Wire Line
	11150 9650 7000 9650
Wire Wire Line
	11150 9650 11150 9500
Wire Wire Line
	11950 9500 12700 9500
Wire Wire Line
	12450 2750 12700 2750
Wire Wire Line
	12450 6450 12700 6450
Wire Wire Line
	12550 8200 13100 8200
Wire Wire Line
	12700 2750 12700 4600
Wire Wire Line
	12700 4600 12450 4600
Wire Wire Line
	12700 4600 12700 6450
Wire Wire Line
	12700 6450 12700 8300
Wire Wire Line
	12700 8300 12450 8300
Wire Wire Line
	12700 9500 12700 8300
Wire Wire Line
	12800 1900 12800 2650
Wire Wire Line
	12800 1900 13850 1900
Wire Wire Line
	12800 2650 12550 2650
Wire Wire Line
	12900 1800 12900 2000
Wire Wire Line
	12900 2000 12900 4500
Wire Wire Line
	12900 2000 13850 2000
Wire Wire Line
	12900 4500 12550 4500
Wire Wire Line
	13000 1700 13000 2100
Wire Wire Line
	13000 2100 13000 6350
Wire Wire Line
	13000 2100 13850 2100
Wire Wire Line
	13000 6350 12550 6350
Wire Wire Line
	13100 1600 7400 1600
Wire Wire Line
	13100 1600 13100 2200
Wire Wire Line
	13100 2200 13100 8200
Wire Wire Line
	13100 2200 13850 2200
Wire Wire Line
	13200 2400 13200 9750
Wire Wire Line
	13300 2500 13850 2500
Wire Wire Line
	13300 9850 13300 2500
Wire Wire Line
	13850 2400 13200 2400
Wire Bus Line
	1700 1750 2100 1750
Wire Bus Line
	2100 600  7850 600 
Wire Bus Line
	4750 10050 4850 10050
Text Label 2150 3700 2    50   ~ 0
~CLK4M
Text Label 2250 800  0    50   ~ 0
DATA0
Text Label 2250 900  0    50   ~ 0
DATA1
Text Label 2250 1000 0    50   ~ 0
DATA2
Text Label 2250 1100 0    50   ~ 0
DATA3
Text Label 2250 1200 0    50   ~ 0
DATA4
Text Label 2250 1300 0    50   ~ 0
DATA5
Text Label 2250 1400 0    50   ~ 0
DATA6
Text Label 2250 1500 0    50   ~ 0
DATA7
Text Label 5100 9350 2    50   ~ 0
S0
Text Label 5100 9450 2    50   ~ 0
S1
Text Label 5100 9550 2    50   ~ 0
S2
Text Label 5100 9650 2    50   ~ 0
S3
Text Label 5100 9750 2    50   ~ 0
S4
Text Label 5100 9850 2    50   ~ 0
S5
Text Label 8000 700  0    50   ~ 0
DATA8
Text Label 8000 800  0    50   ~ 0
DATA9
Text Label 8000 900  0    50   ~ 0
DATA10
Text Label 8000 1000 0    50   ~ 0
DATA11
Text Label 8000 1100 0    50   ~ 0
DATA12
Text Label 8000 1200 0    50   ~ 0
DATA13
Text Label 8000 1300 0    50   ~ 0
DATA14
Text Label 8000 1400 0    50   ~ 0
DATA15
Text HLabel 1350 3300 0    50   Input ~ 0
ROW0
Text HLabel 1350 3400 0    50   Input ~ 0
WR
Text HLabel 1350 5150 0    50   Input ~ 0
ROW1
Text HLabel 1350 7000 0    50   Input ~ 0
ROW2
Text HLabel 1350 8850 0    50   Input ~ 0
ROW3
Text HLabel 1700 1750 0    50   Input ~ 0
DATA[0..15]
Text HLabel 2000 2950 0    50   Input ~ 0
~CLK4M
Text HLabel 2400 2000 0    50   Input ~ 0
~RESET
Text HLabel 4750 10050 0    50   Input ~ 0
S[0..5]
Text HLabel 14450 2050 2    50   Output ~ 0
OUT
$Comp
L A5C:TINVBF UCG466
U 1 1 5F6AE792
P 6700 2750
AR Path="/5F830D9B/5F6AE792" Ref="UCG466"  Part="1" 
AR Path="/5FBEEC97/5FC01C21/5F6AE792" Ref="UCG466"  Part="1" 
F 0 "UCG466" H 6700 3011 50  0000 C CNN
F 1 "TINVBF" H 6700 2920 50  0000 C CNN
F 2 "" H 6200 2700 50  0001 C CNN
F 3 "" H 6200 2700 50  0001 C CNN
	1    6700 2750
	1    0    0    -1  
$EndComp
$Comp
L A5C:TINVBF UCL487
U 1 1 5F6AF06B
P 6700 4600
AR Path="/5F830D9B/5F6AF06B" Ref="UCL487"  Part="1" 
AR Path="/5FBEEC97/5FC01C21/5F6AF06B" Ref="UCL487"  Part="1" 
F 0 "UCL487" H 6700 4861 50  0000 C CNN
F 1 "TINVBF" H 6700 4770 50  0000 C CNN
F 2 "" H 6200 4550 50  0001 C CNN
F 3 "" H 6200 4550 50  0001 C CNN
	1    6700 4600
	1    0    0    -1  
$EndComp
$Comp
L A5C:TINVBF UBW498
U 1 1 5F6B38FD
P 6700 6450
AR Path="/5F830D9B/5F6B38FD" Ref="UBW498"  Part="1" 
AR Path="/5FBEEC97/5FC01C21/5F6B38FD" Ref="UBW498"  Part="1" 
F 0 "UBW498" H 6700 6711 50  0000 C CNN
F 1 "TINVBF" H 6700 6620 50  0000 C CNN
F 2 "" H 6200 6400 50  0001 C CNN
F 3 "" H 6200 6400 50  0001 C CNN
	1    6700 6450
	1    0    0    -1  
$EndComp
$Comp
L A5C:TINVBF UBZ477
U 1 1 5F6B38EB
P 6700 8300
AR Path="/5F830D9B/5F6B38EB" Ref="UBZ477"  Part="1" 
AR Path="/5FBEEC97/5FC01C21/5F6B38EB" Ref="UBZ477"  Part="1" 
F 0 "UBZ477" H 6700 8561 50  0000 C CNN
F 1 "TINVBF" H 6700 8470 50  0000 C CNN
F 2 "" H 6200 8250 50  0001 C CNN
F 3 "" H 6200 8250 50  0001 C CNN
	1    6700 8300
	1    0    0    -1  
$EndComp
$Comp
L A5C:TINVBF UCC424
U 1 1 5F6B6F42
P 12350 2650
AR Path="/5F830D9B/5F6B6F42" Ref="UCC424"  Part="1" 
AR Path="/5FBEEC97/5FC01C21/5F6B6F42" Ref="UCC424"  Part="1" 
F 0 "UCC424" H 12350 2911 50  0000 C CNN
F 1 "TINVBF" H 12350 2820 50  0000 C CNN
F 2 "" H 11850 2600 50  0001 C CNN
F 3 "" H 11850 2600 50  0001 C CNN
	1    12350 2650
	1    0    0    -1  
$EndComp
$Comp
L A5C:TINVBF UCL400
U 1 1 5F6B6F54
P 12350 4500
AR Path="/5F830D9B/5F6B6F54" Ref="UCL400"  Part="1" 
AR Path="/5FBEEC97/5FC01C21/5F6B6F54" Ref="UCL400"  Part="1" 
F 0 "UCL400" H 12350 4761 50  0000 C CNN
F 1 "TINVBF" H 12350 4670 50  0000 C CNN
F 2 "" H 11850 4450 50  0001 C CNN
F 3 "" H 11850 4450 50  0001 C CNN
	1    12350 4500
	1    0    0    -1  
$EndComp
$Comp
L A5C:TINVBF UBW505
U 1 1 5F6BA307
P 12350 6350
AR Path="/5F830D9B/5F6BA307" Ref="UBW505"  Part="1" 
AR Path="/5FBEEC97/5FC01C21/5F6BA307" Ref="UBW505"  Part="1" 
F 0 "UBW505" H 12350 6611 50  0000 C CNN
F 1 "TINVBF" H 12350 6520 50  0000 C CNN
F 2 "" H 11850 6300 50  0001 C CNN
F 3 "" H 11850 6300 50  0001 C CNN
	1    12350 6350
	1    0    0    -1  
$EndComp
$Comp
L A5C:TINVBF UBW509
U 1 1 5F6BA2F5
P 12350 8200
AR Path="/5F830D9B/5F6BA2F5" Ref="UBW509"  Part="1" 
AR Path="/5FBEEC97/5FC01C21/5F6BA2F5" Ref="UBW509"  Part="1" 
F 0 "UBW509" H 12350 8461 50  0000 C CNN
F 1 "TINVBF" H 12350 8370 50  0000 C CNN
F 2 "" H 11850 8150 50  0001 C CNN
F 3 "" H 11850 8150 50  0001 C CNN
	1    12350 8200
	1    0    0    -1  
$EndComp
$Comp
L A5C:NOR02 UBZ315
U 1 1 5F80101A
P 1800 3350
AR Path="/5F830D9B/5F80101A" Ref="UBZ315"  Part="1" 
AR Path="/5FBEEC97/5FC01C21/5F80101A" Ref="UBZ315"  Part="1" 
F 0 "UBZ315" H 1825 3616 50  0000 C CNN
F 1 "NOR02" H 1825 3525 50  0000 C CNN
F 2 "" H 1800 3350 50  0001 C CNN
F 3 "" H 1800 3350 50  0001 C CNN
	1    1800 3350
	1    0    0    -1  
$EndComp
$Comp
L A5C:NOR02 UBZ333
U 1 1 5F7E3AC3
P 1800 5200
AR Path="/5F830D9B/5F7E3AC3" Ref="UBZ333"  Part="1" 
AR Path="/5FBEEC97/5FC01C21/5F7E3AC3" Ref="UBZ333"  Part="1" 
F 0 "UBZ333" H 1825 5466 50  0000 C CNN
F 1 "NOR02" H 1825 5375 50  0000 C CNN
F 2 "" H 1800 5200 50  0001 C CNN
F 3 "" H 1800 5200 50  0001 C CNN
	1    1800 5200
	1    0    0    -1  
$EndComp
$Comp
L A5C:NOR02 UBU376
U 1 1 5F7FDF06
P 1800 7050
AR Path="/5F830D9B/5F7FDF06" Ref="UBU376"  Part="1" 
AR Path="/5FBEEC97/5FC01C21/5F7FDF06" Ref="UBU376"  Part="1" 
F 0 "UBU376" H 1825 7316 50  0000 C CNN
F 1 "NOR02" H 1825 7225 50  0000 C CNN
F 2 "" H 1800 7050 50  0001 C CNN
F 3 "" H 1800 7050 50  0001 C CNN
	1    1800 7050
	1    0    0    -1  
$EndComp
$Comp
L A5C:NOR02 UBR374
U 1 1 5F7C43DF
P 1800 8900
AR Path="/5F830D9B/5F7C43DF" Ref="UBR374"  Part="1" 
AR Path="/5FBEEC97/5FC01C21/5F7C43DF" Ref="UBR374"  Part="1" 
F 0 "UBR374" H 1825 9166 50  0000 C CNN
F 1 "NOR02" H 1825 9075 50  0000 C CNN
F 2 "" H 1800 8900 50  0001 C CNN
F 3 "" H 1800 8900 50  0001 C CNN
	1    1800 8900
	1    0    0    -1  
$EndComp
$Comp
L A5C:NAND02 UCG318
U 1 1 5F801008
P 2500 3300
AR Path="/5F830D9B/5F801008" Ref="UCG318"  Part="1" 
AR Path="/5FBEEC97/5FC01C21/5F801008" Ref="UCG318"  Part="1" 
F 0 "UCG318" H 2525 3566 50  0000 C CNN
F 1 "NAND02" H 2525 3475 50  0000 C CNN
F 2 "" H 2500 3300 50  0001 C CNN
F 3 "" H 2500 3300 50  0001 C CNN
	1    2500 3300
	1    0    0    -1  
$EndComp
$Comp
L A5C:NAND02 UBZ335
U 1 1 5F7E3AB1
P 2500 5150
AR Path="/5F830D9B/5F7E3AB1" Ref="UBZ335"  Part="1" 
AR Path="/5FBEEC97/5FC01C21/5F7E3AB1" Ref="UBZ335"  Part="1" 
F 0 "UBZ335" H 2525 5416 50  0000 C CNN
F 1 "NAND02" H 2525 5325 50  0000 C CNN
F 2 "" H 2500 5150 50  0001 C CNN
F 3 "" H 2500 5150 50  0001 C CNN
	1    2500 5150
	1    0    0    -1  
$EndComp
$Comp
L A5C:NAND02 UBW389
U 1 1 5F7FDEF4
P 2500 7000
AR Path="/5F830D9B/5F7FDEF4" Ref="UBW389"  Part="1" 
AR Path="/5FBEEC97/5FC01C21/5F7FDEF4" Ref="UBW389"  Part="1" 
F 0 "UBW389" H 2525 7266 50  0000 C CNN
F 1 "NAND02" H 2525 7175 50  0000 C CNN
F 2 "" H 2500 7000 50  0001 C CNN
F 3 "" H 2500 7000 50  0001 C CNN
	1    2500 7000
	1    0    0    -1  
$EndComp
$Comp
L A5C:NAND02 UBW522
U 1 1 5F7C1E89
P 2500 8850
AR Path="/5F830D9B/5F7C1E89" Ref="UBW522"  Part="1" 
AR Path="/5FBEEC97/5FC01C21/5F7C1E89" Ref="UBW522"  Part="1" 
F 0 "UBW522" H 2525 9116 50  0000 C CNN
F 1 "NAND02" H 2525 9025 50  0000 C CNN
F 2 "" H 2500 8850 50  0001 C CNN
F 3 "" H 2500 8850 50  0001 C CNN
	1    2500 8850
	1    0    0    -1  
$EndComp
$Comp
L A5C:INV01 UCL446
U 1 1 5F6F09F7
P 11650 9500
AR Path="/5F830D9B/5F6F09F7" Ref="UCL446"  Part="1" 
AR Path="/5FBEEC97/5FC01C21/5F6F09F7" Ref="UCL446"  Part="1" 
F 0 "UCL446" H 11650 9816 50  0000 C CNN
F 1 "INV01" H 11650 9725 50  0000 C CNN
F 2 "" H 11650 9300 50  0001 C CNN
F 3 "" H 11650 9300 50  0001 C CNN
	1    11650 9500
	1    0    0    -1  
$EndComp
$Comp
L A5C:MUX4H UBW401
U 1 1 5F777413
P 14150 2200
AR Path="/5F830D9B/5F777413" Ref="UBW401"  Part="1" 
AR Path="/5FBEEC97/5FC01C21/5F777413" Ref="UBW401"  Part="1" 
F 0 "UBW401" H 14150 2761 50  0000 C CNN
F 1 "MUX4H" H 14150 2670 50  0000 C CNN
F 2 "" H 14200 2250 50  0001 C CNN
F 3 "" H 14200 2250 50  0001 C CNN
	1    14150 2200
	1    0    0    -1  
$EndComp
$Comp
L A5C:M273C UCR458
U 1 1 7833934E
P 4400 2900
AR Path="/5F830D9B/7833934E" Ref="UCR458"  Part="1" 
AR Path="/5FBEEC97/5FC01C21/7833934E" Ref="UCR458"  Part="1" 
F 0 "UCR458" H 4400 3667 50  0000 C CNN
F 1 "M273C" H 4400 3576 50  0000 C CNN
F 2 "" H 4400 2900 50  0001 C CNN
F 3 "" H 4400 2900 50  0001 C CNN
F 4 "UCR456;UCR463;UCR467;UCR472;UCR476;UCR481;UCR485;UCR490;UCR494" H 4400 2900 50  0001 C CNN "MiscRef"
	1    4400 2900
	1    0    0    -1  
$EndComp
$Comp
L A5C:M273C UCT459
U 1 1 78339348
P 4400 4750
AR Path="/5F830D9B/78339348" Ref="UCT459"  Part="1" 
AR Path="/5FBEEC97/5FC01C21/78339348" Ref="UCT459"  Part="1" 
F 0 "UCT459" H 4400 5517 50  0000 C CNN
F 1 "M273C" H 4400 5426 50  0000 C CNN
F 2 "" H 4400 4750 50  0001 C CNN
F 3 "" H 4400 4750 50  0001 C CNN
F 4 "UCT456;UCT464;UCT468;UCT472;UCT477;UCT481;UCT486;UCT490;UCT495" H 4400 4750 50  0001 C CNN "MiscRef"
	1    4400 4750
	1    0    0    -1  
$EndComp
$Comp
L A5C:M273C UCJ486
U 1 1 78339354
P 4400 6600
AR Path="/5F830D9B/78339354" Ref="UCJ486"  Part="1" 
AR Path="/5FBEEC97/5FC01C21/78339354" Ref="UCJ486"  Part="1" 
F 0 "UCJ486" H 4400 7367 50  0000 C CNN
F 1 "M273C" H 4400 7276 50  0000 C CNN
F 2 "" H 4400 6600 50  0001 C CNN
F 3 "" H 4400 6600 50  0001 C CNN
F 4 "UCJ483;UCJ490;UCJ495;UCJ499;UCJ503;UCJ508;UCJ512;UCJ517;UCJ521" H 4400 6600 50  0001 C CNN "MiscRef"
	1    4400 6600
	1    0    0    -1  
$EndComp
$Comp
L A5C:M273C UCC486
U 1 1 7833935A
P 4400 8450
AR Path="/5F830D9B/7833935A" Ref="UCC486"  Part="1" 
AR Path="/5FBEEC97/5FC01C21/7833935A" Ref="UCC486"  Part="1" 
F 0 "UCC486" H 4400 9217 50  0000 C CNN
F 1 "M273C" H 4400 9126 50  0000 C CNN
F 2 "" H 4400 8450 50  0001 C CNN
F 3 "" H 4400 8450 50  0001 C CNN
F 4 "UCC483;UCC495;UCC499;UCC503;UCC508;UCC512;UCC517;UCC521" H 4400 8450 50  0001 C CNN "MiscRef"
	1    4400 8450
	1    0    0    -1  
$EndComp
$Comp
L A5C:M273C UCG340
U 1 1 6891EA2A
P 10050 2800
AR Path="/5F830D9B/6891EA2A" Ref="UCG340"  Part="1" 
AR Path="/5FBEEC97/5FC01C21/6891EA2A" Ref="UCG340"  Part="1" 
F 0 "UCG340" H 10050 3567 50  0000 C CNN
F 1 "M273C" H 10050 3476 50  0000 C CNN
F 2 "" H 10050 2800 50  0001 C CNN
F 3 "" H 10050 2800 50  0001 C CNN
F 4 "UCG338;UCG345;UCG349;UCG354;UCG358;UCG363;UCG367;UCG371;UCG376" H 10050 2800 50  0001 C CNN "MiscRef"
	1    10050 2800
	1    0    0    -1  
$EndComp
$Comp
L A5C:M273C UCJ340
U 1 1 695D4A5E
P 10050 4650
AR Path="/5F830D9B/695D4A5E" Ref="UCJ340"  Part="1" 
AR Path="/5FBEEC97/5FC01C21/695D4A5E" Ref="UCJ340"  Part="1" 
F 0 "UCJ340" H 10050 5417 50  0000 C CNN
F 1 "M273C" H 10050 5326 50  0000 C CNN
F 2 "" H 10050 4650 50  0001 C CNN
F 3 "" H 10050 4650 50  0001 C CNN
F 4 "UCJ338;UCJ345;UCJ349;UCJ354;UCJ358;UCJ363;UCJ367;UCJ371;UCJ376" H 10050 4650 50  0001 C CNN "MiscRef"
	1    10050 4650
	1    0    0    -1  
$EndComp
$Comp
L A5C:M273C UBK460
U 1 1 6D3FC902
P 10050 6500
AR Path="/5F830D9B/6D3FC902" Ref="UBK460"  Part="1" 
AR Path="/5FBEEC97/5FC01C21/6D3FC902" Ref="UBK460"  Part="1" 
F 0 "UBK460" H 10050 7267 50  0000 C CNN
F 1 "M273C" H 10050 7176 50  0000 C CNN
F 2 "" H 10050 6500 50  0001 C CNN
F 3 "" H 10050 6500 50  0001 C CNN
F 4 "UBK457;UBK464;UBK469;UBK473;UBK478;UBK482;UBK487;UBK491;UBK495" H 10050 6500 50  0001 C CNN "MiscRef"
	1    10050 6500
	1    0    0    -1  
$EndComp
$Comp
L A5C:M273C UBU458
U 1 1 6C354EA1
P 10050 8350
AR Path="/5F830D9B/6C354EA1" Ref="UBU458"  Part="1" 
AR Path="/5FBEEC97/5FC01C21/6C354EA1" Ref="UBU458"  Part="1" 
F 0 "UBU458" H 10050 9117 50  0000 C CNN
F 1 "M273C" H 10050 9026 50  0000 C CNN
F 2 "" H 10050 8350 50  0001 C CNN
F 3 "" H 10050 8350 50  0001 C CNN
F 4 "UBU456;UBU463;UBU467;UBU472;UBU476;UBU481;UBU485;UBU489;UBU494" H 10050 8350 50  0001 C CNN "MiscRef"
	1    10050 8350
	1    0    0    -1  
$EndComp
$Comp
L A5C:M152C UCR496
U 1 1 783393AC
P 6000 2850
AR Path="/5F830D9B/783393AC" Ref="UCR496"  Part="1" 
AR Path="/5FBEEC97/5FC01C21/783393AC" Ref="UCR496"  Part="1" 
F 0 "UCR496" H 6000 3565 50  0000 C CNN
F 1 "M152C" H 6000 3474 50  0000 C CNN
F 2 "" H 6000 2850 50  0001 C CNN
F 3 "" H 6000 2850 50  0001 C CNN
	1    6000 2850
	1    0    0    -1  
$EndComp
$Comp
L A5C:M152C UCT497
U 1 1 783393BA
P 6000 4700
AR Path="/5F830D9B/783393BA" Ref="UCT497"  Part="1" 
AR Path="/5FBEEC97/5FC01C21/783393BA" Ref="UCT497"  Part="1" 
F 0 "UCT497" H 6000 5415 50  0000 C CNN
F 1 "M152C" H 6000 5324 50  0000 C CNN
F 2 "" H 6000 4700 50  0001 C CNN
F 3 "" H 6000 4700 50  0001 C CNN
	1    6000 4700
	1    0    0    -1  
$EndComp
$Comp
L A5C:M152C UCL498
U 1 1 7833939E
P 6000 6550
AR Path="/5F830D9B/7833939E" Ref="UCL498"  Part="1" 
AR Path="/5FBEEC97/5FC01C21/7833939E" Ref="UCL498"  Part="1" 
F 0 "UCL498" H 6000 7265 50  0000 C CNN
F 1 "M152C" H 6000 7174 50  0000 C CNN
F 2 "" H 6000 6550 50  0001 C CNN
F 3 "" H 6000 6550 50  0001 C CNN
	1    6000 6550
	1    0    0    -1  
$EndComp
$Comp
L A5C:M152C UCC461
U 1 1 78339390
P 6000 8400
AR Path="/5F830D9B/78339390" Ref="UCC461"  Part="1" 
AR Path="/5FBEEC97/5FC01C21/78339390" Ref="UCC461"  Part="1" 
F 0 "UCC461" H 6000 9115 50  0000 C CNN
F 1 "M152C" H 6000 9024 50  0000 C CNN
F 2 "" H 6000 8400 50  0001 C CNN
F 3 "" H 6000 8400 50  0001 C CNN
	1    6000 8400
	1    0    0    -1  
$EndComp
$Comp
L A5C:M152C UCG383
U 1 1 65A44799
P 11650 2750
AR Path="/5F830D9B/65A44799" Ref="UCG383"  Part="1" 
AR Path="/5FBEEC97/5FC01C21/65A44799" Ref="UCG383"  Part="1" 
F 0 "UCG383" H 11650 3465 50  0000 C CNN
F 1 "M152C" H 11650 3374 50  0000 C CNN
F 2 "" H 11650 2750 50  0001 C CNN
F 3 "" H 11650 2750 50  0001 C CNN
	1    11650 2750
	1    0    0    -1  
$EndComp
$Comp
L A5C:M152C UCJ383
U 1 1 6C56A6D6
P 11650 4600
AR Path="/5F830D9B/6C56A6D6" Ref="UCJ383"  Part="1" 
AR Path="/5FBEEC97/5FC01C21/6C56A6D6" Ref="UCJ383"  Part="1" 
F 0 "UCJ383" H 11650 5315 50  0000 C CNN
F 1 "M152C" H 11650 5224 50  0000 C CNN
F 2 "" H 11650 4600 50  0001 C CNN
F 3 "" H 11650 4600 50  0001 C CNN
	1    11650 4600
	1    0    0    -1  
$EndComp
$Comp
L A5C:M152C UBK499
U 1 1 6E30C239
P 11650 6450
AR Path="/5F830D9B/6E30C239" Ref="UBK499"  Part="1" 
AR Path="/5FBEEC97/5FC01C21/6E30C239" Ref="UBK499"  Part="1" 
F 0 "UBK499" H 11650 7165 50  0000 C CNN
F 1 "M152C" H 11650 7074 50  0000 C CNN
F 2 "" H 11650 6450 50  0001 C CNN
F 3 "" H 11650 6450 50  0001 C CNN
	1    11650 6450
	1    0    0    -1  
$EndComp
$Comp
L A5C:M152C UBU498
U 1 1 6CF3C0F4
P 11650 8300
AR Path="/5F830D9B/6CF3C0F4" Ref="UBU498"  Part="1" 
AR Path="/5FBEEC97/5FC01C21/6CF3C0F4" Ref="UBU498"  Part="1" 
F 0 "UBU498" H 11650 9015 50  0000 C CNN
F 1 "M152C" H 11650 8924 50  0000 C CNN
F 2 "" H 11650 8300 50  0001 C CNN
F 3 "" H 11650 8300 50  0001 C CNN
	1    11650 8300
	1    0    0    -1  
$EndComp
Wire Bus Line
	4850 9450 4850 10050
Wire Bus Line
	2100 600  2100 1750
Wire Bus Line
	7850 600  7850 1500
$EndSCHEMATC
