EESchema Schematic File Version 4
EELAYER 30 0
EELAYER END
$Descr A4 11693 8268
encoding utf-8
Sheet 9 69
Title ""
Date "2020-11-26"
Rev ""
Comp ""
Comment1 "Licence: CC-BY"
Comment2 "Author: Loïc *WydD* Petit"
Comment3 ""
Comment4 ""
$EndDescr
Connection ~ 5350 2550
Connection ~ 4550 3250
Connection ~ 5350 3000
Connection ~ 8800 3200
Connection ~ 8800 3100
Connection ~ 6900 3250
Connection ~ 6900 4950
Connection ~ 4950 3650
Connection ~ 5050 3750
Connection ~ 4550 4950
Connection ~ 5350 4200
Connection ~ 3400 3500
Connection ~ 5250 4050
Connection ~ 2800 1250
Connection ~ 4850 1900
Connection ~ 4950 2000
Connection ~ 8800 2600
Connection ~ 8800 2700
Connection ~ 8800 3000
Connection ~ 8800 2800
Connection ~ 8800 2900
Connection ~ 6900 1600
Connection ~ 5050 2100
Connection ~ 4850 3550
Connection ~ 4750 3450
NoConn ~ 3900 3600
NoConn ~ 9150 1400
Entry Wire Line
	10450 2700 10550 2800
Entry Wire Line
	10450 2800 10550 2900
Entry Wire Line
	10450 2900 10550 3000
Entry Wire Line
	10450 3000 10550 3100
Entry Wire Line
	10450 3100 10550 3200
Entry Wire Line
	10450 3200 10550 3300
Entry Wire Line
	10450 3300 10550 3400
Wire Wire Line
	3250 3500 3400 3500
Wire Wire Line
	3400 3150 3900 3150
Wire Wire Line
	3400 3500 3400 3150
Wire Wire Line
	3800 1900 4850 1900
Wire Wire Line
	3800 2000 4950 2000
Wire Wire Line
	3800 2100 5050 2100
Wire Wire Line
	3800 2700 5450 2700
Wire Wire Line
	3800 4350 5450 4350
Wire Wire Line
	3800 6050 5450 6050
Wire Wire Line
	3900 3150 3900 3400
Wire Wire Line
	4400 2550 5350 2550
Wire Wire Line
	4450 3450 4750 3450
Wire Wire Line
	4750 1800 4750 3450
Wire Wire Line
	4750 3450 5450 3450
Wire Wire Line
	4850 1900 4850 3550
Wire Wire Line
	4850 3550 4850 5200
Wire Wire Line
	4850 3550 5450 3550
Wire Wire Line
	4850 5200 5450 5200
Wire Wire Line
	4950 2000 5450 2000
Wire Wire Line
	4950 3650 4950 2000
Wire Wire Line
	4950 3650 4950 5300
Wire Wire Line
	4950 5300 5450 5300
Wire Wire Line
	5050 2100 5050 3750
Wire Wire Line
	5050 3750 5050 5400
Wire Wire Line
	5050 3750 5450 3750
Wire Wire Line
	5050 5400 5450 5400
Wire Wire Line
	5150 2200 5450 2200
Wire Wire Line
	5150 3850 5150 2200
Wire Wire Line
	5250 2400 5250 4050
Wire Wire Line
	5250 4050 5250 5650
Wire Wire Line
	5250 4050 5450 4050
Wire Wire Line
	5250 5650 5450 5650
Wire Wire Line
	5350 2550 5350 3000
Wire Wire Line
	5350 3000 5350 4200
Wire Wire Line
	5350 3000 7700 3000
Wire Wire Line
	5350 4200 5350 5850
Wire Wire Line
	5350 4200 5450 4200
Wire Wire Line
	5350 5850 5450 5850
Wire Wire Line
	5450 1800 4750 1800
Wire Wire Line
	5450 1900 4850 1900
Wire Wire Line
	5450 2100 5050 2100
Wire Wire Line
	5450 2400 5250 2400
Wire Wire Line
	5450 2550 5350 2550
Wire Wire Line
	5450 3650 4950 3650
Wire Wire Line
	5450 3850 5150 3850
Wire Wire Line
	6700 1800 7200 1800
Wire Wire Line
	6700 3500 8250 3500
Wire Wire Line
	6700 5150 7400 5150
Wire Wire Line
	7200 1200 7800 1200
Wire Wire Line
	7200 1800 7200 1200
Wire Wire Line
	7300 1300 7300 3400
Wire Wire Line
	7300 3400 6700 3400
Wire Wire Line
	7400 1400 7400 5150
Wire Wire Line
	7400 1400 7800 1400
Wire Wire Line
	7500 1500 7500 5250
Wire Wire Line
	7500 1500 8650 1500
Wire Wire Line
	7500 5250 6700 5250
Wire Wire Line
	7600 1900 6700 1900
Wire Wire Line
	7600 3400 7600 1900
Wire Wire Line
	7600 3600 7600 5350
Wire Wire Line
	7600 5350 6700 5350
Wire Wire Line
	7700 1700 8900 1700
Wire Wire Line
	7700 3000 7700 1700
Wire Wire Line
	7800 1300 7300 1300
Wire Wire Line
	8250 3400 7600 3400
Wire Wire Line
	8250 3600 7600 3600
Wire Wire Line
	8600 2600 8800 2600
Wire Wire Line
	8800 2600 8800 2700
Wire Wire Line
	8800 2700 8800 2800
Wire Wire Line
	8800 2800 8800 2900
Wire Wire Line
	8800 2900 8800 3000
Wire Wire Line
	8800 3000 8800 3100
Wire Wire Line
	8800 3100 8800 3200
Wire Wire Line
	8800 3200 8800 3300
Wire Wire Line
	9800 2700 10450 2700
Wire Wire Line
	9800 2800 10450 2800
Wire Wire Line
	9800 2900 10450 2900
Wire Wire Line
	9800 3000 10450 3000
Wire Wire Line
	9800 3100 10450 3100
Wire Wire Line
	9800 3200 10450 3200
Wire Wire Line
	9800 3300 10450 3300
Wire Bus Line
	1800 1250 2800 1250
Wire Bus Line
	2800 1250 6900 1250
Wire Bus Line
	2800 4950 3050 4950
Wire Bus Line
	4350 4950 4550 4950
Wire Bus Line
	4550 1600 4550 3250
Wire Bus Line
	4550 3250 4550 4950
Wire Bus Line
	4550 3250 5450 3250
Wire Bus Line
	5450 1600 4550 1600
Wire Bus Line
	5450 4950 4550 4950
Wire Bus Line
	6700 1600 6900 1600
Wire Bus Line
	6700 3250 6900 3250
Wire Bus Line
	6700 4950 6900 4950
Wire Bus Line
	6900 1600 6900 1250
Wire Bus Line
	6900 1600 6900 3250
Wire Bus Line
	6900 3250 6900 4950
Wire Bus Line
	10550 4950 6900 4950
Text Notes 3000 2700 0    50   ~ 0
0x12
Text Notes 3000 4350 0    50   ~ 0
0x10
Text Notes 3000 6050 0    50   ~ 0
0x0E
Text Label 2950 3850 0    50   ~ 0
BUS-DATA15
Text Label 9900 2700 0    50   ~ 0
BUS-DATA9
Text Label 9900 2800 0    50   ~ 0
BUS-DATA10
Text Label 9900 2900 0    50   ~ 0
BUS-DATA11
Text Label 9900 3000 0    50   ~ 0
BUS-DATA12
Text Label 9900 3100 0    50   ~ 0
BUS-DATA13
Text Label 9900 3200 0    50   ~ 0
BUS-DATA14
Text Label 9900 3300 0    50   ~ 0
BUS-DATA15
Text HLabel 3400 3700 0    50   Input ~ 0
~CLK4M
$Comp
L power:GND #PWR0107
U 1 1 5F84D4DE
P 8600 2600
F 0 "#PWR0107" H 8600 2350 50  0001 C CNN
F 1 "GND" H 8605 2430 50  0000 C CNN
F 2 "" H 8600 2600 50  0001 C CNN
F 3 "" H 8600 2600 50  0001 C CNN
	1    8600 2600
	1    0    0    -1  
$EndComp
$Comp
L A5C:OR02 UBK309
U 1 1 601E0AA0
P 4150 3450
F 0 "UBK309" H 4175 3717 50  0000 C CNN
F 1 "OR02" H 4175 3626 50  0000 C CNN
F 2 "" H 4200 3450 50  0001 C CNN
F 3 "" H 4200 3450 50  0001 C CNN
	1    4150 3450
	1    0    0    -1  
$EndComp
$Comp
L A5C:AND03 UBR371
U 1 1 601E0AA3
P 8500 3500
F 0 "UBR371" H 8525 3792 50  0000 C CNN
F 1 "AND03" H 8525 3701 50  0000 C CNN
F 2 "" H 8500 3500 50  0001 C CNN
F 3 "" H 8500 3500 50  0001 C CNN
	1    8500 3500
	1    0    0    -1  
$EndComp
$Comp
L A5C:BUF12 UBR489
U 1 1 61DBBC12
P 4100 2550
F 0 "UBR489" H 4100 2867 50  0000 C CNN
F 1 "BUF12" H 4100 2776 50  0000 C CNN
F 2 "" H 4100 2550 50  0001 C CNN
F 3 "" H 4100 2550 50  0001 C CNN
	1    4100 2550
	1    0    0    -1  
$EndComp
$Comp
L A5C:BUF12 UCO232
U 1 1 6D7D961B
P 9450 1300
F 0 "UCO232" H 9450 1617 50  0000 C CNN
F 1 "BUF12" H 9450 1526 50  0000 C CNN
F 2 "" H 9450 1300 50  0001 C CNN
F 3 "" H 9450 1300 50  0001 C CNN
	1    9450 1300
	1    0    0    -1  
$EndComp
$Comp
L A5C:DFFCOO UBK317
U 1 1 67F070BC
P 3650 3600
F 0 "UBK317" H 3650 3965 50  0000 C CNN
F 1 "DFFCOO" H 3650 3874 50  0000 C CNN
F 2 "" H 3650 3600 50  0001 C CNN
F 3 "" H 3650 3600 50  0001 C CNN
F 4 "UBK315" H 3650 3600 50  0001 C CNN "MiscRef"
	1    3650 3600
	1    0    0    -1  
$EndComp
$Comp
L A5C:AOI21 UBZ353
U 1 1 76DDD6D8
P 8200 1300
F 0 "UBZ353" H 8225 1617 50  0000 C CNN
F 1 "AOI21" H 8225 1526 50  0000 C CNN
F 2 "" H 8350 1300 50  0001 C CNN
F 3 "" H 8350 1300 50  0001 C CNN
	1    8200 1300
	1    0    0    -1  
$EndComp
$Comp
L A5C:DFFCOR UBW371
U 1 1 6D7DBACB
P 8900 1400
F 0 "UBW371" H 8900 1765 50  0000 C CNN
F 1 "DFFCOR" H 8900 1674 50  0000 C CNN
F 2 "" H 8900 1400 50  0001 C CNN
F 3 "" H 8900 1400 50  0001 C CNN
F 4 "UBW370;UBW376" H 8900 1400 50  0001 C CNN "MiscRef"
	1    8900 1400
	1    0    0    -1  
$EndComp
$Comp
L A5C:M541C UBR325
U 1 1 601E0A93
P 9300 3050
F 0 "UBR325" H 9300 3765 50  0000 C CNN
F 1 "M541C" H 9300 3674 50  0000 C CNN
F 2 "" H 9600 3050 50  0001 C CNN
F 3 "" H 9600 3050 50  0001 C CNN
	1    9300 3050
	1    0    0    -1  
$EndComp
$Sheet
S 5450 1450 1250 1400
U 5FBC4DDD
F0 "counter1" 50
F1 "counter1.sch" 50
F2 "SET-~INC" I L 5450 1800 50 
F3 "LI" I L 5450 1900 50 
F4 "WR" I L 5450 2000 50 
F5 "RD" I L 5450 2100 50 
F6 "ENABLE" I L 5450 2700 50 
F7 "~RESET" I L 5450 2550 50 
F8 "~CLK4M" I L 5450 2400 50 
F9 "UK" I L 5450 2200 50 
F10 "~BUS[0..8]" I L 5450 1600 50 
F11 "~ZERO" O R 6700 1800 50 
F12 "~OUT-ENABLE" O R 6700 1900 50 
F13 "BUS-OUT[0..8]" T R 6700 1600 50 
$EndSheet
$Sheet
S 5450 3100 1250 1400
U 5FBC4DC5
F0 "counter2" 50
F1 "counter2.sch" 50
F2 "~CLK4M" I L 5450 4050 50 
F3 "UK" I L 5450 3850 50 
F4 "~OUT-ENABLE" O R 6700 3500 50 
F5 "BUS-OUT[0..8]" T R 6700 3250 50 
F6 "~ZERO" O R 6700 3400 50 
F7 "LI" I L 5450 3550 50 
F8 "SET-~INC" I L 5450 3450 50 
F9 "RD" I L 5450 3750 50 
F10 "~RESET" I L 5450 4200 50 
F11 "ENABLE" I L 5450 4350 50 
F12 "WR" I L 5450 3650 50 
F13 "~BUS[0..8]" I L 5450 3250 50 
$EndSheet
$Sheet
S 5450 4800 1250 1400
U 5FBC4DA0
F0 "counter3" 50
F1 "counter3.sch" 50
F2 "~BUS[0..8]" I L 5450 4950 50 
F3 "~CLK4M" I L 5450 5650 50 
F4 "LI" I L 5450 5200 50 
F5 "~RESET" I L 5450 5850 50 
F6 "WR" I L 5450 5300 50 
F7 "RD" I L 5450 5400 50 
F8 "ENABLE" I L 5450 6050 50 
F9 "~ZERO" O R 6700 5150 50 
F10 "~OUT-ENABLE" O R 6700 5350 50 
F11 "BUS-OUT[0..8]" T R 6700 4950 50 
F12 "_OUT0" O R 6700 5250 50 
$EndSheet
Text HLabel 9750 1300 2    50   Output ~ 0
~OBJUP
Text HLabel 3800 5650 0    50   Input ~ 0
~CLK4M
Wire Wire Line
	3800 5650 5250 5650
Connection ~ 5250 5650
Entry Wire Line
	2800 3750 2900 3850
Wire Wire Line
	2900 3850 5150 3850
Text HLabel 1800 1250 0    50   BiDi ~ 0
BUS-DATA[0..15]
Text HLabel 3800 2000 0    50   Input ~ 0
~BUS-WR
Text HLabel 3800 2100 0    50   Input ~ 0
~BUS-RD
Text HLabel 3800 2550 0    50   Input ~ 0
~LUT-RESET
Connection ~ 5150 3850
Text HLabel 3800 1900 0    50   Input ~ 0
LI
Text HLabel 3800 2700 0    50   Input ~ 0
~RASTER3
Text HLabel 3800 4350 0    50   Input ~ 0
~RASTER2
Text HLabel 3800 6050 0    50   Input ~ 0
~RASTER1
Text HLabel 3250 3500 0    50   Input ~ 0
FI
NoConn ~ 9800 2600
$Sheet
S 3050 4750 1300 400 
U 5FBC4DCD
F0 "counters-bus-buffer" 50
F1 "counters-bus-buffer.sch" 50
F2 "IN[0..8]" I L 3050 4950 50 
F3 "~OUT[0..8]" O R 4350 4950 50 
$EndSheet
Wire Bus Line
	2800 1250 2800 4950
Wire Bus Line
	10550 2800 10550 4950
$EndSCHEMATC
