EESchema Schematic File Version 4
EELAYER 30 0
EELAYER END
$Descr A4 11693 8268
encoding utf-8
Sheet 18 69
Title ""
Date "2020-11-26"
Rev ""
Comp ""
Comment1 "Licence: CC-BY"
Comment2 "Author: Loïc *WydD* Petit"
Comment3 ""
Comment4 ""
$EndDescr
Connection ~ 3350 3650
Connection ~ 3350 4950
Connection ~ 3350 4300
Connection ~ 4650 4100
Connection ~ 5400 4100
Connection ~ 5500 3450
Connection ~ 5600 3350
Connection ~ 6000 3250
Connection ~ 6100 3150
Connection ~ 6200 3050
Connection ~ 6300 2950
Connection ~ 6450 5000
Connection ~ 6800 5550
Connection ~ 6800 5650
Connection ~ 8300 5000
Connection ~ 5250 4800
NoConn ~ 3950 2900
NoConn ~ 3950 3550
NoConn ~ 3950 4200
NoConn ~ 3950 4850
Entry Wire Line
	2900 2700 3000 2800
Entry Wire Line
	2900 3350 3000 3450
Entry Wire Line
	2900 4000 3000 4100
Entry Wire Line
	2900 4650 3000 4750
Entry Wire Line
	4200 1150 4100 1050
Entry Wire Line
	4200 1250 4100 1150
Entry Wire Line
	4200 1350 4100 1250
Entry Wire Line
	4200 1450 4100 1350
Entry Wire Line
	4200 1650 4100 1750
Entry Wire Line
	4200 1750 4100 1850
Entry Wire Line
	4200 1850 4100 1950
Entry Wire Line
	4200 1950 4100 2050
Entry Wire Line
	7850 2950 7950 2850
Entry Wire Line
	7850 3050 7950 2950
Entry Wire Line
	7850 3150 7950 3050
Entry Wire Line
	7850 3250 7950 3150
Entry Wire Line
	7850 3350 7950 3250
Entry Wire Line
	7850 3450 7950 3350
Entry Wire Line
	7850 3550 7950 3450
Entry Wire Line
	8200 4100 8300 4200
Entry Wire Line
	8200 4200 8300 4300
Entry Wire Line
	8200 4300 8300 4400
Entry Wire Line
	8200 4400 8300 4500
Entry Wire Line
	8200 4500 8300 4600
Entry Wire Line
	8200 4600 8300 4700
Entry Wire Line
	8200 4700 8300 4800
Entry Wire Line
	8200 4800 8300 4900
Entry Wire Line
	8200 5450 8300 5350
Entry Wire Line
	8200 5550 8300 5450
Entry Wire Line
	8200 5650 8300 5550
Entry Wire Line
	8200 5750 8300 5650
Wire Wire Line
	2700 5350 2800 5350
Wire Wire Line
	2700 5450 2800 5450
Wire Wire Line
	3350 3000 3350 3650
Wire Wire Line
	3350 3650 3350 4300
Wire Wire Line
	3350 4300 3350 4950
Wire Wire Line
	3350 4950 3450 4950
Wire Wire Line
	3350 5400 3350 4950
Wire Wire Line
	3450 2800 3000 2800
Wire Wire Line
	3450 3000 3350 3000
Wire Wire Line
	3450 3450 3000 3450
Wire Wire Line
	3450 3650 3350 3650
Wire Wire Line
	3450 4100 3000 4100
Wire Wire Line
	3450 4300 3350 4300
Wire Wire Line
	3450 4750 3000 4750
Wire Wire Line
	3950 2800 5600 2800
Wire Wire Line
	3950 4750 4600 4750
Wire Wire Line
	4200 1150 4900 1150
Wire Wire Line
	4200 1250 4900 1250
Wire Wire Line
	4200 1350 4900 1350
Wire Wire Line
	4200 1450 4900 1450
Wire Wire Line
	4200 1650 4900 1650
Wire Wire Line
	4200 1750 4900 1750
Wire Wire Line
	4200 1850 4900 1850
Wire Wire Line
	4200 1950 4900 1950
Wire Wire Line
	4500 5050 4600 5050
Wire Wire Line
	4600 5050 4600 4850
Wire Wire Line
	4650 2150 4650 4100
Wire Wire Line
	4650 4100 3950 4100
Wire Wire Line
	4900 2150 4650 2150
Wire Wire Line
	5150 4800 5250 4800
Wire Wire Line
	5250 4800 6800 4800
Wire Wire Line
	5250 5700 5250 4800
Wire Wire Line
	5400 3550 7850 3550
Wire Wire Line
	5400 4100 4650 4100
Wire Wire Line
	5400 4100 5400 3550
Wire Wire Line
	5400 4700 5400 4100
Wire Wire Line
	5400 4700 6800 4700
Wire Wire Line
	5500 3450 3950 3450
Wire Wire Line
	5500 3450 7850 3450
Wire Wire Line
	5500 4600 5500 3450
Wire Wire Line
	5500 4600 6800 4600
Wire Wire Line
	5600 2800 5600 3350
Wire Wire Line
	5600 3350 5600 4500
Wire Wire Line
	5600 3350 7850 3350
Wire Wire Line
	5600 4500 6800 4500
Wire Wire Line
	5800 5750 5950 5750
Wire Wire Line
	5900 1500 6200 1500
Wire Wire Line
	6000 1700 5900 1700
Wire Wire Line
	6000 1700 6000 3250
Wire Wire Line
	6000 3250 6000 4400
Wire Wire Line
	6100 1600 5900 1600
Wire Wire Line
	6100 1600 6100 3150
Wire Wire Line
	6100 3150 6100 4300
Wire Wire Line
	6100 3150 7850 3150
Wire Wire Line
	6200 1500 6200 3050
Wire Wire Line
	6200 3050 6200 4200
Wire Wire Line
	6200 4200 6800 4200
Wire Wire Line
	6300 1400 5900 1400
Wire Wire Line
	6300 1400 6300 2950
Wire Wire Line
	6300 2950 6300 4100
Wire Wire Line
	6300 2950 7850 2950
Wire Wire Line
	6350 5000 6450 5000
Wire Wire Line
	6450 5000 6450 5900
Wire Wire Line
	6450 5000 6800 5000
Wire Wire Line
	6450 5900 6800 5900
Wire Wire Line
	6650 5550 6800 5550
Wire Wire Line
	6800 4100 6300 4100
Wire Wire Line
	6800 4300 6100 4300
Wire Wire Line
	6800 4400 6000 4400
Wire Wire Line
	6800 5450 6800 5550
Wire Wire Line
	6800 5550 6800 5650
Wire Wire Line
	6800 5650 6800 5750
Wire Wire Line
	7800 4100 8200 4100
Wire Wire Line
	7800 4200 8200 4200
Wire Wire Line
	7800 4300 8200 4300
Wire Wire Line
	7800 4400 8200 4400
Wire Wire Line
	7800 4500 8200 4500
Wire Wire Line
	7800 4600 8200 4600
Wire Wire Line
	7800 4700 8200 4700
Wire Wire Line
	7800 4800 8200 4800
Wire Wire Line
	7800 5450 8200 5450
Wire Wire Line
	7800 5550 8200 5550
Wire Wire Line
	7800 5650 8200 5650
Wire Wire Line
	7800 5750 8200 5750
Wire Wire Line
	7850 3050 6200 3050
Wire Wire Line
	7850 3250 6000 3250
Wire Bus Line
	2900 2500 2750 2500
Wire Bus Line
	4100 950  4000 950 
Wire Bus Line
	4100 2150 4000 2150
Wire Bus Line
	7950 2700 8100 2700
Wire Bus Line
	8300 5000 8400 5000
Text Label 3050 2800 0    50   ~ 0
PD5
Text Label 3050 3450 0    50   ~ 0
PD6
Text Label 3050 4100 0    50   ~ 0
PD7
Text Label 3050 4750 0    50   ~ 0
PD8
Text Label 4250 1650 0    50   ~ 0
CNT1-Q0
Text Label 4250 1750 0    50   ~ 0
CNT1-Q1
Text Label 4250 1850 0    50   ~ 0
CNT1-Q2
Text Label 4250 1950 0    50   ~ 0
CNT1-Q3
Text Label 4600 1150 2    50   ~ 0
CNT0-Q0
Text Label 4600 1250 2    50   ~ 0
CNT0-Q1
Text Label 4600 1350 2    50   ~ 0
CNT0-Q2
Text Label 4600 1450 2    50   ~ 0
CNT0-Q3
Text Label 7450 2950 0    50   ~ 0
ROW5-D0
Text Label 7450 3050 0    50   ~ 0
ROW5-D1
Text Label 7450 3150 0    50   ~ 0
ROW5-D2
Text Label 7450 3250 0    50   ~ 0
ROW5-D3
Text Label 7450 3350 0    50   ~ 0
ROW5-D4
Text Label 7450 3450 0    50   ~ 0
ROW5-D5
Text Label 7450 3550 0    50   ~ 0
ROW5-D6
Text Label 7900 4100 0    50   ~ 0
TD0
Text Label 7900 4200 0    50   ~ 0
TD1
Text Label 7900 4300 0    50   ~ 0
TD2
Text Label 7900 4400 0    50   ~ 0
TD3
Text Label 7900 4500 0    50   ~ 0
TD4
Text Label 7900 4600 0    50   ~ 0
TD5
Text Label 7900 4700 0    50   ~ 0
TD6
Text Label 7900 4800 0    50   ~ 0
TD7
Text Label 7900 5450 0    50   ~ 0
TD8
Text Label 7900 5550 0    50   ~ 0
TD9
Text Label 7900 5650 0    50   ~ 0
TD10
Text Label 7900 5750 0    50   ~ 0
TD11
Text HLabel 2700 5350 0    50   Input ~ 0
ZERO-XS2
Text HLabel 2700 5450 0    50   Input ~ 0
CLK8M
Text HLabel 2750 2500 0    50   Input ~ 0
PD[5..8]
Text HLabel 4000 950  0    50   Input ~ 0
CNT0-Q[0..3]
Text HLabel 4000 2150 0    50   Input ~ 0
CNT1-Q[0..3]
Text HLabel 4500 5050 0    50   Input ~ 0
ZERO-PD5
Text HLabel 5250 5800 0    50   Input ~ 0
~ENABLE
Text HLabel 5950 5750 2    50   Output ~ 0
~ROW5-E
Text HLabel 8100 2700 2    50   Output ~ 0
ROW5-D[0..6]
Text HLabel 8400 5000 2    50   3State ~ 0
TD[0..11]
$Comp
L power:GND #PWR?
U 1 1 62F5DCDA
P 6650 5550
AR Path="/62F5DCDA" Ref="#PWR?"  Part="1" 
AR Path="/621F1DB4/62F5DCDA" Ref="#PWR?"  Part="1" 
AR Path="/5FBCE4A9/5FBD0B3A/62F5DCDA" Ref="#PWR0110"  Part="1" 
F 0 "#PWR0110" H 6650 5300 50  0001 C CNN
F 1 "GND" H 6655 5380 50  0000 C CNN
F 2 "" H 6650 5550 50  0001 C CNN
F 3 "" H 6650 5550 50  0001 C CNN
	1    6650 5550
	1    0    0    -1  
$EndComp
$Comp
L A5C:NAND02 UBU?
U 1 1 622D8BD2
P 3050 5400
AR Path="/622D8BD2" Ref="UBU?"  Part="1" 
AR Path="/621ABC04/622D8BD2" Ref="UBU?"  Part="1" 
AR Path="/5FAFC3AE/622D8BD2" Ref="UBU?"  Part="1" 
AR Path="/621F1DB4/622D8BD2" Ref="UBN193"  Part="1" 
AR Path="/5FBCE4A9/5FBD0B3A/622D8BD2" Ref="UBN193"  Part="1" 
F 0 "UBN193" H 3075 5666 50  0000 C CNN
F 1 "NAND02" H 3075 5575 50  0000 C CNN
F 2 "" H 3050 5400 50  0001 C CNN
F 3 "" H 3050 5400 50  0001 C CNN
	1    3050 5400
	1    0    0    -1  
$EndComp
$Comp
L A5C:NAND02 UBK?
U 1 1 622D8BF3
P 4850 4800
AR Path="/5FAC57E1/622D8BF3" Ref="UBK?"  Part="1" 
AR Path="/5FAFC3AE/622D8BF3" Ref="UBK?"  Part="1" 
AR Path="/621F1DB4/622D8BF3" Ref="UBR141"  Part="1" 
AR Path="/5FBCE4A9/5FBD0B3A/622D8BF3" Ref="UBR141"  Part="1" 
F 0 "UBR141" H 4875 5067 50  0000 C CNN
F 1 "NAND02" H 4875 4976 50  0000 C CNN
F 2 "" H 4850 4800 50  0001 C CNN
F 3 "" H 4850 4800 50  0001 C CNN
	1    4850 4800
	1    0    0    -1  
$EndComp
$Comp
L A5C:OR02 UBF?
U 1 1 67A04187
P 5500 5750
AR Path="/614CE0F4/67A04187" Ref="UBF?"  Part="1" 
AR Path="/621F1DB4/67A04187" Ref="UBF13"  Part="1" 
AR Path="/5FBCE4A9/5FBD0B3A/67A04187" Ref="UBF13"  Part="1" 
F 0 "UBF13" H 5525 6017 50  0000 C CNN
F 1 "OR02" H 5525 5926 50  0000 C CNN
F 2 "" H 5550 5750 50  0001 C CNN
F 3 "" H 5550 5750 50  0001 C CNN
	1    5500 5750
	1    0    0    -1  
$EndComp
$Comp
L A5C:DFFCOO UBH?
U 1 1 622D8BD9
P 3700 2900
AR Path="/5FAFC3AE/622D8BD9" Ref="UBH?"  Part="1" 
AR Path="/621F1DB4/622D8BD9" Ref="UBR118"  Part="1" 
AR Path="/5FBCE4A9/5FBD0B3A/622D8BD9" Ref="UBR118"  Part="1" 
F 0 "UBR118" H 3700 3265 50  0000 C CNN
F 1 "DFFCOO" H 3700 3174 50  0000 C CNN
F 2 "" H 3700 2900 50  0001 C CNN
F 3 "" H 3700 2900 50  0001 C CNN
F 4 "UBR117" H 3700 2900 50  0001 C CNN "MiscRef"
	1    3700 2900
	1    0    0    -1  
$EndComp
$Comp
L A5C:DFFCOO UBH?
U 1 1 622D8BDF
P 3700 3550
AR Path="/5FAFC3AE/622D8BDF" Ref="UBH?"  Part="1" 
AR Path="/621F1DB4/622D8BDF" Ref="UBR122"  Part="1" 
AR Path="/5FBCE4A9/5FBD0B3A/622D8BDF" Ref="UBR122"  Part="1" 
F 0 "UBR122" H 3700 3915 50  0000 C CNN
F 1 "DFFCOO" H 3700 3824 50  0000 C CNN
F 2 "" H 3700 3550 50  0001 C CNN
F 3 "" H 3700 3550 50  0001 C CNN
	1    3700 3550
	1    0    0    -1  
$EndComp
$Comp
L A5C:DFFCOO UBH?
U 1 1 622D8BE5
P 3700 4200
AR Path="/5FAFC3AE/622D8BE5" Ref="UBH?"  Part="1" 
AR Path="/621F1DB4/622D8BE5" Ref="UBR126"  Part="1" 
AR Path="/5FBCE4A9/5FBD0B3A/622D8BE5" Ref="UBR126"  Part="1" 
F 0 "UBR126" H 3700 4565 50  0000 C CNN
F 1 "DFFCOO" H 3700 4474 50  0000 C CNN
F 2 "" H 3700 4200 50  0001 C CNN
F 3 "" H 3700 4200 50  0001 C CNN
	1    3700 4200
	1    0    0    -1  
$EndComp
$Comp
L A5C:DFFCOO UBH?
U 1 1 622D8BEB
P 3700 4850
AR Path="/5FAFC3AE/622D8BEB" Ref="UBH?"  Part="1" 
AR Path="/621F1DB4/622D8BEB" Ref="UBR130"  Part="1" 
AR Path="/5FBCE4A9/5FBD0B3A/622D8BEB" Ref="UBR130"  Part="1" 
F 0 "UBR130" H 3700 5215 50  0000 C CNN
F 1 "DFFCOO" H 3700 5124 50  0000 C CNN
F 2 "" H 3700 4850 50  0001 C CNN
F 3 "" H 3700 4850 50  0001 C CNN
	1    3700 4850
	1    0    0    -1  
$EndComp
$Comp
L A5C:M367C UBK331
U 1 1 62E72CCE
P 7300 5700
AR Path="/621F1DB4/62E72CCE" Ref="UBK331"  Part="1" 
AR Path="/5FBCE4A9/5FBD0B3A/62E72CCE" Ref="UBK331"  Part="1" 
F 0 "UBK331" H 7300 6215 50  0000 C CNN
F 1 "M367C" H 7300 6124 50  0000 C CNN
F 2 "" H 7600 5500 50  0001 C CNN
F 3 "" H 7600 5500 50  0001 C CNN
	1    7300 5700
	1    0    0    -1  
$EndComp
$Comp
L A5C:M541C UBD?
U 1 1 62843C93
P 7300 4550
AR Path="/5FAFC3AE/62843C93" Ref="UBD?"  Part="1" 
AR Path="/621F1DB4/62843C93" Ref="UBK219"  Part="1" 
AR Path="/5FBCE4A9/5FBD0B3A/62843C93" Ref="UBK219"  Part="1" 
F 0 "UBK219" H 7300 5265 50  0000 C CNN
F 1 "M541C" H 7300 5174 50  0000 C CNN
F 2 "" H 7600 4550 50  0001 C CNN
F 3 "" H 7600 4550 50  0001 C CNN
	1    7300 4550
	1    0    0    -1  
$EndComp
$Comp
L A5C:MUX24H UBK?
U 1 1 62C7F38B
P 5400 1750
AR Path="/5FAFC3AE/62C7F38B" Ref="UBK?"  Part="1" 
AR Path="/621F1DB4/62C7F38B" Ref="UBH243"  Part="1" 
AR Path="/5FBCE4A9/5FBD0B3A/62C7F38B" Ref="UBH243"  Part="1" 
F 0 "UBH243" H 5400 2615 50  0000 C CNN
F 1 "MUX24H" H 5400 2524 50  0000 C CNN
F 2 "" H 5400 1750 50  0001 C CNN
F 3 "" H 5400 1750 50  0001 C CNN
F 4 "UBH244;UBH248;UBH251;UBH254" H 5400 1750 50  0001 C CNN "MiscRef"
	1    5400 1750
	1    0    0    -1  
$EndComp
Text HLabel 6350 5000 0    50   Input ~ 0
~DEBUG
Wire Bus Line
	2900 2500 2900 4650
Wire Bus Line
	4100 950  4100 1350
Wire Bus Line
	4100 1750 4100 2150
Wire Bus Line
	8300 5000 8300 5650
Wire Bus Line
	7950 2700 7950 3450
Wire Bus Line
	8300 4200 8300 5000
$EndSCHEMATC
