EESchema Schematic File Version 4
EELAYER 30 0
EELAYER END
$Descr A3 16535 11693
encoding utf-8
Sheet 21 69
Title ""
Date "2020-11-26"
Rev ""
Comp ""
Comment1 "Licence: CC-BY"
Comment2 "Author: Loïc *WydD* Petit"
Comment3 ""
Comment4 ""
$EndDescr
Connection ~ 6900 4700
Connection ~ 7000 4600
Connection ~ 7100 4500
Connection ~ 7400 3600
Connection ~ 7200 3700
Connection ~ 6100 4000
Connection ~ 6100 3200
Connection ~ 7400 2200
Connection ~ 7200 2300
Connection ~ 7200 3000
Connection ~ 7400 2900
Connection ~ 7000 3900
Connection ~ 7100 3800
Connection ~ 7100 3100
Connection ~ 7200 4400
Connection ~ 5200 3850
Connection ~ 5200 3050
Connection ~ 5200 4650
Connection ~ 6100 4800
Connection ~ 6900 9800
Connection ~ 7400 8700
Connection ~ 7200 8800
Connection ~ 6100 9100
Connection ~ 6100 8300
Connection ~ 7400 7300
Connection ~ 7200 7400
Connection ~ 7200 8100
Connection ~ 7400 8000
Connection ~ 7000 9000
Connection ~ 7100 8900
Connection ~ 7100 8200
Connection ~ 5200 8950
Connection ~ 5200 8150
Connection ~ 6100 9900
Connection ~ 6100 7500
Connection ~ 5200 9750
Connection ~ 7200 9500
Connection ~ 7100 9600
Connection ~ 7000 9700
Connection ~ 7100 10400
Connection ~ 7000 10500
Connection ~ 6900 10600
Connection ~ 6100 5500
NoConn ~ 6800 3800
NoConn ~ 6800 2200
NoConn ~ 6800 4600
NoConn ~ 6800 8900
NoConn ~ 6800 8100
NoConn ~ 6800 7300
NoConn ~ 6800 9700
NoConn ~ 6800 3000
Entry Wire Line
	7900 5200 8000 5300
Entry Wire Line
	7900 5300 8000 5400
Entry Wire Line
	7900 5400 8000 5500
Entry Wire Line
	7900 5500 8000 5600
Entry Wire Line
	7900 10300 8000 10400
Entry Wire Line
	7900 10400 8000 10500
Entry Wire Line
	7900 10500 8000 10600
Entry Wire Line
	7900 10600 8000 10700
Wire Wire Line
	4350 1300 4350 4550
Wire Wire Line
	4350 1300 9450 1300
Wire Wire Line
	4350 4550 5300 4550
Wire Wire Line
	4350 6400 4350 9650
Wire Wire Line
	4350 6400 9450 6400
Wire Wire Line
	4350 9650 5300 9650
Wire Wire Line
	4450 1400 9350 1400
Wire Wire Line
	4450 3750 4450 1400
Wire Wire Line
	4450 3750 5300 3750
Wire Wire Line
	4450 6500 9350 6500
Wire Wire Line
	4450 8850 4450 6500
Wire Wire Line
	4450 8850 5300 8850
Wire Wire Line
	4550 1500 4550 2950
Wire Wire Line
	4550 1500 9250 1500
Wire Wire Line
	4550 2950 5300 2950
Wire Wire Line
	4550 6600 4550 8050
Wire Wire Line
	4550 6600 9250 6600
Wire Wire Line
	4550 8050 5300 8050
Wire Wire Line
	4650 1600 9150 1600
Wire Wire Line
	4650 2150 4650 1600
Wire Wire Line
	4650 6700 9150 6700
Wire Wire Line
	4650 7250 4650 6700
Wire Wire Line
	4650 10100 4350 10100
Wire Wire Line
	4650 10850 4650 10200
Wire Wire Line
	5200 2250 5200 3050
Wire Wire Line
	5200 3050 5200 3850
Wire Wire Line
	5200 3850 5200 4650
Wire Wire Line
	5200 4650 4900 4650
Wire Wire Line
	5200 4650 5300 4650
Wire Wire Line
	5200 7350 5200 8150
Wire Wire Line
	5200 8150 5200 8950
Wire Wire Line
	5200 8950 5200 9750
Wire Wire Line
	5200 9750 5300 9750
Wire Wire Line
	5200 10150 5200 9750
Wire Wire Line
	5300 2150 4650 2150
Wire Wire Line
	5300 2250 5200 2250
Wire Wire Line
	5300 3050 5200 3050
Wire Wire Line
	5300 3850 5200 3850
Wire Wire Line
	5300 7250 4650 7250
Wire Wire Line
	5300 7350 5200 7350
Wire Wire Line
	5300 8150 5200 8150
Wire Wire Line
	5300 8950 5200 8950
Wire Wire Line
	5850 2200 6300 2200
Wire Wire Line
	5850 3000 6300 3000
Wire Wire Line
	5850 3800 6300 3800
Wire Wire Line
	5850 4600 6300 4600
Wire Wire Line
	5850 7300 6300 7300
Wire Wire Line
	5850 8100 6300 8100
Wire Wire Line
	5850 8900 6300 8900
Wire Wire Line
	5850 9700 6300 9700
Wire Wire Line
	5950 5500 6100 5500
Wire Wire Line
	5950 10100 6100 10100
Wire Wire Line
	6000 1100 6000 1200
Wire Wire Line
	6000 1200 5400 1200
Wire Wire Line
	6100 2400 6300 2400
Wire Wire Line
	6100 3200 6100 2400
Wire Wire Line
	6100 3200 6300 3200
Wire Wire Line
	6100 4000 6100 3200
Wire Wire Line
	6100 4800 6100 4000
Wire Wire Line
	6100 4800 6100 5500
Wire Wire Line
	6100 4800 6300 4800
Wire Wire Line
	6100 7500 6100 5500
Wire Wire Line
	6100 7500 6300 7500
Wire Wire Line
	6100 8300 6100 7500
Wire Wire Line
	6100 8300 6300 8300
Wire Wire Line
	6100 9100 6100 8300
Wire Wire Line
	6100 9900 6100 9100
Wire Wire Line
	6100 9900 6300 9900
Wire Wire Line
	6100 10100 6100 9900
Wire Wire Line
	6200 10850 4650 10850
Wire Wire Line
	6300 4000 6100 4000
Wire Wire Line
	6300 9100 6100 9100
Wire Wire Line
	6800 1050 6550 1050
Wire Wire Line
	6800 2300 7200 2300
Wire Wire Line
	6800 3100 7100 3100
Wire Wire Line
	6800 3900 7000 3900
Wire Wire Line
	6800 4700 6900 4700
Wire Wire Line
	6800 7400 7200 7400
Wire Wire Line
	6800 8200 7100 8200
Wire Wire Line
	6800 9000 7000 9000
Wire Wire Line
	6800 9800 6900 9800
Wire Wire Line
	6800 10800 7000 10800
Wire Wire Line
	6800 11000 7100 11000
Wire Wire Line
	6900 1900 6900 4700
Wire Wire Line
	6900 4700 6900 5500
Wire Wire Line
	6900 5500 7900 5500
Wire Wire Line
	6900 7000 6900 9800
Wire Wire Line
	6900 9800 6900 10600
Wire Wire Line
	6900 10600 6900 10700
Wire Wire Line
	6900 10600 7900 10600
Wire Wire Line
	6900 10700 6800 10700
Wire Wire Line
	7000 3900 7000 1900
Wire Wire Line
	7000 3900 7000 4600
Wire Wire Line
	7000 4600 7000 5400
Wire Wire Line
	7000 5400 7900 5400
Wire Wire Line
	7000 9000 7000 7000
Wire Wire Line
	7000 9000 7000 9700
Wire Wire Line
	7000 9700 7000 10500
Wire Wire Line
	7000 10500 7900 10500
Wire Wire Line
	7000 10800 7000 10500
Wire Wire Line
	7100 3100 7100 1900
Wire Wire Line
	7100 3100 7100 3800
Wire Wire Line
	7100 3800 7100 4500
Wire Wire Line
	7100 3800 7950 3800
Wire Wire Line
	7100 4500 7100 5300
Wire Wire Line
	7100 5300 7900 5300
Wire Wire Line
	7100 8200 7100 7000
Wire Wire Line
	7100 8200 7100 8900
Wire Wire Line
	7100 8900 7100 9600
Wire Wire Line
	7100 8900 7950 8900
Wire Wire Line
	7100 9600 7100 10400
Wire Wire Line
	7100 10400 7100 10900
Wire Wire Line
	7100 10400 7900 10400
Wire Wire Line
	7100 10900 6800 10900
Wire Wire Line
	7200 1900 7200 2300
Wire Wire Line
	7200 2300 7200 3000
Wire Wire Line
	7200 3000 7200 3700
Wire Wire Line
	7200 3700 7200 4400
Wire Wire Line
	7200 3700 7950 3700
Wire Wire Line
	7200 4400 7200 5200
Wire Wire Line
	7200 5200 7900 5200
Wire Wire Line
	7200 7000 7200 7400
Wire Wire Line
	7200 7400 7200 8100
Wire Wire Line
	7200 8100 7200 8800
Wire Wire Line
	7200 8800 7200 9500
Wire Wire Line
	7200 8800 7950 8800
Wire Wire Line
	7200 9500 7200 10300
Wire Wire Line
	7200 10300 7900 10300
Wire Wire Line
	7400 1050 7400 2200
Wire Wire Line
	7400 2200 7400 2900
Wire Wire Line
	7400 2900 7400 3600
Wire Wire Line
	7400 3600 7400 4300
Wire Wire Line
	7400 3600 7950 3600
Wire Wire Line
	7400 6200 7400 7300
Wire Wire Line
	7400 7300 7400 8000
Wire Wire Line
	7400 8000 7400 8700
Wire Wire Line
	7400 8700 7400 9400
Wire Wire Line
	7400 8700 7950 8700
Wire Wire Line
	7900 4300 7400 4300
Wire Wire Line
	7900 4400 7200 4400
Wire Wire Line
	7900 4500 7100 4500
Wire Wire Line
	7900 4600 7000 4600
Wire Wire Line
	7900 9400 7400 9400
Wire Wire Line
	7900 9500 7200 9500
Wire Wire Line
	7900 9600 7100 9600
Wire Wire Line
	7900 9700 7000 9700
Wire Wire Line
	7950 2900 7400 2900
Wire Wire Line
	7950 3000 7200 3000
Wire Wire Line
	7950 8000 7400 8000
Wire Wire Line
	7950 8100 7200 8100
Wire Wire Line
	8500 2200 7400 2200
Wire Wire Line
	8500 2300 7200 2300
Wire Wire Line
	8500 3000 8500 2950
Wire Wire Line
	8500 3100 7100 3100
Wire Wire Line
	8500 3800 8500 3700
Wire Wire Line
	8500 3900 7000 3900
Wire Wire Line
	8500 4450 8500 4600
Wire Wire Line
	8500 4700 6900 4700
Wire Wire Line
	8500 7300 7400 7300
Wire Wire Line
	8500 7400 7200 7400
Wire Wire Line
	8500 8100 8500 8050
Wire Wire Line
	8500 8200 7100 8200
Wire Wire Line
	8500 8900 8500 8800
Wire Wire Line
	8500 9000 7000 9000
Wire Wire Line
	8500 9550 8500 9700
Wire Wire Line
	8500 9800 6900 9800
Wire Wire Line
	9050 2250 9150 2250
Wire Wire Line
	9050 3850 9350 3850
Wire Wire Line
	9050 4650 9450 4650
Wire Wire Line
	9050 7350 9150 7350
Wire Wire Line
	9050 8950 9350 8950
Wire Wire Line
	9050 9750 9450 9750
Wire Wire Line
	9150 1600 9150 2250
Wire Wire Line
	9150 6700 9150 7350
Wire Wire Line
	9250 1500 9250 3050
Wire Wire Line
	9250 3050 9050 3050
Wire Wire Line
	9250 6600 9250 8150
Wire Wire Line
	9250 8150 9050 8150
Wire Wire Line
	9350 1400 9350 3850
Wire Wire Line
	9350 6500 9350 8950
Wire Wire Line
	9450 1300 9450 4650
Wire Wire Line
	9450 6400 9450 9750
Wire Bus Line
	8000 5700 8100 5700
Wire Bus Line
	8000 10800 8100 10800
Text Label 6800 1050 2    50   ~ 0
IC
Text Label 6800 6200 2    50   ~ 0
IC
Text Label 7100 11000 2    50   ~ 0
IC
Text Label 7500 5200 0    50   ~ 0
CNT0-Q0
Text Label 7500 5300 0    50   ~ 0
CNT0-Q1
Text Label 7500 5400 0    50   ~ 0
CNT0-Q2
Text Label 7500 5500 0    50   ~ 0
CNT0-Q3
Text Label 7500 10300 0    50   ~ 0
CNT1-Q0
Text Label 7500 10400 0    50   ~ 0
CNT1-Q1
Text Label 7500 10500 0    50   ~ 0
CNT1-Q2
Text Label 7500 10600 0    50   ~ 0
CNT1-Q3
Text HLabel 4350 10100 0    50   Input ~ 0
~RESETI
Text HLabel 4900 4650 0    50   Input ~ 0
~RESETI
Text HLabel 5400 1200 0    50   Input ~ 0
INC
Text HLabel 5950 5500 0    50   Input ~ 0
~CLK8M
Text HLabel 5950 10100 0    50   Input ~ 0
~CLK8M
Text HLabel 8100 5700 2    50   Output ~ 0
CNT0-Q[0..3]
Text HLabel 8100 10800 2    50   Output ~ 0
CNT1-Q[0..3]
$Comp
L A5C:AND02 UBN217
U 1 1 5FCF23BC
P 4900 10150
AR Path="/5FB7F2B2/5FCF23BC" Ref="UBN217"  Part="1" 
AR Path="/5FBCE4A9/5FBD0B6B/5FCF23BC" Ref="UBN217"  Part="1" 
F 0 "UBN217" H 4925 10417 50  0000 C CNN
F 1 "AND02" H 4925 10326 50  0000 C CNN
F 2 "" H 4900 10150 50  0001 C CNN
F 3 "" H 4900 10150 50  0001 C CNN
	1    4900 10150
	1    0    0    -1  
$EndComp
$Comp
L A5C:NAND02 UBK270
U 1 1 5FB9D8C5
P 5550 2200
AR Path="/5FB7F2B2/5FB9D8C5" Ref="UBK270"  Part="1" 
AR Path="/5FBCE4A9/5FBD0B6B/5FB9D8C5" Ref="UBK270"  Part="1" 
F 0 "UBK270" H 5575 2467 50  0000 C CNN
F 1 "NAND02" H 5575 2376 50  0000 C CNN
F 2 "" H 5550 2200 50  0001 C CNN
F 3 "" H 5550 2200 50  0001 C CNN
	1    5550 2200
	1    0    0    -1  
$EndComp
$Comp
L A5C:NAND02 UBK272
U 1 1 5FB9EA99
P 5550 3000
AR Path="/5FB7F2B2/5FB9EA99" Ref="UBK272"  Part="1" 
AR Path="/5FBCE4A9/5FBD0B6B/5FB9EA99" Ref="UBK272"  Part="1" 
F 0 "UBK272" H 5575 3267 50  0000 C CNN
F 1 "NAND02" H 5575 3176 50  0000 C CNN
F 2 "" H 5550 3000 50  0001 C CNN
F 3 "" H 5550 3000 50  0001 C CNN
	1    5550 3000
	1    0    0    -1  
$EndComp
$Comp
L A5C:NAND02 UBK274
U 1 1 5FB9EF56
P 5550 3800
AR Path="/5FB7F2B2/5FB9EF56" Ref="UBK274"  Part="1" 
AR Path="/5FBCE4A9/5FBD0B6B/5FB9EF56" Ref="UBK274"  Part="1" 
F 0 "UBK274" H 5575 4067 50  0000 C CNN
F 1 "NAND02" H 5575 3976 50  0000 C CNN
F 2 "" H 5550 3800 50  0001 C CNN
F 3 "" H 5550 3800 50  0001 C CNN
	1    5550 3800
	1    0    0    -1  
$EndComp
$Comp
L A5C:NAND02 UBK275
U 1 1 5FB9EF5C
P 5550 4600
AR Path="/5FB7F2B2/5FB9EF5C" Ref="UBK275"  Part="1" 
AR Path="/5FBCE4A9/5FBD0B6B/5FB9EF5C" Ref="UBK275"  Part="1" 
F 0 "UBK275" H 5575 4867 50  0000 C CNN
F 1 "NAND02" H 5575 4776 50  0000 C CNN
F 2 "" H 5550 4600 50  0001 C CNN
F 3 "" H 5550 4600 50  0001 C CNN
	1    5550 4600
	1    0    0    -1  
$EndComp
$Comp
L A5C:NAND02 UBW94
U 1 1 5FCC0F3F
P 5550 7300
AR Path="/5FB7F2B2/5FCC0F3F" Ref="UBW94"  Part="1" 
AR Path="/5FBCE4A9/5FBD0B6B/5FCC0F3F" Ref="UBW94"  Part="1" 
F 0 "UBW94" H 5575 7567 50  0000 C CNN
F 1 "NAND02" H 5575 7476 50  0000 C CNN
F 2 "" H 5550 7300 50  0001 C CNN
F 3 "" H 5550 7300 50  0001 C CNN
	1    5550 7300
	1    0    0    -1  
$EndComp
$Comp
L A5C:NAND02 UBW96
U 1 1 5FCC0F45
P 5550 8100
AR Path="/5FB7F2B2/5FCC0F45" Ref="UBW96"  Part="1" 
AR Path="/5FBCE4A9/5FBD0B6B/5FCC0F45" Ref="UBW96"  Part="1" 
F 0 "UBW96" H 5575 8367 50  0000 C CNN
F 1 "NAND02" H 5575 8276 50  0000 C CNN
F 2 "" H 5550 8100 50  0001 C CNN
F 3 "" H 5550 8100 50  0001 C CNN
	1    5550 8100
	1    0    0    -1  
$EndComp
$Comp
L A5C:NAND02 UBW98
U 1 1 5FCC0F4B
P 5550 8900
AR Path="/5FB7F2B2/5FCC0F4B" Ref="UBW98"  Part="1" 
AR Path="/5FBCE4A9/5FBD0B6B/5FCC0F4B" Ref="UBW98"  Part="1" 
F 0 "UBW98" H 5575 9167 50  0000 C CNN
F 1 "NAND02" H 5575 9076 50  0000 C CNN
F 2 "" H 5550 8900 50  0001 C CNN
F 3 "" H 5550 8900 50  0001 C CNN
	1    5550 8900
	1    0    0    -1  
$EndComp
$Comp
L A5C:NAND02 UBW99
U 1 1 5FCC0F51
P 5550 9700
AR Path="/5FB7F2B2/5FCC0F51" Ref="UBW99"  Part="1" 
AR Path="/5FBCE4A9/5FBD0B6B/5FCC0F51" Ref="UBW99"  Part="1" 
F 0 "UBW99" H 5575 9967 50  0000 C CNN
F 1 "NAND02" H 5575 9876 50  0000 C CNN
F 2 "" H 5550 9700 50  0001 C CNN
F 3 "" H 5550 9700 50  0001 C CNN
	1    5550 9700
	1    0    0    -1  
$EndComp
$Comp
L A5C:OR02 UBN261
U 1 1 6025CCB5
P 6250 1050
AR Path="/5FB7F2B2/6025CCB5" Ref="UBN261"  Part="1" 
AR Path="/5FBCE4A9/5FBD0B6B/6025CCB5" Ref="UBN261"  Part="1" 
F 0 "UBN261" H 6275 1317 50  0000 C CNN
F 1 "OR02" H 6275 1226 50  0000 C CNN
F 2 "" H 6300 1050 50  0001 C CNN
F 3 "" H 6300 1050 50  0001 C CNN
	1    6250 1050
	1    0    0    -1  
$EndComp
$Comp
L A5C:NAND02 UBD272
U 1 1 5FB92311
P 8200 2950
AR Path="/5FB7F2B2/5FB92311" Ref="UBD272"  Part="1" 
AR Path="/5FBCE4A9/5FBD0B6B/5FB92311" Ref="UBD272"  Part="1" 
F 0 "UBD272" H 8225 3217 50  0000 C CNN
F 1 "NAND02" H 8225 3126 50  0000 C CNN
F 2 "" H 8200 2950 50  0001 C CNN
F 3 "" H 8200 2950 50  0001 C CNN
	1    8200 2950
	1    0    0    -1  
$EndComp
$Comp
L A5C:NAND02 UBW31
U 1 1 5FCC0F1F
P 8200 8050
AR Path="/5FB7F2B2/5FCC0F1F" Ref="UBW31"  Part="1" 
AR Path="/5FBCE4A9/5FBD0B6B/5FCC0F1F" Ref="UBW31"  Part="1" 
F 0 "UBW31" H 8225 8317 50  0000 C CNN
F 1 "NAND02" H 8225 8226 50  0000 C CNN
F 2 "" H 8200 8050 50  0001 C CNN
F 3 "" H 8200 8050 50  0001 C CNN
	1    8200 8050
	1    0    0    -1  
$EndComp
$Comp
L A5C:XOR02 UBU?
U 1 1 5FB8DC00
P 8750 2250
AR Path="/5FD56F21/5FB8DC00" Ref="UBU?"  Part="1" 
AR Path="/621ABC04/5FB8DC00" Ref="UBU?"  Part="1" 
AR Path="/5FAC57E1/5FB8DC00" Ref="UBU?"  Part="1" 
AR Path="/5FB7F2B2/5FB8DC00" Ref="UBK277"  Part="1" 
AR Path="/5FBCE4A9/5FBD0B6B/5FB8DC00" Ref="UBK277"  Part="1" 
F 0 "UBK277" H 8775 2517 50  0000 C CNN
F 1 "XOR02" H 8775 2426 50  0000 C CNN
F 2 "" H 8750 2250 50  0001 C CNN
F 3 "" H 8750 2250 50  0001 C CNN
	1    8750 2250
	1    0    0    -1  
$EndComp
$Comp
L A5C:XNOR02 UBR?
U 1 1 5FB8DC06
P 8750 3050
AR Path="/5FD56F21/5FB8DC06" Ref="UBR?"  Part="1" 
AR Path="/621ABC04/5FB8DC06" Ref="UBR?"  Part="1" 
AR Path="/5FAC57E1/5FB8DC06" Ref="UBR?"  Part="1" 
AR Path="/5FB7F2B2/5FB8DC06" Ref="UBK268"  Part="1" 
AR Path="/5FBCE4A9/5FBD0B6B/5FB8DC06" Ref="UBK268"  Part="1" 
F 0 "UBK268" H 8750 3367 50  0000 C CNN
F 1 "XNOR02" H 8750 3276 50  0000 C CNN
F 2 "" H 8750 3050 50  0001 C CNN
F 3 "" H 8750 3050 50  0001 C CNN
	1    8750 3050
	1    0    0    -1  
$EndComp
$Comp
L A5C:XNOR02 UBU?
U 1 1 5FB8DC0C
P 8750 3850
AR Path="/5FD56F21/5FB8DC0C" Ref="UBU?"  Part="1" 
AR Path="/621ABC04/5FB8DC0C" Ref="UBU?"  Part="1" 
AR Path="/5FAC57E1/5FB8DC0C" Ref="UBU?"  Part="1" 
AR Path="/5FB7F2B2/5FB8DC0C" Ref="UBK265"  Part="1" 
AR Path="/5FBCE4A9/5FBD0B6B/5FB8DC0C" Ref="UBK265"  Part="1" 
F 0 "UBK265" H 8750 4167 50  0000 C CNN
F 1 "XNOR02" H 8750 4076 50  0000 C CNN
F 2 "" H 8750 3850 50  0001 C CNN
F 3 "" H 8750 3850 50  0001 C CNN
	1    8750 3850
	1    0    0    -1  
$EndComp
$Comp
L A5C:XNOR02 UBU?
U 1 1 5FB8DC12
P 8750 4650
AR Path="/5FD56F21/5FB8DC12" Ref="UBU?"  Part="1" 
AR Path="/621ABC04/5FB8DC12" Ref="UBU?"  Part="1" 
AR Path="/5FAC57E1/5FB8DC12" Ref="UBU?"  Part="1" 
AR Path="/5FB7F2B2/5FB8DC12" Ref="UBK257"  Part="1" 
AR Path="/5FBCE4A9/5FBD0B6B/5FB8DC12" Ref="UBK257"  Part="1" 
F 0 "UBK257" H 8750 4967 50  0000 C CNN
F 1 "XNOR02" H 8750 4876 50  0000 C CNN
F 2 "" H 8750 4650 50  0001 C CNN
F 3 "" H 8750 4650 50  0001 C CNN
	1    8750 4650
	1    0    0    -1  
$EndComp
$Comp
L A5C:XOR02 UBK?
U 1 1 5FCC0EE7
P 8750 7350
AR Path="/5FD56F21/5FCC0EE7" Ref="UBK?"  Part="1" 
AR Path="/621ABC04/5FCC0EE7" Ref="UBK?"  Part="1" 
AR Path="/5FAC57E1/5FCC0EE7" Ref="UBK?"  Part="1" 
AR Path="/5FB7F2B2/5FCC0EE7" Ref="UBW63"  Part="1" 
AR Path="/5FBCE4A9/5FBD0B6B/5FCC0EE7" Ref="UBW63"  Part="1" 
F 0 "UBW63" H 8775 7617 50  0000 C CNN
F 1 "XOR02" H 8775 7526 50  0000 C CNN
F 2 "" H 8750 7350 50  0001 C CNN
F 3 "" H 8750 7350 50  0001 C CNN
	1    8750 7350
	1    0    0    -1  
$EndComp
$Comp
L A5C:XNOR02 UBK?
U 1 1 5FCC0EED
P 8750 8150
AR Path="/5FD56F21/5FCC0EED" Ref="UBK?"  Part="1" 
AR Path="/621ABC04/5FCC0EED" Ref="UBK?"  Part="1" 
AR Path="/5FAC57E1/5FCC0EED" Ref="UBK?"  Part="1" 
AR Path="/5FB7F2B2/5FCC0EED" Ref="UBW32"  Part="1" 
AR Path="/5FBCE4A9/5FBD0B6B/5FCC0EED" Ref="UBW32"  Part="1" 
F 0 "UBW32" H 8750 8467 50  0000 C CNN
F 1 "XNOR02" H 8750 8376 50  0000 C CNN
F 2 "" H 8750 8150 50  0001 C CNN
F 3 "" H 8750 8150 50  0001 C CNN
	1    8750 8150
	1    0    0    -1  
$EndComp
$Comp
L A5C:XNOR02 UBK?
U 1 1 5FCC0EF3
P 8750 8950
AR Path="/5FD56F21/5FCC0EF3" Ref="UBK?"  Part="1" 
AR Path="/621ABC04/5FCC0EF3" Ref="UBK?"  Part="1" 
AR Path="/5FAC57E1/5FCC0EF3" Ref="UBK?"  Part="1" 
AR Path="/5FB7F2B2/5FCC0EF3" Ref="UBW41"  Part="1" 
AR Path="/5FBCE4A9/5FBD0B6B/5FCC0EF3" Ref="UBW41"  Part="1" 
F 0 "UBW41" H 8750 9267 50  0000 C CNN
F 1 "XNOR02" H 8750 9176 50  0000 C CNN
F 2 "" H 8750 8950 50  0001 C CNN
F 3 "" H 8750 8950 50  0001 C CNN
	1    8750 8950
	1    0    0    -1  
$EndComp
$Comp
L A5C:XNOR02 UBK?
U 1 1 5FCC0EF9
P 8750 9750
AR Path="/5FD56F21/5FCC0EF9" Ref="UBK?"  Part="1" 
AR Path="/621ABC04/5FCC0EF9" Ref="UBK?"  Part="1" 
AR Path="/5FAC57E1/5FCC0EF9" Ref="UBK?"  Part="1" 
AR Path="/5FB7F2B2/5FCC0EF9" Ref="UBW88"  Part="1" 
AR Path="/5FBCE4A9/5FBD0B6B/5FCC0EF9" Ref="UBW88"  Part="1" 
F 0 "UBW88" H 8750 10067 50  0000 C CNN
F 1 "XNOR02" H 8750 9976 50  0000 C CNN
F 2 "" H 8750 9750 50  0001 C CNN
F 3 "" H 8750 9750 50  0001 C CNN
	1    8750 9750
	1    0    0    -1  
$EndComp
$Comp
L A5C:NAND03 UBK263
U 1 1 5FB926E8
P 8200 3700
AR Path="/5FB7F2B2/5FB926E8" Ref="UBK263"  Part="1" 
AR Path="/5FBCE4A9/5FBD0B6B/5FB926E8" Ref="UBK263"  Part="1" 
F 0 "UBK263" H 8225 3992 50  0000 C CNN
F 1 "NAND03" H 8225 3901 50  0000 C CNN
F 2 "" H 8200 3700 50  0001 C CNN
F 3 "" H 8200 3700 50  0001 C CNN
	1    8200 3700
	1    0    0    -1  
$EndComp
$Comp
L A5C:NAND03 UBW43
U 1 1 5FCC0F25
P 8200 8800
AR Path="/5FB7F2B2/5FCC0F25" Ref="UBW43"  Part="1" 
AR Path="/5FBCE4A9/5FBD0B6B/5FCC0F25" Ref="UBW43"  Part="1" 
F 0 "UBW43" H 8225 9092 50  0000 C CNN
F 1 "NAND03" H 8225 9001 50  0000 C CNN
F 2 "" H 8200 8800 50  0001 C CNN
F 3 "" H 8200 8800 50  0001 C CNN
	1    8200 8800
	1    0    0    -1  
$EndComp
$Comp
L A5C:INV01 UBN?
U 1 1 60503B1F
P 5700 1000
AR Path="/60503B1F" Ref="UBN?"  Part="1" 
AR Path="/5FB7F2B2/60503B1F" Ref="UBN405"  Part="1" 
AR Path="/5FBCE4A9/5FBD0B6B/60503B1F" Ref="UBN405"  Part="1" 
F 0 "UBN405" H 5700 1316 50  0000 C CNN
F 1 "INV01" H 5700 1225 50  0000 C CNN
F 2 "" H 5700 800 50  0001 C CNN
F 3 "" H 5700 800 50  0001 C CNN
	1    5700 1000
	1    0    0    -1  
$EndComp
$Comp
L A5C:BUF01 UBK238
U 1 1 5FB91A17
P 7100 1050
AR Path="/5FB7F2B2/5FB91A17" Ref="UBK238"  Part="1" 
AR Path="/5FBCE4A9/5FBD0B6B/5FB91A17" Ref="UBK238"  Part="1" 
F 0 "UBK238" H 7100 1367 50  0000 C CNN
F 1 "BUF11" H 7100 1276 50  0000 C CNN
F 2 "" H 7100 1050 50  0001 C CNN
F 3 "" H 7100 1050 50  0001 C CNN
	1    7100 1050
	1    0    0    -1  
$EndComp
$Comp
L A5C:BUF01 UBN219
U 1 1 5FCC0F19
P 7100 6200
AR Path="/5FB7F2B2/5FCC0F19" Ref="UBN219"  Part="1" 
AR Path="/5FBCE4A9/5FBD0B6B/5FCC0F19" Ref="UBN219"  Part="1" 
F 0 "UBN219" H 7100 6517 50  0000 C CNN
F 1 "BUF11" H 7100 6426 50  0000 C CNN
F 2 "" H 7100 6200 50  0001 C CNN
F 3 "" H 7100 6200 50  0001 C CNN
	1    7100 6200
	1    0    0    -1  
$EndComp
$Comp
L A5C:DFFCOO UBR?
U 1 1 5FB8DC1F
P 6550 2300
AR Path="/5FD56F21/5FB8DC1F" Ref="UBR?"  Part="1" 
AR Path="/621ABC04/5FB8DC1F" Ref="UBR?"  Part="1" 
AR Path="/5FAC57E1/5FB8DC1F" Ref="UBR?"  Part="1" 
AR Path="/5FB7F2B2/5FB8DC1F" Ref="UBK242"  Part="1" 
AR Path="/5FBCE4A9/5FBD0B6B/5FB8DC1F" Ref="UBK242"  Part="1" 
F 0 "UBK242" H 6550 2661 50  0000 C CNN
F 1 "DFFCOO" H 6550 2570 50  0000 C CNN
F 2 "" H 6550 2300 50  0001 C CNN
F 3 "" H 6550 2300 50  0001 C CNN
F 4 "UBK240" H 6550 2300 50  0001 C CNN "MiscRef"
	1    6550 2300
	1    0    0    -1  
$EndComp
$Comp
L A5C:DFFCOO UBR?
U 1 1 5FB8DC25
P 6550 3100
AR Path="/5FD56F21/5FB8DC25" Ref="UBR?"  Part="1" 
AR Path="/621ABC04/5FB8DC25" Ref="UBR?"  Part="1" 
AR Path="/5FAC57E1/5FB8DC25" Ref="UBR?"  Part="1" 
AR Path="/5FB7F2B2/5FB8DC25" Ref="UBK245"  Part="1" 
AR Path="/5FBCE4A9/5FBD0B6B/5FB8DC25" Ref="UBK245"  Part="1" 
F 0 "UBK245" H 6550 3461 50  0000 C CNN
F 1 "DFFCOO" H 6550 3370 50  0000 C CNN
F 2 "" H 6550 3100 50  0001 C CNN
F 3 "" H 6550 3100 50  0001 C CNN
	1    6550 3100
	1    0    0    -1  
$EndComp
$Comp
L A5C:DFFCOO UBR?
U 1 1 5FB8DC2B
P 6550 3900
AR Path="/5FD56F21/5FB8DC2B" Ref="UBR?"  Part="1" 
AR Path="/621ABC04/5FB8DC2B" Ref="UBR?"  Part="1" 
AR Path="/5FAC57E1/5FB8DC2B" Ref="UBR?"  Part="1" 
AR Path="/5FB7F2B2/5FB8DC2B" Ref="UBK249"  Part="1" 
AR Path="/5FBCE4A9/5FBD0B6B/5FB8DC2B" Ref="UBK249"  Part="1" 
F 0 "UBK249" H 6550 4261 50  0000 C CNN
F 1 "DFFCOO" H 6550 4170 50  0000 C CNN
F 2 "" H 6550 3900 50  0001 C CNN
F 3 "" H 6550 3900 50  0001 C CNN
	1    6550 3900
	1    0    0    -1  
$EndComp
$Comp
L A5C:DFFCOO UBR?
U 1 1 5FB8DC31
P 6550 4700
AR Path="/5FD56F21/5FB8DC31" Ref="UBR?"  Part="1" 
AR Path="/621ABC04/5FB8DC31" Ref="UBR?"  Part="1" 
AR Path="/5FAC57E1/5FB8DC31" Ref="UBR?"  Part="1" 
AR Path="/5FB7F2B2/5FB8DC31" Ref="UBK253"  Part="1" 
AR Path="/5FBCE4A9/5FBD0B6B/5FB8DC31" Ref="UBK253"  Part="1" 
F 0 "UBK253" H 6550 5061 50  0000 C CNN
F 1 "DFFCOO" H 6550 4970 50  0000 C CNN
F 2 "" H 6550 4700 50  0001 C CNN
F 3 "" H 6550 4700 50  0001 C CNN
	1    6550 4700
	1    0    0    -1  
$EndComp
$Comp
L A5C:DFFCOO UBK?
U 1 1 5FCC0F00
P 6550 7400
AR Path="/5FD56F21/5FCC0F00" Ref="UBK?"  Part="1" 
AR Path="/621ABC04/5FCC0F00" Ref="UBK?"  Part="1" 
AR Path="/5FAC57E1/5FCC0F00" Ref="UBK?"  Part="1" 
AR Path="/5FB7F2B2/5FCC0F00" Ref="UBN196"  Part="1" 
AR Path="/5FBCE4A9/5FBD0B6B/5FCC0F00" Ref="UBN196"  Part="1" 
F 0 "UBN196" H 6550 7761 50  0000 C CNN
F 1 "DFFCOO" H 6550 7670 50  0000 C CNN
F 2 "" H 6550 7400 50  0001 C CNN
F 3 "" H 6550 7400 50  0001 C CNN
F 4 "UBN195" H 6550 7400 50  0001 C CNN "MiscRef"
	1    6550 7400
	1    0    0    -1  
$EndComp
$Comp
L A5C:DFFCOO UBK?
U 1 1 5FCC0F06
P 6550 8200
AR Path="/5FD56F21/5FCC0F06" Ref="UBK?"  Part="1" 
AR Path="/621ABC04/5FCC0F06" Ref="UBK?"  Part="1" 
AR Path="/5FAC57E1/5FCC0F06" Ref="UBK?"  Part="1" 
AR Path="/5FB7F2B2/5FCC0F06" Ref="UBN200"  Part="1" 
AR Path="/5FBCE4A9/5FBD0B6B/5FCC0F06" Ref="UBN200"  Part="1" 
F 0 "UBN200" H 6550 8561 50  0000 C CNN
F 1 "DFFCOO" H 6550 8470 50  0000 C CNN
F 2 "" H 6550 8200 50  0001 C CNN
F 3 "" H 6550 8200 50  0001 C CNN
	1    6550 8200
	1    0    0    -1  
$EndComp
$Comp
L A5C:DFFCOO UBK?
U 1 1 5FCC0F0C
P 6550 9000
AR Path="/5FD56F21/5FCC0F0C" Ref="UBK?"  Part="1" 
AR Path="/621ABC04/5FCC0F0C" Ref="UBK?"  Part="1" 
AR Path="/5FAC57E1/5FCC0F0C" Ref="UBK?"  Part="1" 
AR Path="/5FB7F2B2/5FCC0F0C" Ref="UBN204"  Part="1" 
AR Path="/5FBCE4A9/5FBD0B6B/5FCC0F0C" Ref="UBN204"  Part="1" 
F 0 "UBN204" H 6550 9361 50  0000 C CNN
F 1 "DFFCOO" H 6550 9270 50  0000 C CNN
F 2 "" H 6550 9000 50  0001 C CNN
F 3 "" H 6550 9000 50  0001 C CNN
	1    6550 9000
	1    0    0    -1  
$EndComp
$Comp
L A5C:DFFCOO UBK?
U 1 1 5FCC0F12
P 6550 9800
AR Path="/5FD56F21/5FCC0F12" Ref="UBK?"  Part="1" 
AR Path="/621ABC04/5FCC0F12" Ref="UBK?"  Part="1" 
AR Path="/5FAC57E1/5FCC0F12" Ref="UBK?"  Part="1" 
AR Path="/5FB7F2B2/5FCC0F12" Ref="UBN208"  Part="1" 
AR Path="/5FBCE4A9/5FBD0B6B/5FCC0F12" Ref="UBN208"  Part="1" 
F 0 "UBN208" H 6550 10161 50  0000 C CNN
F 1 "DFFCOO" H 6550 10070 50  0000 C CNN
F 2 "" H 6550 9800 50  0001 C CNN
F 3 "" H 6550 9800 50  0001 C CNN
	1    6550 9800
	1    0    0    -1  
$EndComp
$Comp
L A5C:NAND04 UBN221
U 1 1 5FDD0697
P 6500 10850
AR Path="/5FB7F2B2/5FDD0697" Ref="UBN221"  Part="1" 
AR Path="/5FBCE4A9/5FBD0B6B/5FDD0697" Ref="UBN221"  Part="1" 
F 0 "UBN221" H 6500 11192 50  0000 C CNN
F 1 "NAND04" H 6500 11101 50  0000 C CNN
F 2 "" H 6500 10600 50  0001 C CNN
F 3 "" H 6500 10600 50  0001 C CNN
	1    6500 10850
	-1   0    0    -1  
$EndComp
$Comp
L A5C:NAND04 UBK260
U 1 1 5FB92A84
P 8200 4450
AR Path="/5FB7F2B2/5FB92A84" Ref="UBK260"  Part="1" 
AR Path="/5FBCE4A9/5FBD0B6B/5FB92A84" Ref="UBK260"  Part="1" 
F 0 "UBK260" H 8200 4792 50  0000 C CNN
F 1 "NAND04" H 8200 4701 50  0000 C CNN
F 2 "" H 8200 4200 50  0001 C CNN
F 3 "" H 8200 4200 50  0001 C CNN
	1    8200 4450
	1    0    0    -1  
$EndComp
$Comp
L A5C:NAND04 UBU20
U 1 1 5FCC0F2B
P 8200 9550
AR Path="/5FB7F2B2/5FCC0F2B" Ref="UBU20"  Part="1" 
AR Path="/5FBCE4A9/5FBD0B6B/5FCC0F2B" Ref="UBU20"  Part="1" 
F 0 "UBU20" H 8200 9892 50  0000 C CNN
F 1 "NAND04" H 8200 9801 50  0000 C CNN
F 2 "" H 8200 9300 50  0001 C CNN
F 3 "" H 8200 9300 50  0001 C CNN
	1    8200 9550
	1    0    0    -1  
$EndComp
Text HLabel 5400 1000 0    50   Input ~ 0
~DEBUG
Wire Bus Line
	8000 5300 8000 5700
Wire Bus Line
	8000 10400 8000 10800
$EndSCHEMATC
