EESchema Schematic File Version 4
EELAYER 30 0
EELAYER END
$Descr A4 11693 8268
encoding utf-8
Sheet 51 69
Title ""
Date "2020-11-26"
Rev ""
Comp ""
Comment1 "Licence: CC-BY"
Comment2 "Author: Loïc *WydD* Petit"
Comment3 ""
Comment4 ""
$EndDescr
Connection ~ 2350 6600
Connection ~ 2350 5500
Connection ~ 2350 4750
Connection ~ 4250 4050
Connection ~ 7550 5250
Connection ~ 8350 4650
Connection ~ 9100 4850
Connection ~ 9100 5600
Connection ~ 8350 5400
Connection ~ 7550 4500
Connection ~ 5800 3350
Connection ~ 2250 3550
Connection ~ 2350 3350
Connection ~ 5450 1000
Connection ~ 5550 1100
Connection ~ 5350 900 
Connection ~ 5650 1200
Connection ~ 2500 2800
Connection ~ 2250 5700
Connection ~ 2250 4850
Connection ~ 2500 5050
Connection ~ 4150 3950
Connection ~ 4050 3850
Connection ~ 4350 4150
Connection ~ 8350 6150
Connection ~ 6000 6600
Connection ~ 8700 6350
Connection ~ 7550 6000
Connection ~ 5800 2700
Connection ~ 8750 2800
Connection ~ 8750 2900
Connection ~ 8200 2200
Connection ~ 8650 3100
Connection ~ 2250 7000
Connection ~ 6350 7000
NoConn ~ 3700 5400
NoConn ~ 8950 6050
NoConn ~ 8950 5300
NoConn ~ 8950 3800
NoConn ~ 8950 4550
NoConn ~ 3550 3250
NoConn ~ 6600 6100
Entry Wire Line
	2500 1000 2600 900 
Entry Wire Line
	2500 1100 2600 1000
Entry Wire Line
	2500 1200 2600 1100
Entry Wire Line
	2500 1300 2600 1200
Entry Wire Line
	2500 1400 2600 1300
Entry Wire Line
	2500 1500 2600 1400
Entry Wire Line
	2500 1600 2600 1500
Entry Wire Line
	2500 3050 2600 3150
Entry Wire Line
	2500 3950 2600 3850
Entry Wire Line
	2500 4050 2600 3950
Entry Wire Line
	2500 4150 2600 4050
Entry Wire Line
	2500 4250 2600 4150
Entry Wire Line
	2500 4350 2600 4250
Entry Wire Line
	2500 4450 2600 4350
Entry Wire Line
	2500 4550 2600 4450
Entry Wire Line
	2600 1600 2500 1700
Entry Wire Line
	2600 4550 2500 4650
Entry Wire Line
	2600 5300 2500 5200
Entry Wire Line
	7300 1350 7400 1250
Entry Wire Line
	7300 1450 7400 1350
Entry Wire Line
	7300 1550 7400 1450
Entry Wire Line
	7300 1650 7400 1550
Entry Wire Line
	7300 1750 7400 1650
Entry Wire Line
	7300 1850 7400 1750
Entry Wire Line
	7300 1950 7400 1850
Entry Wire Line
	7300 2050 7400 1950
Entry Wire Line
	7300 2150 7400 2050
Entry Wire Line
	8200 1350 8300 1250
Entry Wire Line
	8200 1450 8300 1350
Entry Wire Line
	8200 1550 8300 1450
Entry Wire Line
	8200 1650 8300 1550
Entry Wire Line
	8200 1750 8300 1650
Entry Wire Line
	8200 1850 8300 1750
Entry Wire Line
	8200 2300 8300 2400
Entry Wire Line
	8200 2400 8300 2500
Entry Wire Line
	8200 2500 8300 2600
Entry Wire Line
	10150 1350 10050 1250
Entry Wire Line
	10150 1450 10050 1350
Entry Wire Line
	10150 1550 10050 1450
Entry Wire Line
	10150 1650 10050 1550
Entry Wire Line
	10150 1750 10050 1650
Entry Wire Line
	10150 1850 10050 1750
Entry Wire Line
	10150 2500 10050 2400
Entry Wire Line
	10150 2600 10050 2500
Entry Wire Line
	10150 2700 10050 2600
Entry Wire Line
	10150 2800 10050 2700
Entry Wire Line
	10150 2900 10050 2800
Entry Wire Line
	10150 3000 10050 2900
Wire Wire Line
	1650 7000 1150 7000
Wire Wire Line
	1750 6600 2350 6600
Wire Wire Line
	2250 1900 2250 3550
Wire Wire Line
	2250 1900 2950 1900
Wire Wire Line
	2250 3550 2250 4850
Wire Wire Line
	2250 4850 2250 5700
Wire Wire Line
	2250 5700 2250 7000
Wire Wire Line
	2250 5700 3450 5700
Wire Wire Line
	2250 7000 6350 7000
Wire Wire Line
	2350 1800 2350 3350
Wire Wire Line
	2350 1800 2950 1800
Wire Wire Line
	2350 3350 2350 4750
Wire Wire Line
	2350 3350 3050 3350
Wire Wire Line
	2350 4750 2350 5500
Wire Wire Line
	2350 5500 2350 6600
Wire Wire Line
	2350 5500 3200 5500
Wire Wire Line
	2350 6600 6000 6600
Wire Wire Line
	2600 900  2950 900 
Wire Wire Line
	2600 1000 2950 1000
Wire Wire Line
	2600 1100 2950 1100
Wire Wire Line
	2600 1200 2950 1200
Wire Wire Line
	2600 1300 2950 1300
Wire Wire Line
	2600 1400 2950 1400
Wire Wire Line
	2600 1500 2950 1500
Wire Wire Line
	2600 1600 2950 1600
Wire Wire Line
	2600 3150 3050 3150
Wire Wire Line
	2600 3850 2950 3850
Wire Wire Line
	2600 3950 2950 3950
Wire Wire Line
	2600 4050 2950 4050
Wire Wire Line
	2600 4150 2950 4150
Wire Wire Line
	2600 4250 2950 4250
Wire Wire Line
	2600 4350 2950 4350
Wire Wire Line
	2600 4450 2950 4450
Wire Wire Line
	2600 4550 2950 4550
Wire Wire Line
	2600 5300 3200 5300
Wire Wire Line
	2950 4750 2350 4750
Wire Wire Line
	2950 4850 2250 4850
Wire Wire Line
	3300 3550 2250 3550
Wire Wire Line
	3550 3150 6200 3150
Wire Wire Line
	3700 5300 4850 5300
Wire Wire Line
	3950 900  5350 900 
Wire Wire Line
	3950 1000 5450 1000
Wire Wire Line
	3950 1100 5550 1100
Wire Wire Line
	3950 1200 5650 1200
Wire Wire Line
	3950 1300 5900 1300
Wire Wire Line
	3950 1400 5900 1400
Wire Wire Line
	3950 1500 5900 1500
Wire Wire Line
	3950 1600 5900 1600
Wire Wire Line
	3950 3850 4050 3850
Wire Wire Line
	3950 4050 4250 4050
Wire Wire Line
	3950 4250 4450 4250
Wire Wire Line
	3950 4450 4650 4450
Wire Wire Line
	4050 1800 4050 3850
Wire Wire Line
	4050 1800 5900 1800
Wire Wire Line
	4050 3850 5900 3850
Wire Wire Line
	4150 1900 4150 3950
Wire Wire Line
	4150 1900 5900 1900
Wire Wire Line
	4150 3950 3950 3950
Wire Wire Line
	4150 3950 5900 3950
Wire Wire Line
	4250 2000 4250 4050
Wire Wire Line
	4250 2000 5900 2000
Wire Wire Line
	4250 4050 5900 4050
Wire Wire Line
	4350 2100 4350 4150
Wire Wire Line
	4350 2100 5900 2100
Wire Wire Line
	4350 4150 3950 4150
Wire Wire Line
	4350 4150 5900 4150
Wire Wire Line
	4450 2200 4450 4250
Wire Wire Line
	4450 2200 5900 2200
Wire Wire Line
	4550 2300 4550 4350
Wire Wire Line
	4550 4350 3950 4350
Wire Wire Line
	4650 2400 4650 4450
Wire Wire Line
	4650 2400 5900 2400
Wire Wire Line
	4750 2500 4750 4550
Wire Wire Line
	4750 4550 3950 4550
Wire Wire Line
	4850 3250 6200 3250
Wire Wire Line
	4850 5300 4850 3250
Wire Wire Line
	5350 750  5800 750 
Wire Wire Line
	5350 900  5350 4350
Wire Wire Line
	5350 900  5900 900 
Wire Wire Line
	5450 1000 5450 4450
Wire Wire Line
	5450 1000 5900 1000
Wire Wire Line
	5450 6000 6100 6000
Wire Wire Line
	5550 1100 5550 4550
Wire Wire Line
	5550 1100 5900 1100
Wire Wire Line
	5650 1200 5650 4650
Wire Wire Line
	5650 1200 5900 1200
Wire Wire Line
	5800 2700 5800 750 
Wire Wire Line
	5800 2700 5900 2700
Wire Wire Line
	5800 3350 5800 2700
Wire Wire Line
	5800 3350 5800 4850
Wire Wire Line
	5900 2300 4550 2300
Wire Wire Line
	5900 2500 4750 2500
Wire Wire Line
	5900 4350 5350 4350
Wire Wire Line
	5900 4450 5450 4450
Wire Wire Line
	5900 4550 5550 4550
Wire Wire Line
	5900 4650 5650 4650
Wire Wire Line
	5900 4850 5800 4850
Wire Wire Line
	6000 6200 6000 6600
Wire Wire Line
	6100 6200 6000 6200
Wire Wire Line
	6350 6400 6350 7000
Wire Wire Line
	6350 7000 6850 7000
Wire Wire Line
	6400 3350 5800 3350
Wire Wire Line
	6600 6000 7550 6000
Wire Wire Line
	6750 6150 6750 6600
Wire Wire Line
	6750 6600 6000 6600
Wire Wire Line
	6850 6350 6850 7000
Wire Wire Line
	6850 6350 8700 6350
Wire Wire Line
	6900 1350 7300 1350
Wire Wire Line
	6900 1450 7300 1450
Wire Wire Line
	6900 1550 7300 1550
Wire Wire Line
	6900 1650 7300 1650
Wire Wire Line
	6900 1750 7300 1750
Wire Wire Line
	6900 1850 7300 1850
Wire Wire Line
	6900 1950 7300 1950
Wire Wire Line
	6900 2050 7300 2050
Wire Wire Line
	6900 2150 6900 3200
Wire Wire Line
	6900 2150 7300 2150
Wire Wire Line
	6900 3200 6600 3200
Wire Wire Line
	6900 4100 7300 4100
Wire Wire Line
	7100 4400 6900 4400
Wire Wire Line
	7100 5900 7100 4400
Wire Wire Line
	7100 5900 7700 5900
Wire Wire Line
	7200 4300 6900 4300
Wire Wire Line
	7200 5150 7200 4300
Wire Wire Line
	7200 5150 7650 5150
Wire Wire Line
	7300 3650 7700 3650
Wire Wire Line
	7300 4100 7300 3650
Wire Wire Line
	7300 4200 6900 4200
Wire Wire Line
	7300 4400 7300 4200
Wire Wire Line
	7550 3750 7700 3750
Wire Wire Line
	7550 4500 7550 3750
Wire Wire Line
	7550 4500 7700 4500
Wire Wire Line
	7550 5250 7550 4500
Wire Wire Line
	7550 5250 7550 6000
Wire Wire Line
	7550 5250 7650 5250
Wire Wire Line
	7700 4400 7300 4400
Wire Wire Line
	7700 6000 7550 6000
Wire Wire Line
	8200 5200 8450 5200
Wire Wire Line
	8250 3700 8450 3700
Wire Wire Line
	8250 4450 8450 4450
Wire Wire Line
	8250 5950 8450 5950
Wire Wire Line
	8300 1250 8750 1250
Wire Wire Line
	8300 1350 8750 1350
Wire Wire Line
	8300 1450 8750 1450
Wire Wire Line
	8300 1550 8750 1550
Wire Wire Line
	8300 1650 8750 1650
Wire Wire Line
	8300 1750 8750 1750
Wire Wire Line
	8300 2400 8750 2400
Wire Wire Line
	8300 2500 8750 2500
Wire Wire Line
	8300 2600 8750 2600
Wire Wire Line
	8350 3900 8450 3900
Wire Wire Line
	8350 4650 8350 3900
Wire Wire Line
	8350 5400 8350 4650
Wire Wire Line
	8350 5400 8450 5400
Wire Wire Line
	8350 6150 6750 6150
Wire Wire Line
	8350 6150 8350 5400
Wire Wire Line
	8450 4650 8350 4650
Wire Wire Line
	8450 6150 8350 6150
Wire Wire Line
	8550 3100 8650 3100
Wire Wire Line
	8650 1950 8650 3100
Wire Wire Line
	8650 1950 8750 1950
Wire Wire Line
	8700 4100 9100 4100
Wire Wire Line
	8700 4850 9100 4850
Wire Wire Line
	8700 5600 9100 5600
Wire Wire Line
	8750 2700 8750 2800
Wire Wire Line
	8750 2800 8750 2900
Wire Wire Line
	8750 3100 8650 3100
Wire Wire Line
	8950 5200 9200 5200
Wire Wire Line
	8950 5950 9300 5950
Wire Wire Line
	9100 4100 9100 4850
Wire Wire Line
	9100 4850 9100 5600
Wire Wire Line
	9100 5600 9100 6350
Wire Wire Line
	9100 6350 8700 6350
Wire Wire Line
	9200 4450 8950 4450
Wire Wire Line
	9200 4800 9200 4450
Wire Wire Line
	9200 4900 9200 5200
Wire Wire Line
	9200 4900 9300 4900
Wire Wire Line
	9300 3700 8950 3700
Wire Wire Line
	9300 4700 9300 3700
Wire Wire Line
	9300 4800 9200 4800
Wire Wire Line
	9300 5000 9300 5950
Wire Wire Line
	9750 1250 10050 1250
Wire Wire Line
	9750 1350 10050 1350
Wire Wire Line
	9750 1450 10050 1450
Wire Wire Line
	9750 1550 10050 1550
Wire Wire Line
	9750 1650 10050 1650
Wire Wire Line
	9750 1750 10050 1750
Wire Wire Line
	9750 2400 10050 2400
Wire Wire Line
	9750 2500 10050 2500
Wire Wire Line
	9750 2600 10050 2600
Wire Wire Line
	9750 2700 10050 2700
Wire Wire Line
	9750 2800 10050 2800
Wire Wire Line
	9750 2900 10050 2900
Wire Wire Line
	9900 4850 10450 4850
Wire Bus Line
	1350 2800 2500 2800
Wire Bus Line
	1350 5050 2500 5050
Wire Bus Line
	2500 2800 2500 3050
Wire Bus Line
	2500 5050 2500 5200
Wire Bus Line
	7400 1050 7700 1050
Wire Bus Line
	8200 2200 7400 2200
Wire Bus Line
	10150 3100 10300 3100
Text Label 2650 3850 0    50   ~ 0
BSD0
Text Label 2650 3950 0    50   ~ 0
BSD1
Text Label 2650 4050 0    50   ~ 0
BSD2
Text Label 2650 4150 0    50   ~ 0
BSD3
Text Label 2650 4250 0    50   ~ 0
BSD4
Text Label 2650 4350 0    50   ~ 0
BSD5
Text Label 2650 4450 0    50   ~ 0
BSD6
Text Label 2650 4550 0    50   ~ 0
BSD7
Text Label 2650 5300 0    50   ~ 0
BSD8
Text Label 2850 900  2    50   ~ 0
ASD0
Text Label 2850 1000 2    50   ~ 0
ASD1
Text Label 2850 1100 2    50   ~ 0
ASD2
Text Label 2850 1200 2    50   ~ 0
ASD3
Text Label 2850 1300 2    50   ~ 0
ASD4
Text Label 2850 1400 2    50   ~ 0
ASD5
Text Label 2850 1500 2    50   ~ 0
ASD6
Text Label 2850 1600 2    50   ~ 0
ASD7
Text Label 2850 3150 2    50   ~ 0
ASD8
Text Label 7000 1350 0    50   ~ 0
XSD0
Text Label 7000 1450 0    50   ~ 0
XSD1
Text Label 7000 1550 0    50   ~ 0
XSD2
Text Label 7000 1650 0    50   ~ 0
XSD3
Text Label 7000 1750 0    50   ~ 0
XSD4
Text Label 7000 1850 0    50   ~ 0
XSD5
Text Label 7000 1950 0    50   ~ 0
XSD6
Text Label 7000 2050 0    50   ~ 0
XSD7
Text Label 7000 2150 0    50   ~ 0
XSD8
Text Label 8400 1250 0    50   ~ 0
XSD0
Text Label 8400 1350 0    50   ~ 0
XSD1
Text Label 8400 1450 0    50   ~ 0
XSD2
Text Label 8400 1550 0    50   ~ 0
XSD3
Text Label 8400 1650 0    50   ~ 0
XSD4
Text Label 8400 1750 0    50   ~ 0
XSD5
Text Label 8400 2400 0    50   ~ 0
XSD6
Text Label 8400 2500 0    50   ~ 0
XSD7
Text Label 8400 2600 0    50   ~ 0
XSD8
Text Label 9800 1250 0    50   ~ 0
TD0
Text Label 9800 1350 0    50   ~ 0
TD1
Text Label 9800 1450 0    50   ~ 0
TD2
Text Label 9800 1550 0    50   ~ 0
TD3
Text Label 9800 1650 0    50   ~ 0
TD4
Text Label 9800 1750 0    50   ~ 0
TD5
Text Label 9800 2400 0    50   ~ 0
TD6
Text Label 9800 2500 0    50   ~ 0
TD7
Text Label 9800 2600 0    50   ~ 0
TD8
Text Label 9800 2700 0    50   ~ 0
TD9
Text Label 9800 2800 0    50   ~ 0
TD10
Text Label 9800 2900 0    50   ~ 0
TD11
Text HLabel 1150 6600 0    50   Input ~ 0
CLK8M
Text HLabel 1150 7000 0    50   Input ~ 0
~RESETI
Text HLabel 1350 2800 0    50   Input ~ 0
ASD[0..8]
Text HLabel 1350 5050 0    50   Input ~ 0
BSD[0..8]
Text HLabel 5350 750  0    50   Input ~ 0
~A~B
Text HLabel 5450 6000 0    50   Input ~ 0
OBJEO
Text HLabel 7700 1050 2    50   Output ~ 0
XSD[0..8]
Text HLabel 8550 3100 0    50   Input ~ 0
~DEBUG
Text HLabel 10300 3100 2    50   3State ~ 0
TD[0..11]
Text HLabel 10450 4850 2    50   Output ~ 0
~REWEN
$Comp
L power:GND #PWR?
U 1 1 60E7D0AC
P 8750 2900
AR Path="/5F75F22B/60E7D0AC" Ref="#PWR?"  Part="1" 
AR Path="/5F7ECAC5/60E7D0AC" Ref="#PWR?"  Part="1" 
AR Path="/5FC1A6C6/5FC1AD64/60E7D0AC" Ref="#PWR0190"  Part="1" 
F 0 "#PWR0190" H 8750 2650 50  0001 C CNN
F 1 "GND" H 8755 2727 50  0001 C CNN
F 2 "" H 8750 2900 50  0001 C CNN
F 3 "" H 8750 2900 50  0001 C CNN
	1    8750 2900
	1    0    0    -1  
$EndComp
$Comp
L A5C:MUX2H UCT426
U 1 1 6E917C80
P 6400 3200
F 0 "UCT426" H 6400 3467 50  0000 C CNN
F 1 "MUX2H" H 6400 3376 50  0000 C CNN
F 2 "" H 6400 3200 50  0001 C CNN
F 3 "" H 6400 3200 50  0001 C CNN
F 4 "UCT425" H 6400 3200 50  0001 C CNN "MiscRef"
	1    6400 3200
	1    0    0    -1  
$EndComp
$Comp
L A5C:OR02 UCL450
U 1 1 6EEF3069
P 7900 5200
F 0 "UCL450" H 7925 5467 50  0000 C CNN
F 1 "OR02" H 7925 5376 50  0000 C CNN
F 2 "" H 7950 5200 50  0001 C CNN
F 3 "" H 7950 5200 50  0001 C CNN
	1    7900 5200
	1    0    0    -1  
$EndComp
$Comp
L A5C:OR02 UCR451
U 1 1 6EEF3057
P 7950 3700
F 0 "UCR451" H 7975 3967 50  0000 C CNN
F 1 "OR02" H 7975 3876 50  0000 C CNN
F 2 "" H 8000 3700 50  0001 C CNN
F 3 "" H 8000 3700 50  0001 C CNN
	1    7950 3700
	1    0    0    -1  
$EndComp
$Comp
L A5C:OR02 UCO455
U 1 1 6EEF3063
P 7950 4450
F 0 "UCO455" H 7975 4717 50  0000 C CNN
F 1 "OR02" H 7975 4626 50  0000 C CNN
F 2 "" H 8000 4450 50  0001 C CNN
F 3 "" H 8000 4450 50  0001 C CNN
	1    7950 4450
	1    0    0    -1  
$EndComp
$Comp
L A5C:OR02 UCR453
U 1 1 6EEF305D
P 7950 5950
F 0 "UCR453" H 7975 6217 50  0000 C CNN
F 1 "OR02" H 7975 6126 50  0000 C CNN
F 2 "" H 8000 5950 50  0001 C CNN
F 3 "" H 8000 5950 50  0001 C CNN
	1    7950 5950
	1    0    0    -1  
$EndComp
$Comp
L A5C:INV01 UCR425
U 1 1 6D8FF173
P 1450 6600
F 0 "UCR425" H 1450 6917 50  0000 C CNN
F 1 "INV01" H 1450 6826 50  0000 C CNN
F 2 "" H 1450 6400 50  0001 C CNN
F 3 "" H 1450 6400 50  0001 C CNN
	1    1450 6600
	1    0    0    -1  
$EndComp
$Comp
L A5C:BUF01 UCL?
U 1 1 5FC56596
P 1950 7000
AR Path="/5FC56596" Ref="UCL?"  Part="1" 
AR Path="/5F7ECAC5/5FC56596" Ref="UCL404"  Part="1" 
AR Path="/5FC1A6C6/5FC1AD64/5FC56596" Ref="UCL404"  Part="1" 
F 0 "UCL404" H 1950 7317 50  0000 C CNN
F 1 "BUF11" H 1950 7226 50  0000 C CNN
F 2 "" H 1950 7000 50  0001 C CNN
F 3 "" H 1950 7000 50  0001 C CNN
	1    1950 7000
	1    0    0    -1  
$EndComp
$Comp
L A5C:NAND04 UCR443
U 1 1 6F76B2B6
P 9600 4850
F 0 "UCR443" H 9600 5192 50  0000 C CNN
F 1 "NAND04" H 9600 5101 50  0000 C CNN
F 2 "" H 9600 4600 50  0001 C CNN
F 3 "" H 9600 4600 50  0001 C CNN
	1    9600 4850
	1    0    0    -1  
$EndComp
$Comp
L A5C:DFFCOR UCT409
U 1 1 6DA1FE42
P 3300 3250
F 0 "UCT409" H 3300 3615 50  0000 C CNN
F 1 "DFFCOR" H 3300 3524 50  0000 C CNN
F 2 "" H 3300 3250 50  0001 C CNN
F 3 "" H 3300 3250 50  0001 C CNN
F 4 "UCT407;UCT422" H 3300 3250 50  0001 C CNN "MiscRef"
	1    3300 3250
	1    0    0    -1  
$EndComp
$Comp
L A5C:DFFCOR UCT413
U 1 1 6E0F48CD
P 3450 5400
F 0 "UCT413" H 3450 5765 50  0000 C CNN
F 1 "DFFCOR" H 3450 5674 50  0000 C CNN
F 2 "" H 3450 5400 50  0001 C CNN
F 3 "" H 3450 5400 50  0001 C CNN
	1    3450 5400
	1    0    0    -1  
$EndComp
$Comp
L A5C:DFFCOR UCT418
U 1 1 6D8FDE96
P 6350 6100
F 0 "UCT418" H 6350 6465 50  0000 C CNN
F 1 "DFFCOR" H 6350 6374 50  0000 C CNN
F 2 "" H 6350 6100 50  0001 C CNN
F 3 "" H 6350 6100 50  0001 C CNN
	1    6350 6100
	1    0    0    -1  
$EndComp
$Comp
L A5C:DFFCOR UCO435
U 1 1 6F76BEA7
P 8700 3800
F 0 "UCO435" H 8700 4165 50  0000 C CNN
F 1 "DFFCOR" H 8700 4074 50  0000 C CNN
F 2 "" H 8700 3800 50  0001 C CNN
F 3 "" H 8700 3800 50  0001 C CNN
F 4 "UCO433;UCO453" H 8700 3800 50  0001 C CNN "MiscRef"
	1    8700 3800
	1    0    0    -1  
$EndComp
$Comp
L A5C:DFFCOR UCO439
U 1 1 6F76BEA1
P 8700 4550
F 0 "UCO439" H 8700 4915 50  0000 C CNN
F 1 "DFFCOR" H 8700 4824 50  0000 C CNN
F 2 "" H 8700 4550 50  0001 C CNN
F 3 "" H 8700 4550 50  0001 C CNN
	1    8700 4550
	1    0    0    -1  
$EndComp
$Comp
L A5C:DFFCOR UCO444
U 1 1 6F76BE9B
P 8700 5300
F 0 "UCO444" H 8700 5665 50  0000 C CNN
F 1 "DFFCOR" H 8700 5574 50  0000 C CNN
F 2 "" H 8700 5300 50  0001 C CNN
F 3 "" H 8700 5300 50  0001 C CNN
	1    8700 5300
	1    0    0    -1  
$EndComp
$Comp
L A5C:DFFCOR UCO448
U 1 1 6F76BE95
P 8700 6050
F 0 "UCO448" H 8700 6415 50  0000 C CNN
F 1 "DFFCOR" H 8700 6324 50  0000 C CNN
F 2 "" H 8700 6050 50  0001 C CNN
F 3 "" H 8700 6050 50  0001 C CNN
	1    8700 6050
	1    0    0    -1  
$EndComp
$Comp
L A5C:M125C-X6 UBI?
U 1 1 60E7D093
P 9250 1700
AR Path="/5F75F22B/60E7D093" Ref="UBI?"  Part="1" 
AR Path="/5F7ECAC5/60E7D093" Ref="UBE0"  Part="1" 
AR Path="/5FC1A6C6/5FC1AD64/60E7D093" Ref="UBE0"  Part="1" 
F 0 "UBE0" H 9250 2411 50  0000 C CNN
F 1 "M125C-X6" H 9250 2320 50  0000 C CNN
F 2 "" H 9550 1700 50  0001 C CNN
F 3 "" H 9550 1700 50  0001 C CNN
F 4 "UBE2;UBE3;UBE5;UBE7;UBE8" H 9250 1700 50  0001 C CNN "MiscRef"
	1    9250 1700
	1    0    0    -1  
$EndComp
$Comp
L A5C:M125C-X6 UBI?
U 1 1 60E7D099
P 9250 2850
AR Path="/5F75F22B/60E7D099" Ref="UBI?"  Part="1" 
AR Path="/5F7ECAC5/60E7D099" Ref="UBE12"  Part="1" 
AR Path="/5FC1A6C6/5FC1AD64/60E7D099" Ref="UBE12"  Part="1" 
F 0 "UBE12" H 9250 3561 50  0000 C CNN
F 1 "M125C-X6" H 9250 3470 50  0000 C CNN
F 2 "" H 9550 2850 50  0001 C CNN
F 3 "" H 9550 2850 50  0001 C CNN
F 4 "UBE10;UBE14;UBE16;UBE17;UBE19;UBE20" H 9250 2850 50  0001 C CNN "MiscRef"
	1    9250 2850
	1    0    0    -1  
$EndComp
$Comp
L A5C:MUX24H UCO457
U 1 1 5F829BA9
P 6400 4450
F 0 "UCO457" H 6400 5311 50  0000 C CNN
F 1 "MUX24H" H 6400 5220 50  0000 C CNN
F 2 "" H 6400 4450 50  0001 C CNN
F 3 "" H 6400 4450 50  0001 C CNN
F 4 "UCO459;UCO462;UCO466;UCO469" H 6400 4450 50  0001 C CNN "MiscRef"
	1    6400 4450
	1    0    0    -1  
$EndComp
$Comp
L A5C:M273C UCJ404
U 1 1 5F719413
P 3450 1400
F 0 "UCJ404" H 3450 2166 50  0000 C CNN
F 1 "M273C" H 3450 2075 50  0000 C CNN
F 2 "" H 3450 1400 50  0001 C CNN
F 3 "" H 3450 1400 50  0001 C CNN
F 4 "UCJ401;UCJ408;UCJ412;UCJ417;UCJ421;UCJ426;UCJ430;UCJ435;UCJ439" H 3450 1400 50  0001 C CNN "MiscRef"
	1    3450 1400
	1    0    0    -1  
$EndComp
$Comp
L A5C:M273C UCL408
U 1 1 5F76F3A7
P 3450 4350
F 0 "UCL408" H 3450 5116 50  0000 C CNN
F 1 "M273C" H 3450 5025 50  0000 C CNN
F 2 "" H 3450 4350 50  0001 C CNN
F 3 "" H 3450 4350 50  0001 C CNN
F 4 "UCL405;UCL412;UCL417;UCL421;UCL426;UCL430;UCL435;UCL439;UCL444" H 3450 4350 50  0001 C CNN "MiscRef"
	1    3450 4350
	1    0    0    -1  
$EndComp
$Comp
L A5C:MUX28H UCO404
U 1 1 5F87BBAC
P 6400 1400
F 0 "UCO404" H 6400 2164 50  0000 C CNN
F 1 "MUX28H" H 6400 2073 50  0000 C CNN
F 2 "" H 6450 1450 50  0001 C CNN
F 3 "" H 6450 1450 50  0001 C CNN
F 4 "UCO406;UCO410;UCO413;UCO416;UCO420;UCO423;UCO426;UCO430" H 6400 1400 50  0001 C CNN "MiscRef"
	1    6400 1400
	1    0    0    -1  
$EndComp
Wire Bus Line
	8200 2200 8200 2500
Wire Bus Line
	8200 1350 8200 2200
Wire Bus Line
	2500 1000 2500 2800
Wire Bus Line
	2500 3950 2500 5050
Wire Bus Line
	7400 1050 7400 2200
Wire Bus Line
	10150 1350 10150 3100
$EndSCHEMATC
