EESchema Schematic File Version 4
EELAYER 30 0
EELAYER END
$Descr A3 16535 11693
encoding utf-8
Sheet 14 69
Title ""
Date "2020-11-26"
Rev ""
Comp ""
Comment1 "Licence: CC-BY"
Comment2 "Author: Loïc *WydD* Petit"
Comment3 ""
Comment4 ""
$EndDescr
Connection ~ 4400 5850
Connection ~ 4500 4450
Connection ~ 10200 4450
Connection ~ 10300 5850
Connection ~ 3650 5850
Connection ~ 10950 5300
Connection ~ 3750 5300
NoConn ~ 8800 5850
Entry Wire Line
	3750 4800 3850 4700
Entry Wire Line
	3750 4900 3850 4800
Entry Wire Line
	3750 5000 3850 4900
Entry Wire Line
	3750 5100 3850 5000
Entry Wire Line
	3750 5200 3850 5100
Entry Wire Line
	3750 5300 3850 5200
Entry Wire Line
	3750 5400 3850 5300
Entry Wire Line
	3750 5500 3850 5400
Entry Wire Line
	3750 6000 3850 6100
Entry Wire Line
	3750 6100 3850 6200
Entry Wire Line
	3750 6200 3850 6300
Entry Wire Line
	3750 6300 3850 6400
Entry Wire Line
	3750 6400 3850 6500
Entry Wire Line
	3750 6500 3850 6600
Entry Wire Line
	3750 6600 3850 6700
Entry Wire Line
	3750 6700 3850 6800
Entry Wire Line
	4500 1200 4600 1100
Entry Wire Line
	4500 1650 4600 1550
Entry Wire Line
	4500 2100 4600 2000
Entry Wire Line
	4500 2550 4600 2450
Entry Wire Line
	4500 3000 4600 2900
Entry Wire Line
	4500 3450 4600 3350
Entry Wire Line
	4500 3900 4600 3800
Entry Wire Line
	4500 4350 4600 4250
Entry Wire Line
	4500 7450 4600 7550
Entry Wire Line
	4500 7900 4600 8000
Entry Wire Line
	4500 8350 4600 8450
Entry Wire Line
	4500 8800 4600 8900
Entry Wire Line
	4500 9250 4600 9350
Entry Wire Line
	4500 9700 4600 9800
Entry Wire Line
	4500 10150 4600 10250
Entry Wire Line
	4500 10600 4600 10700
Entry Wire Line
	10200 1200 10100 1100
Entry Wire Line
	10200 1650 10100 1550
Entry Wire Line
	10200 2100 10100 2000
Entry Wire Line
	10200 2550 10100 2450
Entry Wire Line
	10200 3000 10100 2900
Entry Wire Line
	10200 3450 10100 3350
Entry Wire Line
	10200 3900 10100 3800
Entry Wire Line
	10200 4350 10100 4250
Entry Wire Line
	10200 7450 10100 7550
Entry Wire Line
	10200 7900 10100 8000
Entry Wire Line
	10200 8350 10100 8450
Entry Wire Line
	10200 8800 10100 8900
Entry Wire Line
	10200 9250 10100 9350
Entry Wire Line
	10200 9700 10100 9800
Entry Wire Line
	10200 10150 10100 10250
Entry Wire Line
	10200 10600 10100 10700
Entry Wire Line
	10950 4800 10850 4700
Entry Wire Line
	10950 4900 10850 4800
Entry Wire Line
	10950 5000 10850 4900
Entry Wire Line
	10950 5100 10850 5000
Entry Wire Line
	10950 5200 10850 5100
Entry Wire Line
	10950 5300 10850 5200
Entry Wire Line
	10950 5400 10850 5300
Entry Wire Line
	10950 5500 10850 5400
Entry Wire Line
	10950 6000 10850 6100
Entry Wire Line
	10950 6100 10850 6200
Entry Wire Line
	10950 6200 10850 6300
Entry Wire Line
	10950 6300 10850 6400
Entry Wire Line
	10950 6400 10850 6500
Entry Wire Line
	10950 6500 10850 6600
Entry Wire Line
	10950 6600 10850 6700
Entry Wire Line
	10950 6700 10850 6800
Wire Wire Line
	3000 5800 3100 5800
Wire Wire Line
	3000 5900 3100 5900
Wire Wire Line
	3650 5850 3650 7200
Wire Wire Line
	3650 7200 7700 7200
Wire Wire Line
	3800 5850 3650 5850
Wire Wire Line
	4400 5650 4400 5850
Wire Wire Line
	4400 5650 4600 5650
Wire Wire Line
	4400 5850 4400 7050
Wire Wire Line
	4400 7050 4600 7050
Wire Wire Line
	4600 1100 5650 1100
Wire Wire Line
	4600 1550 5650 1550
Wire Wire Line
	4600 2000 5650 2000
Wire Wire Line
	4600 2450 5650 2450
Wire Wire Line
	4600 2900 5650 2900
Wire Wire Line
	4600 3350 5650 3350
Wire Wire Line
	4600 3800 5650 3800
Wire Wire Line
	4600 4250 5650 4250
Wire Wire Line
	4600 4700 3850 4700
Wire Wire Line
	4600 4800 3850 4800
Wire Wire Line
	4600 4900 3850 4900
Wire Wire Line
	4600 5000 3850 5000
Wire Wire Line
	4600 5100 3850 5100
Wire Wire Line
	4600 5200 3850 5200
Wire Wire Line
	4600 5300 3850 5300
Wire Wire Line
	4600 5400 3850 5400
Wire Wire Line
	4600 6100 3850 6100
Wire Wire Line
	4600 6200 3850 6200
Wire Wire Line
	4600 6300 3850 6300
Wire Wire Line
	4600 6400 3850 6400
Wire Wire Line
	4600 6500 3850 6500
Wire Wire Line
	4600 6600 3850 6600
Wire Wire Line
	4600 6700 3850 6700
Wire Wire Line
	4600 6800 3850 6800
Wire Wire Line
	4600 7550 5650 7550
Wire Wire Line
	4600 8000 5650 8000
Wire Wire Line
	4600 8450 5650 8450
Wire Wire Line
	4600 8900 5650 8900
Wire Wire Line
	4600 9350 5650 9350
Wire Wire Line
	4600 9800 5650 9800
Wire Wire Line
	4600 10250 5650 10250
Wire Wire Line
	4600 10700 5650 10700
Wire Wire Line
	5200 1000 5650 1000
Wire Wire Line
	5200 4700 5200 1000
Wire Wire Line
	5200 4900 5300 4900
Wire Wire Line
	5200 5100 5400 5100
Wire Wire Line
	5200 5300 5500 5300
Wire Wire Line
	5200 6200 5500 6200
Wire Wire Line
	5200 6400 5400 6400
Wire Wire Line
	5200 6600 5300 6600
Wire Wire Line
	5200 6800 5200 10600
Wire Wire Line
	5200 10600 5650 10600
Wire Wire Line
	5250 1450 5250 4800
Wire Wire Line
	5250 4800 5200 4800
Wire Wire Line
	5250 6700 5200 6700
Wire Wire Line
	5250 6700 5250 10150
Wire Wire Line
	5300 1900 5650 1900
Wire Wire Line
	5300 4900 5300 1900
Wire Wire Line
	5300 6600 5300 9700
Wire Wire Line
	5300 9700 5650 9700
Wire Wire Line
	5350 2350 5350 5000
Wire Wire Line
	5350 5000 5200 5000
Wire Wire Line
	5350 6500 5200 6500
Wire Wire Line
	5350 6500 5350 9250
Wire Wire Line
	5400 2800 5650 2800
Wire Wire Line
	5400 5100 5400 2800
Wire Wire Line
	5400 6400 5400 8800
Wire Wire Line
	5400 8800 5650 8800
Wire Wire Line
	5450 3250 5450 5200
Wire Wire Line
	5450 5200 5200 5200
Wire Wire Line
	5450 6300 5200 6300
Wire Wire Line
	5450 6300 5450 8350
Wire Wire Line
	5500 3700 5500 5300
Wire Wire Line
	5500 3700 5650 3700
Wire Wire Line
	5500 6200 5500 7900
Wire Wire Line
	5500 7900 5650 7900
Wire Wire Line
	5550 4150 5550 5400
Wire Wire Line
	5550 5400 5200 5400
Wire Wire Line
	5550 6100 5200 6100
Wire Wire Line
	5550 6100 5550 7450
Wire Wire Line
	5650 1450 5250 1450
Wire Wire Line
	5650 2350 5350 2350
Wire Wire Line
	5650 3250 5450 3250
Wire Wire Line
	5650 4150 5550 4150
Wire Wire Line
	5650 7450 5550 7450
Wire Wire Line
	5650 8350 5450 8350
Wire Wire Line
	5650 9250 5350 9250
Wire Wire Line
	5650 10150 5250 10150
Wire Wire Line
	6200 1500 6500 1500
Wire Wire Line
	6200 2400 6300 2400
Wire Wire Line
	6200 3300 6400 3300
Wire Wire Line
	6200 4200 6600 4200
Wire Wire Line
	6200 7950 6500 7950
Wire Wire Line
	6200 8850 6300 8850
Wire Wire Line
	6200 9750 6400 9750
Wire Wire Line
	6200 10650 6600 10650
Wire Wire Line
	6300 2400 6300 2550
Wire Wire Line
	6300 2550 6600 2550
Wire Wire Line
	6300 2650 6300 2850
Wire Wire Line
	6300 2650 6600 2650
Wire Wire Line
	6300 2850 6200 2850
Wire Wire Line
	6300 8850 6300 9000
Wire Wire Line
	6300 9000 6600 9000
Wire Wire Line
	6300 9100 6300 9300
Wire Wire Line
	6300 9100 6600 9100
Wire Wire Line
	6300 9300 6200 9300
Wire Wire Line
	6400 1950 6200 1950
Wire Wire Line
	6400 2450 6400 1950
Wire Wire Line
	6400 2750 6600 2750
Wire Wire Line
	6400 3300 6400 2750
Wire Wire Line
	6400 8400 6200 8400
Wire Wire Line
	6400 8900 6400 8400
Wire Wire Line
	6400 9200 6600 9200
Wire Wire Line
	6400 9750 6400 9200
Wire Wire Line
	6500 1500 6500 2350
Wire Wire Line
	6500 2350 6600 2350
Wire Wire Line
	6500 2850 6500 3750
Wire Wire Line
	6500 3750 6200 3750
Wire Wire Line
	6500 7950 6500 8800
Wire Wire Line
	6500 8800 6600 8800
Wire Wire Line
	6500 9300 6500 10200
Wire Wire Line
	6500 10200 6200 10200
Wire Wire Line
	6600 1050 6200 1050
Wire Wire Line
	6600 2250 6600 1050
Wire Wire Line
	6600 2450 6400 2450
Wire Wire Line
	6600 2850 6500 2850
Wire Wire Line
	6600 4200 6600 2950
Wire Wire Line
	6600 7500 6200 7500
Wire Wire Line
	6600 8700 6600 7500
Wire Wire Line
	6600 8900 6400 8900
Wire Wire Line
	6600 9300 6500 9300
Wire Wire Line
	6600 10650 6600 9400
Wire Wire Line
	7300 2600 7200 2600
Wire Wire Line
	7300 2600 7300 5650
Wire Wire Line
	7300 5650 7700 5650
Wire Wire Line
	7300 5750 7300 9050
Wire Wire Line
	7300 5750 7700 5750
Wire Wire Line
	7300 9050 7200 9050
Wire Wire Line
	7400 2600 7500 2600
Wire Wire Line
	7400 5550 7400 2600
Wire Wire Line
	7400 5850 7700 5850
Wire Wire Line
	7400 9050 7400 5850
Wire Wire Line
	7500 9050 7400 9050
Wire Wire Line
	7700 5550 7400 5550
Wire Wire Line
	7700 5950 8300 5950
Wire Wire Line
	7700 7200 7700 5950
Wire Wire Line
	8100 1050 8500 1050
Wire Wire Line
	8100 2250 8100 1050
Wire Wire Line
	8100 2450 8300 2450
Wire Wire Line
	8100 2850 8200 2850
Wire Wire Line
	8100 4200 8100 2950
Wire Wire Line
	8100 7500 8500 7500
Wire Wire Line
	8100 8700 8100 7500
Wire Wire Line
	8100 8900 8300 8900
Wire Wire Line
	8100 9300 8200 9300
Wire Wire Line
	8100 10650 8100 9400
Wire Wire Line
	8200 1500 8200 2350
Wire Wire Line
	8200 2350 8100 2350
Wire Wire Line
	8200 2850 8200 3750
Wire Wire Line
	8200 3750 8500 3750
Wire Wire Line
	8200 7950 8200 8800
Wire Wire Line
	8200 8800 8100 8800
Wire Wire Line
	8200 9300 8200 10200
Wire Wire Line
	8200 10200 8500 10200
Wire Wire Line
	8300 1950 8500 1950
Wire Wire Line
	8300 2450 8300 1950
Wire Wire Line
	8300 2750 8100 2750
Wire Wire Line
	8300 3300 8300 2750
Wire Wire Line
	8300 5750 8300 5700
Wire Wire Line
	8300 8400 8500 8400
Wire Wire Line
	8300 8900 8300 8400
Wire Wire Line
	8300 9200 8100 9200
Wire Wire Line
	8300 9750 8300 9200
Wire Wire Line
	8400 2400 8400 2550
Wire Wire Line
	8400 2550 8100 2550
Wire Wire Line
	8400 2650 8100 2650
Wire Wire Line
	8400 2650 8400 2850
Wire Wire Line
	8400 2850 8500 2850
Wire Wire Line
	8400 8850 8400 9000
Wire Wire Line
	8400 9000 8100 9000
Wire Wire Line
	8400 9100 8100 9100
Wire Wire Line
	8400 9100 8400 9300
Wire Wire Line
	8400 9300 8500 9300
Wire Wire Line
	8500 1500 8200 1500
Wire Wire Line
	8500 2400 8400 2400
Wire Wire Line
	8500 3300 8300 3300
Wire Wire Line
	8500 4200 8100 4200
Wire Wire Line
	8500 7950 8200 7950
Wire Wire Line
	8500 8850 8400 8850
Wire Wire Line
	8500 9750 8300 9750
Wire Wire Line
	8500 10650 8100 10650
Wire Wire Line
	8550 6150 8200 6150
Wire Wire Line
	9050 1450 9450 1450
Wire Wire Line
	9050 2350 9350 2350
Wire Wire Line
	9050 3250 9250 3250
Wire Wire Line
	9050 4150 9150 4150
Wire Wire Line
	9050 7450 9150 7450
Wire Wire Line
	9050 8350 9250 8350
Wire Wire Line
	9050 9250 9350 9250
Wire Wire Line
	9050 10150 9450 10150
Wire Wire Line
	9150 4150 9150 5400
Wire Wire Line
	9150 5400 9500 5400
Wire Wire Line
	9150 6100 9150 7450
Wire Wire Line
	9150 6100 9500 6100
Wire Wire Line
	9200 3700 9050 3700
Wire Wire Line
	9200 3700 9200 5300
Wire Wire Line
	9200 6200 9200 7900
Wire Wire Line
	9200 7900 9050 7900
Wire Wire Line
	9250 3250 9250 5200
Wire Wire Line
	9250 5200 9500 5200
Wire Wire Line
	9250 6300 9250 8350
Wire Wire Line
	9250 6300 9500 6300
Wire Wire Line
	9300 2800 9050 2800
Wire Wire Line
	9300 5100 9300 2800
Wire Wire Line
	9300 6400 9300 8800
Wire Wire Line
	9300 8800 9050 8800
Wire Wire Line
	9350 2350 9350 5000
Wire Wire Line
	9350 5000 9500 5000
Wire Wire Line
	9350 6500 9350 9250
Wire Wire Line
	9350 6500 9500 6500
Wire Wire Line
	9400 1900 9050 1900
Wire Wire Line
	9400 4900 9400 1900
Wire Wire Line
	9400 6600 9400 9700
Wire Wire Line
	9400 9700 9050 9700
Wire Wire Line
	9450 1450 9450 4800
Wire Wire Line
	9450 4800 9500 4800
Wire Wire Line
	9450 6700 9450 10150
Wire Wire Line
	9450 6700 9500 6700
Wire Wire Line
	9500 1000 9050 1000
Wire Wire Line
	9500 4700 9500 1000
Wire Wire Line
	9500 4900 9400 4900
Wire Wire Line
	9500 5100 9300 5100
Wire Wire Line
	9500 5300 9200 5300
Wire Wire Line
	9500 6200 9200 6200
Wire Wire Line
	9500 6400 9300 6400
Wire Wire Line
	9500 6600 9400 6600
Wire Wire Line
	9500 6800 9500 10600
Wire Wire Line
	9500 10600 9050 10600
Wire Wire Line
	10100 1100 9050 1100
Wire Wire Line
	10100 1550 9050 1550
Wire Wire Line
	10100 2000 9050 2000
Wire Wire Line
	10100 2450 9050 2450
Wire Wire Line
	10100 2900 9050 2900
Wire Wire Line
	10100 3350 9050 3350
Wire Wire Line
	10100 3800 9050 3800
Wire Wire Line
	10100 4250 9050 4250
Wire Wire Line
	10100 4700 10850 4700
Wire Wire Line
	10100 4800 10850 4800
Wire Wire Line
	10100 4900 10850 4900
Wire Wire Line
	10100 5000 10850 5000
Wire Wire Line
	10100 5100 10850 5100
Wire Wire Line
	10100 5200 10850 5200
Wire Wire Line
	10100 5300 10850 5300
Wire Wire Line
	10100 5400 10850 5400
Wire Wire Line
	10100 6100 10850 6100
Wire Wire Line
	10100 6200 10850 6200
Wire Wire Line
	10100 6300 10850 6300
Wire Wire Line
	10100 6400 10850 6400
Wire Wire Line
	10100 6500 10850 6500
Wire Wire Line
	10100 6600 10850 6600
Wire Wire Line
	10100 6700 10850 6700
Wire Wire Line
	10100 6800 10850 6800
Wire Wire Line
	10100 7550 9050 7550
Wire Wire Line
	10100 8000 9050 8000
Wire Wire Line
	10100 8450 9050 8450
Wire Wire Line
	10100 8900 9050 8900
Wire Wire Line
	10100 9350 9050 9350
Wire Wire Line
	10100 9800 9050 9800
Wire Wire Line
	10100 10250 9050 10250
Wire Wire Line
	10100 10700 9050 10700
Wire Wire Line
	10300 5650 10100 5650
Wire Wire Line
	10300 5650 10300 5850
Wire Wire Line
	10300 5850 10300 7050
Wire Wire Line
	10300 7050 10100 7050
Wire Wire Line
	10900 5850 11050 5850
Wire Wire Line
	11600 5800 11800 5800
Wire Wire Line
	11800 5900 11600 5900
Wire Bus Line
	3550 5300 3750 5300
Wire Bus Line
	4200 4450 4500 4450
Wire Bus Line
	10500 4450 10200 4450
Wire Bus Line
	11150 5300 10950 5300
Text Label 3900 4700 0    50   ~ 0
DATA0
Text Label 3900 4800 0    50   ~ 0
DATA1
Text Label 3900 4900 0    50   ~ 0
DATA2
Text Label 3900 5000 0    50   ~ 0
DATA3
Text Label 3900 5100 0    50   ~ 0
DATA4
Text Label 3900 5200 0    50   ~ 0
DATA5
Text Label 3900 5300 0    50   ~ 0
DATA6
Text Label 3900 5400 0    50   ~ 0
DATA7
Text Label 3900 6100 0    50   ~ 0
DATA8
Text Label 3900 6200 0    50   ~ 0
DATA9
Text Label 3900 6300 0    50   ~ 0
DATA10
Text Label 3900 6400 0    50   ~ 0
DATA11
Text Label 3900 6500 0    50   ~ 0
DATA12
Text Label 3900 6600 0    50   ~ 0
DATA13
Text Label 3900 6700 0    50   ~ 0
DATA14
Text Label 3900 6800 0    50   ~ 0
DATA15
Text Label 5100 1100 2    50   ~ 0
CHECK2-D0
Text Label 5100 1550 2    50   ~ 0
CHECK2-D1
Text Label 5100 2000 2    50   ~ 0
CHECK2-D2
Text Label 5100 2450 2    50   ~ 0
CHECK2-D3
Text Label 5100 2900 2    50   ~ 0
CHECK2-D4
Text Label 5100 3350 2    50   ~ 0
CHECK2-D5
Text Label 5100 3800 2    50   ~ 0
CHECK2-D6
Text Label 5100 4250 2    50   ~ 0
CHECK2-D7
Text Label 5100 7550 2    50   ~ 0
CHECK2-D8
Text Label 5100 8000 2    50   ~ 0
CHECK2-D9
Text Label 5100 8450 2    50   ~ 0
CHECK2-D10
Text Label 5100 8900 2    50   ~ 0
CHECK2-D11
Text Label 5100 9350 2    50   ~ 0
CHECK2-D12
Text Label 5100 9800 2    50   ~ 0
CHECK2-D13
Text Label 5100 10250 2    50   ~ 0
CHECK2-D14
Text Label 5100 10700 2    50   ~ 0
CHECK2-D15
Text Label 9600 1100 0    50   ~ 0
CHECK1-D0
Text Label 9600 1550 0    50   ~ 0
CHECK1-D1
Text Label 9600 2000 0    50   ~ 0
CHECK1-D2
Text Label 9600 2450 0    50   ~ 0
CHECK1-D3
Text Label 9600 2900 0    50   ~ 0
CHECK1-D4
Text Label 9600 3350 0    50   ~ 0
CHECK1-D5
Text Label 9600 3800 0    50   ~ 0
CHECK1-D6
Text Label 9600 4250 0    50   ~ 0
CHECK1-D7
Text Label 9600 7550 0    50   ~ 0
CHECK1-D8
Text Label 9600 8000 0    50   ~ 0
CHECK1-D9
Text Label 9600 8450 0    50   ~ 0
CHECK1-D10
Text Label 9600 8900 0    50   ~ 0
CHECK1-D11
Text Label 9600 9350 0    50   ~ 0
CHECK1-D12
Text Label 9600 9800 0    50   ~ 0
CHECK1-D13
Text Label 9600 10250 0    50   ~ 0
CHECK1-D14
Text Label 9600 10700 0    50   ~ 0
CHECK1-D15
Text Label 10800 4700 2    50   ~ 0
DATA0
Text Label 10800 4800 2    50   ~ 0
DATA1
Text Label 10800 4900 2    50   ~ 0
DATA2
Text Label 10800 5000 2    50   ~ 0
DATA3
Text Label 10800 5100 2    50   ~ 0
DATA4
Text Label 10800 5200 2    50   ~ 0
DATA5
Text Label 10800 5300 2    50   ~ 0
DATA6
Text Label 10800 5400 2    50   ~ 0
DATA7
Text Label 10800 6100 2    50   ~ 0
DATA8
Text Label 10800 6200 2    50   ~ 0
DATA9
Text Label 10800 6300 2    50   ~ 0
DATA10
Text Label 10800 6400 2    50   ~ 0
DATA11
Text Label 10800 6500 2    50   ~ 0
DATA12
Text Label 10800 6600 2    50   ~ 0
DATA13
Text Label 10800 6700 2    50   ~ 0
DATA14
Text Label 10800 6800 2    50   ~ 0
DATA15
Text HLabel 3000 5800 0    50   Input ~ 0
~WR
Text HLabel 3000 5900 0    50   Input ~ 0
~E2
Text HLabel 3550 5300 0    50   Input ~ 0
DATA[0..15]
Text HLabel 4200 4450 0    50   Input ~ 0
CHECK2-D[0..15]
Text HLabel 8200 6150 0    50   Input ~ 0
~RESETI
Text HLabel 8800 5750 2    50   Output ~ 0
OUT
Text HLabel 10500 4450 2    50   Input ~ 0
CHECK1-D[0..15]
Text HLabel 11150 5300 2    50   Input ~ 0
DATA[0..15]
Text HLabel 11800 5800 2    50   Input ~ 0
~WR
Text HLabel 11800 5900 2    50   Input ~ 0
~E1
$Comp
L A5C:OR02 UBZ90
U 1 1 601E0A7B
P 3350 5850
F 0 "UBZ90" H 3375 6117 50  0000 C CNN
F 1 "OR02" H 3375 6026 50  0000 C CNN
F 2 "" H 3400 5850 50  0001 C CNN
F 3 "" H 3400 5850 50  0001 C CNN
	1    3350 5850
	1    0    0    -1  
$EndComp
$Comp
L A5C:XNOR02 UCJ16
U 1 1 601E0A84
P 5900 1050
F 0 "UCJ16" H 5925 1317 50  0000 C CNN
F 1 "XNOR02" H 5925 1226 50  0000 C CNN
F 2 "" H 5925 1050 50  0001 C CNN
F 3 "" H 5925 1050 50  0001 C CNN
	1    5900 1050
	1    0    0    -1  
$EndComp
$Comp
L A5C:XNOR02 UCJ10
U 1 1 601E0A83
P 5900 1500
F 0 "UCJ10" H 5925 1767 50  0000 C CNN
F 1 "XNOR02" H 5925 1676 50  0000 C CNN
F 2 "" H 5925 1500 50  0001 C CNN
F 3 "" H 5925 1500 50  0001 C CNN
	1    5900 1500
	1    0    0    -1  
$EndComp
$Comp
L A5C:XNOR02 UCJ13
U 1 1 601E0A82
P 5900 1950
F 0 "UCJ13" H 5925 2217 50  0000 C CNN
F 1 "XNOR02" H 5925 2126 50  0000 C CNN
F 2 "" H 5925 1950 50  0001 C CNN
F 3 "" H 5925 1950 50  0001 C CNN
	1    5900 1950
	1    0    0    -1  
$EndComp
$Comp
L A5C:XNOR02 UCJ19
U 1 1 601E0A81
P 5900 2400
F 0 "UCJ19" H 5925 2667 50  0000 C CNN
F 1 "XNOR02" H 5925 2576 50  0000 C CNN
F 2 "" H 5925 2400 50  0001 C CNN
F 3 "" H 5925 2400 50  0001 C CNN
	1    5900 2400
	1    0    0    -1  
$EndComp
$Comp
L A5C:XNOR02 UCJ32
U 1 1 601E0A77
P 5900 2850
F 0 "UCJ32" H 5925 3117 50  0000 C CNN
F 1 "XNOR02" H 5925 3026 50  0000 C CNN
F 2 "" H 5925 2850 50  0001 C CNN
F 3 "" H 5925 2850 50  0001 C CNN
	1    5900 2850
	1    0    0    -1  
$EndComp
$Comp
L A5C:XNOR02 UCG25
U 1 1 601E0A76
P 5900 3300
F 0 "UCG25" H 5925 3567 50  0000 C CNN
F 1 "XNOR02" H 5925 3476 50  0000 C CNN
F 2 "" H 5925 3300 50  0001 C CNN
F 3 "" H 5925 3300 50  0001 C CNN
	1    5900 3300
	1    0    0    -1  
$EndComp
$Comp
L A5C:XNOR02 UCJ35
U 1 1 601E0A73
P 5900 3750
F 0 "UCJ35" H 5925 4017 50  0000 C CNN
F 1 "XNOR02" H 5925 3926 50  0000 C CNN
F 2 "" H 5925 3750 50  0001 C CNN
F 3 "" H 5925 3750 50  0001 C CNN
	1    5900 3750
	1    0    0    -1  
$EndComp
$Comp
L A5C:XNOR02 UCJ27
U 1 1 601E0A72
P 5900 4200
F 0 "UCJ27" H 5925 4467 50  0000 C CNN
F 1 "XNOR02" H 5925 4376 50  0000 C CNN
F 2 "" H 5925 4200 50  0001 C CNN
F 3 "" H 5925 4200 50  0001 C CNN
	1    5900 4200
	1    0    0    -1  
$EndComp
$Comp
L A5C:XNOR02 UCL59
U 1 1 756C453B
P 5900 7500
F 0 "UCL59" H 5925 7767 50  0000 C CNN
F 1 "XNOR02" H 5925 7676 50  0000 C CNN
F 2 "" H 5925 7500 50  0001 C CNN
F 3 "" H 5925 7500 50  0001 C CNN
	1    5900 7500
	1    0    0    -1  
$EndComp
$Comp
L A5C:XNOR02 UCL62
U 1 1 756C4541
P 5900 7950
F 0 "UCL62" H 5925 8217 50  0000 C CNN
F 1 "XNOR02" H 5925 8126 50  0000 C CNN
F 2 "" H 5925 7950 50  0001 C CNN
F 3 "" H 5925 7950 50  0001 C CNN
	1    5900 7950
	1    0    0    -1  
$EndComp
$Comp
L A5C:XNOR02 UCJ65
U 1 1 756C4547
P 5900 8400
F 0 "UCJ65" H 5925 8667 50  0000 C CNN
F 1 "XNOR02" H 5925 8576 50  0000 C CNN
F 2 "" H 5925 8400 50  0001 C CNN
F 3 "" H 5925 8400 50  0001 C CNN
	1    5900 8400
	1    0    0    -1  
$EndComp
$Comp
L A5C:XNOR02 UCJ71
U 1 1 756C454D
P 5900 8850
F 0 "UCJ71" H 5925 9117 50  0000 C CNN
F 1 "XNOR02" H 5925 9026 50  0000 C CNN
F 2 "" H 5925 8850 50  0001 C CNN
F 3 "" H 5925 8850 50  0001 C CNN
	1    5900 8850
	1    0    0    -1  
$EndComp
$Comp
L A5C:XNOR02 UCL73
U 1 1 756C4553
P 5900 9300
F 0 "UCL73" H 5925 9567 50  0000 C CNN
F 1 "XNOR02" H 5925 9476 50  0000 C CNN
F 2 "" H 5925 9300 50  0001 C CNN
F 3 "" H 5925 9300 50  0001 C CNN
	1    5900 9300
	1    0    0    -1  
$EndComp
$Comp
L A5C:XNOR02 UCJ68
U 1 1 756C4559
P 5900 9750
F 0 "UCJ68" H 5925 10017 50  0000 C CNN
F 1 "XNOR02" H 5925 9926 50  0000 C CNN
F 2 "" H 5925 9750 50  0001 C CNN
F 3 "" H 5925 9750 50  0001 C CNN
	1    5900 9750
	1    0    0    -1  
$EndComp
$Comp
L A5C:XNOR02 UCL56
U 1 1 756C455F
P 5900 10200
F 0 "UCL56" H 5925 10467 50  0000 C CNN
F 1 "XNOR02" H 5925 10376 50  0000 C CNN
F 2 "" H 5925 10200 50  0001 C CNN
F 3 "" H 5925 10200 50  0001 C CNN
	1    5900 10200
	1    0    0    -1  
$EndComp
$Comp
L A5C:XNOR02 UCL65
U 1 1 756C4565
P 5900 10650
F 0 "UCL65" H 5925 10917 50  0000 C CNN
F 1 "XNOR02" H 5925 10826 50  0000 C CNN
F 2 "" H 5925 10650 50  0001 C CNN
F 3 "" H 5925 10650 50  0001 C CNN
	1    5900 10650
	1    0    0    -1  
$EndComp
$Comp
L A5C:XNOR02 UCO128
U 1 1 7C68C11E
P 8800 1050
F 0 "UCO128" H 8825 1317 50  0000 C CNN
F 1 "XNOR02" H 8825 1226 50  0000 C CNN
F 2 "" H 8825 1050 50  0001 C CNN
F 3 "" H 8825 1050 50  0001 C CNN
	1    8800 1050
	-1   0    0    -1  
$EndComp
$Comp
L A5C:XNOR02 UCL134
U 1 1 7C68C124
P 8800 1500
F 0 "UCL134" H 8825 1767 50  0000 C CNN
F 1 "XNOR02" H 8825 1676 50  0000 C CNN
F 2 "" H 8825 1500 50  0001 C CNN
F 3 "" H 8825 1500 50  0001 C CNN
	1    8800 1500
	-1   0    0    -1  
$EndComp
$Comp
L A5C:XNOR02 UCO134
U 1 1 7C68C12A
P 8800 1950
F 0 "UCO134" H 8825 2217 50  0000 C CNN
F 1 "XNOR02" H 8825 2126 50  0000 C CNN
F 2 "" H 8825 1950 50  0001 C CNN
F 3 "" H 8825 1950 50  0001 C CNN
	1    8800 1950
	-1   0    0    -1  
$EndComp
$Comp
L A5C:XNOR02 UCL143
U 1 1 7C68C130
P 8800 2400
F 0 "UCL143" H 8825 2667 50  0000 C CNN
F 1 "XNOR02" H 8825 2576 50  0000 C CNN
F 2 "" H 8825 2400 50  0001 C CNN
F 3 "" H 8825 2400 50  0001 C CNN
	1    8800 2400
	-1   0    0    -1  
$EndComp
$Comp
L A5C:XNOR02 UCL146
U 1 1 7C68C136
P 8800 2850
F 0 "UCL146" H 8825 3117 50  0000 C CNN
F 1 "XNOR02" H 8825 3026 50  0000 C CNN
F 2 "" H 8825 2850 50  0001 C CNN
F 3 "" H 8825 2850 50  0001 C CNN
	1    8800 2850
	-1   0    0    -1  
$EndComp
$Comp
L A5C:XNOR02 UCG137
U 1 1 7C68C13C
P 8800 3300
F 0 "UCG137" H 8825 3567 50  0000 C CNN
F 1 "XNOR02" H 8825 3476 50  0000 C CNN
F 2 "" H 8825 3300 50  0001 C CNN
F 3 "" H 8825 3300 50  0001 C CNN
	1    8800 3300
	-1   0    0    -1  
$EndComp
$Comp
L A5C:XNOR02 UCL149
U 1 1 7C68C142
P 8800 3750
F 0 "UCL149" H 8825 4017 50  0000 C CNN
F 1 "XNOR02" H 8825 3926 50  0000 C CNN
F 2 "" H 8825 3750 50  0001 C CNN
F 3 "" H 8825 3750 50  0001 C CNN
	1    8800 3750
	-1   0    0    -1  
$EndComp
$Comp
L A5C:XNOR02 UCL152
U 1 1 7C68C148
P 8800 4200
F 0 "UCL152" H 8825 4467 50  0000 C CNN
F 1 "XNOR02" H 8825 4376 50  0000 C CNN
F 2 "" H 8825 4200 50  0001 C CNN
F 3 "" H 8825 4200 50  0001 C CNN
	1    8800 4200
	-1   0    0    -1  
$EndComp
$Comp
L A5C:XNOR02 UCL87
U 1 1 7C68C1B8
P 8800 7500
F 0 "UCL87" H 8825 7767 50  0000 C CNN
F 1 "XNOR02" H 8825 7676 50  0000 C CNN
F 2 "" H 8825 7500 50  0001 C CNN
F 3 "" H 8825 7500 50  0001 C CNN
	1    8800 7500
	-1   0    0    -1  
$EndComp
$Comp
L A5C:XNOR02 UCL82
U 1 1 7C68C1BE
P 8800 7950
F 0 "UCL82" H 8825 8217 50  0000 C CNN
F 1 "XNOR02" H 8825 8126 50  0000 C CNN
F 2 "" H 8825 7950 50  0001 C CNN
F 3 "" H 8825 7950 50  0001 C CNN
	1    8800 7950
	-1   0    0    -1  
$EndComp
$Comp
L A5C:XNOR02 UCO59
U 1 1 7C68C1C4
P 8800 8400
F 0 "UCO59" H 8825 8667 50  0000 C CNN
F 1 "XNOR02" H 8825 8576 50  0000 C CNN
F 2 "" H 8825 8400 50  0001 C CNN
F 3 "" H 8825 8400 50  0001 C CNN
	1    8800 8400
	-1   0    0    -1  
$EndComp
$Comp
L A5C:XNOR02 UCL93
U 1 1 7C68C1CA
P 8800 8850
F 0 "UCL93" H 8825 9117 50  0000 C CNN
F 1 "XNOR02" H 8825 9026 50  0000 C CNN
F 2 "" H 8825 8850 50  0001 C CNN
F 3 "" H 8825 8850 50  0001 C CNN
	1    8800 8850
	-1   0    0    -1  
$EndComp
$Comp
L A5C:XNOR02 UCL85
U 1 1 7C68C1D0
P 8800 9300
F 0 "UCL85" H 8825 9567 50  0000 C CNN
F 1 "XNOR02" H 8825 9476 50  0000 C CNN
F 2 "" H 8825 9300 50  0001 C CNN
F 3 "" H 8825 9300 50  0001 C CNN
	1    8800 9300
	-1   0    0    -1  
$EndComp
$Comp
L A5C:XNOR02 UCL131
U 1 1 7C68C1D6
P 8800 9750
F 0 "UCL131" H 8825 10017 50  0000 C CNN
F 1 "XNOR02" H 8825 9926 50  0000 C CNN
F 2 "" H 8825 9750 50  0001 C CNN
F 3 "" H 8825 9750 50  0001 C CNN
	1    8800 9750
	-1   0    0    -1  
$EndComp
$Comp
L A5C:XNOR02 UCL90
U 1 1 7C68C1DC
P 8800 10200
F 0 "UCL90" H 8825 10467 50  0000 C CNN
F 1 "XNOR02" H 8825 10376 50  0000 C CNN
F 2 "" H 8825 10200 50  0001 C CNN
F 3 "" H 8825 10200 50  0001 C CNN
	1    8800 10200
	-1   0    0    -1  
$EndComp
$Comp
L A5C:XNOR02 UCO131
U 1 1 7C68C1E2
P 8800 10650
F 0 "UCO131" H 8825 10917 50  0000 C CNN
F 1 "XNOR02" H 8825 10826 50  0000 C CNN
F 2 "" H 8825 10650 50  0001 C CNN
F 3 "" H 8825 10650 50  0001 C CNN
	1    8800 10650
	-1   0    0    -1  
$EndComp
$Comp
L A5C:OR02 UBZ203
U 1 1 601E0AC4
P 11350 5850
F 0 "UBZ203" H 11375 6117 50  0000 C CNN
F 1 "OR02" H 11375 6026 50  0000 C CNN
F 2 "" H 11400 5850 50  0001 C CNN
F 3 "" H 11400 5850 50  0001 C CNN
	1    11350 5850
	-1   0    0    -1  
$EndComp
$Comp
L A5C:INV01 UBZ51
U 1 1 6A9D674E
P 4100 5850
F 0 "UBZ51" H 4100 6167 50  0000 C CNN
F 1 "INV01" H 4100 6076 50  0000 C CNN
F 2 "" H 4100 5650 50  0001 C CNN
F 3 "" H 4100 5650 50  0001 C CNN
	1    4100 5850
	1    0    0    -1  
$EndComp
$Comp
L A5C:INV01 UCC202
U 1 1 7C68C18F
P 10600 5850
F 0 "UCC202" H 10600 6167 50  0000 C CNN
F 1 "INV01" H 10600 6076 50  0000 C CNN
F 2 "" H 10600 5650 50  0001 C CNN
F 3 "" H 10600 5650 50  0001 C CNN
	1    10600 5850
	-1   0    0    -1  
$EndComp
$Comp
L A5C:OR04 UCL53
U 1 1 601E0AC3
P 8000 5700
F 0 "UCL53" H 8000 6042 50  0000 C CNN
F 1 "OR04" H 8000 5951 50  0000 C CNN
F 2 "" H 8000 5700 50  0001 C CNN
F 3 "" H 8000 5700 50  0001 C CNN
	1    8000 5700
	1    0    0    -1  
$EndComp
$Comp
L A5C:DFFCOR UBZ94
U 1 1 6613ABB6
P 8550 5850
F 0 "UBZ94" H 8550 6215 50  0000 C CNN
F 1 "DFFCOR" H 8550 6124 50  0000 C CNN
F 2 "" H 8550 5850 50  0001 C CNN
F 3 "" H 8550 5850 50  0001 C CNN
F 4 "UBZ93;UBZ99" H 8550 5850 50  0001 C CNN "MiscRef"
	1    8550 5850
	1    0    0    -1  
$EndComp
$Comp
L A5C:NAND08 UCJ21
U 1 1 601E0AC2
P 6900 2600
F 0 "UCJ21" H 6900 3140 50  0000 C CNN
F 1 "NAND08" H 6900 3049 50  0000 C CNN
F 2 "" H 6850 2800 50  0001 C CNN
F 3 "" H 6850 2800 50  0001 C CNN
	1    6900 2600
	1    0    0    -1  
$EndComp
$Comp
L A5C:NAND08 UCL67
U 1 1 756C4573
P 6900 9050
F 0 "UCL67" H 6900 9590 50  0000 C CNN
F 1 "NAND08" H 6900 9499 50  0000 C CNN
F 2 "" H 6850 9250 50  0001 C CNN
F 3 "" H 6850 9250 50  0001 C CNN
	1    6900 9050
	1    0    0    -1  
$EndComp
$Comp
L A5C:NAND08 UCL137
U 1 1 7C68C156
P 7800 2600
F 0 "UCL137" H 7800 3140 50  0000 C CNN
F 1 "NAND08" H 7800 3049 50  0000 C CNN
F 2 "" H 7750 2800 50  0001 C CNN
F 3 "" H 7750 2800 50  0001 C CNN
	1    7800 2600
	-1   0    0    -1  
$EndComp
$Comp
L A5C:NAND08 UCL76
U 1 1 7C68C1F0
P 7800 9050
F 0 "UCL76" H 7800 9590 50  0000 C CNN
F 1 "NAND08" H 7800 9499 50  0000 C CNN
F 2 "" H 7750 9250 50  0001 C CNN
F 3 "" H 7750 9250 50  0001 C CNN
	1    7800 9050
	-1   0    0    -1  
$EndComp
$Comp
L A5C:L8 UBW8
U 1 1 76CC0FA2
P 4900 5100
F 0 "UBW8" H 4900 5765 50  0000 C CNN
F 1 "L8" H 4900 5674 50  0000 C CNN
F 2 "" H 4850 5400 50  0001 C CNN
F 3 "" H 4850 5400 50  0001 C CNN
F 4 "UBW7;UBW11;UBW14;UBW17;UBW20;UBW22;UBW25;UBW28" H 4900 5100 50  0001 C CNN "MiscRef"
	1    4900 5100
	1    0    0    -1  
$EndComp
$Comp
L A5C:L8 UCJ79
U 1 1 5F17422B
P 4900 6500
F 0 "UCJ79" H 4900 7165 50  0000 C CNN
F 1 "L8" H 4900 7074 50  0000 C CNN
F 2 "" H 4850 6800 50  0001 C CNN
F 3 "" H 4850 6800 50  0001 C CNN
F 4 "UCJ77;UCJ82;UCJ84;UCJ87;UCJ90;UCJ93;UCJ95;UCJ98" H 4900 6500 50  0001 C CNN "MiscRef"
	1    4900 6500
	1    0    0    -1  
$EndComp
$Comp
L A5C:L8 UCJ120
U 1 1 77371D4E
P 9800 5100
F 0 "UCJ120" H 9800 5765 50  0000 C CNN
F 1 "L8" H 9800 5674 50  0000 C CNN
F 2 "" H 9750 5400 50  0001 C CNN
F 3 "" H 9750 5400 50  0001 C CNN
F 4 "UCJ118;UCJ123;UCJ125;UCJ128;UCJ131;UCJ134;UCJ136;UCJ139" H 9800 5100 50  0001 C CNN "MiscRef"
	1    9800 5100
	-1   0    0    -1  
$EndComp
$Comp
L A5C:L8 UCL108
U 1 1 5F174239
P 9800 6500
F 0 "UCL108" H 9800 7165 50  0000 C CNN
F 1 "L8" H 9800 7074 50  0000 C CNN
F 2 "" H 9750 6800 50  0001 C CNN
F 3 "" H 9750 6800 50  0001 C CNN
F 4 "UCL106;UCL110;UCL113;UCL116;UCL119;UCL122;UCL124;UCL127" H 9800 6500 50  0001 C CNN "MiscRef"
	1    9800 6500
	-1   0    0    -1  
$EndComp
Wire Bus Line
	3750 4800 3750 5300
Wire Bus Line
	10950 4800 10950 5300
Wire Bus Line
	3750 5300 3750 6700
Wire Bus Line
	4500 1200 4500 4450
Wire Bus Line
	4500 4450 4500 10600
Wire Bus Line
	10200 1200 10200 4450
Wire Bus Line
	10200 4450 10200 10600
Wire Bus Line
	10950 5300 10950 6700
$EndSCHEMATC
