EESchema Schematic File Version 4
EELAYER 30 0
EELAYER END
$Descr A3 16535 11693
encoding utf-8
Sheet 61 69
Title ""
Date "2020-11-26"
Rev ""
Comp ""
Comment1 "Licence: CC-BY"
Comment2 "Author: Loïc *WydD* Petit"
Comment3 ""
Comment4 ""
$EndDescr
Connection ~ 2300 5900
Connection ~ 6700 7700
Connection ~ 6600 7250
Connection ~ 6700 8100
Connection ~ 6700 8200
Connection ~ 6600 8500
Connection ~ 6700 7800
Connection ~ 6700 7900
Connection ~ 6700 8000
Connection ~ 2300 4250
Connection ~ 6550 3150
Connection ~ 6700 2900
Connection ~ 6700 4100
Connection ~ 6350 3900
Connection ~ 2300 2400
Connection ~ 4000 5400
Connection ~ 4100 5300
Connection ~ 4200 5200
Connection ~ 4300 5100
Connection ~ 4400 5000
Connection ~ 4600 3700
Connection ~ 4500 3600
Connection ~ 4300 3400
Connection ~ 4200 3300
Connection ~ 4100 3200
Connection ~ 4600 1850
Connection ~ 4500 1750
Connection ~ 4400 1650
Connection ~ 4300 1550
Connection ~ 4200 1450
Connection ~ 4100 1350
Connection ~ 5450 5500
Connection ~ 6600 5700
Connection ~ 14350 1750
Connection ~ 14350 2200
Connection ~ 14350 2650
Connection ~ 14350 3100
Connection ~ 14350 3550
Connection ~ 14350 4000
Connection ~ 6700 9300
Connection ~ 6700 9400
Connection ~ 6700 9200
Connection ~ 6700 10450
Connection ~ 6700 9600
Connection ~ 6700 10550
Connection ~ 6700 9500
Connection ~ 8200 5850
Connection ~ 4400 3500
Connection ~ 14350 6250
Connection ~ 14350 7150
Connection ~ 14350 7600
Connection ~ 14350 6700
Connection ~ 14350 5350
Connection ~ 14350 5800
Connection ~ 12250 6250
Connection ~ 12250 6700
Connection ~ 12250 7150
Connection ~ 12250 7600
Connection ~ 12250 5350
Connection ~ 12250 5800
Connection ~ 12250 2200
Connection ~ 12250 1750
Connection ~ 12250 3550
Connection ~ 12250 3100
Connection ~ 12250 4000
Connection ~ 12250 2650
Connection ~ 12250 4450
Connection ~ 12250 4900
Connection ~ 10150 6700
Connection ~ 10150 7600
Connection ~ 10150 7150
Connection ~ 10150 6250
Connection ~ 10150 5350
Connection ~ 10150 5800
Connection ~ 10150 3550
Connection ~ 10150 4000
Connection ~ 10150 4900
Connection ~ 10150 4450
Connection ~ 11700 800 
Connection ~ 9550 800 
Connection ~ 10150 8050
Connection ~ 12250 9000
Connection ~ 12250 8050
Connection ~ 14350 8050
Connection ~ 9550 8450
NoConn ~ 7700 8300
Entry Wire Line
	1500 7050 1600 6950
Entry Wire Line
	1500 7150 1600 7050
Entry Wire Line
	1500 7250 1600 7150
Entry Wire Line
	1500 7350 1600 7250
Entry Wire Line
	1500 7450 1600 7350
Entry Wire Line
	1600 6350 1500 6250
Entry Wire Line
	1600 6450 1500 6350
Entry Wire Line
	1600 6550 1500 6450
Entry Wire Line
	1600 6650 1500 6550
Entry Wire Line
	1600 6750 1500 6650
Entry Wire Line
	5000 6650 5100 6750
Entry Wire Line
	5000 6750 5100 6850
Entry Wire Line
	5000 6850 5100 6950
Entry Wire Line
	5000 6950 5100 7050
Entry Wire Line
	5000 7050 5100 7150
Entry Wire Line
	8100 1350 8200 1450
Entry Wire Line
	8100 1450 8200 1550
Entry Wire Line
	8100 1550 8200 1650
Entry Wire Line
	8100 1650 8200 1750
Entry Wire Line
	8100 1750 8200 1850
Entry Wire Line
	8100 1850 8200 1950
Entry Wire Line
	8100 1950 8200 2050
Entry Wire Line
	8100 2050 8200 2150
Entry Wire Line
	8100 2700 8200 2600
Entry Wire Line
	8100 2800 8200 2700
Entry Wire Line
	8100 2900 8200 2800
Entry Wire Line
	8100 3000 8200 2900
Entry Wire Line
	8100 3900 8200 3800
Entry Wire Line
	8100 4000 8200 3900
Entry Wire Line
	8100 4100 8200 4000
Entry Wire Line
	8100 4200 8200 4100
Entry Wire Line
	8100 4800 8200 4700
Entry Wire Line
	8100 4900 8200 4800
Entry Wire Line
	8100 5000 8200 4900
Entry Wire Line
	8100 5100 8200 5000
Entry Wire Line
	8100 5200 8200 5100
Entry Wire Line
	8100 5300 8200 5200
Entry Wire Line
	8100 5400 8200 5300
Entry Wire Line
	8100 5500 8200 5400
Entry Wire Line
	8100 6150 8200 6050
Entry Wire Line
	8100 6250 8200 6150
Entry Wire Line
	8100 6350 8200 6250
Entry Wire Line
	8100 6450 8200 6350
Entry Wire Line
	8100 6550 8200 6450
Entry Wire Line
	8100 7600 8200 7500
Entry Wire Line
	8100 7700 8200 7600
Entry Wire Line
	8100 7800 8200 7700
Entry Wire Line
	8100 7900 8200 7800
Entry Wire Line
	8100 8000 8200 7900
Entry Wire Line
	8100 8100 8200 8000
Entry Wire Line
	8100 8200 8200 8100
Entry Wire Line
	8100 9000 8200 8900
Entry Wire Line
	8100 9100 8200 9000
Entry Wire Line
	8100 9200 8200 9100
Entry Wire Line
	8100 9300 8200 9200
Entry Wire Line
	8100 9400 8200 9300
Entry Wire Line
	8100 9500 8200 9400
Entry Wire Line
	8100 9600 8200 9500
Entry Wire Line
	8100 9700 8200 9600
Entry Wire Line
	8100 10350 8200 10250
Entry Wire Line
	8100 10450 8200 10350
Entry Wire Line
	8100 10550 8200 10450
Entry Wire Line
	8100 10650 8200 10550
Entry Wire Line
	9550 2900 9650 3000
Entry Wire Line
	9550 3350 9650 3450
Entry Wire Line
	9550 3800 9650 3900
Entry Wire Line
	9550 4250 9650 4350
Entry Wire Line
	9550 4700 9650 4800
Entry Wire Line
	9550 5150 9650 5250
Entry Wire Line
	9550 5600 9650 5700
Entry Wire Line
	9550 6050 9650 6150
Entry Wire Line
	9550 6500 9650 6600
Entry Wire Line
	9550 6950 9650 7050
Entry Wire Line
	9550 7400 9650 7500
Entry Wire Line
	9550 7850 9650 7950
Entry Wire Line
	11400 3050 11500 3150
Entry Wire Line
	11400 3500 11500 3600
Entry Wire Line
	11400 3950 11500 4050
Entry Wire Line
	11400 4400 11500 4500
Entry Wire Line
	11400 4850 11500 4950
Entry Wire Line
	11400 5300 11500 5400
Entry Wire Line
	11400 5750 11500 5850
Entry Wire Line
	11400 6200 11500 6300
Entry Wire Line
	11400 6650 11500 6750
Entry Wire Line
	11400 7100 11500 7200
Entry Wire Line
	11400 7550 11500 7650
Entry Wire Line
	11400 8000 11500 8100
Entry Wire Line
	11700 1100 11800 1200
Entry Wire Line
	11700 1550 11800 1650
Entry Wire Line
	11700 2000 11800 2100
Entry Wire Line
	11700 2450 11800 2550
Entry Wire Line
	11700 2900 11800 3000
Entry Wire Line
	11700 3350 11800 3450
Entry Wire Line
	11700 3800 11800 3900
Entry Wire Line
	11700 4250 11800 4350
Entry Wire Line
	11700 4700 11800 4800
Entry Wire Line
	11700 5150 11800 5250
Entry Wire Line
	11700 5600 11800 5700
Entry Wire Line
	11700 6050 11800 6150
Entry Wire Line
	11700 6500 11800 6600
Entry Wire Line
	11700 6950 11800 7050
Entry Wire Line
	11700 7400 11800 7500
Entry Wire Line
	11700 7850 11800 7950
Entry Wire Line
	13500 1250 13600 1350
Entry Wire Line
	13500 1700 13600 1800
Entry Wire Line
	13500 2150 13600 2250
Entry Wire Line
	13500 2600 13600 2700
Entry Wire Line
	13500 3050 13600 3150
Entry Wire Line
	13500 3500 13600 3600
Entry Wire Line
	13500 3950 13600 4050
Entry Wire Line
	13500 4400 13600 4500
Entry Wire Line
	13500 4850 13600 4950
Entry Wire Line
	13500 5300 13600 5400
Entry Wire Line
	13500 5750 13600 5850
Entry Wire Line
	13500 6200 13600 6300
Entry Wire Line
	13500 6650 13600 6750
Entry Wire Line
	13500 7100 13600 7200
Entry Wire Line
	13500 7550 13600 7650
Entry Wire Line
	13500 8000 13600 8100
Entry Wire Line
	13900 1200 13800 1100
Entry Wire Line
	13900 1650 13800 1550
Entry Wire Line
	13900 2100 13800 2000
Entry Wire Line
	13900 2550 13800 2450
Entry Wire Line
	13900 3000 13800 2900
Entry Wire Line
	13900 3450 13800 3350
Entry Wire Line
	13900 3900 13800 3800
Entry Wire Line
	13900 4350 13800 4250
Entry Wire Line
	13900 4800 13800 4700
Entry Wire Line
	13900 5250 13800 5150
Entry Wire Line
	13900 5700 13800 5600
Entry Wire Line
	13900 6150 13800 6050
Entry Wire Line
	13900 6600 13800 6500
Entry Wire Line
	13900 7050 13800 6950
Entry Wire Line
	13900 7500 13800 7400
Entry Wire Line
	13900 7950 13800 7850
Entry Wire Line
	15600 1250 15700 1350
Entry Wire Line
	15600 1700 15700 1800
Entry Wire Line
	15600 2150 15700 2250
Entry Wire Line
	15600 2600 15700 2700
Entry Wire Line
	15600 3050 15700 3150
Entry Wire Line
	15600 3500 15700 3600
Entry Wire Line
	15600 3950 15700 4050
Entry Wire Line
	15600 4400 15700 4500
Entry Wire Line
	15600 4850 15700 4950
Entry Wire Line
	15600 5300 15700 5400
Entry Wire Line
	15600 5750 15700 5850
Entry Wire Line
	15600 6200 15700 6300
Entry Wire Line
	15600 6650 15700 6750
Entry Wire Line
	15600 7100 15700 7200
Entry Wire Line
	15600 7550 15700 7650
Entry Wire Line
	15600 8000 15700 8100
Wire Wire Line
	2300 2400 1700 2400
Wire Wire Line
	2300 2400 2300 4250
Wire Wire Line
	2300 2400 2400 2400
Wire Wire Line
	2300 4250 2300 5900
Wire Wire Line
	2300 5900 2400 5900
Wire Wire Line
	2300 7550 2300 5900
Wire Wire Line
	2400 1000 1600 1000
Wire Wire Line
	2400 1100 1600 1100
Wire Wire Line
	2400 1200 1600 1200
Wire Wire Line
	2400 1300 1600 1300
Wire Wire Line
	2400 1400 1600 1400
Wire Wire Line
	2400 1500 1600 1500
Wire Wire Line
	2400 1700 1600 1700
Wire Wire Line
	2400 1800 1600 1800
Wire Wire Line
	2400 1900 1600 1900
Wire Wire Line
	2400 2000 1600 2000
Wire Wire Line
	2400 2100 1600 2100
Wire Wire Line
	2400 2200 1600 2200
Wire Wire Line
	2400 2850 1600 2850
Wire Wire Line
	2400 2950 1600 2950
Wire Wire Line
	2400 3050 1600 3050
Wire Wire Line
	2400 3150 1600 3150
Wire Wire Line
	2400 3250 1600 3250
Wire Wire Line
	2400 3350 1600 3350
Wire Wire Line
	2400 3550 1600 3550
Wire Wire Line
	2400 3650 1600 3650
Wire Wire Line
	2400 3750 1600 3750
Wire Wire Line
	2400 3850 1600 3850
Wire Wire Line
	2400 3950 1600 3950
Wire Wire Line
	2400 4050 1600 4050
Wire Wire Line
	2400 4250 2300 4250
Wire Wire Line
	2400 4700 1600 4700
Wire Wire Line
	2400 4800 1600 4800
Wire Wire Line
	2400 4900 1600 4900
Wire Wire Line
	2400 5000 1600 5000
Wire Wire Line
	2400 5100 1600 5100
Wire Wire Line
	2400 5300 1600 5300
Wire Wire Line
	2400 5400 1600 5400
Wire Wire Line
	2400 5500 1600 5500
Wire Wire Line
	2400 5600 1600 5600
Wire Wire Line
	2400 5700 1600 5700
Wire Wire Line
	2400 6750 1600 6750
Wire Wire Line
	2400 6350 1600 6350
Wire Wire Line
	2400 6450 1600 6450
Wire Wire Line
	2400 6550 1600 6550
Wire Wire Line
	2400 6650 1600 6650
Wire Wire Line
	2400 6950 1600 6950
Wire Wire Line
	2400 7050 1600 7050
Wire Wire Line
	2400 7150 1600 7150
Wire Wire Line
	2400 7250 1600 7250
Wire Wire Line
	2400 7550 2300 7550
Wire Wire Line
	3400 1350 4100 1350
Wire Wire Line
	3400 1550 4300 1550
Wire Wire Line
	3400 3200 4100 3200
Wire Wire Line
	3400 3300 4200 3300
Wire Wire Line
	3400 3400 4300 3400
Wire Wire Line
	3400 3600 4500 3600
Wire Wire Line
	3400 5000 4400 5000
Wire Wire Line
	3400 6650 4450 6650
Wire Wire Line
	3400 6750 4350 6750
Wire Wire Line
	3400 6850 4250 6850
Wire Wire Line
	3400 6950 4150 6950
Wire Wire Line
	3400 7050 4050 7050
Wire Wire Line
	4000 5400 3400 5400
Wire Wire Line
	4000 5400 6700 5400
Wire Wire Line
	4000 5900 4000 5400
Wire Wire Line
	4050 6550 6400 6550
Wire Wire Line
	4050 7050 4050 6550
Wire Wire Line
	4050 7050 5000 7050
Wire Wire Line
	4100 750  4100 1350
Wire Wire Line
	4100 1350 6700 1350
Wire Wire Line
	4100 2600 4100 3200
Wire Wire Line
	4100 3200 5300 3200
Wire Wire Line
	4100 5300 3400 5300
Wire Wire Line
	4100 5300 6700 5300
Wire Wire Line
	4100 5800 4100 5300
Wire Wire Line
	4150 6450 6700 6450
Wire Wire Line
	4150 6950 4150 6450
Wire Wire Line
	4150 6950 5000 6950
Wire Wire Line
	4200 850  4200 1450
Wire Wire Line
	4200 1450 3400 1450
Wire Wire Line
	4200 2700 4200 3300
Wire Wire Line
	4200 3300 5400 3300
Wire Wire Line
	4200 5200 3400 5200
Wire Wire Line
	4200 5200 4200 5700
Wire Wire Line
	4200 5200 6700 5200
Wire Wire Line
	4200 5700 4500 5700
Wire Wire Line
	4250 6350 4250 6850
Wire Wire Line
	4250 6350 6700 6350
Wire Wire Line
	4250 6850 5000 6850
Wire Wire Line
	4300 950  4300 1550
Wire Wire Line
	4300 1550 6700 1550
Wire Wire Line
	4300 2800 4700 2800
Wire Wire Line
	4300 3400 4300 2800
Wire Wire Line
	4300 3400 5500 3400
Wire Wire Line
	4300 5100 3400 5100
Wire Wire Line
	4300 5100 6700 5100
Wire Wire Line
	4300 5600 4300 5100
Wire Wire Line
	4350 6250 6700 6250
Wire Wire Line
	4350 6750 4350 6250
Wire Wire Line
	4350 6750 5000 6750
Wire Wire Line
	4400 1050 4400 1650
Wire Wire Line
	4400 1650 3400 1650
Wire Wire Line
	4400 2900 4400 3500
Wire Wire Line
	4400 3500 3400 3500
Wire Wire Line
	4400 5000 6700 5000
Wire Wire Line
	4400 5500 4400 5000
Wire Wire Line
	4450 6150 6700 6150
Wire Wire Line
	4450 6650 4450 6150
Wire Wire Line
	4450 6650 5000 6650
Wire Wire Line
	4500 1150 4500 1750
Wire Wire Line
	4500 1750 3400 1750
Wire Wire Line
	4500 3000 4500 3600
Wire Wire Line
	4500 3600 4700 3600
Wire Wire Line
	4500 5500 4400 5500
Wire Wire Line
	4500 5600 4300 5600
Wire Wire Line
	4500 5800 4100 5800
Wire Wire Line
	4500 5900 4000 5900
Wire Wire Line
	4600 1250 4600 1850
Wire Wire Line
	4600 1850 3400 1850
Wire Wire Line
	4600 3100 4600 3700
Wire Wire Line
	4600 3700 3400 3700
Wire Wire Line
	4600 4900 4600 3700
Wire Wire Line
	4700 750  4100 750 
Wire Wire Line
	4700 850  4200 850 
Wire Wire Line
	4700 950  4300 950 
Wire Wire Line
	4700 1050 4400 1050
Wire Wire Line
	4700 1150 4500 1150
Wire Wire Line
	4700 1250 4600 1250
Wire Wire Line
	4700 2600 4100 2600
Wire Wire Line
	4700 2700 4200 2700
Wire Wire Line
	4700 2900 4400 2900
Wire Wire Line
	4700 3000 4500 3000
Wire Wire Line
	4700 3100 4600 3100
Wire Wire Line
	4700 3600 4700 4800
Wire Wire Line
	4700 4800 6700 4800
Wire Wire Line
	5300 1950 5300 3200
Wire Wire Line
	5300 1950 6700 1950
Wire Wire Line
	5400 2050 5400 3300
Wire Wire Line
	5400 5500 5450 5500
Wire Wire Line
	5450 5500 6700 5500
Wire Wire Line
	5450 5800 5450 5500
Wire Wire Line
	5500 2700 5500 3400
Wire Wire Line
	5500 5800 5450 5800
Wire Wire Line
	6050 3500 4400 3500
Wire Wire Line
	6050 3500 6050 9000
Wire Wire Line
	6050 9000 6700 9000
Wire Wire Line
	6250 3150 6550 3150
Wire Wire Line
	6250 4000 6700 4000
Wire Wire Line
	6350 2800 6350 3900
Wire Wire Line
	6350 2800 6700 2800
Wire Wire Line
	6350 3900 6250 3900
Wire Wire Line
	6400 7050 6400 6550
Wire Wire Line
	6400 7050 7000 7050
Wire Wire Line
	6450 2900 6700 2900
Wire Wire Line
	6450 4100 6700 4100
Wire Wire Line
	6450 9500 6700 9500
Wire Wire Line
	6450 10450 6700 10450
Wire Wire Line
	6500 5700 6600 5700
Wire Wire Line
	6500 8100 6700 8100
Wire Wire Line
	6500 8500 6600 8500
Wire Wire Line
	6550 2250 6550 3150
Wire Wire Line
	6550 2250 6700 2250
Wire Wire Line
	6600 4350 6700 4350
Wire Wire Line
	6600 5700 6600 4350
Wire Wire Line
	6600 6600 6600 7250
Wire Wire Line
	6600 6600 6700 6600
Wire Wire Line
	6600 7250 6600 8500
Wire Wire Line
	6600 7250 7400 7250
Wire Wire Line
	6600 8500 6700 8500
Wire Wire Line
	6600 9900 6700 9900
Wire Wire Line
	6600 10800 6600 9900
Wire Wire Line
	6700 1450 4200 1450
Wire Wire Line
	6700 1650 4400 1650
Wire Wire Line
	6700 1750 4500 1750
Wire Wire Line
	6700 1850 4600 1850
Wire Wire Line
	6700 2050 5400 2050
Wire Wire Line
	6700 2700 5500 2700
Wire Wire Line
	6700 2900 6700 3000
Wire Wire Line
	6700 3150 6550 3150
Wire Wire Line
	6700 3900 6350 3900
Wire Wire Line
	6700 4100 6700 4200
Wire Wire Line
	6700 4900 4600 4900
Wire Wire Line
	6700 5700 6600 5700
Wire Wire Line
	6700 7600 6700 7700
Wire Wire Line
	6700 7700 6700 7800
Wire Wire Line
	6700 7800 6700 7900
Wire Wire Line
	6700 7900 6700 8000
Wire Wire Line
	6700 8000 6700 8100
Wire Wire Line
	6700 8100 6700 8200
Wire Wire Line
	6700 8200 6700 8300
Wire Wire Line
	6700 9100 6700 9200
Wire Wire Line
	6700 9200 6700 9300
Wire Wire Line
	6700 9300 6700 9400
Wire Wire Line
	6700 9400 6700 9500
Wire Wire Line
	6700 9500 6700 9600
Wire Wire Line
	6700 9600 6700 9700
Wire Wire Line
	6700 10350 6700 10450
Wire Wire Line
	6700 10450 6700 10550
Wire Wire Line
	6700 10550 6700 10650
Wire Wire Line
	6700 10800 6600 10800
Wire Wire Line
	7400 7050 7700 7050
Wire Wire Line
	7400 7150 7300 7150
Wire Wire Line
	7400 7250 7400 7150
Wire Wire Line
	7700 1350 8100 1350
Wire Wire Line
	7700 1450 8100 1450
Wire Wire Line
	7700 1550 8100 1550
Wire Wire Line
	7700 1650 8100 1650
Wire Wire Line
	7700 1750 8100 1750
Wire Wire Line
	7700 1850 8100 1850
Wire Wire Line
	7700 1950 8100 1950
Wire Wire Line
	7700 2050 8100 2050
Wire Wire Line
	7700 2700 8100 2700
Wire Wire Line
	7700 2800 8100 2800
Wire Wire Line
	7700 2900 8100 2900
Wire Wire Line
	7700 3000 8100 3000
Wire Wire Line
	7700 3900 8100 3900
Wire Wire Line
	7700 4000 8100 4000
Wire Wire Line
	7700 4100 8100 4100
Wire Wire Line
	7700 4200 8100 4200
Wire Wire Line
	7700 4800 8100 4800
Wire Wire Line
	7700 4900 8100 4900
Wire Wire Line
	7700 5000 8100 5000
Wire Wire Line
	7700 5100 8100 5100
Wire Wire Line
	7700 5200 8100 5200
Wire Wire Line
	7700 5300 8100 5300
Wire Wire Line
	7700 5400 8100 5400
Wire Wire Line
	7700 5500 8100 5500
Wire Wire Line
	7700 6150 8100 6150
Wire Wire Line
	7700 6250 8100 6250
Wire Wire Line
	7700 6350 8100 6350
Wire Wire Line
	7700 6450 8100 6450
Wire Wire Line
	7700 6550 8100 6550
Wire Wire Line
	7700 7050 7700 6550
Wire Wire Line
	7700 7600 8100 7600
Wire Wire Line
	7700 7700 8100 7700
Wire Wire Line
	7700 7800 8100 7800
Wire Wire Line
	7700 7900 8100 7900
Wire Wire Line
	7700 8000 8100 8000
Wire Wire Line
	7700 8100 8100 8100
Wire Wire Line
	7700 8200 8100 8200
Wire Wire Line
	7700 9000 8100 9000
Wire Wire Line
	7700 9100 8100 9100
Wire Wire Line
	7700 9200 8100 9200
Wire Wire Line
	7700 9300 8100 9300
Wire Wire Line
	7700 9400 8100 9400
Wire Wire Line
	7700 9500 8100 9500
Wire Wire Line
	7700 9600 8100 9600
Wire Wire Line
	7700 9700 8100 9700
Wire Wire Line
	7700 10350 8100 10350
Wire Wire Line
	7700 10450 8100 10450
Wire Wire Line
	7700 10550 8100 10550
Wire Wire Line
	7700 10650 8100 10650
Wire Wire Line
	9400 8450 9550 8450
Wire Wire Line
	9550 8450 9550 9000
Wire Wire Line
	9650 7950 10250 7950
Wire Wire Line
	9650 7500 10250 7500
Wire Wire Line
	9650 7050 10250 7050
Wire Wire Line
	9650 6600 10250 6600
Wire Wire Line
	9650 6150 10250 6150
Wire Wire Line
	9650 5700 10250 5700
Wire Wire Line
	10150 3100 10150 3550
Wire Wire Line
	10150 3100 10250 3100
Wire Wire Line
	10150 4000 10150 3550
Wire Wire Line
	10150 4450 10150 4000
Wire Wire Line
	10150 4900 10150 4450
Wire Wire Line
	10150 4900 10150 5350
Wire Wire Line
	10150 5350 10250 5350
Wire Wire Line
	10150 5800 10150 5350
Wire Wire Line
	10150 5800 10150 6250
Wire Wire Line
	10150 6250 10250 6250
Wire Wire Line
	10150 6700 10150 6250
Wire Wire Line
	10150 7150 10150 6700
Wire Wire Line
	10150 7600 10150 7150
Wire Wire Line
	10150 8050 10150 7600
Wire Wire Line
	10150 8450 10150 8050
Wire Wire Line
	10150 9000 12250 9000
Wire Wire Line
	10250 3550 10150 3550
Wire Wire Line
	10250 4000 10150 4000
Wire Wire Line
	10250 4450 10150 4450
Wire Wire Line
	10250 4900 10150 4900
Wire Wire Line
	10250 5800 10150 5800
Wire Wire Line
	10250 6700 10150 6700
Wire Wire Line
	10250 7150 10150 7150
Wire Wire Line
	10250 7600 10150 7600
Wire Wire Line
	10250 8050 10150 8050
Wire Wire Line
	10800 3050 11400 3050
Wire Wire Line
	10800 3500 11400 3500
Wire Wire Line
	10800 3950 11400 3950
Wire Wire Line
	10800 4400 11400 4400
Wire Wire Line
	10800 4850 11400 4850
Wire Wire Line
	10800 5300 11400 5300
Wire Wire Line
	10800 5750 11400 5750
Wire Wire Line
	10800 6200 11400 6200
Wire Wire Line
	10800 6650 11400 6650
Wire Wire Line
	10800 7100 11400 7100
Wire Wire Line
	10800 7550 11400 7550
Wire Wire Line
	10800 8000 11400 8000
Wire Wire Line
	11800 1200 12350 1200
Wire Wire Line
	11800 4800 12350 4800
Wire Wire Line
	12250 1300 12250 1750
Wire Wire Line
	12250 1750 12250 2200
Wire Wire Line
	12250 1750 12350 1750
Wire Wire Line
	12250 2200 12250 2650
Wire Wire Line
	12250 2650 12250 3100
Wire Wire Line
	12250 2650 12350 2650
Wire Wire Line
	12250 3100 12250 3550
Wire Wire Line
	12250 3550 12250 4000
Wire Wire Line
	12250 4000 12250 4450
Wire Wire Line
	12250 4450 12250 4900
Wire Wire Line
	12250 4900 12250 5350
Wire Wire Line
	12250 5350 12350 5350
Wire Wire Line
	12250 5800 12250 5350
Wire Wire Line
	12250 5800 12250 6250
Wire Wire Line
	12250 6250 12350 6250
Wire Wire Line
	12250 6700 12250 6250
Wire Wire Line
	12250 7150 12250 6700
Wire Wire Line
	12250 7600 12250 7150
Wire Wire Line
	12250 8050 12250 7600
Wire Wire Line
	12250 8050 12350 8050
Wire Wire Line
	12250 9000 12250 8050
Wire Wire Line
	12250 9000 14350 9000
Wire Wire Line
	12350 1300 12250 1300
Wire Wire Line
	12350 1650 11800 1650
Wire Wire Line
	12350 2100 11800 2100
Wire Wire Line
	12350 2200 12250 2200
Wire Wire Line
	12350 2550 11800 2550
Wire Wire Line
	12350 3000 11800 3000
Wire Wire Line
	12350 3100 12250 3100
Wire Wire Line
	12350 3450 11800 3450
Wire Wire Line
	12350 3550 12250 3550
Wire Wire Line
	12350 3900 11800 3900
Wire Wire Line
	12350 4000 12250 4000
Wire Wire Line
	12350 4350 11800 4350
Wire Wire Line
	12350 4450 12250 4450
Wire Wire Line
	12350 4900 12250 4900
Wire Wire Line
	12350 5250 11800 5250
Wire Wire Line
	12350 5700 11800 5700
Wire Wire Line
	12350 5800 12250 5800
Wire Wire Line
	12350 6150 11800 6150
Wire Wire Line
	12350 6600 11800 6600
Wire Wire Line
	12350 6700 12250 6700
Wire Wire Line
	12350 7050 11800 7050
Wire Wire Line
	12350 7150 12250 7150
Wire Wire Line
	12350 7500 11800 7500
Wire Wire Line
	12350 7600 12250 7600
Wire Wire Line
	12350 7950 11800 7950
Wire Wire Line
	12900 1250 13500 1250
Wire Wire Line
	12900 1700 13500 1700
Wire Wire Line
	12900 2150 13500 2150
Wire Wire Line
	12900 2600 13500 2600
Wire Wire Line
	12900 3050 13500 3050
Wire Wire Line
	12900 3500 13500 3500
Wire Wire Line
	12900 3950 13500 3950
Wire Wire Line
	12900 4400 13500 4400
Wire Wire Line
	12900 4850 13500 4850
Wire Wire Line
	12900 5300 13500 5300
Wire Wire Line
	12900 5750 13500 5750
Wire Wire Line
	12900 6200 13500 6200
Wire Wire Line
	12900 6650 13500 6650
Wire Wire Line
	12900 7100 13500 7100
Wire Wire Line
	12900 7550 13500 7550
Wire Wire Line
	12900 8000 13500 8000
Wire Wire Line
	13900 1200 14450 1200
Wire Wire Line
	13900 4800 14450 4800
Wire Wire Line
	14350 1300 14350 1750
Wire Wire Line
	14350 1750 14350 2200
Wire Wire Line
	14350 1750 14450 1750
Wire Wire Line
	14350 2200 14350 2650
Wire Wire Line
	14350 2650 14350 3100
Wire Wire Line
	14350 2650 14450 2650
Wire Wire Line
	14350 3100 14350 3550
Wire Wire Line
	14350 3550 14350 4000
Wire Wire Line
	14350 4000 14350 4450
Wire Wire Line
	14350 4900 14350 5350
Wire Wire Line
	14350 5350 14450 5350
Wire Wire Line
	14350 5800 14350 5350
Wire Wire Line
	14350 5800 14350 6250
Wire Wire Line
	14350 6250 14450 6250
Wire Wire Line
	14350 6700 14350 6250
Wire Wire Line
	14350 7150 14350 6700
Wire Wire Line
	14350 7600 14350 7150
Wire Wire Line
	14350 8050 14350 7600
Wire Wire Line
	14350 8050 14350 9000
Wire Wire Line
	14350 8050 14450 8050
Wire Wire Line
	14450 1300 14350 1300
Wire Wire Line
	14450 1650 13900 1650
Wire Wire Line
	14450 2100 13900 2100
Wire Wire Line
	14450 2200 14350 2200
Wire Wire Line
	14450 2550 13900 2550
Wire Wire Line
	14450 3000 13900 3000
Wire Wire Line
	14450 3100 14350 3100
Wire Wire Line
	14450 3450 13900 3450
Wire Wire Line
	14450 3550 14350 3550
Wire Wire Line
	14450 3900 13900 3900
Wire Wire Line
	14450 4000 14350 4000
Wire Wire Line
	14450 4350 13900 4350
Wire Wire Line
	14450 4450 14350 4450
Wire Wire Line
	14450 4900 14350 4900
Wire Wire Line
	14450 5250 13900 5250
Wire Wire Line
	14450 5700 13900 5700
Wire Wire Line
	14450 5800 14350 5800
Wire Wire Line
	14450 6150 13900 6150
Wire Wire Line
	14450 6600 13900 6600
Wire Wire Line
	14450 6700 14350 6700
Wire Wire Line
	14450 7050 13900 7050
Wire Wire Line
	14450 7150 14350 7150
Wire Wire Line
	14450 7500 13900 7500
Wire Wire Line
	14450 7600 14350 7600
Wire Wire Line
	14450 7950 13900 7950
Wire Wire Line
	15000 1250 15600 1250
Wire Wire Line
	15000 1700 15600 1700
Wire Wire Line
	15000 2150 15600 2150
Wire Wire Line
	15000 2600 15600 2600
Wire Wire Line
	15000 3050 15600 3050
Wire Wire Line
	15000 3500 15600 3500
Wire Wire Line
	15000 3950 15600 3950
Wire Wire Line
	15000 4400 15600 4400
Wire Wire Line
	15000 4850 15600 4850
Wire Wire Line
	15000 5300 15600 5300
Wire Wire Line
	15000 5750 15600 5750
Wire Wire Line
	15000 6200 15600 6200
Wire Wire Line
	15000 6650 15600 6650
Wire Wire Line
	15000 7100 15600 7100
Wire Wire Line
	15000 7550 15600 7550
Wire Wire Line
	15000 8000 15600 8000
Wire Bus Line
	1500 6100 1350 6100
Wire Bus Line
	1500 7600 1400 7600
Wire Bus Line
	5100 7300 5250 7300
Wire Bus Line
	8200 5850 8400 5850
Wire Bus Line
	9400 800  9550 800 
Wire Bus Line
	9550 800  11700 800 
Wire Bus Line
	11400 8400 11500 8400
Wire Bus Line
	11700 800  13800 800 
Wire Bus Line
	13500 8400 13600 8400
Wire Bus Line
	15600 8400 15700 8400
Text Label 1800 1700 0    50   ~ 0
~BW185-O0
Text Label 1800 1800 0    50   ~ 0
~BW185-O1
Text Label 1800 1900 0    50   ~ 0
~BW185-O2
Text Label 1800 2000 0    50   ~ 0
~BW185-O3
Text Label 1800 2100 0    50   ~ 0
~BW185-O4
Text Label 1800 2200 0    50   ~ 0
~BW185-O5
Text Label 1800 3550 0    50   ~ 0
~BW185-O6
Text Label 1800 3650 0    50   ~ 0
~BW185-O7
Text Label 1800 3750 0    50   ~ 0
~BW247-O0
Text Label 1800 3850 0    50   ~ 0
~BW247-O1
Text Label 1800 3950 0    50   ~ 0
~CR348-O3
Text Label 1800 4050 0    50   ~ 0
~CR348-O4
Text Label 1800 5300 0    50   ~ 0
~CR348-O5
Text Label 1800 5400 0    50   ~ 0
~CR348-O6
Text Label 1800 5500 0    50   ~ 0
~CR348-O7
Text Label 1800 5600 0    50   ~ 0
~BW247-O2
Text Label 1800 5700 0    50   ~ 0
~BW247-O3
Text Label 1800 6950 0    50   ~ 0
BUS-DATA1
Text Label 1800 7050 0    50   ~ 0
BUS-DATA2
Text Label 1800 7150 0    50   ~ 0
BUS-DATA3
Text Label 1800 7250 0    50   ~ 0
BUS-DATA4
Text Label 1950 1000 0    50   ~ 0
CO240
Text Label 1950 1100 0    50   ~ 0
CG191
Text Label 1950 1200 0    50   ~ 0
CL224
Text Label 1950 1300 0    50   ~ 0
CL197
Text Label 1950 1400 0    50   ~ 0
CC218
Text Label 1950 1500 0    50   ~ 0
CG214
Text Label 2100 4700 2    50   ~ 0
CO92
Text Label 2150 4800 2    50   ~ 0
CO252
Text Label 2150 4900 2    50   ~ 0
CC194
Text Label 2150 5000 2    50   ~ 0
BZ272
Text Label 2150 5100 2    50   ~ 0
CO225
Text Label 2200 2850 2    50   ~ 0
CG127
Text Label 2200 2950 2    50   ~ 0
CC115
Text Label 2200 3050 2    50   ~ 0
CG143
Text Label 2200 3150 2    50   ~ 0
CJ107
Text Label 2200 3250 2    50   ~ 0
BZ147
Text Label 2200 3350 2    50   ~ 0
CC93
Text Label 2250 6750 2    50   ~ 0
K-LAYER-D5
Text Label 2250 6350 2    50   ~ 0
K-LAYER-D1
Text Label 2250 6450 2    50   ~ 0
K-LAYER-D2
Text Label 2250 6550 2    50   ~ 0
K-LAYER-D3
Text Label 2250 6650 2    50   ~ 0
K-LAYER-D4
Text Label 3400 1350 0    50   ~ 0
BU187-Q0
Text Label 3400 1450 0    50   ~ 0
BU187-Q1
Text Label 3400 1550 0    50   ~ 0
BU187-Q2
Text Label 3400 1650 0    50   ~ 0
BU187-Q3
Text Label 3400 1750 0    50   ~ 0
BU187-Q4
Text Label 3400 1850 0    50   ~ 0
BU187-Q5
Text Label 3400 3200 0    50   ~ 0
BW221-Q0
Text Label 3400 3300 0    50   ~ 0
BW221-Q1
Text Label 3400 3400 0    50   ~ 0
BW221-Q2
Text Label 3400 3500 0    50   ~ 0
BW221-Q3
Text Label 3400 3600 0    50   ~ 0
BW221-Q4
Text Label 3400 3700 0    50   ~ 0
BW221-Q5
Text Label 3400 5000 0    50   ~ 0
UBZ248-Q0
Text Label 3400 5100 0    50   ~ 0
UBZ248-Q1
Text Label 3400 5200 0    50   ~ 0
UBZ248-Q2
Text Label 3400 5300 0    50   ~ 0
UBZ248-Q3
Text Label 3400 5400 0    50   ~ 0
UBZ248-Q4
Text Label 3450 6650 0    50   ~ 0
BZ106-Q0
Text Label 3450 6750 0    50   ~ 0
BZ106-Q1
Text Label 3450 6850 0    50   ~ 0
BZ106-Q2
Text Label 3450 6950 0    50   ~ 0
BZ106-Q3
Text Label 3450 7050 0    50   ~ 0
BZ106-Q4
Text Label 4550 7050 0    50   ~ 0
LAYER-D5
Text Label 4550 6650 0    50   ~ 0
LAYER-D1
Text Label 4550 6750 0    50   ~ 0
LAYER-D2
Text Label 4550 6850 0    50   ~ 0
LAYER-D3
Text Label 4550 6950 0    50   ~ 0
LAYER-D4
Text Label 6250 3150 2    50   ~ 0
~DEBUG8
Text Label 6500 5700 2    50   ~ 0
~DEBUG10
Text Label 7800 1350 0    50   ~ 0
TD0
Text Label 7800 1450 0    50   ~ 0
TD1
Text Label 7800 1550 0    50   ~ 0
TD2
Text Label 7800 1650 0    50   ~ 0
TD3
Text Label 7800 1750 0    50   ~ 0
TD4
Text Label 7800 1850 0    50   ~ 0
TD5
Text Label 7800 1950 0    50   ~ 0
TD6
Text Label 7800 2050 0    50   ~ 0
TD7
Text Label 7800 2700 0    50   ~ 0
TD8
Text Label 7800 2800 0    50   ~ 0
TD9
Text Label 7800 2900 0    50   ~ 0
TD10
Text Label 7800 3000 0    50   ~ 0
TD11
Text Label 7800 3900 0    50   ~ 0
TD8
Text Label 7800 4000 0    50   ~ 0
TD9
Text Label 7800 4100 0    50   ~ 0
TD10
Text Label 7800 4200 0    50   ~ 0
TD11
Text Label 7800 4800 0    50   ~ 0
TD0
Text Label 7800 4900 0    50   ~ 0
TD1
Text Label 7800 5000 0    50   ~ 0
TD2
Text Label 7800 5100 0    50   ~ 0
TD3
Text Label 7800 5200 0    50   ~ 0
TD4
Text Label 7800 5300 0    50   ~ 0
TD5
Text Label 7800 5400 0    50   ~ 0
TD6
Text Label 7800 5500 0    50   ~ 0
TD7
Text Label 7800 6150 0    50   ~ 0
TD0
Text Label 7800 6250 0    50   ~ 0
TD1
Text Label 7800 6350 0    50   ~ 0
TD2
Text Label 7800 6450 0    50   ~ 0
TD3
Text Label 7800 6550 0    50   ~ 0
TD4
Text Label 7800 7600 0    50   ~ 0
TD5
Text Label 7800 7700 0    50   ~ 0
TD6
Text Label 7800 7800 0    50   ~ 0
TD7
Text Label 7800 7900 0    50   ~ 0
TD8
Text Label 7800 8000 0    50   ~ 0
TD9
Text Label 7800 8100 0    50   ~ 0
TD10
Text Label 7800 8200 0    50   ~ 0
TD11
Text Label 7800 9000 0    50   ~ 0
TD0
Text Label 7800 9100 0    50   ~ 0
TD1
Text Label 7800 9200 0    50   ~ 0
TD2
Text Label 7800 9300 0    50   ~ 0
TD3
Text Label 7800 9400 0    50   ~ 0
TD4
Text Label 7800 9500 0    50   ~ 0
TD5
Text Label 7800 9600 0    50   ~ 0
TD6
Text Label 7800 9700 0    50   ~ 0
TD7
Text Label 7800 10350 0    50   ~ 0
TD8
Text Label 7800 10450 0    50   ~ 0
TD9
Text Label 7800 10550 0    50   ~ 0
TD10
Text Label 7800 10650 0    50   ~ 0
TD11
Text Label 9700 7950 0    50   ~ 0
KEY5
Text Label 9700 7500 0    50   ~ 0
KEY4
Text Label 9700 7050 0    50   ~ 0
KEY3
Text Label 9700 6600 0    50   ~ 0
KEY2
Text Label 9700 6150 0    50   ~ 0
KEY1
Text Label 9700 5700 0    50   ~ 0
KEY0
Text Label 10850 3050 0    50   ~ 0
CPS-ID-D15
Text Label 10850 3500 0    50   ~ 0
CPS-ID-D14
Text Label 10850 3950 0    50   ~ 0
CPS-ID-D13
Text Label 10850 4400 0    50   ~ 0
CPS-ID-D12
Text Label 10850 4850 0    50   ~ 0
CPS-ID-D11
Text Label 10850 5300 0    50   ~ 0
CPS-ID-D10
Text Label 10850 5750 0    50   ~ 0
CPS-ID-D5
Text Label 10850 6200 0    50   ~ 0
CPS-ID-D4
Text Label 10850 6650 0    50   ~ 0
CPS-ID-D3
Text Label 10850 7100 0    50   ~ 0
CPS-ID-D2
Text Label 10850 7550 0    50   ~ 0
CPS-ID-D1
Text Label 10850 8000 0    50   ~ 0
CPS-ID-D0
Text Label 11850 1200 0    50   ~ 0
KEY106
Text Label 11850 1650 0    50   ~ 0
KEY105
Text Label 11850 2100 0    50   ~ 0
KEY104
Text Label 11850 2550 0    50   ~ 0
KEY103
Text Label 11850 3000 0    50   ~ 0
KEY102
Text Label 11850 3450 0    50   ~ 0
KEY101
Text Label 11850 3900 0    50   ~ 0
KEY100
Text Label 11850 4350 0    50   ~ 0
KEY99
Text Label 11850 4800 0    50   ~ 0
KEY98
Text Label 11850 5250 0    50   ~ 0
KEY97
Text Label 11850 5700 0    50   ~ 0
KEY96
Text Label 11850 6150 0    50   ~ 0
KEY95
Text Label 11850 6600 0    50   ~ 0
KEY94
Text Label 11850 7050 0    50   ~ 0
KEY93
Text Label 11850 7500 0    50   ~ 0
KEY92
Text Label 11850 7950 0    50   ~ 0
KEY91
Text Label 12950 1250 0    50   ~ 0
CHECK2-D0
Text Label 12950 1700 0    50   ~ 0
CHECK2-D1
Text Label 12950 2150 0    50   ~ 0
CHECK2-D2
Text Label 12950 2600 0    50   ~ 0
CHECK2-D3
Text Label 12950 3050 0    50   ~ 0
CHECK2-D4
Text Label 12950 3500 0    50   ~ 0
CHECK2-D5
Text Label 12950 3950 0    50   ~ 0
CHECK2-D6
Text Label 12950 4400 0    50   ~ 0
CHECK2-D7
Text Label 12950 4850 0    50   ~ 0
CHECK2-D8
Text Label 12950 5300 0    50   ~ 0
CHECK2-D9
Text Label 12950 5750 0    50   ~ 0
CHECK2-D10
Text Label 12950 6200 0    50   ~ 0
CHECK2-D11
Text Label 12950 6650 0    50   ~ 0
CHECK2-D12
Text Label 12950 7100 0    50   ~ 0
CHECK2-D13
Text Label 12950 7550 0    50   ~ 0
CHECK2-D14
Text Label 12950 8000 0    50   ~ 0
CHECK2-D15
Text Label 13950 1200 0    50   ~ 0
KEY77
Text Label 13950 1650 0    50   ~ 0
KEY76
Text Label 13950 2100 0    50   ~ 0
KEY75
Text Label 13950 2550 0    50   ~ 0
KEY74
Text Label 13950 3000 0    50   ~ 0
KEY73
Text Label 13950 3450 0    50   ~ 0
KEY72
Text Label 13950 3900 0    50   ~ 0
KEY71
Text Label 13950 4350 0    50   ~ 0
KEY70
Text Label 13950 4800 0    50   ~ 0
KEY69
Text Label 13950 5250 0    50   ~ 0
KEY68
Text Label 13950 5700 0    50   ~ 0
KEY67
Text Label 13950 6150 0    50   ~ 0
KEY66
Text Label 13950 6600 0    50   ~ 0
KEY65
Text Label 13950 7050 0    50   ~ 0
KEY64
Text Label 13950 7500 0    50   ~ 0
KEY63
Text Label 13950 7950 0    50   ~ 0
KEY62
Text Label 15050 1250 0    50   ~ 0
CHECK1-D0
Text Label 15050 1700 0    50   ~ 0
CHECK1-D1
Text Label 15050 2150 0    50   ~ 0
CHECK1-D2
Text Label 15050 2600 0    50   ~ 0
CHECK1-D3
Text Label 15050 3050 0    50   ~ 0
CHECK1-D4
Text Label 15050 3500 0    50   ~ 0
CHECK1-D5
Text Label 15050 3950 0    50   ~ 0
CHECK1-D6
Text Label 15050 4400 0    50   ~ 0
CHECK1-D7
Text Label 15050 4850 0    50   ~ 0
CHECK1-D8
Text Label 15050 5300 0    50   ~ 0
CHECK1-D9
Text Label 15050 5750 0    50   ~ 0
CHECK1-D10
Text Label 15050 6200 0    50   ~ 0
CHECK1-D11
Text Label 15050 6650 0    50   ~ 0
CHECK1-D12
Text Label 15050 7100 0    50   ~ 0
CHECK1-D13
Text Label 15050 7550 0    50   ~ 0
CHECK1-D14
Text Label 15050 8000 0    50   ~ 0
CHECK1-D15
Text HLabel 1350 6100 0    50   Input ~ 0
K-LAYER-D[1..5]
Text HLabel 1400 7600 0    50   Input ~ 0
BUS-DATA[1..5]
Text HLabel 1600 1000 0    50   Input ~ 0
~K-MULT-X
Text HLabel 1600 1100 0    50   Input ~ 0
~K-MULT-Y
Text HLabel 1600 1200 0    50   Input ~ 0
~K-MULT-LSB
Text HLabel 1600 1300 0    50   Input ~ 0
~K-MULT-MSB
Text HLabel 1600 1400 0    50   Input ~ 0
~K-MULT-TC
Text HLabel 1600 1500 0    50   Input ~ 0
~K-CHECK1
Text HLabel 1600 1700 0    50   Input ~ 0
0x00
Text HLabel 1600 1800 0    50   Input ~ 0
0x02
Text HLabel 1600 1900 0    50   Input ~ 0
0x04
Text HLabel 1600 2000 0    50   Input ~ 0
0x06
Text HLabel 1600 2100 0    50   Input ~ 0
0x08
Text HLabel 1600 2200 0    50   Input ~ 0
0x0A
Text HLabel 1600 2850 0    50   Input ~ 0
~K-CHECK2
Text HLabel 1600 2950 0    50   Input ~ 0
~K-RASTER1
Text HLabel 1600 3050 0    50   Input ~ 0
~K-RASTER2
Text HLabel 1600 3150 0    50   Input ~ 0
~K-RASTER3
Text HLabel 1600 3250 0    50   Input ~ 0
~K-LAYER-CTRL
Text HLabel 1600 3350 0    50   Input ~ 0
~K-PRIORITY0
Text HLabel 1600 3550 0    50   Input ~ 0
0x0C
Text HLabel 1600 3650 0    50   Input ~ 0
0x0E
Text HLabel 1600 3750 0    50   Input ~ 0
0x10
Text HLabel 1600 3850 0    50   Input ~ 0
0x12
Text HLabel 1600 3950 0    50   Input ~ 0
0x26
Text HLabel 1600 4050 0    50   Input ~ 0
0x28
Text HLabel 1600 4700 0    50   Input ~ 0
~K-PRIORITY1
Text HLabel 1600 4800 0    50   Input ~ 0
~K-PRIORITY2
Text HLabel 1600 4900 0    50   Input ~ 0
~K-PRIORITY3
Text HLabel 1600 5000 0    50   Input ~ 0
~K-PAL-CTRL
Text HLabel 1600 5100 0    50   Input ~ 0
~K-CPS-ID
Text HLabel 1600 5300 0    50   Input ~ 0
0x2A
Text HLabel 1600 5400 0    50   Input ~ 0
0x2C
Text HLabel 1600 5500 0    50   Input ~ 0
0x2E
Text HLabel 1600 5600 0    50   Input ~ 0
0x30
Text HLabel 1600 5700 0    50   Input ~ 0
0x32
Text HLabel 1700 2400 0    50   Input ~ 0
DEFAULT
Text HLabel 4500 5500 2    50   Output ~ 0
~PRIORITY1
Text HLabel 4500 5600 2    50   Output ~ 0
~PRIORITY2
Text HLabel 4500 5700 2    50   Output ~ 0
~PRIORITY3
Text HLabel 4500 5800 2    50   Output ~ 0
~PAL-CTRL
Text HLabel 4500 5900 2    50   Output ~ 0
~CPS-ID
Text HLabel 4700 750  2    50   Output ~ 0
~MULT-X
Text HLabel 4700 850  2    50   Output ~ 0
~MULT-Y
Text HLabel 4700 950  2    50   Output ~ 0
~MULT-LSB
Text HLabel 4700 1050 2    50   Output ~ 0
~MULT-MSB
Text HLabel 4700 1150 2    50   Output ~ 0
~MULT-TC
Text HLabel 4700 1250 2    50   Output ~ 0
~CHECK1
Text HLabel 4700 2600 2    50   Output ~ 0
~CHECK2
Text HLabel 4700 2700 2    50   Output ~ 0
~RASTER1
Text HLabel 4700 2800 2    50   Output ~ 0
~RASTER2
Text HLabel 4700 2900 2    50   Output ~ 0
~RASTER3
Text HLabel 4700 3000 2    50   Output ~ 0
~LAYER-CTRL
Text HLabel 4700 3100 2    50   Output ~ 0
~PRIORITY0
Text HLabel 5250 7300 2    50   Output ~ 0
LAYER-D[1..5]
Text HLabel 5400 5500 0    50   Input ~ 0
0x3E
Text HLabel 5500 5800 2    50   Output ~ 0
~SCANLINE
Text HLabel 6250 3900 0    50   Input ~ 0
~RD
Text HLabel 6250 4000 0    50   Input ~ 0
~WR
Text HLabel 8400 5850 2    50   3State ~ 0
TD[0..11]
Text HLabel 9400 800  0    50   Input ~ 0
KEY[0..143]
Text HLabel 9400 8450 0    50   Input ~ 0
DEFAULT
Text HLabel 11400 8400 0    50   Output ~ 0
CPS-ID-D[0..15]
Text HLabel 13500 8400 0    50   Output ~ 0
CHECK2-D[0..15]
Text HLabel 15600 8400 0    50   Output ~ 0
CHECK1-D[0..15]
$Comp
L power:GND #PWR?
U 1 1 64B1B182
P 6450 2900
AR Path="/5FAC0132/64B1B182" Ref="#PWR?"  Part="1" 
AR Path="/5FBF8EAD/5FBFA08C/64B1B182" Ref="#PWR0210"  Part="1" 
F 0 "#PWR0210" H 6450 2650 50  0001 C CNN
F 1 "GND" H 6455 2730 50  0000 C CNN
F 2 "" H 6450 2900 50  0001 C CNN
F 3 "" H 6450 2900 50  0001 C CNN
	1    6450 2900
	1    0    0    -1  
$EndComp
$Comp
L power:GND #PWR?
U 1 1 65BA4FA9
P 6450 4100
AR Path="/5FAC0132/65BA4FA9" Ref="#PWR?"  Part="1" 
AR Path="/5FBF8EAD/5FBFA08C/65BA4FA9" Ref="#PWR0211"  Part="1" 
F 0 "#PWR0211" H 6450 3850 50  0001 C CNN
F 1 "GND" H 6455 3930 50  0000 C CNN
F 2 "" H 6450 4100 50  0001 C CNN
F 3 "" H 6450 4100 50  0001 C CNN
	1    6450 4100
	1    0    0    -1  
$EndComp
$Comp
L power:GND #PWR?
U 1 1 66AA69BC
P 6450 9500
AR Path="/5FAC0132/66AA69BC" Ref="#PWR?"  Part="1" 
AR Path="/5FBF8EAD/5FBFA08C/66AA69BC" Ref="#PWR0212"  Part="1" 
F 0 "#PWR0212" H 6450 9250 50  0001 C CNN
F 1 "GND" H 6455 9330 50  0000 C CNN
F 2 "" H 6450 9500 50  0001 C CNN
F 3 "" H 6450 9500 50  0001 C CNN
	1    6450 9500
	1    0    0    -1  
$EndComp
$Comp
L power:GND #PWR?
U 1 1 66BA70D1
P 6450 10450
AR Path="/5FAC0132/66BA70D1" Ref="#PWR?"  Part="1" 
AR Path="/5FBF8EAD/5FBFA08C/66BA70D1" Ref="#PWR0213"  Part="1" 
F 0 "#PWR0213" H 6450 10200 50  0001 C CNN
F 1 "GND" H 6455 10280 50  0000 C CNN
F 2 "" H 6450 10450 50  0001 C CNN
F 3 "" H 6450 10450 50  0001 C CNN
	1    6450 10450
	1    0    0    -1  
$EndComp
$Comp
L power:GND #PWR?
U 1 1 5FBBD793
P 6500 8100
AR Path="/5FAC0132/5FBBD793" Ref="#PWR?"  Part="1" 
AR Path="/5FBF8EAD/5FBFA08C/5FBBD793" Ref="#PWR0214"  Part="1" 
F 0 "#PWR0214" H 6500 7850 50  0001 C CNN
F 1 "GND" H 6505 7930 50  0000 C CNN
F 2 "" H 6500 8100 50  0001 C CNN
F 3 "" H 6500 8100 50  0001 C CNN
	1    6500 8100
	1    0    0    -1  
$EndComp
$Comp
L A5C:M125C UBU80
U 1 1 5FAA4F20
P 7200 7050
AR Path="/5FAC0132/5FAA4F20" Ref="UBU80"  Part="1" 
AR Path="/5FBF8EAD/5FBFA08C/5FAA4F20" Ref="UBU80"  Part="1" 
F 0 "UBU80" H 7200 7311 50  0000 C CNN
F 1 "M125C" H 7200 7220 50  0000 C CNN
F 2 "" H 6700 7000 50  0001 C CNN
F 3 "" H 6700 7000 50  0001 C CNN
	1    7200 7050
	1    0    0    -1  
$EndComp
$Comp
L A5C:AND02 UCR346
U 1 1 646DB73C
P 10500 3050
AR Path="/5FAC0132/646DB73C" Ref="UCR346"  Part="1" 
AR Path="/5FBF8EAD/5FBFA08C/646DB73C" Ref="UCR346"  Part="1" 
F 0 "UCR346" H 10525 3317 50  0000 C CNN
F 1 "AND02" H 10525 3226 50  0000 C CNN
F 2 "" H 10500 3050 50  0001 C CNN
F 3 "" H 10500 3050 50  0001 C CNN
	1    10500 3050
	1    0    0    -1  
$EndComp
$Comp
L A5C:AND02 UCR344
U 1 1 646DB736
P 10500 3500
AR Path="/5FAC0132/646DB736" Ref="UCR344"  Part="1" 
AR Path="/5FBF8EAD/5FBFA08C/646DB736" Ref="UCR344"  Part="1" 
F 0 "UCR344" H 10525 3767 50  0000 C CNN
F 1 "AND02" H 10525 3676 50  0000 C CNN
F 2 "" H 10500 3500 50  0001 C CNN
F 3 "" H 10500 3500 50  0001 C CNN
	1    10500 3500
	1    0    0    -1  
$EndComp
$Comp
L A5C:AND02 UCR342
U 1 1 646DB748
P 10500 3950
AR Path="/5FAC0132/646DB748" Ref="UCR342"  Part="1" 
AR Path="/5FBF8EAD/5FBFA08C/646DB748" Ref="UCR342"  Part="1" 
F 0 "UCR342" H 10525 4217 50  0000 C CNN
F 1 "AND02" H 10525 4126 50  0000 C CNN
F 2 "" H 10500 3950 50  0001 C CNN
F 3 "" H 10500 3950 50  0001 C CNN
	1    10500 3950
	1    0    0    -1  
$EndComp
$Comp
L A5C:AND02 UCR339
U 1 1 646DB742
P 10500 4400
AR Path="/5FAC0132/646DB742" Ref="UCR339"  Part="1" 
AR Path="/5FBF8EAD/5FBFA08C/646DB742" Ref="UCR339"  Part="1" 
F 0 "UCR339" H 10525 4667 50  0000 C CNN
F 1 "AND02" H 10525 4576 50  0000 C CNN
F 2 "" H 10500 4400 50  0001 C CNN
F 3 "" H 10500 4400 50  0001 C CNN
	1    10500 4400
	1    0    0    -1  
$EndComp
$Comp
L A5C:AND02 UCO354
U 1 1 61510315
P 10500 4850
AR Path="/5FAC0132/61510315" Ref="UCO354"  Part="1" 
AR Path="/5FBF8EAD/5FBFA08C/61510315" Ref="UCO354"  Part="1" 
F 0 "UCO354" H 10525 5117 50  0000 C CNN
F 1 "AND02" H 10525 5026 50  0000 C CNN
F 2 "" H 10500 4850 50  0001 C CNN
F 3 "" H 10500 4850 50  0001 C CNN
	1    10500 4850
	1    0    0    -1  
$EndComp
$Comp
L A5C:AND02 UCO356
U 1 1 6151031B
P 10500 5300
AR Path="/5FAC0132/6151031B" Ref="UCO356"  Part="1" 
AR Path="/5FBF8EAD/5FBFA08C/6151031B" Ref="UCO356"  Part="1" 
F 0 "UCO356" H 10525 5567 50  0000 C CNN
F 1 "AND02" H 10525 5476 50  0000 C CNN
F 2 "" H 10500 5300 50  0001 C CNN
F 3 "" H 10500 5300 50  0001 C CNN
	1    10500 5300
	1    0    0    -1  
$EndComp
$Comp
L A5C:AND02 UCO369
U 1 1 5EC67AC9
P 10500 5750
AR Path="/5FAC0132/5EC67AC9" Ref="UCO369"  Part="1" 
AR Path="/5FBF8EAD/5FBFA08C/5EC67AC9" Ref="UCO369"  Part="1" 
F 0 "UCO369" H 10525 6017 50  0000 C CNN
F 1 "AND02" H 10525 5926 50  0000 C CNN
F 2 "" H 10500 5750 50  0001 C CNN
F 3 "" H 10500 5750 50  0001 C CNN
	1    10500 5750
	1    0    0    -1  
$EndComp
$Comp
L A5C:AND02 UCO367
U 1 1 5EC67F67
P 10500 6200
AR Path="/5FAC0132/5EC67F67" Ref="UCO367"  Part="1" 
AR Path="/5FBF8EAD/5FBFA08C/5EC67F67" Ref="UCO367"  Part="1" 
F 0 "UCO367" H 10525 6467 50  0000 C CNN
F 1 "AND02" H 10525 6376 50  0000 C CNN
F 2 "" H 10500 6200 50  0001 C CNN
F 3 "" H 10500 6200 50  0001 C CNN
	1    10500 6200
	1    0    0    -1  
$EndComp
$Comp
L A5C:AND02 UCO365
U 1 1 5EC687C6
P 10500 6650
AR Path="/5FAC0132/5EC687C6" Ref="UCO365"  Part="1" 
AR Path="/5FBF8EAD/5FBFA08C/5EC687C6" Ref="UCO365"  Part="1" 
F 0 "UCO365" H 10525 6917 50  0000 C CNN
F 1 "AND02" H 10525 6826 50  0000 C CNN
F 2 "" H 10500 6650 50  0001 C CNN
F 3 "" H 10500 6650 50  0001 C CNN
	1    10500 6650
	1    0    0    -1  
$EndComp
$Comp
L A5C:AND02 UCO363
U 1 1 5EC68C07
P 10500 7100
AR Path="/5FAC0132/5EC68C07" Ref="UCO363"  Part="1" 
AR Path="/5FBF8EAD/5FBFA08C/5EC68C07" Ref="UCO363"  Part="1" 
F 0 "UCO363" H 10525 7367 50  0000 C CNN
F 1 "AND02" H 10525 7276 50  0000 C CNN
F 2 "" H 10500 7100 50  0001 C CNN
F 3 "" H 10500 7100 50  0001 C CNN
	1    10500 7100
	1    0    0    -1  
$EndComp
$Comp
L A5C:AND02 UCO360
U 1 1 5ECCC989
P 10500 7550
AR Path="/5FAC0132/5ECCC989" Ref="UCO360"  Part="1" 
AR Path="/5FBF8EAD/5FBFA08C/5ECCC989" Ref="UCO360"  Part="1" 
F 0 "UCO360" H 10525 7817 50  0000 C CNN
F 1 "AND02" H 10525 7726 50  0000 C CNN
F 2 "" H 10500 7550 50  0001 C CNN
F 3 "" H 10500 7550 50  0001 C CNN
	1    10500 7550
	1    0    0    -1  
$EndComp
$Comp
L A5C:AND02 UCO358
U 1 1 5ED305B9
P 10500 8000
AR Path="/5FAC0132/5ED305B9" Ref="UCO358"  Part="1" 
AR Path="/5FBF8EAD/5FBFA08C/5ED305B9" Ref="UCO358"  Part="1" 
F 0 "UCO358" H 10525 8267 50  0000 C CNN
F 1 "AND02" H 10525 8176 50  0000 C CNN
F 2 "" H 10500 8000 50  0001 C CNN
F 3 "" H 10500 8000 50  0001 C CNN
	1    10500 8000
	1    0    0    -1  
$EndComp
$Comp
L A5C:AND02 UCL28
U 1 1 7258A101
P 12600 1250
AR Path="/5FAC0132/7258A101" Ref="UCL28"  Part="1" 
AR Path="/5FBF8EAD/5FBFA08C/7258A101" Ref="UCL28"  Part="1" 
F 0 "UCL28" H 12625 1517 50  0000 C CNN
F 1 "AND02" H 12625 1426 50  0000 C CNN
F 2 "" H 12600 1250 50  0001 C CNN
F 3 "" H 12600 1250 50  0001 C CNN
	1    12600 1250
	1    0    0    -1  
$EndComp
$Comp
L A5C:AND02 UCL30
U 1 1 7258A107
P 12600 1700
AR Path="/5FAC0132/7258A107" Ref="UCL30"  Part="1" 
AR Path="/5FBF8EAD/5FBFA08C/7258A107" Ref="UCL30"  Part="1" 
F 0 "UCL30" H 12625 1967 50  0000 C CNN
F 1 "AND02" H 12625 1876 50  0000 C CNN
F 2 "" H 12600 1700 50  0001 C CNN
F 3 "" H 12600 1700 50  0001 C CNN
	1    12600 1700
	1    0    0    -1  
$EndComp
$Comp
L A5C:AND02 UCL32
U 1 1 7258A0D2
P 12600 2150
AR Path="/5FAC0132/7258A0D2" Ref="UCL32"  Part="1" 
AR Path="/5FBF8EAD/5FBFA08C/7258A0D2" Ref="UCL32"  Part="1" 
F 0 "UCL32" H 12625 2417 50  0000 C CNN
F 1 "AND02" H 12625 2326 50  0000 C CNN
F 2 "" H 12600 2150 50  0001 C CNN
F 3 "" H 12600 2150 50  0001 C CNN
	1    12600 2150
	1    0    0    -1  
$EndComp
$Comp
L A5C:AND02 UCL34
U 1 1 7258A0D8
P 12600 2600
AR Path="/5FAC0132/7258A0D8" Ref="UCL34"  Part="1" 
AR Path="/5FBF8EAD/5FBFA08C/7258A0D8" Ref="UCL34"  Part="1" 
F 0 "UCL34" H 12625 2867 50  0000 C CNN
F 1 "AND02" H 12625 2776 50  0000 C CNN
F 2 "" H 12600 2600 50  0001 C CNN
F 3 "" H 12600 2600 50  0001 C CNN
	1    12600 2600
	1    0    0    -1  
$EndComp
$Comp
L A5C:AND02 UCL37
U 1 1 7258A0DE
P 12600 3050
AR Path="/5FAC0132/7258A0DE" Ref="UCL37"  Part="1" 
AR Path="/5FBF8EAD/5FBFA08C/7258A0DE" Ref="UCL37"  Part="1" 
F 0 "UCL37" H 12625 3317 50  0000 C CNN
F 1 "AND02" H 12625 3226 50  0000 C CNN
F 2 "" H 12600 3050 50  0001 C CNN
F 3 "" H 12600 3050 50  0001 C CNN
	1    12600 3050
	1    0    0    -1  
$EndComp
$Comp
L A5C:AND02 UCL39
U 1 1 7258A0E4
P 12600 3500
AR Path="/5FAC0132/7258A0E4" Ref="UCL39"  Part="1" 
AR Path="/5FBF8EAD/5FBFA08C/7258A0E4" Ref="UCL39"  Part="1" 
F 0 "UCL39" H 12625 3767 50  0000 C CNN
F 1 "AND02" H 12625 3676 50  0000 C CNN
F 2 "" H 12600 3500 50  0001 C CNN
F 3 "" H 12600 3500 50  0001 C CNN
	1    12600 3500
	1    0    0    -1  
$EndComp
$Comp
L A5C:AND02 UCL41
U 1 1 7258A0EA
P 12600 3950
AR Path="/5FAC0132/7258A0EA" Ref="UCL41"  Part="1" 
AR Path="/5FBF8EAD/5FBFA08C/7258A0EA" Ref="UCL41"  Part="1" 
F 0 "UCL41" H 12625 4217 50  0000 C CNN
F 1 "AND02" H 12625 4126 50  0000 C CNN
F 2 "" H 12600 3950 50  0001 C CNN
F 3 "" H 12600 3950 50  0001 C CNN
	1    12600 3950
	1    0    0    -1  
$EndComp
$Comp
L A5C:AND02 UCL43
U 1 1 7258A0F0
P 12600 4400
AR Path="/5FAC0132/7258A0F0" Ref="UCL43"  Part="1" 
AR Path="/5FBF8EAD/5FBFA08C/7258A0F0" Ref="UCL43"  Part="1" 
F 0 "UCL43" H 12625 4667 50  0000 C CNN
F 1 "AND02" H 12625 4576 50  0000 C CNN
F 2 "" H 12600 4400 50  0001 C CNN
F 3 "" H 12600 4400 50  0001 C CNN
	1    12600 4400
	1    0    0    -1  
$EndComp
$Comp
L A5C:AND02 UCO61
U 1 1 5F7BE9AA
P 12600 4850
AR Path="/5FAC0132/5F7BE9AA" Ref="UCO61"  Part="1" 
AR Path="/5FBF8EAD/5FBFA08C/5F7BE9AA" Ref="UCO61"  Part="1" 
F 0 "UCO61" H 12625 5117 50  0000 C CNN
F 1 "AND02" H 12625 5026 50  0000 C CNN
F 2 "" H 12600 4850 50  0001 C CNN
F 3 "" H 12600 4850 50  0001 C CNN
	1    12600 4850
	1    0    0    -1  
$EndComp
$Comp
L A5C:AND02 UCO63
U 1 1 5F7BE9B0
P 12600 5300
AR Path="/5FAC0132/5F7BE9B0" Ref="UCO63"  Part="1" 
AR Path="/5FBF8EAD/5FBFA08C/5F7BE9B0" Ref="UCO63"  Part="1" 
F 0 "UCO63" H 12625 5567 50  0000 C CNN
F 1 "AND02" H 12625 5476 50  0000 C CNN
F 2 "" H 12600 5300 50  0001 C CNN
F 3 "" H 12600 5300 50  0001 C CNN
	1    12600 5300
	1    0    0    -1  
$EndComp
$Comp
L A5C:AND02 UCO66
U 1 1 5F7BE972
P 12600 5750
AR Path="/5FAC0132/5F7BE972" Ref="UCO66"  Part="1" 
AR Path="/5FBF8EAD/5FBFA08C/5F7BE972" Ref="UCO66"  Part="1" 
F 0 "UCO66" H 12625 6017 50  0000 C CNN
F 1 "AND02" H 12625 5926 50  0000 C CNN
F 2 "" H 12600 5750 50  0001 C CNN
F 3 "" H 12600 5750 50  0001 C CNN
	1    12600 5750
	1    0    0    -1  
$EndComp
$Comp
L A5C:AND02 UCO68
U 1 1 5F7BE978
P 12600 6200
AR Path="/5FAC0132/5F7BE978" Ref="UCO68"  Part="1" 
AR Path="/5FBF8EAD/5FBFA08C/5F7BE978" Ref="UCO68"  Part="1" 
F 0 "UCO68" H 12625 6467 50  0000 C CNN
F 1 "AND02" H 12625 6376 50  0000 C CNN
F 2 "" H 12600 6200 50  0001 C CNN
F 3 "" H 12600 6200 50  0001 C CNN
	1    12600 6200
	1    0    0    -1  
$EndComp
$Comp
L A5C:AND02 UCO70
U 1 1 5F7BE97E
P 12600 6650
AR Path="/5FAC0132/5F7BE97E" Ref="UCO70"  Part="1" 
AR Path="/5FBF8EAD/5FBFA08C/5F7BE97E" Ref="UCO70"  Part="1" 
F 0 "UCO70" H 12625 6917 50  0000 C CNN
F 1 "AND02" H 12625 6826 50  0000 C CNN
F 2 "" H 12600 6650 50  0001 C CNN
F 3 "" H 12600 6650 50  0001 C CNN
	1    12600 6650
	1    0    0    -1  
$EndComp
$Comp
L A5C:AND02 UCO72
U 1 1 5F7BE984
P 12600 7100
AR Path="/5FAC0132/5F7BE984" Ref="UCO72"  Part="1" 
AR Path="/5FBF8EAD/5FBFA08C/5F7BE984" Ref="UCO72"  Part="1" 
F 0 "UCO72" H 12625 7367 50  0000 C CNN
F 1 "AND02" H 12625 7276 50  0000 C CNN
F 2 "" H 12600 7100 50  0001 C CNN
F 3 "" H 12600 7100 50  0001 C CNN
	1    12600 7100
	1    0    0    -1  
$EndComp
$Comp
L A5C:AND02 UCO74
U 1 1 5F7BE98A
P 12600 7550
AR Path="/5FAC0132/5F7BE98A" Ref="UCO74"  Part="1" 
AR Path="/5FBF8EAD/5FBFA08C/5F7BE98A" Ref="UCO74"  Part="1" 
F 0 "UCO74" H 12625 7817 50  0000 C CNN
F 1 "AND02" H 12625 7726 50  0000 C CNN
F 2 "" H 12600 7550 50  0001 C CNN
F 3 "" H 12600 7550 50  0001 C CNN
	1    12600 7550
	1    0    0    -1  
$EndComp
$Comp
L A5C:AND02 UCO77
U 1 1 5F7BE990
P 12600 8000
AR Path="/5FAC0132/5F7BE990" Ref="UCO77"  Part="1" 
AR Path="/5FBF8EAD/5FBFA08C/5F7BE990" Ref="UCO77"  Part="1" 
F 0 "UCO77" H 12625 8267 50  0000 C CNN
F 1 "AND02" H 12625 8176 50  0000 C CNN
F 2 "" H 12600 8000 50  0001 C CNN
F 3 "" H 12600 8000 50  0001 C CNN
	1    12600 8000
	1    0    0    -1  
$EndComp
$Comp
L A5C:AND02 UCO139
U 1 1 6003E8C9
P 14700 1250
AR Path="/5FAC0132/6003E8C9" Ref="UCO139"  Part="1" 
AR Path="/5FBF8EAD/5FBFA08C/6003E8C9" Ref="UCO139"  Part="1" 
F 0 "UCO139" H 14725 1517 50  0000 C CNN
F 1 "AND02" H 14725 1426 50  0000 C CNN
F 2 "" H 14700 1250 50  0001 C CNN
F 3 "" H 14700 1250 50  0001 C CNN
	1    14700 1250
	1    0    0    -1  
$EndComp
$Comp
L A5C:AND02 UCO141
U 1 1 6003E8CF
P 14700 1700
AR Path="/5FAC0132/6003E8CF" Ref="UCO141"  Part="1" 
AR Path="/5FBF8EAD/5FBFA08C/6003E8CF" Ref="UCO141"  Part="1" 
F 0 "UCO141" H 14725 1967 50  0000 C CNN
F 1 "AND02" H 14725 1876 50  0000 C CNN
F 2 "" H 14700 1700 50  0001 C CNN
F 3 "" H 14700 1700 50  0001 C CNN
	1    14700 1700
	1    0    0    -1  
$EndComp
$Comp
L A5C:AND02 UCO143
U 1 1 6003E891
P 14700 2150
AR Path="/5FAC0132/6003E891" Ref="UCO143"  Part="1" 
AR Path="/5FBF8EAD/5FBFA08C/6003E891" Ref="UCO143"  Part="1" 
F 0 "UCO143" H 14725 2417 50  0000 C CNN
F 1 "AND02" H 14725 2326 50  0000 C CNN
F 2 "" H 14700 2150 50  0001 C CNN
F 3 "" H 14700 2150 50  0001 C CNN
	1    14700 2150
	1    0    0    -1  
$EndComp
$Comp
L A5C:AND02 UCO145
U 1 1 6003E897
P 14700 2600
AR Path="/5FAC0132/6003E897" Ref="UCO145"  Part="1" 
AR Path="/5FBF8EAD/5FBFA08C/6003E897" Ref="UCO145"  Part="1" 
F 0 "UCO145" H 14725 2867 50  0000 C CNN
F 1 "AND02" H 14725 2776 50  0000 C CNN
F 2 "" H 14700 2600 50  0001 C CNN
F 3 "" H 14700 2600 50  0001 C CNN
	1    14700 2600
	1    0    0    -1  
$EndComp
$Comp
L A5C:AND02 UCO148
U 1 1 6003E89D
P 14700 3050
AR Path="/5FAC0132/6003E89D" Ref="UCO148"  Part="1" 
AR Path="/5FBF8EAD/5FBFA08C/6003E89D" Ref="UCO148"  Part="1" 
F 0 "UCO148" H 14725 3317 50  0000 C CNN
F 1 "AND02" H 14725 3226 50  0000 C CNN
F 2 "" H 14700 3050 50  0001 C CNN
F 3 "" H 14700 3050 50  0001 C CNN
	1    14700 3050
	1    0    0    -1  
$EndComp
$Comp
L A5C:AND02 UCO150
U 1 1 6003E8A3
P 14700 3500
AR Path="/5FAC0132/6003E8A3" Ref="UCO150"  Part="1" 
AR Path="/5FBF8EAD/5FBFA08C/6003E8A3" Ref="UCO150"  Part="1" 
F 0 "UCO150" H 14725 3767 50  0000 C CNN
F 1 "AND02" H 14725 3676 50  0000 C CNN
F 2 "" H 14700 3500 50  0001 C CNN
F 3 "" H 14700 3500 50  0001 C CNN
	1    14700 3500
	1    0    0    -1  
$EndComp
$Comp
L A5C:AND02 UCO152
U 1 1 6003E8A9
P 14700 3950
AR Path="/5FAC0132/6003E8A9" Ref="UCO152"  Part="1" 
AR Path="/5FBF8EAD/5FBFA08C/6003E8A9" Ref="UCO152"  Part="1" 
F 0 "UCO152" H 14725 4217 50  0000 C CNN
F 1 "AND02" H 14725 4126 50  0000 C CNN
F 2 "" H 14700 3950 50  0001 C CNN
F 3 "" H 14700 3950 50  0001 C CNN
	1    14700 3950
	1    0    0    -1  
$EndComp
$Comp
L A5C:AND02 UCO154
U 1 1 6003E8AF
P 14700 4400
AR Path="/5FAC0132/6003E8AF" Ref="UCO154"  Part="1" 
AR Path="/5FBF8EAD/5FBFA08C/6003E8AF" Ref="UCO154"  Part="1" 
F 0 "UCO154" H 14725 4667 50  0000 C CNN
F 1 "AND02" H 14725 4576 50  0000 C CNN
F 2 "" H 14700 4400 50  0001 C CNN
F 3 "" H 14700 4400 50  0001 C CNN
	1    14700 4400
	1    0    0    -1  
$EndComp
$Comp
L A5C:AND02 UCO160
U 1 1 622F6EC0
P 14700 4850
AR Path="/5FAC0132/622F6EC0" Ref="UCO160"  Part="1" 
AR Path="/5FBF8EAD/5FBFA08C/622F6EC0" Ref="UCO160"  Part="1" 
F 0 "UCO160" H 14725 5117 50  0000 C CNN
F 1 "AND02" H 14725 5026 50  0000 C CNN
F 2 "" H 14700 4850 50  0001 C CNN
F 3 "" H 14700 4850 50  0001 C CNN
	1    14700 4850
	1    0    0    -1  
$EndComp
$Comp
L A5C:AND02 UCO162
U 1 1 622F6EC6
P 14700 5300
AR Path="/5FAC0132/622F6EC6" Ref="UCO162"  Part="1" 
AR Path="/5FBF8EAD/5FBFA08C/622F6EC6" Ref="UCO162"  Part="1" 
F 0 "UCO162" H 14725 5567 50  0000 C CNN
F 1 "AND02" H 14725 5476 50  0000 C CNN
F 2 "" H 14700 5300 50  0001 C CNN
F 3 "" H 14700 5300 50  0001 C CNN
	1    14700 5300
	1    0    0    -1  
$EndComp
$Comp
L A5C:AND02 UCO165
U 1 1 622F6E88
P 14700 5750
AR Path="/5FAC0132/622F6E88" Ref="UCO165"  Part="1" 
AR Path="/5FBF8EAD/5FBFA08C/622F6E88" Ref="UCO165"  Part="1" 
F 0 "UCO165" H 14725 6017 50  0000 C CNN
F 1 "AND02" H 14725 5926 50  0000 C CNN
F 2 "" H 14700 5750 50  0001 C CNN
F 3 "" H 14700 5750 50  0001 C CNN
	1    14700 5750
	1    0    0    -1  
$EndComp
$Comp
L A5C:AND02 UCO167
U 1 1 622F6E8E
P 14700 6200
AR Path="/5FAC0132/622F6E8E" Ref="UCO167"  Part="1" 
AR Path="/5FBF8EAD/5FBFA08C/622F6E8E" Ref="UCO167"  Part="1" 
F 0 "UCO167" H 14725 6467 50  0000 C CNN
F 1 "AND02" H 14725 6376 50  0000 C CNN
F 2 "" H 14700 6200 50  0001 C CNN
F 3 "" H 14700 6200 50  0001 C CNN
	1    14700 6200
	1    0    0    -1  
$EndComp
$Comp
L A5C:AND02 UCO169
U 1 1 622F6E94
P 14700 6650
AR Path="/5FAC0132/622F6E94" Ref="UCO169"  Part="1" 
AR Path="/5FBF8EAD/5FBFA08C/622F6E94" Ref="UCO169"  Part="1" 
F 0 "UCO169" H 14725 6917 50  0000 C CNN
F 1 "AND02" H 14725 6826 50  0000 C CNN
F 2 "" H 14700 6650 50  0001 C CNN
F 3 "" H 14700 6650 50  0001 C CNN
	1    14700 6650
	1    0    0    -1  
$EndComp
$Comp
L A5C:AND02 UCO171
U 1 1 622F6E9A
P 14700 7100
AR Path="/5FAC0132/622F6E9A" Ref="UCO171"  Part="1" 
AR Path="/5FBF8EAD/5FBFA08C/622F6E9A" Ref="UCO171"  Part="1" 
F 0 "UCO171" H 14725 7367 50  0000 C CNN
F 1 "AND02" H 14725 7276 50  0000 C CNN
F 2 "" H 14700 7100 50  0001 C CNN
F 3 "" H 14700 7100 50  0001 C CNN
	1    14700 7100
	1    0    0    -1  
$EndComp
$Comp
L A5C:AND02 UCO174
U 1 1 622F6EA0
P 14700 7550
AR Path="/5FAC0132/622F6EA0" Ref="UCO174"  Part="1" 
AR Path="/5FBF8EAD/5FBFA08C/622F6EA0" Ref="UCO174"  Part="1" 
F 0 "UCO174" H 14725 7817 50  0000 C CNN
F 1 "AND02" H 14725 7726 50  0000 C CNN
F 2 "" H 14700 7550 50  0001 C CNN
F 3 "" H 14700 7550 50  0001 C CNN
	1    14700 7550
	1    0    0    -1  
$EndComp
$Comp
L A5C:AND02 UCO176
U 1 1 622F6EA6
P 14700 8000
AR Path="/5FAC0132/622F6EA6" Ref="UCO176"  Part="1" 
AR Path="/5FBF8EAD/5FBFA08C/622F6EA6" Ref="UCO176"  Part="1" 
F 0 "UCO176" H 14725 8267 50  0000 C CNN
F 1 "AND02" H 14725 8176 50  0000 C CNN
F 2 "" H 14700 8000 50  0001 C CNN
F 3 "" H 14700 8000 50  0001 C CNN
	1    14700 8000
	1    0    0    -1  
$EndComp
$Comp
L A5C:NBUF02 UCO332
U 1 1 64D011A0
P 9850 8450
AR Path="/5FAC0132/64D011A0" Ref="UCO332"  Part="1" 
AR Path="/5FBF8EAD/5FBFA08C/64D011A0" Ref="UCO332"  Part="1" 
F 0 "UCO332" H 9850 8767 50  0000 C CNN
F 1 "NBUF03" H 9850 8676 50  0000 C CNN
F 2 "" H 9850 8250 50  0001 C CNN
F 3 "" H 9850 8250 50  0001 C CNN
	1    9850 8450
	1    0    0    -1  
$EndComp
$Comp
L A5C:NBUF02 UCO137
U 1 1 64685D15
P 9850 9000
AR Path="/5FAC0132/64685D15" Ref="UCO137"  Part="1" 
AR Path="/5FBF8EAD/5FBFA08C/64685D15" Ref="UCO137"  Part="1" 
F 0 "UCO137" H 9850 9317 50  0000 C CNN
F 1 "NBUF03" H 9850 9226 50  0000 C CNN
F 2 "" H 9850 8800 50  0001 C CNN
F 3 "" H 9850 8800 50  0001 C CNN
	1    9850 9000
	1    0    0    -1  
$EndComp
$Comp
L A5C:M367C UBU427
U 1 1 63F01BE3
P 7200 2950
AR Path="/5FAC0132/63F01BE3" Ref="UBU427"  Part="1" 
AR Path="/5FBF8EAD/5FBFA08C/63F01BE3" Ref="UBU427"  Part="1" 
F 0 "UBU427" H 7200 3461 50  0000 C CNN
F 1 "M367C" H 7200 3370 50  0000 C CNN
F 2 "" H 7500 2750 50  0001 C CNN
F 3 "" H 7500 2750 50  0001 C CNN
	1    7200 2950
	1    0    0    -1  
$EndComp
$Comp
L A5C:M367C UBW426
U 1 1 653B1454
P 7200 4150
AR Path="/5FAC0132/653B1454" Ref="UBW426"  Part="1" 
AR Path="/5FBF8EAD/5FBFA08C/653B1454" Ref="UBW426"  Part="1" 
F 0 "UBW426" H 7200 4661 50  0000 C CNN
F 1 "M367C" H 7200 4570 50  0000 C CNN
F 2 "" H 7500 3950 50  0001 C CNN
F 3 "" H 7500 3950 50  0001 C CNN
	1    7200 4150
	1    0    0    -1  
$EndComp
$Comp
L A5C:M367C UBU83
U 1 1 5FA9E3C9
P 7200 6400
AR Path="/5FAC0132/5FA9E3C9" Ref="UBU83"  Part="1" 
AR Path="/5FBF8EAD/5FBFA08C/5FA9E3C9" Ref="UBU83"  Part="1" 
F 0 "UBU83" H 7200 6911 50  0000 C CNN
F 1 "M367C" H 7200 6820 50  0000 C CNN
F 2 "" H 7500 6200 50  0001 C CNN
F 3 "" H 7500 6200 50  0001 C CNN
	1    7200 6400
	1    0    0    -1  
$EndComp
$Comp
L A5C:M367C UBN406
U 1 1 663ADD25
P 7200 10600
AR Path="/5FAC0132/663ADD25" Ref="UBN406"  Part="1" 
AR Path="/5FBF8EAD/5FBFA08C/663ADD25" Ref="UBN406"  Part="1" 
F 0 "UBN406" H 7200 11111 50  0000 C CNN
F 1 "M367C" H 7200 11020 50  0000 C CNN
F 2 "" H 7500 10400 50  0001 C CNN
F 3 "" H 7500 10400 50  0001 C CNN
	1    7200 10600
	1    0    0    -1  
$EndComp
$Comp
L A5C:M541C UBU234
U 1 1 637C94E4
P 7200 1800
AR Path="/5FAC0132/637C94E4" Ref="UBU234"  Part="1" 
AR Path="/5FBF8EAD/5FBFA08C/637C94E4" Ref="UBU234"  Part="1" 
F 0 "UBU234" H 7200 2511 50  0000 C CNN
F 1 "M541C" H 7200 2420 50  0000 C CNN
F 2 "" H 7500 1800 50  0001 C CNN
F 3 "" H 7500 1800 50  0001 C CNN
	1    7200 1800
	1    0    0    -1  
$EndComp
$Comp
L A5C:M541C UBW328
U 1 1 6475DB48
P 7200 5250
AR Path="/5FAC0132/6475DB48" Ref="UBW328"  Part="1" 
AR Path="/5FBF8EAD/5FBFA08C/6475DB48" Ref="UBW328"  Part="1" 
F 0 "UBW328" H 7200 5961 50  0000 C CNN
F 1 "M541C" H 7200 5870 50  0000 C CNN
F 2 "" H 7500 5250 50  0001 C CNN
F 3 "" H 7500 5250 50  0001 C CNN
	1    7200 5250
	1    0    0    -1  
$EndComp
$Comp
L A5C:M541C UBR194
U 1 1 5FB5AA65
P 7200 8050
AR Path="/5FAC0132/5FB5AA65" Ref="UBR194"  Part="1" 
AR Path="/5FBF8EAD/5FBFA08C/5FB5AA65" Ref="UBR194"  Part="1" 
F 0 "UBR194" H 7200 8761 50  0000 C CNN
F 1 "M541C" H 7200 8670 50  0000 C CNN
F 2 "" H 7500 8050 50  0001 C CNN
F 3 "" H 7500 8050 50  0001 C CNN
	1    7200 8050
	1    0    0    -1  
$EndComp
$Comp
L A5C:M541C UBR345
U 1 1 663ADD1F
P 7200 9450
AR Path="/5FAC0132/663ADD1F" Ref="UBR345"  Part="1" 
AR Path="/5FBF8EAD/5FBFA08C/663ADD1F" Ref="UBR345"  Part="1" 
F 0 "UBR345" H 7200 10161 50  0000 C CNN
F 1 "M541C" H 7200 10070 50  0000 C CNN
F 2 "" H 7500 9450 50  0001 C CNN
F 3 "" H 7500 9450 50  0001 C CNN
	1    7200 9450
	1    0    0    -1  
$EndComp
$Comp
L A5C:MUX25H UBZ248
U 1 1 60FC8FB3
P 2900 5200
AR Path="/5FAC0132/60FC8FB3" Ref="UBZ248"  Part="1" 
AR Path="/5FBF8EAD/5FBFA08C/60FC8FB3" Ref="UBZ248"  Part="1" 
F 0 "UBZ248" H 2900 5965 50  0000 C CNN
F 1 "MUX25H" H 2900 5874 50  0000 C CNN
F 2 "" H 2950 5250 50  0001 C CNN
F 3 "" H 2950 5250 50  0001 C CNN
F 4 "UBZ251;UBZ254;UBZ257;UBZ261;UBZ264" H 2900 5200 50  0001 C CNN "MiscRef"
	1    2900 5200
	1    0    0    -1  
$EndComp
$Comp
L A5C:MUX25H UBZ106
U 1 1 65904449
P 2900 6850
AR Path="/5FAC0132/65904449" Ref="UBZ106"  Part="1" 
AR Path="/5FBF8EAD/5FBFA08C/65904449" Ref="UBZ106"  Part="1" 
F 0 "UBZ106" H 2900 7615 50  0000 C CNN
F 1 "MUX25H" H 2900 7524 50  0000 C CNN
F 2 "" H 2950 6900 50  0001 C CNN
F 3 "" H 2950 6900 50  0001 C CNN
F 4 "UBZ109;UBZ112;UBZ115;UBZ119;UBZ122" H 2900 6850 50  0001 C CNN "MiscRef"
	1    2900 6850
	1    0    0    -1  
$EndComp
$Comp
L A5C:MUX26H UBU187
U 1 1 648BF582
P 2900 1500
AR Path="/5FAC0132/648BF582" Ref="UBU187"  Part="1" 
AR Path="/5FBF8EAD/5FBFA08C/648BF582" Ref="UBU187"  Part="1" 
F 0 "UBU187" H 2900 2265 50  0000 C CNN
F 1 "MUX26H" H 2900 2174 50  0000 C CNN
F 2 "" H 2950 1550 50  0001 C CNN
F 3 "" H 2950 1550 50  0001 C CNN
F 4 "UBU190;UBU193;UBU196;UBU200;UBU203;UBU206" H 2900 1500 50  0001 C CNN "MiscRef"
	1    2900 1500
	1    0    0    -1  
$EndComp
$Comp
L A5C:MUX26H UBW221
U 1 1 607AEEC8
P 2900 3350
AR Path="/5FAC0132/607AEEC8" Ref="UBW221"  Part="1" 
AR Path="/5FBF8EAD/5FBFA08C/607AEEC8" Ref="UBW221"  Part="1" 
F 0 "UBW221" H 2900 4115 50  0000 C CNN
F 1 "MUX26H" H 2900 4024 50  0000 C CNN
F 2 "" H 2950 3400 50  0001 C CNN
F 3 "" H 2950 3400 50  0001 C CNN
F 4 "UBW223;UBW227;UBW230;UBW233;UBW237;UBW240" H 2900 3350 50  0001 C CNN "MiscRef"
	1    2900 3350
	1    0    0    -1  
$EndComp
Text Label 6500 8500 2    50   ~ 0
~DEBUG15
Connection ~ 6600 9900
Text Label 6000 9800 2    50   ~ 0
~DEBUG8
Text Label 6000 9900 2    50   ~ 0
~DEBUG9
Text Label 6000 10100 2    50   ~ 0
~DEBUG15
Text Label 6000 10000 2    50   ~ 0
~DEBUG10
Wire Wire Line
	6000 9800 5550 9800
Wire Wire Line
	6000 10000 5550 10000
Wire Wire Line
	6000 10100 5550 10100
Entry Wire Line
	5450 9700 5550 9800
Entry Wire Line
	5450 9800 5550 9900
Entry Wire Line
	5450 9900 5550 10000
Entry Wire Line
	5450 10000 5550 10100
Wire Bus Line
	5450 9600 5350 9600
Text HLabel 5350 9600 0    50   Input ~ 0
~DEBUG[8..15]
Wire Wire Line
	5550 9900 6600 9900
Wire Wire Line
	14350 4900 14350 4450
Connection ~ 14350 4900
Connection ~ 14350 4450
Text Label 1800 7350 0    50   ~ 0
BUS-DATA5
Wire Wire Line
	2400 7350 1600 7350
Connection ~ 4050 7050
Connection ~ 4150 6950
Connection ~ 4250 6850
Connection ~ 4350 6750
Connection ~ 4450 6650
Text Label 9700 5250 0    50   ~ 0
KEY143
Text Label 9700 4800 0    50   ~ 0
KEY142
Text Label 9700 4350 0    50   ~ 0
KEY141
Text Label 9700 3900 0    50   ~ 0
KEY140
Text Label 9700 3450 0    50   ~ 0
KEY139
Text Label 9700 3000 0    50   ~ 0
KEY138
Wire Wire Line
	9650 5250 10250 5250
Wire Wire Line
	9650 4800 10250 4800
Wire Wire Line
	9650 4350 10250 4350
Wire Wire Line
	9650 3900 10250 3900
Wire Wire Line
	9650 3450 10250 3450
Wire Wire Line
	9650 3000 10250 3000
Wire Bus Line
	5450 9600 5450 10000
Wire Bus Line
	5100 6750 5100 7300
Wire Bus Line
	1500 6100 1500 6650
Wire Bus Line
	1500 7050 1500 7600
Wire Bus Line
	9550 800  9550 7850
Wire Bus Line
	11500 3150 11500 8400
Wire Bus Line
	15700 1350 15700 8400
Wire Bus Line
	13800 800  13800 7850
Wire Bus Line
	13600 1350 13600 8400
Wire Bus Line
	11700 800  11700 7850
Wire Bus Line
	8200 1450 8200 5850
Wire Bus Line
	8200 5850 8200 10550
$EndSCHEMATC
