EESchema Schematic File Version 4
EELAYER 30 0
EELAYER END
$Descr A3 16535 11693
encoding utf-8
Sheet 60 69
Title ""
Date "2020-11-26"
Rev ""
Comp ""
Comment1 "Licence: CC-BY"
Comment2 "Author: Loïc *WydD* Petit"
Comment3 ""
Comment4 ""
$EndDescr
Connection ~ 2500 4400
Connection ~ 2500 5100
Connection ~ 1650 5100
Connection ~ 2500 3150
Connection ~ 3400 3650
Connection ~ 3400 2400
Connection ~ 4450 4400
Connection ~ 4450 3150
Connection ~ 6400 4400
Connection ~ 6400 3150
Connection ~ 5350 3650
Connection ~ 5350 2400
Connection ~ 4450 5100
Connection ~ 7300 2400
Connection ~ 7300 3650
Connection ~ 11350 5100
Connection ~ 10300 2400
Connection ~ 9400 3150
Connection ~ 9400 4400
Connection ~ 9400 5100
Connection ~ 10300 3650
Connection ~ 13300 4400
Connection ~ 13300 3150
Connection ~ 11350 4400
Connection ~ 14200 3650
Connection ~ 11350 3150
Connection ~ 12250 2400
Connection ~ 12250 3650
Connection ~ 14200 2400
Connection ~ 5900 1200
Connection ~ 7850 1200
Connection ~ 10850 1200
Connection ~ 12800 1200
Connection ~ 3950 1200
Entry Wire Line
	3850 1700 3950 1600
Entry Wire Line
	3850 1800 3950 1700
Entry Wire Line
	3850 1900 3950 1800
Entry Wire Line
	3850 2000 3950 1900
Entry Wire Line
	3850 2100 3950 2000
Entry Wire Line
	3850 2200 3950 2100
Entry Wire Line
	3850 2300 3950 2200
Entry Wire Line
	3850 2400 3950 2300
Entry Wire Line
	3850 2950 3950 2850
Entry Wire Line
	3850 3050 3950 2950
Entry Wire Line
	3850 3150 3950 3050
Entry Wire Line
	3850 3250 3950 3150
Entry Wire Line
	3850 3350 3950 3250
Entry Wire Line
	3850 3450 3950 3350
Entry Wire Line
	3850 3550 3950 3450
Entry Wire Line
	3850 3650 3950 3550
Entry Wire Line
	3850 4200 3950 4100
Entry Wire Line
	3850 4300 3950 4200
Entry Wire Line
	3850 4400 3950 4300
Entry Wire Line
	3850 4500 3950 4400
Entry Wire Line
	3850 4600 3950 4500
Entry Wire Line
	3850 4700 3950 4600
Entry Wire Line
	3850 4800 3950 4700
Entry Wire Line
	3850 4900 3950 4800
Entry Wire Line
	5800 1700 5900 1600
Entry Wire Line
	5800 1800 5900 1700
Entry Wire Line
	5800 1900 5900 1800
Entry Wire Line
	5800 2000 5900 1900
Entry Wire Line
	5800 2100 5900 2000
Entry Wire Line
	5800 2200 5900 2100
Entry Wire Line
	5800 2300 5900 2200
Entry Wire Line
	5800 2400 5900 2300
Entry Wire Line
	5800 2950 5900 2850
Entry Wire Line
	5800 3050 5900 2950
Entry Wire Line
	5800 3150 5900 3050
Entry Wire Line
	5800 3250 5900 3150
Entry Wire Line
	5800 3350 5900 3250
Entry Wire Line
	5800 3450 5900 3350
Entry Wire Line
	5800 3550 5900 3450
Entry Wire Line
	5800 3650 5900 3550
Entry Wire Line
	5800 4200 5900 4100
Entry Wire Line
	5800 4300 5900 4200
Entry Wire Line
	5800 4400 5900 4300
Entry Wire Line
	5800 4500 5900 4400
Entry Wire Line
	5800 4600 5900 4500
Entry Wire Line
	5800 4700 5900 4600
Entry Wire Line
	5800 4800 5900 4700
Entry Wire Line
	5800 4900 5900 4800
Entry Wire Line
	7750 1700 7850 1600
Entry Wire Line
	7750 1800 7850 1700
Entry Wire Line
	7750 1900 7850 1800
Entry Wire Line
	7750 2000 7850 1900
Entry Wire Line
	7750 2100 7850 2000
Entry Wire Line
	7750 2200 7850 2100
Entry Wire Line
	7750 2300 7850 2200
Entry Wire Line
	7750 2400 7850 2300
Entry Wire Line
	7750 2950 7850 2850
Entry Wire Line
	7750 3050 7850 2950
Entry Wire Line
	7750 3150 7850 3050
Entry Wire Line
	7750 3250 7850 3150
Entry Wire Line
	7750 3350 7850 3250
Entry Wire Line
	7750 3450 7850 3350
Entry Wire Line
	7750 3550 7850 3450
Entry Wire Line
	7750 3650 7850 3550
Entry Wire Line
	7750 4200 7850 4100
Entry Wire Line
	7750 4300 7850 4200
Entry Wire Line
	7750 4400 7850 4300
Entry Wire Line
	7750 4500 7850 4400
Entry Wire Line
	7750 4600 7850 4500
Entry Wire Line
	7750 4700 7850 4600
Entry Wire Line
	7750 4800 7850 4700
Entry Wire Line
	7750 4900 7850 4800
Entry Wire Line
	10750 1700 10850 1600
Entry Wire Line
	10750 1800 10850 1700
Entry Wire Line
	10750 1900 10850 1800
Entry Wire Line
	10750 2000 10850 1900
Entry Wire Line
	10750 2100 10850 2000
Entry Wire Line
	10750 2200 10850 2100
Entry Wire Line
	10750 2300 10850 2200
Entry Wire Line
	10750 2400 10850 2300
Entry Wire Line
	10750 2950 10850 2850
Entry Wire Line
	10750 3050 10850 2950
Entry Wire Line
	10750 3150 10850 3050
Entry Wire Line
	10750 3250 10850 3150
Entry Wire Line
	10750 3350 10850 3250
Entry Wire Line
	10750 3450 10850 3350
Entry Wire Line
	10750 3550 10850 3450
Entry Wire Line
	10750 3650 10850 3550
Entry Wire Line
	10750 4200 10850 4100
Entry Wire Line
	10750 4300 10850 4200
Entry Wire Line
	10750 4400 10850 4300
Entry Wire Line
	10750 4500 10850 4400
Entry Wire Line
	10750 4600 10850 4500
Entry Wire Line
	10750 4700 10850 4600
Entry Wire Line
	10750 4800 10850 4700
Entry Wire Line
	10750 4900 10850 4800
Entry Wire Line
	12700 1700 12800 1600
Entry Wire Line
	12700 1800 12800 1700
Entry Wire Line
	12700 1900 12800 1800
Entry Wire Line
	12700 2000 12800 1900
Entry Wire Line
	12700 2100 12800 2000
Entry Wire Line
	12700 2200 12800 2100
Entry Wire Line
	12700 2300 12800 2200
Entry Wire Line
	12700 2400 12800 2300
Entry Wire Line
	12700 2950 12800 2850
Entry Wire Line
	12700 3050 12800 2950
Entry Wire Line
	12700 3150 12800 3050
Entry Wire Line
	12700 3250 12800 3150
Entry Wire Line
	12700 3350 12800 3250
Entry Wire Line
	12700 3450 12800 3350
Entry Wire Line
	12700 3550 12800 3450
Entry Wire Line
	12700 3650 12800 3550
Entry Wire Line
	12700 4200 12800 4100
Entry Wire Line
	12700 4300 12800 4200
Entry Wire Line
	12700 4400 12800 4300
Entry Wire Line
	12700 4500 12800 4400
Entry Wire Line
	12700 4600 12800 4500
Entry Wire Line
	12700 4700 12800 4600
Entry Wire Line
	12700 4800 12800 4700
Entry Wire Line
	12700 4900 12800 4800
Entry Wire Line
	14650 1700 14750 1600
Entry Wire Line
	14650 1800 14750 1700
Entry Wire Line
	14650 1900 14750 1800
Entry Wire Line
	14650 2000 14750 1900
Entry Wire Line
	14650 2100 14750 2000
Entry Wire Line
	14650 2200 14750 2100
Entry Wire Line
	14650 2300 14750 2200
Entry Wire Line
	14650 2400 14750 2300
Entry Wire Line
	14650 2950 14750 2850
Entry Wire Line
	14650 3050 14750 2950
Entry Wire Line
	14650 3150 14750 3050
Entry Wire Line
	14650 3250 14750 3150
Entry Wire Line
	14650 3350 14750 3250
Entry Wire Line
	14650 3450 14750 3350
Entry Wire Line
	14650 3550 14750 3450
Entry Wire Line
	14650 3650 14750 3550
Entry Wire Line
	14650 4200 14750 4100
Entry Wire Line
	14650 4300 14750 4200
Entry Wire Line
	14650 4400 14750 4300
Entry Wire Line
	14650 4500 14750 4400
Entry Wire Line
	14650 4600 14750 4500
Entry Wire Line
	14650 4700 14750 4600
Entry Wire Line
	14650 4800 14750 4700
Entry Wire Line
	14650 4900 14750 4800
Wire Wire Line
	1300 1700 2600 1700
Wire Wire Line
	1300 5100 1650 5100
Wire Wire Line
	1650 5100 1650 5450
Wire Wire Line
	1650 5100 1800 5100
Wire Wire Line
	1800 5450 1650 5450
Wire Wire Line
	2400 5100 2500 5100
Wire Wire Line
	2400 5450 9400 5450
Wire Wire Line
	2500 1900 2500 3150
Wire Wire Line
	2500 1900 2600 1900
Wire Wire Line
	2500 3150 2500 4400
Wire Wire Line
	2500 3150 2600 3150
Wire Wire Line
	2500 4400 2600 4400
Wire Wire Line
	2500 5100 2500 4400
Wire Wire Line
	2600 2600 2600 2950
Wire Wire Line
	2600 3850 2600 4200
Wire Wire Line
	3400 1700 3850 1700
Wire Wire Line
	3400 1800 3850 1800
Wire Wire Line
	3400 1900 3850 1900
Wire Wire Line
	3400 2000 3850 2000
Wire Wire Line
	3400 2100 3850 2100
Wire Wire Line
	3400 2200 3850 2200
Wire Wire Line
	3400 2300 3850 2300
Wire Wire Line
	3400 2400 3400 2600
Wire Wire Line
	3400 2400 3850 2400
Wire Wire Line
	3400 2600 2600 2600
Wire Wire Line
	3400 2950 3850 2950
Wire Wire Line
	3400 3050 3850 3050
Wire Wire Line
	3400 3150 3850 3150
Wire Wire Line
	3400 3250 3850 3250
Wire Wire Line
	3400 3350 3850 3350
Wire Wire Line
	3400 3450 3850 3450
Wire Wire Line
	3400 3550 3850 3550
Wire Wire Line
	3400 3650 3400 3850
Wire Wire Line
	3400 3650 3850 3650
Wire Wire Line
	3400 3850 2600 3850
Wire Wire Line
	3400 4200 3850 4200
Wire Wire Line
	3400 4300 3850 4300
Wire Wire Line
	3400 4400 3850 4400
Wire Wire Line
	3400 4500 3850 4500
Wire Wire Line
	3400 4600 3850 4600
Wire Wire Line
	3400 4700 3850 4700
Wire Wire Line
	3400 4800 3850 4800
Wire Wire Line
	4350 1700 4550 1700
Wire Wire Line
	4350 4900 4350 1700
Wire Wire Line
	4450 1900 4450 3150
Wire Wire Line
	4450 1900 4550 1900
Wire Wire Line
	4450 3150 4450 4400
Wire Wire Line
	4450 3150 4550 3150
Wire Wire Line
	4450 4400 4450 5100
Wire Wire Line
	4450 4400 4550 4400
Wire Wire Line
	4450 5100 2500 5100
Wire Wire Line
	4550 2600 4550 2950
Wire Wire Line
	4550 3850 4550 4200
Wire Wire Line
	5350 1700 5800 1700
Wire Wire Line
	5350 1800 5800 1800
Wire Wire Line
	5350 1900 5800 1900
Wire Wire Line
	5350 2000 5800 2000
Wire Wire Line
	5350 2100 5800 2100
Wire Wire Line
	5350 2200 5800 2200
Wire Wire Line
	5350 2300 5800 2300
Wire Wire Line
	5350 2400 5800 2400
Wire Wire Line
	5350 2600 4550 2600
Wire Wire Line
	5350 2600 5350 2400
Wire Wire Line
	5350 2950 5800 2950
Wire Wire Line
	5350 3050 5800 3050
Wire Wire Line
	5350 3150 5800 3150
Wire Wire Line
	5350 3250 5800 3250
Wire Wire Line
	5350 3350 5800 3350
Wire Wire Line
	5350 3450 5800 3450
Wire Wire Line
	5350 3550 5800 3550
Wire Wire Line
	5350 3650 5350 3850
Wire Wire Line
	5350 3650 5800 3650
Wire Wire Line
	5350 3850 4550 3850
Wire Wire Line
	5350 4200 5800 4200
Wire Wire Line
	5350 4300 5800 4300
Wire Wire Line
	5350 4400 5800 4400
Wire Wire Line
	5350 4500 5800 4500
Wire Wire Line
	5350 4600 5800 4600
Wire Wire Line
	5350 4700 5800 4700
Wire Wire Line
	5350 4800 5800 4800
Wire Wire Line
	6300 1700 6500 1700
Wire Wire Line
	6300 4900 6300 1700
Wire Wire Line
	6400 1900 6400 3150
Wire Wire Line
	6400 1900 6500 1900
Wire Wire Line
	6400 3150 6400 4400
Wire Wire Line
	6400 3150 6500 3150
Wire Wire Line
	6400 4400 6400 5100
Wire Wire Line
	6400 4400 6500 4400
Wire Wire Line
	6400 5100 4450 5100
Wire Wire Line
	6500 2600 6500 2950
Wire Wire Line
	6500 3850 6500 4200
Wire Wire Line
	7300 1700 7750 1700
Wire Wire Line
	7300 1800 7750 1800
Wire Wire Line
	7300 1900 7750 1900
Wire Wire Line
	7300 2000 7750 2000
Wire Wire Line
	7300 2100 7750 2100
Wire Wire Line
	7300 2200 7750 2200
Wire Wire Line
	7300 2300 7750 2300
Wire Wire Line
	7300 2400 7750 2400
Wire Wire Line
	7300 2600 6500 2600
Wire Wire Line
	7300 2600 7300 2400
Wire Wire Line
	7300 2950 7750 2950
Wire Wire Line
	7300 3050 7750 3050
Wire Wire Line
	7300 3150 7750 3150
Wire Wire Line
	7300 3250 7750 3250
Wire Wire Line
	7300 3350 7750 3350
Wire Wire Line
	7300 3450 7750 3450
Wire Wire Line
	7300 3550 7750 3550
Wire Wire Line
	7300 3650 7750 3650
Wire Wire Line
	7300 3850 6500 3850
Wire Wire Line
	7300 3850 7300 3650
Wire Wire Line
	7300 4200 7750 4200
Wire Wire Line
	7300 4300 7750 4300
Wire Wire Line
	7300 4400 7750 4400
Wire Wire Line
	7300 4500 7750 4500
Wire Wire Line
	7300 4600 7750 4600
Wire Wire Line
	7300 4700 7750 4700
Wire Wire Line
	7300 4800 7750 4800
Wire Wire Line
	9300 1700 9300 4900
Wire Wire Line
	9400 1900 9400 3150
Wire Wire Line
	9400 1900 9500 1900
Wire Wire Line
	9400 3150 9400 4400
Wire Wire Line
	9400 3150 9500 3150
Wire Wire Line
	9400 4400 9500 4400
Wire Wire Line
	9400 5100 9400 4400
Wire Wire Line
	9400 5450 9400 5100
Wire Wire Line
	9500 1700 9300 1700
Wire Wire Line
	9500 2600 9500 2950
Wire Wire Line
	9500 3850 9500 4200
Wire Wire Line
	10300 1700 10750 1700
Wire Wire Line
	10300 1800 10750 1800
Wire Wire Line
	10300 1900 10750 1900
Wire Wire Line
	10300 2000 10750 2000
Wire Wire Line
	10300 2100 10750 2100
Wire Wire Line
	10300 2200 10750 2200
Wire Wire Line
	10300 2300 10750 2300
Wire Wire Line
	10300 2400 10300 2600
Wire Wire Line
	10300 2400 10750 2400
Wire Wire Line
	10300 2600 9500 2600
Wire Wire Line
	10300 2950 10750 2950
Wire Wire Line
	10300 3050 10750 3050
Wire Wire Line
	10300 3150 10750 3150
Wire Wire Line
	10300 3250 10750 3250
Wire Wire Line
	10300 3350 10750 3350
Wire Wire Line
	10300 3450 10750 3450
Wire Wire Line
	10300 3550 10750 3550
Wire Wire Line
	10300 3650 10300 3850
Wire Wire Line
	10300 3650 10750 3650
Wire Wire Line
	10300 3850 9500 3850
Wire Wire Line
	10300 4200 10750 4200
Wire Wire Line
	10300 4300 10750 4300
Wire Wire Line
	10300 4400 10750 4400
Wire Wire Line
	10300 4500 10750 4500
Wire Wire Line
	10300 4600 10750 4600
Wire Wire Line
	10300 4700 10750 4700
Wire Wire Line
	10300 4800 10750 4800
Wire Wire Line
	11250 1700 11450 1700
Wire Wire Line
	11250 4900 11250 1700
Wire Wire Line
	11350 1900 11350 3150
Wire Wire Line
	11350 1900 11450 1900
Wire Wire Line
	11350 3150 11350 4400
Wire Wire Line
	11350 3150 11450 3150
Wire Wire Line
	11350 4400 11350 5100
Wire Wire Line
	11350 4400 11450 4400
Wire Wire Line
	11350 5100 9400 5100
Wire Wire Line
	11450 2600 11450 2950
Wire Wire Line
	11450 3850 11450 4200
Wire Wire Line
	12250 1700 12700 1700
Wire Wire Line
	12250 1800 12700 1800
Wire Wire Line
	12250 1900 12700 1900
Wire Wire Line
	12250 2000 12700 2000
Wire Wire Line
	12250 2100 12700 2100
Wire Wire Line
	12250 2200 12700 2200
Wire Wire Line
	12250 2300 12700 2300
Wire Wire Line
	12250 2400 12700 2400
Wire Wire Line
	12250 2600 11450 2600
Wire Wire Line
	12250 2600 12250 2400
Wire Wire Line
	12250 2950 12700 2950
Wire Wire Line
	12250 3050 12700 3050
Wire Wire Line
	12250 3150 12700 3150
Wire Wire Line
	12250 3250 12700 3250
Wire Wire Line
	12250 3350 12700 3350
Wire Wire Line
	12250 3450 12700 3450
Wire Wire Line
	12250 3550 12700 3550
Wire Wire Line
	12250 3650 12700 3650
Wire Wire Line
	12250 3850 11450 3850
Wire Wire Line
	12250 3850 12250 3650
Wire Wire Line
	12250 4200 12700 4200
Wire Wire Line
	12250 4300 12700 4300
Wire Wire Line
	12250 4400 12700 4400
Wire Wire Line
	12250 4500 12700 4500
Wire Wire Line
	12250 4600 12700 4600
Wire Wire Line
	12250 4700 12700 4700
Wire Wire Line
	12250 4800 12700 4800
Wire Wire Line
	13200 1700 13400 1700
Wire Wire Line
	13200 4900 13200 1700
Wire Wire Line
	13300 1900 13300 3150
Wire Wire Line
	13300 1900 13400 1900
Wire Wire Line
	13300 3150 13300 4400
Wire Wire Line
	13300 3150 13400 3150
Wire Wire Line
	13300 4400 13300 5100
Wire Wire Line
	13300 4400 13400 4400
Wire Wire Line
	13300 5100 11350 5100
Wire Wire Line
	13400 2600 13400 2950
Wire Wire Line
	13400 3850 13400 4200
Wire Wire Line
	14200 1700 14650 1700
Wire Wire Line
	14200 1800 14650 1800
Wire Wire Line
	14200 1900 14650 1900
Wire Wire Line
	14200 2000 14650 2000
Wire Wire Line
	14200 2100 14650 2100
Wire Wire Line
	14200 2200 14650 2200
Wire Wire Line
	14200 2300 14650 2300
Wire Wire Line
	14200 2400 14650 2400
Wire Wire Line
	14200 2600 13400 2600
Wire Wire Line
	14200 2600 14200 2400
Wire Wire Line
	14200 2950 14650 2950
Wire Wire Line
	14200 3050 14650 3050
Wire Wire Line
	14200 3150 14650 3150
Wire Wire Line
	14200 3250 14650 3250
Wire Wire Line
	14200 3350 14650 3350
Wire Wire Line
	14200 3450 14650 3450
Wire Wire Line
	14200 3550 14650 3550
Wire Wire Line
	14200 3650 14650 3650
Wire Wire Line
	14200 3850 13400 3850
Wire Wire Line
	14200 3850 14200 3650
Wire Wire Line
	14200 4200 14650 4200
Wire Wire Line
	14200 4300 14650 4300
Wire Wire Line
	14200 4400 14650 4400
Wire Wire Line
	14200 4500 14650 4500
Wire Wire Line
	14200 4600 14650 4600
Wire Wire Line
	14200 4700 14650 4700
Wire Wire Line
	14200 4800 14650 4800
Wire Wire Line
	14200 4900 14650 4900
Wire Bus Line
	3950 1200 2600 1200
Wire Bus Line
	3950 1200 5900 1200
Wire Bus Line
	5900 1200 7850 1200
Wire Bus Line
	7850 1200 10850 1200
Wire Bus Line
	10850 1200 12800 1200
Wire Bus Line
	12800 1200 14750 1200
Text Label 3450 1700 0    50   ~ 0
KEY143
Text Label 3450 1800 0    50   ~ 0
KEY142
Text Label 3450 1900 0    50   ~ 0
KEY141
Text Label 3450 2000 0    50   ~ 0
KEY140
Text Label 3450 2100 0    50   ~ 0
KEY139
Text Label 3450 2200 0    50   ~ 0
KEY138
Text Label 3450 2300 0    50   ~ 0
KEY137
Text Label 3450 2400 0    50   ~ 0
KEY136
Text Label 3450 2950 0    50   ~ 0
KEY135
Text Label 3450 3050 0    50   ~ 0
KEY134
Text Label 3450 3150 0    50   ~ 0
KEY133
Text Label 3450 3250 0    50   ~ 0
KEY132
Text Label 3450 3350 0    50   ~ 0
KEY131
Text Label 3450 3450 0    50   ~ 0
KEY130
Text Label 3450 3550 0    50   ~ 0
KEY129
Text Label 3450 3650 0    50   ~ 0
KEY128
Text Label 3450 4200 0    50   ~ 0
KEY127
Text Label 3450 4300 0    50   ~ 0
KEY126
Text Label 3450 4400 0    50   ~ 0
KEY125
Text Label 3450 4500 0    50   ~ 0
KEY124
Text Label 3450 4600 0    50   ~ 0
KEY123
Text Label 3450 4700 0    50   ~ 0
KEY122
Text Label 3450 4800 0    50   ~ 0
KEY121
Text Label 3450 4900 0    50   ~ 0
KEY120
Text Label 5400 1700 0    50   ~ 0
KEY119
Text Label 5400 1800 0    50   ~ 0
KEY118
Text Label 5400 1900 0    50   ~ 0
KEY117
Text Label 5400 2000 0    50   ~ 0
KEY116
Text Label 5400 2100 0    50   ~ 0
KEY115
Text Label 5400 2200 0    50   ~ 0
KEY114
Text Label 5400 2300 0    50   ~ 0
KEY113
Text Label 5400 2400 0    50   ~ 0
KEY112
Text Label 5400 2950 0    50   ~ 0
KEY111
Text Label 5400 3050 0    50   ~ 0
KEY110
Text Label 5400 3150 0    50   ~ 0
KEY109
Text Label 5400 3250 0    50   ~ 0
KEY108
Text Label 5400 3350 0    50   ~ 0
KEY107
Text Label 5400 3450 0    50   ~ 0
KEY106
Text Label 5400 3550 0    50   ~ 0
KEY105
Text Label 5400 3650 0    50   ~ 0
KEY104
Text Label 5400 4200 0    50   ~ 0
KEY103
Text Label 5400 4300 0    50   ~ 0
KEY102
Text Label 5400 4400 0    50   ~ 0
KEY101
Text Label 5400 4500 0    50   ~ 0
KEY100
Text Label 5400 4600 0    50   ~ 0
KEY99
Text Label 5400 4700 0    50   ~ 0
KEY98
Text Label 5400 4800 0    50   ~ 0
KEY97
Text Label 5400 4900 0    50   ~ 0
KEY96
Text Label 7350 1700 0    50   ~ 0
KEY95
Text Label 7350 1800 0    50   ~ 0
KEY94
Text Label 7350 1900 0    50   ~ 0
KEY93
Text Label 7350 2000 0    50   ~ 0
KEY92
Text Label 7350 2100 0    50   ~ 0
KEY91
Text Label 7350 2200 0    50   ~ 0
KEY90
Text Label 7350 2300 0    50   ~ 0
KEY89
Text Label 7350 2400 0    50   ~ 0
KEY88
Text Label 7350 2950 0    50   ~ 0
KEY87
Text Label 7350 3050 0    50   ~ 0
KEY86
Text Label 7350 3150 0    50   ~ 0
KEY85
Text Label 7350 3250 0    50   ~ 0
KEY84
Text Label 7350 3350 0    50   ~ 0
KEY83
Text Label 7350 3450 0    50   ~ 0
KEY82
Text Label 7350 3550 0    50   ~ 0
KEY81
Text Label 7350 3650 0    50   ~ 0
KEY80
Text Label 7350 4200 0    50   ~ 0
KEY79
Text Label 7350 4300 0    50   ~ 0
KEY78
Text Label 7350 4400 0    50   ~ 0
KEY77
Text Label 7350 4500 0    50   ~ 0
KEY76
Text Label 7350 4600 0    50   ~ 0
KEY75
Text Label 7350 4700 0    50   ~ 0
KEY74
Text Label 7350 4800 0    50   ~ 0
KEY73
Text Label 7350 4900 0    50   ~ 0
KEY72
Text Label 10350 1700 0    50   ~ 0
KEY71
Text Label 10350 1800 0    50   ~ 0
KEY70
Text Label 10350 1900 0    50   ~ 0
KEY69
Text Label 10350 2000 0    50   ~ 0
KEY68
Text Label 10350 2100 0    50   ~ 0
KEY67
Text Label 10350 2200 0    50   ~ 0
KEY66
Text Label 10350 2300 0    50   ~ 0
KEY65
Text Label 10350 2400 0    50   ~ 0
KEY64
Text Label 10350 2950 0    50   ~ 0
KEY63
Text Label 10350 3050 0    50   ~ 0
KEY62
Text Label 10350 3150 0    50   ~ 0
KEY61
Text Label 10350 3250 0    50   ~ 0
KEY60
Text Label 10350 3350 0    50   ~ 0
KEY59
Text Label 10350 3450 0    50   ~ 0
KEY58
Text Label 10350 3550 0    50   ~ 0
KEY57
Text Label 10350 3650 0    50   ~ 0
KEY56
Text Label 10350 4200 0    50   ~ 0
KEY55
Text Label 10350 4300 0    50   ~ 0
KEY54
Text Label 10350 4400 0    50   ~ 0
KEY53
Text Label 10350 4500 0    50   ~ 0
KEY52
Text Label 10350 4600 0    50   ~ 0
KEY51
Text Label 10350 4700 0    50   ~ 0
KEY50
Text Label 10350 4800 0    50   ~ 0
KEY49
Text Label 10350 4900 0    50   ~ 0
KEY48
Text Label 12300 1700 0    50   ~ 0
KEY47
Text Label 12300 1800 0    50   ~ 0
KEY46
Text Label 12300 1900 0    50   ~ 0
KEY45
Text Label 12300 2000 0    50   ~ 0
KEY44
Text Label 12300 2100 0    50   ~ 0
KEY43
Text Label 12300 2200 0    50   ~ 0
KEY42
Text Label 12300 2300 0    50   ~ 0
KEY41
Text Label 12300 2400 0    50   ~ 0
KEY40
Text Label 12300 2950 0    50   ~ 0
KEY39
Text Label 12300 3050 0    50   ~ 0
KEY38
Text Label 12300 3150 0    50   ~ 0
KEY37
Text Label 12300 3250 0    50   ~ 0
KEY36
Text Label 12300 3350 0    50   ~ 0
KEY35
Text Label 12300 3450 0    50   ~ 0
KEY34
Text Label 12300 3550 0    50   ~ 0
KEY33
Text Label 12300 3650 0    50   ~ 0
KEY32
Text Label 12300 4200 0    50   ~ 0
KEY31
Text Label 12300 4300 0    50   ~ 0
KEY30
Text Label 12300 4400 0    50   ~ 0
KEY29
Text Label 12300 4500 0    50   ~ 0
KEY28
Text Label 12300 4600 0    50   ~ 0
KEY27
Text Label 12300 4700 0    50   ~ 0
KEY26
Text Label 12300 4800 0    50   ~ 0
KEY25
Text Label 12300 4900 0    50   ~ 0
KEY24
Text Label 14250 1700 0    50   ~ 0
KEY23
Text Label 14250 1800 0    50   ~ 0
KEY22
Text Label 14250 1900 0    50   ~ 0
KEY21
Text Label 14250 2000 0    50   ~ 0
KEY20
Text Label 14250 2100 0    50   ~ 0
KEY19
Text Label 14250 2200 0    50   ~ 0
KEY18
Text Label 14250 2300 0    50   ~ 0
KEY17
Text Label 14250 2400 0    50   ~ 0
KEY16
Text Label 14250 2950 0    50   ~ 0
KEY15
Text Label 14250 3050 0    50   ~ 0
KEY14
Text Label 14250 3150 0    50   ~ 0
KEY13
Text Label 14250 3250 0    50   ~ 0
KEY12
Text Label 14250 3350 0    50   ~ 0
KEY11
Text Label 14250 3450 0    50   ~ 0
KEY10
Text Label 14250 3550 0    50   ~ 0
KEY9
Text Label 14250 3650 0    50   ~ 0
KEY8
Text Label 14250 4200 0    50   ~ 0
KEY7
Text Label 14250 4300 0    50   ~ 0
KEY6
Text Label 14250 4400 0    50   ~ 0
KEY5
Text Label 14250 4500 0    50   ~ 0
KEY4
Text Label 14250 4600 0    50   ~ 0
KEY3
Text Label 14250 4700 0    50   ~ 0
KEY2
Text Label 14250 4800 0    50   ~ 0
KEY1
Text Label 14250 4900 0    50   ~ 0
KEY0
Text HLabel 1300 1700 0    50   Input ~ 0
DATA
Text HLabel 1300 5100 0    50   Input ~ 0
CLK
Text HLabel 2600 1200 0    50   Output ~ 0
KEY[0..143]
$Comp
L A5C:BUF12 UCT60
U 1 1 616466F4
P 2100 5100
AR Path="/5FAC1A46/616466F4" Ref="UCT60"  Part="1" 
AR Path="/5FBF8EAD/5FBFA082/616466F4" Ref="UCT60"  Part="1" 
F 0 "UCT60" H 2100 5417 50  0000 C CNN
F 1 "BUF12" H 2100 5326 50  0000 C CNN
F 2 "" H 2100 5100 50  0001 C CNN
F 3 "" H 2100 5100 50  0001 C CNN
	1    2100 5100
	1    0    0    -1  
$EndComp
$Comp
L A5C:BUF12 UCT164
U 1 1 61726A93
P 2100 5450
AR Path="/5FAC1A46/61726A93" Ref="UCT164"  Part="1" 
AR Path="/5FBF8EAD/5FBFA082/61726A93" Ref="UCT164"  Part="1" 
F 0 "UCT164" H 2100 5767 50  0000 C CNN
F 1 "BUF12" H 2100 5676 50  0000 C CNN
F 2 "" H 2100 5450 50  0001 C CNN
F 3 "" H 2100 5450 50  0001 C CNN
	1    2100 5450
	1    0    0    1   
$EndComp
$Comp
L A5C:M164C UCT62
U 1 1 615D36FD
P 3000 1950
AR Path="/5FAC1A46/615D36FD" Ref="UCT62"  Part="1" 
AR Path="/5FBF8EAD/5FBFA082/615D36FD" Ref="UCT62"  Part="1" 
F 0 "UCT62" H 3000 2467 50  0000 C CNN
F 1 "M164C" H 3000 2376 50  0000 C CNN
F 2 "" H 2825 1750 50  0001 C CNN
F 3 "" H 2825 1750 50  0001 C CNN
F 4 "UCT66;UCT70;UCT74;UCT78;UCT82;UCT86;UCT89;UCT93" H 3000 1950 50  0001 C CNN "MiscRef"
	1    3000 1950
	1    0    0    -1  
$EndComp
$Comp
L A5C:M164C UCT96
U 1 1 615D42EA
P 3000 3200
AR Path="/5FAC1A46/615D42EA" Ref="UCT96"  Part="1" 
AR Path="/5FBF8EAD/5FBFA082/615D42EA" Ref="UCT96"  Part="1" 
F 0 "UCT96" H 3000 3717 50  0000 C CNN
F 1 "M164C" H 3000 3626 50  0000 C CNN
F 2 "" H 2825 3000 50  0001 C CNN
F 3 "" H 2825 3000 50  0001 C CNN
F 4 "UCT96;UCT100;UCT104;UCT108;UCT112;UCT115;UCT119;UCT123;UCT127" H 3000 3200 50  0001 C CNN "MiscRef"
	1    3000 3200
	1    0    0    -1  
$EndComp
$Comp
L A5C:M164C UCT130
U 1 1 61607796
P 3000 4450
AR Path="/5FAC1A46/61607796" Ref="UCT130"  Part="1" 
AR Path="/5FBF8EAD/5FBFA082/61607796" Ref="UCT130"  Part="1" 
F 0 "UCT130" H 3000 4967 50  0000 C CNN
F 1 "M164C" H 3000 4876 50  0000 C CNN
F 2 "" H 2825 4250 50  0001 C CNN
F 3 "" H 2825 4250 50  0001 C CNN
F 4 "UCT130;UCT134;UCT138;UCT142;UCT145;UCT149;UCT153;UCT157;UCT161" H 3000 4450 50  0001 C CNN "MiscRef"
	1    3000 4450
	1    0    0    -1  
$EndComp
$Comp
L A5C:M164C UCS62
U 1 1 61672621
P 4950 1950
AR Path="/5FAC1A46/61672621" Ref="UCS62"  Part="1" 
AR Path="/5FBF8EAD/5FBFA082/61672621" Ref="UCS62"  Part="1" 
F 0 "UCS62" H 4950 2467 50  0000 C CNN
F 1 "M164C" H 4950 2376 50  0000 C CNN
F 2 "" H 4775 1750 50  0001 C CNN
F 3 "" H 4775 1750 50  0001 C CNN
F 4 "UCS66;UCS70;UCS74;UCS78;UCS82;UCS86;UCS89;UCS93" H 4950 1950 50  0001 C CNN "MiscRef"
	1    4950 1950
	1    0    0    -1  
$EndComp
$Comp
L A5C:M164C UCS96
U 1 1 61672627
P 4950 3200
AR Path="/5FAC1A46/61672627" Ref="UCS96"  Part="1" 
AR Path="/5FBF8EAD/5FBFA082/61672627" Ref="UCS96"  Part="1" 
F 0 "UCS96" H 4950 3717 50  0000 C CNN
F 1 "M164C" H 4950 3626 50  0000 C CNN
F 2 "" H 4775 3000 50  0001 C CNN
F 3 "" H 4775 3000 50  0001 C CNN
F 4 "UCS96;UCS100;UCS104;UCS108;UCS112;UCS115;UCS119;UCS123;UCS127" H 4950 3200 50  0001 C CNN "MiscRef"
	1    4950 3200
	1    0    0    -1  
$EndComp
$Comp
L A5C:M164C UCS130
U 1 1 6167262F
P 4950 4450
AR Path="/5FAC1A46/6167262F" Ref="UCS130"  Part="1" 
AR Path="/5FBF8EAD/5FBFA082/6167262F" Ref="UCS130"  Part="1" 
F 0 "UCS130" H 4950 4967 50  0000 C CNN
F 1 "M164C" H 4950 4876 50  0000 C CNN
F 2 "" H 4775 4250 50  0001 C CNN
F 3 "" H 4775 4250 50  0001 C CNN
F 4 "UCS130;UCS134;UCS138;UCS142;UCS145;UCS149;UCS153;UCS157;UCS161" H 4950 4450 50  0001 C CNN "MiscRef"
	1    4950 4450
	1    0    0    -1  
$EndComp
$Comp
L A5C:M164C UCR62
U 1 1 616D024A
P 6900 1950
AR Path="/5FAC1A46/616D024A" Ref="UCR62"  Part="1" 
AR Path="/5FBF8EAD/5FBFA082/616D024A" Ref="UCR62"  Part="1" 
F 0 "UCR62" H 6900 2467 50  0000 C CNN
F 1 "M164C" H 6900 2376 50  0000 C CNN
F 2 "" H 6725 1750 50  0001 C CNN
F 3 "" H 6725 1750 50  0001 C CNN
F 4 "UCR66;UCR70;UCR74;UCR78;UCR82;UCR86;UCR89;UCR93" H 6900 1950 50  0001 C CNN "MiscRef"
	1    6900 1950
	1    0    0    -1  
$EndComp
$Comp
L A5C:M164C UCR96
U 1 1 616D0250
P 6900 3200
AR Path="/5FAC1A46/616D0250" Ref="UCR96"  Part="1" 
AR Path="/5FBF8EAD/5FBFA082/616D0250" Ref="UCR96"  Part="1" 
F 0 "UCR96" H 6900 3717 50  0000 C CNN
F 1 "M164C" H 6900 3626 50  0000 C CNN
F 2 "" H 6725 3000 50  0001 C CNN
F 3 "" H 6725 3000 50  0001 C CNN
F 4 "UCR96;UCR100;UCR104;UCR108;UCR112;UCR115;UCR119;UCR123;UCR127" H 6900 3200 50  0001 C CNN "MiscRef"
	1    6900 3200
	1    0    0    -1  
$EndComp
$Comp
L A5C:M164C UCR130
U 1 1 616D0258
P 6900 4450
AR Path="/5FAC1A46/616D0258" Ref="UCR130"  Part="1" 
AR Path="/5FBF8EAD/5FBFA082/616D0258" Ref="UCR130"  Part="1" 
F 0 "UCR130" H 6900 4967 50  0000 C CNN
F 1 "M164C" H 6900 4876 50  0000 C CNN
F 2 "" H 6725 4250 50  0001 C CNN
F 3 "" H 6725 4250 50  0001 C CNN
F 4 "UCR130;UCR134;UCR138;UCR142;UCR145;UCR149;UCR153;UCR157;UCR161" H 6900 4450 50  0001 C CNN "MiscRef"
	1    6900 4450
	1    0    0    -1  
$EndComp
$Comp
L A5C:M164C UCT166
U 1 1 61726A7B
P 9900 1950
AR Path="/5FAC1A46/61726A7B" Ref="UCT166"  Part="1" 
AR Path="/5FBF8EAD/5FBFA082/61726A7B" Ref="UCT166"  Part="1" 
F 0 "UCT166" H 9900 2467 50  0000 C CNN
F 1 "M164C" H 9900 2376 50  0000 C CNN
F 2 "" H 9725 1750 50  0001 C CNN
F 3 "" H 9725 1750 50  0001 C CNN
F 4 "UCT170;UCT174;UCT178;UCT181;UCT185;UCT189;UCT193;UCT197" H 9900 1950 50  0001 C CNN "MiscRef"
	1    9900 1950
	1    0    0    -1  
$EndComp
$Comp
L A5C:M164C UCT200
U 1 1 61726A81
P 9900 3200
AR Path="/5FAC1A46/61726A81" Ref="UCT200"  Part="1" 
AR Path="/5FBF8EAD/5FBFA082/61726A81" Ref="UCT200"  Part="1" 
F 0 "UCT200" H 9900 3717 50  0000 C CNN
F 1 "M164C" H 9900 3626 50  0000 C CNN
F 2 "" H 9725 3000 50  0001 C CNN
F 3 "" H 9725 3000 50  0001 C CNN
F 4 "UCT204;UCT207;UCT211;UCT215;UCT219;UCT223;UCT227;UCT231" H 9900 3200 50  0001 C CNN "MiscRef"
	1    9900 3200
	1    0    0    -1  
$EndComp
$Comp
L A5C:M164C UCT234
U 1 1 61726A8A
P 9900 4450
AR Path="/5FAC1A46/61726A8A" Ref="UCT234"  Part="1" 
AR Path="/5FBF8EAD/5FBFA082/61726A8A" Ref="UCT234"  Part="1" 
F 0 "UCT234" H 9900 4967 50  0000 C CNN
F 1 "M164C" H 9900 4876 50  0000 C CNN
F 2 "" H 9725 4250 50  0001 C CNN
F 3 "" H 9725 4250 50  0001 C CNN
F 4 "UCT237;UCT241;UCT245;UCT249;UCT253;UCT257;UCT261;UCT265" H 9900 4450 50  0001 C CNN "MiscRef"
	1    9900 4450
	1    0    0    -1  
$EndComp
$Comp
L A5C:M164C UCS166
U 1 1 61726AA1
P 11850 1950
AR Path="/5FAC1A46/61726AA1" Ref="UCS166"  Part="1" 
AR Path="/5FBF8EAD/5FBFA082/61726AA1" Ref="UCS166"  Part="1" 
F 0 "UCS166" H 11850 2467 50  0000 C CNN
F 1 "M164C" H 11850 2376 50  0000 C CNN
F 2 "" H 11675 1750 50  0001 C CNN
F 3 "" H 11675 1750 50  0001 C CNN
F 4 "UCS170;UCS174;UCS178;UCS181;UCS185;UCS189;UCS193;UCS197" H 11850 1950 50  0001 C CNN "MiscRef"
	1    11850 1950
	1    0    0    -1  
$EndComp
$Comp
L A5C:M164C UCS200
U 1 1 61726AA7
P 11850 3200
AR Path="/5FAC1A46/61726AA7" Ref="UCS200"  Part="1" 
AR Path="/5FBF8EAD/5FBFA082/61726AA7" Ref="UCS200"  Part="1" 
F 0 "UCS200" H 11850 3717 50  0000 C CNN
F 1 "M164C" H 11850 3626 50  0000 C CNN
F 2 "" H 11675 3000 50  0001 C CNN
F 3 "" H 11675 3000 50  0001 C CNN
F 4 "UCS204;UCS207;UCS211;UCS215;UCS219;UCS223;UCS227;UCS231" H 11850 3200 50  0001 C CNN "MiscRef"
	1    11850 3200
	1    0    0    -1  
$EndComp
$Comp
L A5C:M164C UCS234
U 1 1 61726AAF
P 11850 4450
AR Path="/5FAC1A46/61726AAF" Ref="UCS234"  Part="1" 
AR Path="/5FBF8EAD/5FBFA082/61726AAF" Ref="UCS234"  Part="1" 
F 0 "UCS234" H 11850 4967 50  0000 C CNN
F 1 "M164C" H 11850 4876 50  0000 C CNN
F 2 "" H 11675 4250 50  0001 C CNN
F 3 "" H 11675 4250 50  0001 C CNN
F 4 "UCS237;UCS241;UCS245;UCS249;UCS253;UCS257;UCS261;UCS265" H 11850 4450 50  0001 C CNN "MiscRef"
	1    11850 4450
	1    0    0    -1  
$EndComp
$Comp
L A5C:M164C UCR166
U 1 1 61726AC7
P 13800 1950
AR Path="/5FAC1A46/61726AC7" Ref="UCR166"  Part="1" 
AR Path="/5FBF8EAD/5FBFA082/61726AC7" Ref="UCR166"  Part="1" 
F 0 "UCR166" H 13800 2467 50  0000 C CNN
F 1 "M164C" H 13800 2376 50  0000 C CNN
F 2 "" H 13625 1750 50  0001 C CNN
F 3 "" H 13625 1750 50  0001 C CNN
F 4 "UCR170;UCR174;UCR178;UCR181;UCR185;UCR189;UCR193;UCR197" H 13800 1950 50  0001 C CNN "MiscRef"
	1    13800 1950
	1    0    0    -1  
$EndComp
$Comp
L A5C:M164C UCR200
U 1 1 61726ACD
P 13800 3200
AR Path="/5FAC1A46/61726ACD" Ref="UCR200"  Part="1" 
AR Path="/5FBF8EAD/5FBFA082/61726ACD" Ref="UCR200"  Part="1" 
F 0 "UCR200" H 13800 3717 50  0000 C CNN
F 1 "M164C" H 13800 3626 50  0000 C CNN
F 2 "" H 13625 3000 50  0001 C CNN
F 3 "" H 13625 3000 50  0001 C CNN
F 4 "UCR204;UCR207;UCR211;UCR215;UCR219;UCR223;UCR227;UCR231" H 13800 3200 50  0001 C CNN "MiscRef"
	1    13800 3200
	1    0    0    -1  
$EndComp
$Comp
L A5C:M164C UCR233
U 1 1 61726AD5
P 13800 4450
AR Path="/5FAC1A46/61726AD5" Ref="UCR233"  Part="1" 
AR Path="/5FBF8EAD/5FBFA082/61726AD5" Ref="UCR233"  Part="1" 
F 0 "UCR233" H 13800 4967 50  0000 C CNN
F 1 "M164C" H 13800 4876 50  0000 C CNN
F 2 "" H 13625 4250 50  0001 C CNN
F 3 "" H 13625 4250 50  0001 C CNN
F 4 "UCR237;UCR241;UCR245;UCR249;UCR253;UCR257;UCR261;UCR265" H 13800 4450 50  0001 C CNN "MiscRef"
	1    13800 4450
	1    0    0    -1  
$EndComp
Wire Wire Line
	3400 4900 4350 4900
Wire Wire Line
	5350 4900 6300 4900
Wire Wire Line
	7300 4900 9300 4900
Wire Wire Line
	10300 4900 11250 4900
Wire Wire Line
	12250 4900 13200 4900
Wire Bus Line
	3950 1200 3950 4800
Wire Bus Line
	5900 1200 5900 4800
Wire Bus Line
	7850 1200 7850 4800
Wire Bus Line
	10850 1200 10850 4800
Wire Bus Line
	12800 1200 12800 4800
Wire Bus Line
	14750 1200 14750 4800
$EndSCHEMATC
