EESchema Schematic File Version 4
EELAYER 30 0
EELAYER END
$Descr A4 11693 8268
encoding utf-8
Sheet 37 69
Title ""
Date "2020-11-26"
Rev ""
Comp ""
Comment1 "Licence: CC-BY"
Comment2 "Author: Loïc *WydD* Petit"
Comment3 ""
Comment4 ""
$EndDescr
Connection ~ 4150 2600
Connection ~ 6550 2650
Connection ~ 6650 1900
Connection ~ 6850 1800
Connection ~ 5650 2850
Connection ~ 6550 4600
Connection ~ 6350 4150
Connection ~ 6450 4500
Connection ~ 6350 4400
Connection ~ 4050 4300
Connection ~ 2450 4850
Connection ~ 4050 2800
Connection ~ 4150 4100
Connection ~ 4150 3350
Connection ~ 4050 3550
Connection ~ 5700 4950
Connection ~ 5650 4350
Connection ~ 5650 3600
Connection ~ 6550 3950
Connection ~ 6650 3850
Connection ~ 6850 3750
Connection ~ 6450 4050
Connection ~ 6450 3400
Connection ~ 6550 3300
Connection ~ 6650 3200
Connection ~ 6850 2450
Connection ~ 6650 2550
Connection ~ 6850 3100
Connection ~ 2950 5400
Entry Wire Line
	3300 1650 3400 1750
Entry Wire Line
	3300 2400 3400 2500
Entry Wire Line
	3300 3150 3400 3250
Wire Wire Line
	2450 4850 2350 4850
Wire Wire Line
	2450 4850 2450 5300
Wire Wire Line
	2450 5300 3050 5300
Wire Wire Line
	2950 4950 2950 5400
Wire Wire Line
	2950 5400 1750 5400
Wire Wire Line
	2950 5400 3050 5400
Wire Wire Line
	3050 4950 2950 4950
Wire Wire Line
	3400 1750 4700 1750
Wire Wire Line
	3400 2500 4700 2500
Wire Wire Line
	3400 3250 4700 3250
Wire Wire Line
	4050 2050 4700 2050
Wire Wire Line
	4050 2800 4050 2050
Wire Wire Line
	4050 2800 4700 2800
Wire Wire Line
	4050 3550 4050 2800
Wire Wire Line
	4050 4300 4050 3550
Wire Wire Line
	4050 4300 4050 5350
Wire Wire Line
	4050 5350 3600 5350
Wire Wire Line
	4150 1850 4150 2600
Wire Wire Line
	4150 2600 4150 3350
Wire Wire Line
	4150 3350 4700 3350
Wire Wire Line
	4150 4100 4150 3350
Wire Wire Line
	4150 4100 4150 4900
Wire Wire Line
	4150 4900 3600 4900
Wire Wire Line
	4300 1950 4300 5450
Wire Wire Line
	4300 1950 4700 1950
Wire Wire Line
	4300 5450 8700 5450
Wire Wire Line
	4400 2700 4700 2700
Wire Wire Line
	4400 5350 4400 2700
Wire Wire Line
	4500 3450 4500 5250
Wire Wire Line
	4500 5250 8500 5250
Wire Wire Line
	4600 4200 4700 4200
Wire Wire Line
	4600 5150 4600 4200
Wire Wire Line
	4700 1850 4150 1850
Wire Wire Line
	4700 2600 4150 2600
Wire Wire Line
	4700 3450 4500 3450
Wire Wire Line
	4700 3550 4050 3550
Wire Wire Line
	4700 4100 4150 4100
Wire Wire Line
	4700 4300 4050 4300
Wire Wire Line
	5550 2650 5750 2650
Wire Wire Line
	5550 3400 5750 3400
Wire Wire Line
	5550 4150 5750 4150
Wire Wire Line
	5650 2100 5650 2850
Wire Wire Line
	5650 2850 5650 3600
Wire Wire Line
	5650 3600 5650 4350
Wire Wire Line
	5650 4350 5650 4600
Wire Wire Line
	5650 4350 5750 4350
Wire Wire Line
	5650 4600 5450 4600
Wire Wire Line
	5700 4900 5700 4950
Wire Wire Line
	5700 4950 5600 4950
Wire Wire Line
	5700 4950 5700 5000
Wire Wire Line
	5750 1900 5550 1900
Wire Wire Line
	5750 2100 5650 2100
Wire Wire Line
	5750 2850 5650 2850
Wire Wire Line
	5750 3600 5650 3600
Wire Wire Line
	6250 1900 6650 1900
Wire Wire Line
	6250 2650 6550 2650
Wire Wire Line
	6250 3400 6450 3400
Wire Wire Line
	6250 4150 6350 4150
Wire Wire Line
	6250 4950 6850 4950
Wire Wire Line
	6350 4150 6350 1750
Wire Wire Line
	6350 4150 6350 4400
Wire Wire Line
	6350 4150 7850 4150
Wire Wire Line
	6350 4400 6350 4700
Wire Wire Line
	6450 3400 6450 1750
Wire Wire Line
	6450 3400 6450 4050
Wire Wire Line
	6450 4050 6450 4500
Wire Wire Line
	6450 4500 6450 4700
Wire Wire Line
	6550 1750 6550 2650
Wire Wire Line
	6550 2650 6550 3300
Wire Wire Line
	6550 3300 6550 3950
Wire Wire Line
	6550 3950 6550 4600
Wire Wire Line
	6550 4600 6550 4700
Wire Wire Line
	6650 1900 6650 1750
Wire Wire Line
	6650 1900 6650 2550
Wire Wire Line
	6650 2550 6650 3200
Wire Wire Line
	6650 2550 7250 2550
Wire Wire Line
	6650 3200 6650 3850
Wire Wire Line
	6650 3850 6650 4700
Wire Wire Line
	6850 1800 6850 1750
Wire Wire Line
	6850 1800 7250 1800
Wire Wire Line
	6850 2450 6850 1800
Wire Wire Line
	6850 2450 7250 2450
Wire Wire Line
	6850 3100 6850 2450
Wire Wire Line
	6850 3750 6850 3100
Wire Wire Line
	6850 4950 6850 3750
Wire Wire Line
	7250 1900 6650 1900
Wire Wire Line
	7250 3100 6850 3100
Wire Wire Line
	7250 3200 6650 3200
Wire Wire Line
	7250 3300 6550 3300
Wire Wire Line
	7250 3750 6850 3750
Wire Wire Line
	7250 3850 6650 3850
Wire Wire Line
	7250 3950 6550 3950
Wire Wire Line
	7250 4050 6450 4050
Wire Wire Line
	7250 4400 6350 4400
Wire Wire Line
	7250 4500 6450 4500
Wire Wire Line
	7250 4600 6550 4600
Wire Wire Line
	7250 4700 6650 4700
Wire Wire Line
	7800 1850 8700 1850
Wire Wire Line
	7800 2550 7800 2500
Wire Wire Line
	7800 2650 6550 2650
Wire Wire Line
	7850 3300 7850 3200
Wire Wire Line
	7850 3400 6450 3400
Wire Wire Line
	7850 4050 7850 3900
Wire Wire Line
	7850 4550 9550 4550
Wire Wire Line
	8350 2600 8600 2600
Wire Wire Line
	8400 3350 8500 3350
Wire Wire Line
	8400 4100 8400 5150
Wire Wire Line
	8400 5150 4600 5150
Wire Wire Line
	8500 3350 8500 5250
Wire Wire Line
	8600 2600 8600 5350
Wire Wire Line
	8600 5350 4400 5350
Wire Wire Line
	8700 1850 8700 5450
Wire Wire Line
	9550 4950 9550 4650
Wire Wire Line
	10100 4600 10300 4600
Wire Bus Line
	3300 1550 3150 1550
Text Notes 7750 2450 0    50   ~ 0
LO
Text Label 3450 1750 0    50   ~ 0
XS0
Text Label 3450 2500 0    50   ~ 0
XS1
Text Label 3450 3250 0    50   ~ 0
XS2
Text HLabel 1750 4850 0    50   Input ~ 0
LOAD
Text HLabel 1750 5400 0    50   Input ~ 0
~RESET
Text HLabel 3150 1550 0    50   Input ~ 0
XS[0..3]
Text HLabel 5450 4600 0    50   Input ~ 0
~CLK8M
Text HLabel 10300 4600 2    50   Output ~ 0
SERIAL-END
$Comp
L power:VCC #PWR?
U 1 1 631D3D48
P 4700 4000
AR Path="/5FB2524C/631D3D48" Ref="#PWR?"  Part="1" 
AR Path="/5FBBD4DB/5FBBDBF1/631D3D48" Ref="#PWR0136"  Part="1" 
F 0 "#PWR0136" H 4700 3850 50  0001 C CNN
F 1 "VCC" H 4715 4173 50  0000 C CNN
F 2 "" H 4700 4000 50  0001 C CNN
F 3 "" H 4700 4000 50  0001 C CNN
	1    4700 4000
	1    0    0    -1  
$EndComp
$Comp
L power:VCC #PWR?
U 1 1 61C08083
P 5600 4950
AR Path="/5FB2524C/61C08083" Ref="#PWR?"  Part="1" 
AR Path="/5FBBD4DB/5FBBDBF1/61C08083" Ref="#PWR0137"  Part="1" 
F 0 "#PWR0137" H 5600 4800 50  0001 C CNN
F 1 "VCC" H 5615 5123 50  0000 C CNN
F 2 "" H 5600 4950 50  0001 C CNN
F 3 "" H 5600 4950 50  0001 C CNN
	1    5600 4950
	1    0    0    -1  
$EndComp
$Comp
L power:VCC #PWR?
U 1 1 635EE670
P 8950 4950
AR Path="/5FB2524C/635EE670" Ref="#PWR?"  Part="1" 
AR Path="/5FBBD4DB/5FBBDBF1/635EE670" Ref="#PWR0138"  Part="1" 
F 0 "#PWR0138" H 8950 4800 50  0001 C CNN
F 1 "VCC" H 8965 5123 50  0000 C CNN
F 2 "" H 8950 4950 50  0001 C CNN
F 3 "" H 8950 4950 50  0001 C CNN
	1    8950 4950
	1    0    0    -1  
$EndComp
$Comp
L A5C:AND02 UAY122
U 1 1 641D0199
P 3300 4900
AR Path="/5FB2524C/641D0199" Ref="UAY122"  Part="1" 
AR Path="/5FBBD4DB/5FBBDBF1/641D0199" Ref="UAY122"  Part="1" 
F 0 "UAY122" H 3325 5167 50  0000 C CNN
F 1 "AND02" H 3325 5076 50  0000 C CNN
F 2 "" H 3300 4900 50  0001 C CNN
F 3 "" H 3300 4900 50  0001 C CNN
	1    3300 4900
	1    0    0    -1  
$EndComp
$Comp
L A5C:AND02 UAY119
U 1 1 641D090B
P 3300 5350
AR Path="/5FB2524C/641D090B" Ref="UAY119"  Part="1" 
AR Path="/5FBBD4DB/5FBBDBF1/641D090B" Ref="UAY119"  Part="1" 
F 0 "UAY119" H 3325 5617 50  0000 C CNN
F 1 "AND02" H 3325 5526 50  0000 C CNN
F 2 "" H 3300 5350 50  0001 C CNN
F 3 "" H 3300 5350 50  0001 C CNN
	1    3300 5350
	1    0    0    -1  
$EndComp
$Comp
L A5C:NAND02 UAY94
U 1 1 61C076FF
P 5950 4950
AR Path="/5FB2524C/61C076FF" Ref="UAY94"  Part="1" 
AR Path="/5FBBD4DB/5FBBDBF1/61C076FF" Ref="UAY94"  Part="1" 
F 0 "UAY94" H 5975 5217 50  0000 C CNN
F 1 "NAND02" H 5975 5126 50  0000 C CNN
F 2 "" H 5950 4950 50  0001 C CNN
F 3 "" H 5950 4950 50  0001 C CNN
	1    5950 4950
	1    0    0    -1  
$EndComp
$Comp
L A5C:XOR02 UAY96
U 1 1 61BB7BA3
P 7500 1850
AR Path="/5FB2524C/61BB7BA3" Ref="UAY96"  Part="1" 
AR Path="/5FBBD4DB/5FBBDBF1/61BB7BA3" Ref="UAY96"  Part="1" 
F 0 "UAY96" H 7525 2117 50  0000 C CNN
F 1 "XOR02" H 7525 2026 50  0000 C CNN
F 2 "" H 7500 1850 50  0001 C CNN
F 3 "" H 7500 1850 50  0001 C CNN
	1    7500 1850
	1    0    0    -1  
$EndComp
$Comp
L A5C:NOR02 UAY106
U 1 1 61D95977
P 7500 2500
AR Path="/5FB2524C/61D95977" Ref="UAY106"  Part="1" 
AR Path="/5FBBD4DB/5FBBDBF1/61D95977" Ref="UAY106"  Part="1" 
F 0 "UAY106" H 7525 2767 50  0000 C CNN
F 1 "NOR02" H 7525 2676 50  0000 C CNN
F 2 "" H 7500 2500 50  0001 C CNN
F 3 "" H 7500 2500 50  0001 C CNN
	1    7500 2500
	1    0    0    -1  
$EndComp
$Comp
L A5C:XNOR02 UAY109
U 1 1 61D96924
P 8050 2600
AR Path="/5FB2524C/61D96924" Ref="UAY109"  Part="1" 
AR Path="/5FBBD4DB/5FBBDBF1/61D96924" Ref="UAY109"  Part="1" 
F 0 "UAY109" H 8075 2867 50  0000 C CNN
F 1 "XNOR02" H 8075 2776 50  0000 C CNN
F 2 "" H 8075 2600 50  0001 C CNN
F 3 "" H 8075 2600 50  0001 C CNN
	1    8050 2600
	1    0    0    -1  
$EndComp
$Comp
L A5C:XNOR02 UAZ118
U 1 1 62D47D47
P 8100 3350
AR Path="/5FB2524C/62D47D47" Ref="UAZ118"  Part="1" 
AR Path="/5FBBD4DB/5FBBDBF1/62D47D47" Ref="UAZ118"  Part="1" 
F 0 "UAZ118" H 8125 3617 50  0000 C CNN
F 1 "XNOR02" H 8125 3526 50  0000 C CNN
F 2 "" H 8125 3350 50  0001 C CNN
F 3 "" H 8125 3350 50  0001 C CNN
	1    8100 3350
	1    0    0    -1  
$EndComp
$Comp
L A5C:XNOR02 UAZ105
U 1 1 62F59896
P 8100 4100
AR Path="/5FB2524C/62F59896" Ref="UAZ105"  Part="1" 
AR Path="/5FBBD4DB/5FBBDBF1/62F59896" Ref="UAZ105"  Part="1" 
F 0 "UAZ105" H 8125 4367 50  0000 C CNN
F 1 "XNOR02" H 8125 4276 50  0000 C CNN
F 2 "" H 8125 4100 50  0001 C CNN
F 3 "" H 8125 4100 50  0001 C CNN
	1    8100 4100
	1    0    0    -1  
$EndComp
$Comp
L A5C:NOR02 UAZ93
U 1 1 6370FC2C
P 9800 4600
AR Path="/5FB2524C/6370FC2C" Ref="UAZ93"  Part="1" 
AR Path="/5FBBD4DB/5FBBDBF1/6370FC2C" Ref="UAZ93"  Part="1" 
F 0 "UAZ93" H 9825 4867 50  0000 C CNN
F 1 "NOR02" H 9825 4776 50  0000 C CNN
F 2 "" H 9800 4600 50  0001 C CNN
F 3 "" H 9800 4600 50  0001 C CNN
	1    9800 4600
	1    0    0    -1  
$EndComp
$Comp
L A5C:INV01 UAX120
U 1 1 646B348C
P 2050 4850
AR Path="/5FB2524C/646B348C" Ref="UAX120"  Part="1" 
AR Path="/5FBBD4DB/5FBBDBF1/646B348C" Ref="UAX120"  Part="1" 
F 0 "UAX120" H 2050 5167 50  0000 C CNN
F 1 "INV01" H 2050 5076 50  0000 C CNN
F 2 "" H 2050 4650 50  0001 C CNN
F 3 "" H 2050 4650 50  0001 C CNN
	1    2050 4850
	1    0    0    -1  
$EndComp
$Comp
L A5C:INV01 UAY121
U 1 1 6423691A
P 2750 4850
AR Path="/5FB2524C/6423691A" Ref="UAY121"  Part="1" 
AR Path="/5FBBD4DB/5FBBDBF1/6423691A" Ref="UAY121"  Part="1" 
F 0 "UAY121" H 2750 5167 50  0000 C CNN
F 1 "INV01" H 2750 5076 50  0000 C CNN
F 2 "" H 2750 4650 50  0001 C CNN
F 3 "" H 2750 4650 50  0001 C CNN
	1    2750 4850
	1    0    0    -1  
$EndComp
$Comp
L A5C:NOR03 UAZ122
U 1 1 62D4732D
P 7550 3200
AR Path="/5FB2524C/62D4732D" Ref="UAZ122"  Part="1" 
AR Path="/5FBBD4DB/5FBBDBF1/62D4732D" Ref="UAZ122"  Part="1" 
F 0 "UAZ122" H 7550 3517 50  0000 C CNN
F 1 "NOR03" H 7550 3426 50  0000 C CNN
F 2 "" H 7550 3200 50  0001 C CNN
F 3 "" H 7550 3200 50  0001 C CNN
	1    7550 3200
	1    0    0    -1  
$EndComp
$Comp
L A5C:INV01 UAY93
U 1 1 61BB84D9
P 9250 4950
AR Path="/5FB2524C/61BB84D9" Ref="UAY93"  Part="1" 
AR Path="/5FBBD4DB/5FBBDBF1/61BB84D9" Ref="UAY93"  Part="1" 
F 0 "UAY93" H 9250 5267 50  0000 C CNN
F 1 "INV01" H 9250 5176 50  0000 C CNN
F 2 "" H 9250 4750 50  0001 C CNN
F 3 "" H 9250 4750 50  0001 C CNN
	1    9250 4950
	1    0    0    -1  
$EndComp
$Comp
L A5C:DFFCOO UAY102
U 1 1 62164497
P 6000 2000
AR Path="/5FB2524C/62164497" Ref="UAY102"  Part="1" 
AR Path="/5FBBD4DB/5FBBDBF1/62164497" Ref="UAY102"  Part="1" 
F 0 "UAY102" H 6000 2365 50  0000 C CNN
F 1 "DFFCOO" H 6000 2274 50  0000 C CNN
F 2 "" H 6000 2000 50  0001 C CNN
F 3 "" H 6000 2000 50  0001 C CNN
	1    6000 2000
	1    0    0    -1  
$EndComp
$Comp
L A5C:DFFCOO UAY114
U 1 1 62164B99
P 6000 2750
AR Path="/5FB2524C/62164B99" Ref="UAY114"  Part="1" 
AR Path="/5FBBD4DB/5FBBDBF1/62164B99" Ref="UAY114"  Part="1" 
F 0 "UAY114" H 6000 3115 50  0000 C CNN
F 1 "DFFCOO" H 6000 3024 50  0000 C CNN
F 2 "" H 6000 2750 50  0001 C CNN
F 3 "" H 6000 2750 50  0001 C CNN
	1    6000 2750
	1    0    0    -1  
$EndComp
$Comp
L A5C:DFFCOO UAZ111
U 1 1 621B724B
P 6000 3500
AR Path="/5FB2524C/621B724B" Ref="UAZ111"  Part="1" 
AR Path="/5FBBD4DB/5FBBDBF1/621B724B" Ref="UAZ111"  Part="1" 
F 0 "UAZ111" H 6000 3865 50  0000 C CNN
F 1 "DFFCOO" H 6000 3774 50  0000 C CNN
F 2 "" H 6000 3500 50  0001 C CNN
F 3 "" H 6000 3500 50  0001 C CNN
	1    6000 3500
	1    0    0    -1  
$EndComp
$Comp
L A5C:DFFCOO UAZ98
U 1 1 621B7350
P 6000 4250
AR Path="/5FB2524C/621B7350" Ref="UAZ98"  Part="1" 
AR Path="/5FBBD4DB/5FBBDBF1/621B7350" Ref="UAZ98"  Part="1" 
F 0 "UAZ98" H 6000 4615 50  0000 C CNN
F 1 "DFFCOO" H 6000 4524 50  0000 C CNN
F 2 "" H 6000 4250 50  0001 C CNN
F 3 "" H 6000 4250 50  0001 C CNN
	1    6000 4250
	1    0    0    -1  
$EndComp
$Comp
L A5C:NOR04 UAZ108
U 1 1 62F5951D
P 7550 3900
AR Path="/5FB2524C/62F5951D" Ref="UAZ108"  Part="1" 
AR Path="/5FBBD4DB/5FBBDBF1/62F5951D" Ref="UAZ108"  Part="1" 
F 0 "UAZ108" H 7550 4242 50  0000 C CNN
F 1 "NOR04" H 7550 4151 50  0000 C CNN
F 2 "" H 7550 3900 50  0001 C CNN
F 3 "" H 7550 3900 50  0001 C CNN
	1    7550 3900
	1    0    0    -1  
$EndComp
$Comp
L A5C:OR04 UAZ95
U 1 1 6334CEF0
P 7550 4550
AR Path="/5FB2524C/6334CEF0" Ref="UAZ95"  Part="1" 
AR Path="/5FBBD4DB/5FBBDBF1/6334CEF0" Ref="UAZ95"  Part="1" 
F 0 "UAZ95" H 7550 4892 50  0000 C CNN
F 1 "OR04" H 7550 4801 50  0000 C CNN
F 2 "" H 7550 4550 50  0001 C CNN
F 3 "" H 7550 4550 50  0001 C CNN
	1    7550 4550
	1    0    0    -1  
$EndComp
$Comp
L A5C:AOI22 UAY99
U 1 1 61AC4AA8
P 5100 1850
AR Path="/5FB2524C/61AC4AA8" Ref="UAY99"  Part="1" 
AR Path="/5FBBD4DB/5FBBDBF1/61AC4AA8" Ref="UAY99"  Part="1" 
F 0 "UAY99" H 5125 2167 50  0000 C CNN
F 1 "AOI22" H 5125 2076 50  0000 C CNN
F 2 "" H 5250 1850 50  0001 C CNN
F 3 "" H 5250 1850 50  0001 C CNN
	1    5100 1850
	1    0    0    -1  
$EndComp
$Comp
L A5C:AOI22 UAY111
U 1 1 61B1306F
P 5100 2600
AR Path="/5FB2524C/61B1306F" Ref="UAY111"  Part="1" 
AR Path="/5FBBD4DB/5FBBDBF1/61B1306F" Ref="UAY111"  Part="1" 
F 0 "UAY111" H 5125 2917 50  0000 C CNN
F 1 "AOI22" H 5125 2826 50  0000 C CNN
F 2 "" H 5250 2600 50  0001 C CNN
F 3 "" H 5250 2600 50  0001 C CNN
	1    5100 2600
	1    0    0    -1  
$EndComp
$Comp
L A5C:AOI22 UAZ116
U 1 1 61B653B2
P 5100 3350
AR Path="/5FB2524C/61B653B2" Ref="UAZ116"  Part="1" 
AR Path="/5FBBD4DB/5FBBDBF1/61B653B2" Ref="UAZ116"  Part="1" 
F 0 "UAZ116" H 5125 3667 50  0000 C CNN
F 1 "AOI22" H 5125 3576 50  0000 C CNN
F 2 "" H 5250 3350 50  0001 C CNN
F 3 "" H 5250 3350 50  0001 C CNN
	1    5100 3350
	1    0    0    -1  
$EndComp
$Comp
L A5C:AOI22 UAZ103
U 1 1 631797AB
P 5100 4100
AR Path="/5FB2524C/631797AB" Ref="UAZ103"  Part="1" 
AR Path="/5FBBD4DB/5FBBDBF1/631797AB" Ref="UAZ103"  Part="1" 
F 0 "UAZ103" H 5125 4417 50  0000 C CNN
F 1 "AOI22" H 5125 4326 50  0000 C CNN
F 2 "" H 5250 4100 50  0001 C CNN
F 3 "" H 5250 4100 50  0001 C CNN
	1    5100 4100
	1    0    0    -1  
$EndComp
NoConn ~ 6250 2000
NoConn ~ 6250 2750
NoConn ~ 6250 3500
NoConn ~ 6250 4250
Wire Bus Line
	3300 1550 3300 3150
$EndSCHEMATC
