EESchema Schematic File Version 4
EELAYER 30 0
EELAYER END
$Descr A3 11693 16535 portrait
encoding utf-8
Sheet 36 69
Title ""
Date "2020-11-26"
Rev ""
Comp ""
Comment1 "Licence: CC-BY"
Comment2 "Author: Loïc *WydD* Petit"
Comment3 ""
Comment4 ""
$EndDescr
Connection ~ 7100 9850
Connection ~ 7150 9950
Connection ~ 7200 10050
Connection ~ 7250 10150
Connection ~ 7300 10250
Connection ~ 7350 10350
Connection ~ 7400 10450
Connection ~ 3850 9450
Connection ~ 3850 9550
Connection ~ 3850 9650
Connection ~ 3850 9750
Connection ~ 3850 9850
Connection ~ 3850 9950
Connection ~ 3850 10050
Connection ~ 3850 10250
Connection ~ 3850 10350
Connection ~ 3850 9350
Connection ~ 3850 10450
Connection ~ 9200 10250
Connection ~ 9200 2750
Connection ~ 3850 2950
Connection ~ 3850 1850
Connection ~ 3850 2850
Connection ~ 3850 2750
Connection ~ 3850 2550
Connection ~ 3850 2450
Connection ~ 3850 2350
Connection ~ 3850 2250
Connection ~ 3850 2150
Connection ~ 3850 2050
Connection ~ 3850 1950
Connection ~ 7400 2950
Connection ~ 7350 2850
Connection ~ 7300 2750
Connection ~ 7250 2650
Connection ~ 7200 2550
Connection ~ 7150 2450
Connection ~ 7100 2350
Connection ~ 1150 5850
Connection ~ 1250 5750
Connection ~ 9200 5250
Connection ~ 3850 5350
Connection ~ 3850 5250
Connection ~ 3850 5050
Connection ~ 3850 4950
Connection ~ 3850 4850
Connection ~ 3850 4750
Connection ~ 3850 4650
Connection ~ 3850 4550
Connection ~ 3850 5450
Connection ~ 3850 4450
Connection ~ 3850 4350
Connection ~ 7400 5450
Connection ~ 7350 5350
Connection ~ 7300 5250
Connection ~ 7250 5150
Connection ~ 7200 5050
Connection ~ 7150 4950
Connection ~ 7100 4850
Connection ~ 9200 7750
Connection ~ 3850 7850
Connection ~ 3850 7750
Connection ~ 3850 7550
Connection ~ 3850 7450
Connection ~ 3850 7350
Connection ~ 3850 7250
Connection ~ 3850 7150
Connection ~ 3850 7050
Connection ~ 3850 7950
Connection ~ 3850 6950
Connection ~ 3850 6850
Connection ~ 7400 7950
Connection ~ 7350 7850
Connection ~ 7300 7750
Connection ~ 7250 7650
Connection ~ 7200 7550
Connection ~ 7150 7450
Connection ~ 7100 7350
Connection ~ 1150 6150
Connection ~ 1150 8350
Connection ~ 1250 6050
Connection ~ 1250 8250
Connection ~ 7600 5750
Connection ~ 7700 5850
Connection ~ 7800 5950
Connection ~ 1150 3650
Connection ~ 1250 3550
Connection ~ 1150 8650
Connection ~ 1250 8550
Connection ~ 7600 8250
Connection ~ 7700 8350
Connection ~ 7800 8450
Connection ~ 1150 10850
Connection ~ 1250 10750
Connection ~ 1250 11050
Connection ~ 7700 12500
Connection ~ 7600 11750
Connection ~ 7600 10750
Connection ~ 7700 10850
Connection ~ 7800 10950
Connection ~ 1150 11150
Connection ~ 7800 13250
Entry Wire Line
	3450 12950 3550 13050
Entry Wire Line
	3450 13050 3550 13150
Entry Wire Line
	3450 13150 3550 13250
Entry Wire Line
	8800 12950 8700 13050
Entry Wire Line
	8800 13050 8700 13150
Entry Wire Line
	8800 13150 8700 13250
Wire Wire Line
	900  2350 1750 2350
Wire Wire Line
	900  4850 1750 4850
Wire Wire Line
	900  7350 1750 7350
Wire Wire Line
	900  9850 1750 9850
Wire Wire Line
	1150 3350 1150 3650
Wire Wire Line
	1150 3650 5500 3650
Wire Wire Line
	1150 5850 1150 3650
Wire Wire Line
	1150 5850 1150 6150
Wire Wire Line
	1150 6150 5500 6150
Wire Wire Line
	1150 8350 1150 6150
Wire Wire Line
	1150 8350 1150 8650
Wire Wire Line
	1150 8650 1150 10850
Wire Wire Line
	1150 8650 5500 8650
Wire Wire Line
	1150 10850 1150 11150
Wire Wire Line
	1150 11150 900  11150
Wire Wire Line
	1150 11150 5500 11150
Wire Wire Line
	1250 3250 1250 3550
Wire Wire Line
	1250 3550 1250 5750
Wire Wire Line
	1250 5750 1250 6050
Wire Wire Line
	1250 6050 1250 8250
Wire Wire Line
	1250 8250 1250 8550
Wire Wire Line
	1250 10750 1250 8550
Wire Wire Line
	1250 10750 1250 11050
Wire Wire Line
	1250 11050 900  11050
Wire Wire Line
	1350 1700 1350 3050
Wire Wire Line
	1350 3050 1750 3050
Wire Wire Line
	1350 4200 1350 5550
Wire Wire Line
	1350 5550 1750 5550
Wire Wire Line
	1350 6700 1350 8050
Wire Wire Line
	1350 8050 1750 8050
Wire Wire Line
	1350 9200 1350 10550
Wire Wire Line
	1350 10550 1750 10550
Wire Wire Line
	1400 1750 1400 2950
Wire Wire Line
	1400 2950 1750 2950
Wire Wire Line
	1400 4250 1400 5450
Wire Wire Line
	1400 5450 1750 5450
Wire Wire Line
	1400 6750 1400 7950
Wire Wire Line
	1400 7950 1750 7950
Wire Wire Line
	1400 9250 1400 10450
Wire Wire Line
	1400 10450 1750 10450
Wire Wire Line
	1450 1800 1450 2850
Wire Wire Line
	1450 2850 1750 2850
Wire Wire Line
	1450 4300 1450 5350
Wire Wire Line
	1450 5350 1750 5350
Wire Wire Line
	1450 6800 1450 7850
Wire Wire Line
	1450 7850 1750 7850
Wire Wire Line
	1450 9300 1450 10350
Wire Wire Line
	1450 10350 1750 10350
Wire Wire Line
	1500 1850 1500 2750
Wire Wire Line
	1500 2750 1750 2750
Wire Wire Line
	1500 4350 1500 5250
Wire Wire Line
	1500 5250 1750 5250
Wire Wire Line
	1500 6850 1500 7750
Wire Wire Line
	1500 7750 1750 7750
Wire Wire Line
	1500 9350 1500 10250
Wire Wire Line
	1500 10250 1750 10250
Wire Wire Line
	1550 1900 1550 2650
Wire Wire Line
	1550 2650 1750 2650
Wire Wire Line
	1550 4400 1550 5150
Wire Wire Line
	1550 5150 1750 5150
Wire Wire Line
	1550 6900 1550 7650
Wire Wire Line
	1550 7650 1750 7650
Wire Wire Line
	1550 9400 1550 10150
Wire Wire Line
	1550 10150 1750 10150
Wire Wire Line
	1600 1950 1600 2550
Wire Wire Line
	1600 2550 1750 2550
Wire Wire Line
	1600 4450 1600 5050
Wire Wire Line
	1600 5050 1750 5050
Wire Wire Line
	1600 6950 1600 7550
Wire Wire Line
	1600 7550 1750 7550
Wire Wire Line
	1600 9450 1600 10050
Wire Wire Line
	1600 10050 1750 10050
Wire Wire Line
	1650 2000 1650 2450
Wire Wire Line
	1650 2450 1750 2450
Wire Wire Line
	1650 4500 1650 4950
Wire Wire Line
	1650 4950 1750 4950
Wire Wire Line
	1650 7000 1650 7450
Wire Wire Line
	1650 7450 1750 7450
Wire Wire Line
	1650 9500 1650 9950
Wire Wire Line
	1650 9950 1750 9950
Wire Wire Line
	1750 3250 1250 3250
Wire Wire Line
	1750 3350 1150 3350
Wire Wire Line
	1750 5750 1250 5750
Wire Wire Line
	1750 5850 1150 5850
Wire Wire Line
	1750 8250 1250 8250
Wire Wire Line
	1750 8350 1150 8350
Wire Wire Line
	1750 10750 1250 10750
Wire Wire Line
	1750 10850 1150 10850
Wire Wire Line
	2750 2350 2850 2350
Wire Wire Line
	2750 2450 2900 2450
Wire Wire Line
	2750 2550 2950 2550
Wire Wire Line
	2750 2650 3000 2650
Wire Wire Line
	2750 2750 3050 2750
Wire Wire Line
	2750 2850 3100 2850
Wire Wire Line
	2750 2950 3150 2950
Wire Wire Line
	2750 4850 2850 4850
Wire Wire Line
	2750 4950 2900 4950
Wire Wire Line
	2750 5050 2950 5050
Wire Wire Line
	2750 5150 3000 5150
Wire Wire Line
	2750 5250 3050 5250
Wire Wire Line
	2750 5350 3100 5350
Wire Wire Line
	2750 5450 3150 5450
Wire Wire Line
	2750 7350 2850 7350
Wire Wire Line
	2750 7450 2900 7450
Wire Wire Line
	2750 7550 2950 7550
Wire Wire Line
	2750 7650 3000 7650
Wire Wire Line
	2750 7750 3050 7750
Wire Wire Line
	2750 7850 3100 7850
Wire Wire Line
	2750 7950 3150 7950
Wire Wire Line
	2750 9850 2850 9850
Wire Wire Line
	2750 9950 2900 9950
Wire Wire Line
	2750 10050 2950 10050
Wire Wire Line
	2750 10150 3000 10150
Wire Wire Line
	2750 10250 3050 10250
Wire Wire Line
	2750 10350 3100 10350
Wire Wire Line
	2750 10450 3150 10450
Wire Wire Line
	2850 2000 1650 2000
Wire Wire Line
	2850 2350 2850 2000
Wire Wire Line
	2850 4500 1650 4500
Wire Wire Line
	2850 4850 2850 4500
Wire Wire Line
	2850 7000 1650 7000
Wire Wire Line
	2850 7350 2850 7000
Wire Wire Line
	2850 9500 1650 9500
Wire Wire Line
	2850 9850 2850 9500
Wire Wire Line
	2900 1950 1600 1950
Wire Wire Line
	2900 2450 2900 1950
Wire Wire Line
	2900 4450 1600 4450
Wire Wire Line
	2900 4950 2900 4450
Wire Wire Line
	2900 6950 1600 6950
Wire Wire Line
	2900 7450 2900 6950
Wire Wire Line
	2900 9450 1600 9450
Wire Wire Line
	2900 9950 2900 9450
Wire Wire Line
	2950 1900 1550 1900
Wire Wire Line
	2950 2550 2950 1900
Wire Wire Line
	2950 4400 1550 4400
Wire Wire Line
	2950 5050 2950 4400
Wire Wire Line
	2950 6900 1550 6900
Wire Wire Line
	2950 7550 2950 6900
Wire Wire Line
	2950 9400 1550 9400
Wire Wire Line
	2950 10050 2950 9400
Wire Wire Line
	3000 1850 1500 1850
Wire Wire Line
	3000 2650 3000 1850
Wire Wire Line
	3000 4350 1500 4350
Wire Wire Line
	3000 5150 3000 4350
Wire Wire Line
	3000 6850 1500 6850
Wire Wire Line
	3000 7650 3000 6850
Wire Wire Line
	3000 9350 1500 9350
Wire Wire Line
	3000 10150 3000 9350
Wire Wire Line
	3050 1800 1450 1800
Wire Wire Line
	3050 2750 3050 1800
Wire Wire Line
	3050 4300 1450 4300
Wire Wire Line
	3050 5250 3050 4300
Wire Wire Line
	3050 6800 1450 6800
Wire Wire Line
	3050 7750 3050 6800
Wire Wire Line
	3050 9300 1450 9300
Wire Wire Line
	3050 10250 3050 9300
Wire Wire Line
	3100 1750 1400 1750
Wire Wire Line
	3100 2850 3100 1750
Wire Wire Line
	3100 4250 1400 4250
Wire Wire Line
	3100 5350 3100 4250
Wire Wire Line
	3100 6750 1400 6750
Wire Wire Line
	3100 7850 3100 6750
Wire Wire Line
	3100 9250 1400 9250
Wire Wire Line
	3100 10350 3100 9250
Wire Wire Line
	3150 1700 1350 1700
Wire Wire Line
	3150 2950 3150 1700
Wire Wire Line
	3150 3050 2750 3050
Wire Wire Line
	3150 3450 3150 3050
Wire Wire Line
	3150 3450 5150 3450
Wire Wire Line
	3150 4200 1350 4200
Wire Wire Line
	3150 5450 3150 4200
Wire Wire Line
	3150 5550 2750 5550
Wire Wire Line
	3150 5950 3150 5550
Wire Wire Line
	3150 5950 5150 5950
Wire Wire Line
	3150 6700 1350 6700
Wire Wire Line
	3150 7950 3150 6700
Wire Wire Line
	3150 8050 2750 8050
Wire Wire Line
	3150 8450 3150 8050
Wire Wire Line
	3150 8450 5150 8450
Wire Wire Line
	3150 9200 1350 9200
Wire Wire Line
	3150 10450 3150 9200
Wire Wire Line
	3150 10550 2750 10550
Wire Wire Line
	3150 10950 3150 10550
Wire Wire Line
	3150 10950 5150 10950
Wire Wire Line
	3550 13050 4300 13050
Wire Wire Line
	3550 13250 4600 13250
Wire Wire Line
	3850 1950 3850 1850
Wire Wire Line
	3850 2050 3850 1950
Wire Wire Line
	3850 2150 3850 2050
Wire Wire Line
	3850 2250 3850 2150
Wire Wire Line
	3850 2350 3850 2250
Wire Wire Line
	3850 2450 3850 2350
Wire Wire Line
	3850 2550 3850 2450
Wire Wire Line
	3850 2750 3850 2550
Wire Wire Line
	3850 2850 3850 2750
Wire Wire Line
	3850 2950 3850 2850
Wire Wire Line
	3850 2950 3850 3150
Wire Wire Line
	3850 4350 3850 4450
Wire Wire Line
	3850 4450 3850 4550
Wire Wire Line
	3850 4550 3850 4650
Wire Wire Line
	3850 4650 3850 4750
Wire Wire Line
	3850 4750 3850 4850
Wire Wire Line
	3850 4850 3850 4950
Wire Wire Line
	3850 4950 3850 5050
Wire Wire Line
	3850 5050 3850 5250
Wire Wire Line
	3850 5250 3850 5350
Wire Wire Line
	3850 5350 3850 5450
Wire Wire Line
	3850 5450 3850 5650
Wire Wire Line
	3850 6850 3850 6950
Wire Wire Line
	3850 6950 3850 7050
Wire Wire Line
	3850 7050 3850 7150
Wire Wire Line
	3850 7150 3850 7250
Wire Wire Line
	3850 7250 3850 7350
Wire Wire Line
	3850 7350 3850 7450
Wire Wire Line
	3850 7450 3850 7550
Wire Wire Line
	3850 7550 3850 7750
Wire Wire Line
	3850 7750 3850 7850
Wire Wire Line
	3850 7850 3850 7950
Wire Wire Line
	3850 7950 3850 8150
Wire Wire Line
	3850 9450 3850 9350
Wire Wire Line
	3850 9550 3850 9450
Wire Wire Line
	3850 9650 3850 9550
Wire Wire Line
	3850 9750 3850 9650
Wire Wire Line
	3850 9850 3850 9750
Wire Wire Line
	3850 9950 3850 9850
Wire Wire Line
	3850 10050 3850 9950
Wire Wire Line
	3850 10250 3850 10050
Wire Wire Line
	3850 10350 3850 10250
Wire Wire Line
	3850 10450 3850 10350
Wire Wire Line
	3850 10450 3850 10650
Wire Wire Line
	4300 11750 4600 11750
Wire Wire Line
	4300 13050 4300 11750
Wire Wire Line
	4400 12500 4400 13150
Wire Wire Line
	4400 13150 3550 13150
Wire Wire Line
	4600 12500 4400 12500
Wire Wire Line
	4850 2250 5050 2250
Wire Wire Line
	4850 4750 5050 4750
Wire Wire Line
	4850 7250 5050 7250
Wire Wire Line
	4850 9750 5050 9750
Wire Wire Line
	5050 1650 9200 1650
Wire Wire Line
	5050 2250 5050 1650
Wire Wire Line
	5050 4150 9200 4150
Wire Wire Line
	5050 4750 5050 4150
Wire Wire Line
	5050 6650 9200 6650
Wire Wire Line
	5050 7250 5050 6650
Wire Wire Line
	5050 9150 9200 9150
Wire Wire Line
	5050 9750 5050 9150
Wire Wire Line
	5150 2350 5150 3450
Wire Wire Line
	5150 2350 6000 2350
Wire Wire Line
	5150 4850 5150 5950
Wire Wire Line
	5150 4850 6000 4850
Wire Wire Line
	5150 7350 5150 8450
Wire Wire Line
	5150 7350 6000 7350
Wire Wire Line
	5150 9850 5150 10950
Wire Wire Line
	5150 9850 6000 9850
Wire Wire Line
	5200 11750 7600 11750
Wire Wire Line
	5200 12500 7700 12500
Wire Wire Line
	5200 13250 7800 13250
Wire Wire Line
	5400 3250 5400 3550
Wire Wire Line
	5400 3250 6000 3250
Wire Wire Line
	5400 3550 1250 3550
Wire Wire Line
	5400 5750 5400 6050
Wire Wire Line
	5400 5750 6000 5750
Wire Wire Line
	5400 6050 1250 6050
Wire Wire Line
	5400 8250 5400 8550
Wire Wire Line
	5400 8250 6000 8250
Wire Wire Line
	5400 8550 1250 8550
Wire Wire Line
	5400 10750 5400 11050
Wire Wire Line
	5400 10750 6000 10750
Wire Wire Line
	5400 11050 1250 11050
Wire Wire Line
	5500 3350 6000 3350
Wire Wire Line
	5500 3650 5500 3350
Wire Wire Line
	5500 5850 6000 5850
Wire Wire Line
	5500 6150 5500 5850
Wire Wire Line
	5500 8350 6000 8350
Wire Wire Line
	5500 8650 5500 8350
Wire Wire Line
	5500 10850 6000 10850
Wire Wire Line
	5500 11150 5500 10850
Wire Wire Line
	5600 1700 5600 3050
Wire Wire Line
	5600 3050 6000 3050
Wire Wire Line
	5600 4200 5600 5550
Wire Wire Line
	5600 5550 6000 5550
Wire Wire Line
	5600 6700 5600 8050
Wire Wire Line
	5600 8050 6000 8050
Wire Wire Line
	5600 9200 5600 10550
Wire Wire Line
	5600 10550 6000 10550
Wire Wire Line
	5650 1750 5650 2950
Wire Wire Line
	5650 2950 6000 2950
Wire Wire Line
	5650 4250 5650 5450
Wire Wire Line
	5650 5450 6000 5450
Wire Wire Line
	5650 6750 5650 7950
Wire Wire Line
	5650 7950 6000 7950
Wire Wire Line
	5650 9250 5650 10450
Wire Wire Line
	5650 10450 6000 10450
Wire Wire Line
	5700 1800 5700 2850
Wire Wire Line
	5700 2850 6000 2850
Wire Wire Line
	5700 4300 5700 5350
Wire Wire Line
	5700 5350 6000 5350
Wire Wire Line
	5700 6800 5700 7850
Wire Wire Line
	5700 7850 6000 7850
Wire Wire Line
	5700 9300 5700 10350
Wire Wire Line
	5700 10350 6000 10350
Wire Wire Line
	5750 1850 5750 2750
Wire Wire Line
	5750 2750 6000 2750
Wire Wire Line
	5750 4350 5750 5250
Wire Wire Line
	5750 5250 6000 5250
Wire Wire Line
	5750 6850 5750 7750
Wire Wire Line
	5750 7750 6000 7750
Wire Wire Line
	5750 9350 5750 10250
Wire Wire Line
	5750 10250 6000 10250
Wire Wire Line
	5800 1900 5800 2650
Wire Wire Line
	5800 2650 6000 2650
Wire Wire Line
	5800 4400 5800 5150
Wire Wire Line
	5800 5150 6000 5150
Wire Wire Line
	5800 6900 5800 7650
Wire Wire Line
	5800 7650 6000 7650
Wire Wire Line
	5800 9400 5800 10150
Wire Wire Line
	5800 10150 6000 10150
Wire Wire Line
	5850 1950 5850 2550
Wire Wire Line
	5850 2550 6000 2550
Wire Wire Line
	5850 4450 5850 5050
Wire Wire Line
	5850 5050 6000 5050
Wire Wire Line
	5850 6950 5850 7550
Wire Wire Line
	5850 7550 6000 7550
Wire Wire Line
	5850 9450 5850 10050
Wire Wire Line
	5850 10050 6000 10050
Wire Wire Line
	5900 2000 5900 2450
Wire Wire Line
	5900 2450 6000 2450
Wire Wire Line
	5900 4500 5900 4950
Wire Wire Line
	5900 4950 6000 4950
Wire Wire Line
	5900 7000 5900 7450
Wire Wire Line
	5900 7450 6000 7450
Wire Wire Line
	5900 9500 5900 9950
Wire Wire Line
	5900 9950 6000 9950
Wire Wire Line
	7000 2350 7100 2350
Wire Wire Line
	7000 2450 7150 2450
Wire Wire Line
	7000 2550 7200 2550
Wire Wire Line
	7000 2650 7250 2650
Wire Wire Line
	7000 2750 7300 2750
Wire Wire Line
	7000 2850 7350 2850
Wire Wire Line
	7000 2950 7400 2950
Wire Wire Line
	7000 3050 8100 3050
Wire Wire Line
	7000 4850 7100 4850
Wire Wire Line
	7000 4950 7150 4950
Wire Wire Line
	7000 5050 7200 5050
Wire Wire Line
	7000 5150 7250 5150
Wire Wire Line
	7000 5250 7300 5250
Wire Wire Line
	7000 5350 7350 5350
Wire Wire Line
	7000 5450 7400 5450
Wire Wire Line
	7000 5550 8100 5550
Wire Wire Line
	7000 7350 7100 7350
Wire Wire Line
	7000 7450 7150 7450
Wire Wire Line
	7000 7550 7200 7550
Wire Wire Line
	7000 7650 7250 7650
Wire Wire Line
	7000 7750 7300 7750
Wire Wire Line
	7000 7850 7350 7850
Wire Wire Line
	7000 7950 7400 7950
Wire Wire Line
	7000 8050 8100 8050
Wire Wire Line
	7000 9850 7100 9850
Wire Wire Line
	7000 9950 7150 9950
Wire Wire Line
	7000 10050 7200 10050
Wire Wire Line
	7000 10150 7250 10150
Wire Wire Line
	7000 10250 7300 10250
Wire Wire Line
	7000 10350 7350 10350
Wire Wire Line
	7000 10450 7400 10450
Wire Wire Line
	7000 10550 8100 10550
Wire Wire Line
	7100 2000 5900 2000
Wire Wire Line
	7100 2350 7100 2000
Wire Wire Line
	7100 2350 8100 2350
Wire Wire Line
	7100 4500 5900 4500
Wire Wire Line
	7100 4850 7100 4500
Wire Wire Line
	7100 4850 8100 4850
Wire Wire Line
	7100 7000 5900 7000
Wire Wire Line
	7100 7350 7100 7000
Wire Wire Line
	7100 7350 8100 7350
Wire Wire Line
	7100 9500 5900 9500
Wire Wire Line
	7100 9850 7100 9500
Wire Wire Line
	7100 9850 8100 9850
Wire Wire Line
	7150 1950 5850 1950
Wire Wire Line
	7150 2450 7150 1950
Wire Wire Line
	7150 2450 8100 2450
Wire Wire Line
	7150 4450 5850 4450
Wire Wire Line
	7150 4950 7150 4450
Wire Wire Line
	7150 4950 8100 4950
Wire Wire Line
	7150 6950 5850 6950
Wire Wire Line
	7150 7450 7150 6950
Wire Wire Line
	7150 7450 8100 7450
Wire Wire Line
	7150 9450 5850 9450
Wire Wire Line
	7150 9950 7150 9450
Wire Wire Line
	7150 9950 8100 9950
Wire Wire Line
	7200 1900 5800 1900
Wire Wire Line
	7200 2550 7200 1900
Wire Wire Line
	7200 2550 8100 2550
Wire Wire Line
	7200 4400 5800 4400
Wire Wire Line
	7200 5050 7200 4400
Wire Wire Line
	7200 5050 8100 5050
Wire Wire Line
	7200 6900 5800 6900
Wire Wire Line
	7200 7550 7200 6900
Wire Wire Line
	7200 7550 8100 7550
Wire Wire Line
	7200 9400 5800 9400
Wire Wire Line
	7200 10050 7200 9400
Wire Wire Line
	7200 10050 8100 10050
Wire Wire Line
	7250 1850 5750 1850
Wire Wire Line
	7250 2650 7250 1850
Wire Wire Line
	7250 2650 8100 2650
Wire Wire Line
	7250 4350 5750 4350
Wire Wire Line
	7250 5150 7250 4350
Wire Wire Line
	7250 5150 8100 5150
Wire Wire Line
	7250 6850 5750 6850
Wire Wire Line
	7250 7650 7250 6850
Wire Wire Line
	7250 7650 8100 7650
Wire Wire Line
	7250 9350 5750 9350
Wire Wire Line
	7250 10150 7250 9350
Wire Wire Line
	7250 10150 8100 10150
Wire Wire Line
	7300 1800 5700 1800
Wire Wire Line
	7300 2750 7300 1800
Wire Wire Line
	7300 2750 8100 2750
Wire Wire Line
	7300 4300 5700 4300
Wire Wire Line
	7300 5250 7300 4300
Wire Wire Line
	7300 5250 8100 5250
Wire Wire Line
	7300 6800 5700 6800
Wire Wire Line
	7300 7750 7300 6800
Wire Wire Line
	7300 7750 8100 7750
Wire Wire Line
	7300 9300 5700 9300
Wire Wire Line
	7300 10250 7300 9300
Wire Wire Line
	7300 10250 8100 10250
Wire Wire Line
	7350 1750 5650 1750
Wire Wire Line
	7350 2850 7350 1750
Wire Wire Line
	7350 2850 8100 2850
Wire Wire Line
	7350 4250 5650 4250
Wire Wire Line
	7350 5350 7350 4250
Wire Wire Line
	7350 5350 8100 5350
Wire Wire Line
	7350 6750 5650 6750
Wire Wire Line
	7350 7850 7350 6750
Wire Wire Line
	7350 7850 8100 7850
Wire Wire Line
	7350 9250 5650 9250
Wire Wire Line
	7350 10350 7350 9250
Wire Wire Line
	7350 10350 8100 10350
Wire Wire Line
	7400 1700 5600 1700
Wire Wire Line
	7400 2950 7400 1700
Wire Wire Line
	7400 2950 8100 2950
Wire Wire Line
	7400 4200 5600 4200
Wire Wire Line
	7400 5450 7400 4200
Wire Wire Line
	7400 5450 8100 5450
Wire Wire Line
	7400 6700 5600 6700
Wire Wire Line
	7400 7950 7400 6700
Wire Wire Line
	7400 7950 8100 7950
Wire Wire Line
	7400 9200 5600 9200
Wire Wire Line
	7400 10450 7400 9200
Wire Wire Line
	7400 10450 8100 10450
Wire Wire Line
	7600 3250 7600 5750
Wire Wire Line
	7600 5750 7600 8250
Wire Wire Line
	7600 8250 7600 10750
Wire Wire Line
	7600 10750 7600 11750
Wire Wire Line
	7600 11750 7600 13050
Wire Wire Line
	7600 13050 8700 13050
Wire Wire Line
	7700 3350 7700 5850
Wire Wire Line
	7700 5850 7700 8350
Wire Wire Line
	7700 8350 7700 10850
Wire Wire Line
	7700 10850 7700 12500
Wire Wire Line
	7700 12500 7700 13150
Wire Wire Line
	7700 13150 8700 13150
Wire Wire Line
	7800 3450 7800 5950
Wire Wire Line
	7800 5950 7800 8450
Wire Wire Line
	7800 8450 7800 10950
Wire Wire Line
	7800 10950 7800 13250
Wire Wire Line
	7800 13250 8700 13250
Wire Wire Line
	8000 3650 8100 3650
Wire Wire Line
	8000 6150 8100 6150
Wire Wire Line
	8000 8650 8100 8650
Wire Wire Line
	8000 11150 8100 11150
Wire Wire Line
	8100 3250 7600 3250
Wire Wire Line
	8100 3350 7700 3350
Wire Wire Line
	8100 3450 7800 3450
Wire Wire Line
	8100 5750 7600 5750
Wire Wire Line
	8100 5850 7700 5850
Wire Wire Line
	8100 5950 7800 5950
Wire Wire Line
	8100 8250 7600 8250
Wire Wire Line
	8100 8350 7700 8350
Wire Wire Line
	8100 8450 7800 8450
Wire Wire Line
	8100 10750 7600 10750
Wire Wire Line
	8100 10850 7700 10850
Wire Wire Line
	8100 10950 7800 10950
Wire Wire Line
	9200 1650 9200 2750
Wire Wire Line
	9200 2750 9100 2750
Wire Wire Line
	9200 2750 10750 2750
Wire Wire Line
	9200 4150 9200 5250
Wire Wire Line
	9200 5250 9100 5250
Wire Wire Line
	9200 5250 9750 5250
Wire Wire Line
	9200 6650 9200 7750
Wire Wire Line
	9200 7750 9100 7750
Wire Wire Line
	9200 7750 9850 7750
Wire Wire Line
	9200 9150 9200 10250
Wire Wire Line
	9200 10250 9100 10250
Wire Wire Line
	9200 10250 9950 10250
Wire Wire Line
	9750 2850 10750 2850
Wire Wire Line
	9750 5250 9750 2850
Wire Wire Line
	9850 2950 10750 2950
Wire Wire Line
	9850 7750 9850 2950
Wire Wire Line
	9950 3050 10750 3050
Wire Wire Line
	9950 10250 9950 3050
Wire Bus Line
	3450 12800 3350 12800
Wire Bus Line
	8800 12800 8900 12800
Text Label 3650 13050 0    50   ~ 0
XS0
Text Label 3650 13150 0    50   ~ 0
XS1
Text Label 3650 13250 0    50   ~ 0
XS2
Text Label 8150 13050 0    50   ~ 0
XS-BUF0
Text Label 8150 13150 0    50   ~ 0
XS-BUF1
Text Label 8150 13250 0    50   ~ 0
XS-BUF2
Text HLabel 900  2350 0    50   Input ~ 0
A
Text HLabel 900  4850 0    50   Input ~ 0
B
Text HLabel 900  7350 0    50   Input ~ 0
C
Text HLabel 900  9850 0    50   Input ~ 0
D
Text HLabel 900  11050 0    50   Input ~ 0
~CLK8M
Text HLabel 900  11150 0    50   Input ~ 0
~RESET
Text HLabel 3350 12800 0    50   Input ~ 0
XS[0..2]
Text HLabel 8900 12800 2    50   Output ~ 0
XS-BUF[0..2]
Text HLabel 10750 2750 2    50   Output ~ 0
GFX-A
Text HLabel 10750 2850 2    50   Output ~ 0
GFX-B
Text HLabel 10750 2950 2    50   Output ~ 0
GFX-C
Text HLabel 10750 3050 2    50   Output ~ 0
GFX-D
$Comp
L power:VCC #PWR?
U 1 1 612F9BE3
P 3850 1850
AR Path="/60BA673A/612F9BE3" Ref="#PWR?"  Part="1" 
AR Path="/5FBBD4DB/5FBBDBF0/612F9BE3" Ref="#PWR0128"  Part="1" 
F 0 "#PWR0128" H 3850 1700 50  0001 C CNN
F 1 "VCC" H 3865 2023 50  0000 C CNN
F 2 "" H 3850 1850 50  0001 C CNN
F 3 "" H 3850 1850 50  0001 C CNN
	1    3850 1850
	1    0    0    -1  
$EndComp
$Comp
L power:VCC #PWR?
U 1 1 61192E9F
P 3850 4350
AR Path="/60BA673A/61192E9F" Ref="#PWR?"  Part="1" 
AR Path="/5FBBD4DB/5FBBDBF0/61192E9F" Ref="#PWR0129"  Part="1" 
F 0 "#PWR0129" H 3850 4200 50  0001 C CNN
F 1 "VCC" H 3865 4523 50  0000 C CNN
F 2 "" H 3850 4350 50  0001 C CNN
F 3 "" H 3850 4350 50  0001 C CNN
	1    3850 4350
	1    0    0    -1  
$EndComp
$Comp
L power:VCC #PWR?
U 1 1 612F9C66
P 3850 6850
AR Path="/60BA673A/612F9C66" Ref="#PWR?"  Part="1" 
AR Path="/5FBBD4DB/5FBBDBF0/612F9C66" Ref="#PWR0130"  Part="1" 
F 0 "#PWR0130" H 3850 6700 50  0001 C CNN
F 1 "VCC" H 3865 7023 50  0000 C CNN
F 2 "" H 3850 6850 50  0001 C CNN
F 3 "" H 3850 6850 50  0001 C CNN
	1    3850 6850
	1    0    0    -1  
$EndComp
$Comp
L power:VCC #PWR?
U 1 1 61034D6E
P 3850 9350
AR Path="/60BA673A/61034D6E" Ref="#PWR?"  Part="1" 
AR Path="/5FBBD4DB/5FBBDBF0/61034D6E" Ref="#PWR0131"  Part="1" 
F 0 "#PWR0131" H 3850 9200 50  0001 C CNN
F 1 "VCC" H 3865 9523 50  0000 C CNN
F 2 "" H 3850 9350 50  0001 C CNN
F 3 "" H 3850 9350 50  0001 C CNN
	1    3850 9350
	1    0    0    -1  
$EndComp
$Comp
L power:GND #PWR?
U 1 1 612F9CA9
P 8000 3650
AR Path="/60BA673A/612F9CA9" Ref="#PWR?"  Part="1" 
AR Path="/5FBBD4DB/5FBBDBF0/612F9CA9" Ref="#PWR0132"  Part="1" 
F 0 "#PWR0132" H 8000 3400 50  0001 C CNN
F 1 "GND" H 8005 3477 50  0000 C CNN
F 2 "" H 8000 3650 50  0001 C CNN
F 3 "" H 8000 3650 50  0001 C CNN
	1    8000 3650
	1    0    0    -1  
$EndComp
$Comp
L power:GND #PWR?
U 1 1 6121D939
P 8000 6150
AR Path="/60BA673A/6121D939" Ref="#PWR?"  Part="1" 
AR Path="/5FBBD4DB/5FBBDBF0/6121D939" Ref="#PWR0133"  Part="1" 
F 0 "#PWR0133" H 8000 5900 50  0001 C CNN
F 1 "GND" H 8005 5977 50  0000 C CNN
F 2 "" H 8000 6150 50  0001 C CNN
F 3 "" H 8000 6150 50  0001 C CNN
	1    8000 6150
	1    0    0    -1  
$EndComp
$Comp
L power:GND #PWR?
U 1 1 612F9CA2
P 8000 8650
AR Path="/60BA673A/612F9CA2" Ref="#PWR?"  Part="1" 
AR Path="/5FBBD4DB/5FBBDBF0/612F9CA2" Ref="#PWR0134"  Part="1" 
F 0 "#PWR0134" H 8000 8400 50  0001 C CNN
F 1 "GND" H 8005 8477 50  0000 C CNN
F 2 "" H 8000 8650 50  0001 C CNN
F 3 "" H 8000 8650 50  0001 C CNN
	1    8000 8650
	1    0    0    -1  
$EndComp
$Comp
L power:GND #PWR?
U 1 1 61242DE4
P 8000 11150
AR Path="/60BA673A/61242DE4" Ref="#PWR?"  Part="1" 
AR Path="/5FBBD4DB/5FBBDBF0/61242DE4" Ref="#PWR0135"  Part="1" 
F 0 "#PWR0135" H 8000 10900 50  0001 C CNN
F 1 "GND" H 8005 10977 50  0000 C CNN
F 2 "" H 8000 11150 50  0001 C CNN
F 3 "" H 8000 11150 50  0001 C CNN
	1    8000 11150
	1    0    0    -1  
$EndComp
$Comp
L A5C:BUF12 UAV87
U 1 1 615F9173
P 4900 11750
AR Path="/60BA673A/615F9173" Ref="UAV87"  Part="1" 
AR Path="/5FBBD4DB/5FBBDBF0/615F9173" Ref="UAV87"  Part="1" 
F 0 "UAV87" H 4900 12067 50  0000 C CNN
F 1 "BUF12" H 4900 11976 50  0000 C CNN
F 2 "" H 4900 11750 50  0001 C CNN
F 3 "" H 4900 11750 50  0001 C CNN
	1    4900 11750
	1    0    0    -1  
$EndComp
$Comp
L A5C:BUF12 UAV92
U 1 1 615F91E3
P 4900 12500
AR Path="/60BA673A/615F91E3" Ref="UAV92"  Part="1" 
AR Path="/5FBBD4DB/5FBBDBF0/615F91E3" Ref="UAV92"  Part="1" 
F 0 "UAV92" H 4900 12817 50  0000 C CNN
F 1 "BUF12" H 4900 12726 50  0000 C CNN
F 2 "" H 4900 12500 50  0001 C CNN
F 3 "" H 4900 12500 50  0001 C CNN
	1    4900 12500
	1    0    0    -1  
$EndComp
$Comp
L A5C:BUF12 UAV96
U 1 1 615F9286
P 4900 13250
AR Path="/60BA673A/615F9286" Ref="UAV96"  Part="1" 
AR Path="/5FBBD4DB/5FBBDBF0/615F9286" Ref="UAV96"  Part="1" 
F 0 "UAV96" H 4900 13567 50  0000 C CNN
F 1 "BUF12" H 4900 13476 50  0000 C CNN
F 2 "" H 4900 13250 50  0001 C CNN
F 3 "" H 4900 13250 50  0001 C CNN
	1    4900 13250
	1    0    0    -1  
$EndComp
$Comp
L A5C:M273C UAR39
U 1 1 612F9B75
P 2250 2850
AR Path="/60BA673A/612F9B75" Ref="UAR39"  Part="1" 
AR Path="/5FBBD4DB/5FBBDBF0/612F9B75" Ref="UAR39"  Part="1" 
F 0 "UAR39" H 2250 3617 50  0000 C CNN
F 1 "M273C" H 2250 3526 50  0000 C CNN
F 2 "" H 2250 2850 50  0001 C CNN
F 3 "" H 2250 2850 50  0001 C CNN
	1    2250 2850
	1    0    0    -1  
$EndComp
$Comp
L A5C:M273C UAS0
U 1 1 60C862A5
P 2250 5350
AR Path="/60BA673A/60C862A5" Ref="UAS0"  Part="1" 
AR Path="/5FBBD4DB/5FBBDBF0/60C862A5" Ref="UAS0"  Part="1" 
F 0 "UAS0" H 2250 6117 50  0000 C CNN
F 1 "M273C" H 2250 6026 50  0000 C CNN
F 2 "" H 2250 5350 50  0001 C CNN
F 3 "" H 2250 5350 50  0001 C CNN
	1    2250 5350
	1    0    0    -1  
$EndComp
$Comp
L A5C:M273C UAV39
U 1 1 612F9C87
P 2250 7850
AR Path="/60BA673A/612F9C87" Ref="UAV39"  Part="1" 
AR Path="/5FBBD4DB/5FBBDBF0/612F9C87" Ref="UAV39"  Part="1" 
F 0 "UAV39" H 2250 8617 50  0000 C CNN
F 1 "M273C" H 2250 8526 50  0000 C CNN
F 2 "" H 2250 7850 50  0001 C CNN
F 3 "" H 2250 7850 50  0001 C CNN
	1    2250 7850
	1    0    0    -1  
$EndComp
$Comp
L A5C:M273C UAX0
U 1 1 60C70DA0
P 2250 10350
AR Path="/60BA673A/60C70DA0" Ref="UAX0"  Part="1" 
AR Path="/5FBBD4DB/5FBBDBF0/60C70DA0" Ref="UAX0"  Part="1" 
F 0 "UAX0" H 2250 11117 50  0000 C CNN
F 1 "M273C" H 2250 11026 50  0000 C CNN
F 2 "" H 2250 10350 50  0001 C CNN
F 3 "" H 2250 10350 50  0001 C CNN
	1    2250 10350
	1    0    0    -1  
$EndComp
$Comp
L A5C:M273C UAT39
U 1 1 612F9B34
P 6500 2850
AR Path="/60BA673A/612F9B34" Ref="UAT39"  Part="1" 
AR Path="/5FBBD4DB/5FBBDBF0/612F9B34" Ref="UAT39"  Part="1" 
F 0 "UAT39" H 6500 3617 50  0000 C CNN
F 1 "M273C" H 6500 3526 50  0000 C CNN
F 2 "" H 6500 2850 50  0001 C CNN
F 3 "" H 6500 2850 50  0001 C CNN
	1    6500 2850
	1    0    0    -1  
$EndComp
$Comp
L A5C:M273C UAU0
U 1 1 60C8625E
P 6500 5350
AR Path="/60BA673A/60C8625E" Ref="UAU0"  Part="1" 
AR Path="/5FBBD4DB/5FBBDBF0/60C8625E" Ref="UAU0"  Part="1" 
F 0 "UAU0" H 6500 6117 50  0000 C CNN
F 1 "M273C" H 6500 6026 50  0000 C CNN
F 2 "" H 6500 5350 50  0001 C CNN
F 3 "" H 6500 5350 50  0001 C CNN
	1    6500 5350
	1    0    0    -1  
$EndComp
$Comp
L A5C:M273C UAY39
U 1 1 612F9BA4
P 6500 7850
AR Path="/60BA673A/612F9BA4" Ref="UAY39"  Part="1" 
AR Path="/5FBBD4DB/5FBBDBF0/612F9BA4" Ref="UAY39"  Part="1" 
F 0 "UAY39" H 6500 8617 50  0000 C CNN
F 1 "M273C" H 6500 8526 50  0000 C CNN
F 2 "" H 6500 7850 50  0001 C CNN
F 3 "" H 6500 7850 50  0001 C CNN
	1    6500 7850
	1    0    0    -1  
$EndComp
$Comp
L A5C:M273C UAZ0
U 1 1 60BA69FB
P 6500 10350
AR Path="/60BA673A/60BA69FB" Ref="UAZ0"  Part="1" 
AR Path="/5FBBD4DB/5FBBDBF0/60BA69FB" Ref="UAZ0"  Part="1" 
F 0 "UAZ0" H 6500 11117 50  0000 C CNN
F 1 "M273C" H 6500 11026 50  0000 C CNN
F 2 "" H 6500 10350 50  0001 C CNN
F 3 "" H 6500 10350 50  0001 C CNN
	1    6500 10350
	1    0    0    -1  
$EndComp
$Comp
L A5C:MUX8GLH UAS40
U 1 1 612F9B9E
P 4350 2450
AR Path="/60BA673A/612F9B9E" Ref="UAS40"  Part="1" 
AR Path="/5FBBD4DB/5FBBDBF0/612F9B9E" Ref="UAS40"  Part="1" 
F 0 "UAS40" H 4350 3317 50  0000 C CNN
F 1 "MUX8GLH" H 4350 3226 50  0000 C CNN
F 2 "" H 4350 2450 50  0001 C CNN
F 3 "" H 4350 2450 50  0001 C CNN
	1    4350 2450
	1    0    0    -1  
$EndComp
$Comp
L A5C:MUX8GLH UAR1
U 1 1 60C862D6
P 4350 4950
AR Path="/60BA673A/60C862D6" Ref="UAR1"  Part="1" 
AR Path="/5FBBD4DB/5FBBDBF0/60C862D6" Ref="UAR1"  Part="1" 
F 0 "UAR1" H 4350 5817 50  0000 C CNN
F 1 "MUX8GLH" H 4350 5726 50  0000 C CNN
F 2 "" H 4350 4950 50  0001 C CNN
F 3 "" H 4350 4950 50  0001 C CNN
	1    4350 4950
	1    0    0    -1  
$EndComp
$Comp
L A5C:MUX8GLH UAX40
U 1 1 612F9BB0
P 4350 7450
AR Path="/60BA673A/612F9BB0" Ref="UAX40"  Part="1" 
AR Path="/5FBBD4DB/5FBBDBF0/612F9BB0" Ref="UAX40"  Part="1" 
F 0 "UAX40" H 4350 8317 50  0000 C CNN
F 1 "MUX8GLH" H 4350 8226 50  0000 C CNN
F 2 "" H 4350 7450 50  0001 C CNN
F 3 "" H 4350 7450 50  0001 C CNN
	1    4350 7450
	1    0    0    -1  
$EndComp
$Comp
L A5C:MUX8GLH UAV1
U 1 1 60C70DD1
P 4350 9950
AR Path="/60BA673A/60C70DD1" Ref="UAV1"  Part="1" 
AR Path="/5FBBD4DB/5FBBDBF0/60C70DD1" Ref="UAV1"  Part="1" 
F 0 "UAV1" H 4350 10817 50  0000 C CNN
F 1 "MUX8GLH" H 4350 10726 50  0000 C CNN
F 2 "" H 4350 9950 50  0001 C CNN
F 3 "" H 4350 9950 50  0001 C CNN
	1    4350 9950
	1    0    0    -1  
$EndComp
$Comp
L A5C:MUX8GLH UAU40
U 1 1 612F9B64
P 8600 2950
AR Path="/60BA673A/612F9B64" Ref="UAU40"  Part="1" 
AR Path="/5FBBD4DB/5FBBDBF0/612F9B64" Ref="UAU40"  Part="1" 
F 0 "UAU40" H 8600 3817 50  0000 C CNN
F 1 "MUX8GLH" H 8600 3726 50  0000 C CNN
F 2 "" H 8600 2950 50  0001 C CNN
F 3 "" H 8600 2950 50  0001 C CNN
	1    8600 2950
	1    0    0    -1  
$EndComp
$Comp
L A5C:MUX8GLH UAT1
U 1 1 60C8628F
P 8600 5450
AR Path="/60BA673A/60C8628F" Ref="UAT1"  Part="1" 
AR Path="/5FBBD4DB/5FBBDBF0/60C8628F" Ref="UAT1"  Part="1" 
F 0 "UAT1" H 8600 6317 50  0000 C CNN
F 1 "MUX8GLH" H 8600 6226 50  0000 C CNN
F 2 "" H 8600 5450 50  0001 C CNN
F 3 "" H 8600 5450 50  0001 C CNN
	1    8600 5450
	1    0    0    -1  
$EndComp
$Comp
L A5C:MUX8GLH UAZ40
U 1 1 612F9BAA
P 8600 7950
AR Path="/60BA673A/612F9BAA" Ref="UAZ40"  Part="1" 
AR Path="/5FBBD4DB/5FBBDBF0/612F9BAA" Ref="UAZ40"  Part="1" 
F 0 "UAZ40" H 8600 8817 50  0000 C CNN
F 1 "MUX8GLH" H 8600 8726 50  0000 C CNN
F 2 "" H 8600 7950 50  0001 C CNN
F 3 "" H 8600 7950 50  0001 C CNN
	1    8600 7950
	1    0    0    -1  
$EndComp
$Comp
L A5C:MUX8GLH UAY1
U 1 1 60BB7ADB
P 8600 10450
AR Path="/60BA673A/60BB7ADB" Ref="UAY1"  Part="1" 
AR Path="/5FBBD4DB/5FBBDBF0/60BB7ADB" Ref="UAY1"  Part="1" 
F 0 "UAY1" H 8600 11317 50  0000 C CNN
F 1 "MUX8GLH" H 8600 11226 50  0000 C CNN
F 2 "" H 8600 10450 50  0001 C CNN
F 3 "" H 8600 10450 50  0001 C CNN
	1    8600 10450
	1    0    0    -1  
$EndComp
NoConn ~ 9100 2650
NoConn ~ 9100 5150
NoConn ~ 9100 7650
NoConn ~ 9100 10150
NoConn ~ 4850 9650
NoConn ~ 4850 7150
NoConn ~ 4850 4650
NoConn ~ 4850 2150
Wire Bus Line
	3450 12800 3450 13150
Wire Bus Line
	8800 12800 8800 13150
$EndSCHEMATC
