EESchema Schematic File Version 4
EELAYER 30 0
EELAYER END
$Descr A4 11693 8268
encoding utf-8
Sheet 41 69
Title ""
Date "2020-11-26"
Rev ""
Comp ""
Comment1 "Licence: CC-BY"
Comment2 "Author: Loïc *WydD* Petit"
Comment3 ""
Comment4 ""
$EndDescr
Connection ~ 6950 1850
Connection ~ 6950 2500
Connection ~ 6750 3900
Connection ~ 2550 4900
Connection ~ 4250 2650
Connection ~ 5750 2900
Connection ~ 6650 2700
Connection ~ 4150 2850
Connection ~ 5800 5000
Connection ~ 6550 4100
Connection ~ 4250 3400
Connection ~ 4150 3600
Connection ~ 4150 4350
Connection ~ 4250 4150
Connection ~ 5750 3650
Connection ~ 5750 4400
Connection ~ 6550 4550
Connection ~ 6450 4200
Connection ~ 6950 3150
Connection ~ 6950 3800
Connection ~ 6750 3250
Connection ~ 6750 1950
Connection ~ 6750 2600
Connection ~ 6650 4000
Connection ~ 6550 3450
Connection ~ 6650 3350
Connection ~ 6650 4650
Connection ~ 6450 4450
Connection ~ 3050 5450
Entry Wire Line
	3400 1700 3500 1800
Entry Wire Line
	3400 2450 3500 2550
Entry Wire Line
	3400 3200 3500 3300
Entry Wire Line
	3400 3950 3500 4050
Wire Wire Line
	2450 5450 3050 5450
Wire Wire Line
	2550 4900 2450 4900
Wire Wire Line
	2550 4900 2550 5350
Wire Wire Line
	2550 5350 3150 5350
Wire Wire Line
	3050 5000 3050 5450
Wire Wire Line
	3050 5450 3150 5450
Wire Wire Line
	3150 5000 3050 5000
Wire Wire Line
	3500 1800 4800 1800
Wire Wire Line
	3500 2550 4800 2550
Wire Wire Line
	3500 3300 4800 3300
Wire Wire Line
	3500 4050 4800 4050
Wire Wire Line
	4150 2100 4800 2100
Wire Wire Line
	4150 2850 4150 2100
Wire Wire Line
	4150 2850 4800 2850
Wire Wire Line
	4150 3600 4150 2850
Wire Wire Line
	4150 4350 4150 3600
Wire Wire Line
	4150 4350 4150 5400
Wire Wire Line
	4150 5400 3700 5400
Wire Wire Line
	4250 1900 4250 2650
Wire Wire Line
	4250 2650 4250 3400
Wire Wire Line
	4250 3400 4800 3400
Wire Wire Line
	4250 4150 4250 3400
Wire Wire Line
	4250 4150 4250 4950
Wire Wire Line
	4250 4950 3700 4950
Wire Wire Line
	4400 2000 4400 5500
Wire Wire Line
	4400 2000 4800 2000
Wire Wire Line
	4400 5500 8800 5500
Wire Wire Line
	4500 2750 4800 2750
Wire Wire Line
	4500 5400 4500 2750
Wire Wire Line
	4600 3500 4600 5300
Wire Wire Line
	4600 5300 8600 5300
Wire Wire Line
	4700 4250 4800 4250
Wire Wire Line
	4700 5200 4700 4250
Wire Wire Line
	4800 1900 4250 1900
Wire Wire Line
	4800 2650 4250 2650
Wire Wire Line
	4800 3500 4600 3500
Wire Wire Line
	4800 3600 4150 3600
Wire Wire Line
	4800 4150 4250 4150
Wire Wire Line
	4800 4350 4150 4350
Wire Wire Line
	5650 2700 5850 2700
Wire Wire Line
	5650 3450 5850 3450
Wire Wire Line
	5650 4200 5850 4200
Wire Wire Line
	5750 2150 5750 2900
Wire Wire Line
	5750 2900 5750 3650
Wire Wire Line
	5750 3650 5750 4400
Wire Wire Line
	5750 4400 5750 4650
Wire Wire Line
	5750 4400 5850 4400
Wire Wire Line
	5750 4650 5550 4650
Wire Wire Line
	5800 4950 5800 5000
Wire Wire Line
	5800 5000 5700 5000
Wire Wire Line
	5800 5000 5800 5050
Wire Wire Line
	5850 1950 5650 1950
Wire Wire Line
	5850 2150 5750 2150
Wire Wire Line
	5850 2900 5750 2900
Wire Wire Line
	5850 3650 5750 3650
Wire Wire Line
	6350 1950 6750 1950
Wire Wire Line
	6350 2700 6650 2700
Wire Wire Line
	6350 3450 6550 3450
Wire Wire Line
	6350 4200 6450 4200
Wire Wire Line
	6350 5000 6950 5000
Wire Wire Line
	6450 4200 6450 1800
Wire Wire Line
	6450 4200 6450 4450
Wire Wire Line
	6450 4200 7950 4200
Wire Wire Line
	6450 4450 6450 4750
Wire Wire Line
	6550 3450 6550 1800
Wire Wire Line
	6550 3450 6550 4100
Wire Wire Line
	6550 4100 6550 4550
Wire Wire Line
	6550 4550 6550 4750
Wire Wire Line
	6650 1800 6650 2700
Wire Wire Line
	6650 2700 6650 3350
Wire Wire Line
	6650 3350 6650 4000
Wire Wire Line
	6650 4000 6650 4650
Wire Wire Line
	6650 4650 6650 4750
Wire Wire Line
	6750 1950 6750 1800
Wire Wire Line
	6750 1950 6750 2600
Wire Wire Line
	6750 2600 6750 3250
Wire Wire Line
	6750 2600 7350 2600
Wire Wire Line
	6750 3250 6750 3900
Wire Wire Line
	6750 3900 6750 4750
Wire Wire Line
	6950 1850 6950 1800
Wire Wire Line
	6950 1850 7350 1850
Wire Wire Line
	6950 2500 6950 1850
Wire Wire Line
	6950 2500 7350 2500
Wire Wire Line
	6950 3150 6950 2500
Wire Wire Line
	6950 3800 6950 3150
Wire Wire Line
	6950 5000 6950 3800
Wire Wire Line
	7350 1950 6750 1950
Wire Wire Line
	7350 3150 6950 3150
Wire Wire Line
	7350 3250 6750 3250
Wire Wire Line
	7350 3350 6650 3350
Wire Wire Line
	7350 3800 6950 3800
Wire Wire Line
	7350 3900 6750 3900
Wire Wire Line
	7350 4000 6650 4000
Wire Wire Line
	7350 4100 6550 4100
Wire Wire Line
	7350 4450 6450 4450
Wire Wire Line
	7350 4550 6550 4550
Wire Wire Line
	7350 4650 6650 4650
Wire Wire Line
	7350 4750 6750 4750
Wire Wire Line
	7900 1900 8800 1900
Wire Wire Line
	7900 2600 7900 2550
Wire Wire Line
	7900 2700 6650 2700
Wire Wire Line
	7950 3350 7950 3250
Wire Wire Line
	7950 3450 6550 3450
Wire Wire Line
	7950 4100 7950 3950
Wire Wire Line
	7950 4600 9650 4600
Wire Wire Line
	8450 2650 8700 2650
Wire Wire Line
	8500 3400 8600 3400
Wire Wire Line
	8500 4150 8500 5200
Wire Wire Line
	8500 5200 4700 5200
Wire Wire Line
	8600 3400 8600 5300
Wire Wire Line
	8700 2650 8700 5400
Wire Wire Line
	8700 5400 4500 5400
Wire Wire Line
	8800 1900 8800 5500
Wire Wire Line
	9650 5000 9650 4700
Wire Wire Line
	10200 4650 10400 4650
Wire Bus Line
	3400 1600 3250 1600
Text Notes 6900 1750 0    50   ~ 0
LO
Text Notes 9700 5000 0    50   ~ 0
LO
Text Label 3550 1800 0    50   ~ 0
XS0
Text Label 3550 2550 0    50   ~ 0
XS1
Text Label 3550 3300 0    50   ~ 0
XS2
Text Label 3550 4050 0    50   ~ 0
XS3
Text HLabel 2450 4900 0    50   Input ~ 0
~LOAD
Text HLabel 2450 5450 0    50   Input ~ 0
~RESET
Text HLabel 3250 1600 0    50   Input ~ 0
XS[0..3]
Text HLabel 5550 4650 0    50   Input ~ 0
~CLK8M
Text HLabel 10400 4650 2    50   Output ~ 0
SERIAL-END
$Comp
L power:VCC #PWR?
U 1 1 5FD84742
P 5700 5000
AR Path="/60BA673A/5FD84742" Ref="#PWR?"  Part="1" 
AR Path="/5FB6D140/5FD84742" Ref="#PWR?"  Part="1" 
AR Path="/5FD021E1/5FD84742" Ref="#PWR?"  Part="1" 
AR Path="/5FB5A0A5/5FD84742" Ref="#PWR?"  Part="1" 
AR Path="/5FBBD4DB/5FBBDC0A/5FD84742" Ref="#PWR0141"  Part="1" 
F 0 "#PWR0141" H 5700 4850 50  0001 C CNN
F 1 "VCC" H 5715 5173 50  0000 C CNN
F 2 "" H 5700 5000 50  0001 C CNN
F 3 "" H 5700 5000 50  0001 C CNN
	1    5700 5000
	1    0    0    -1  
$EndComp
$Comp
L power:VCC #PWR?
U 1 1 5FD84748
P 9050 5000
AR Path="/60BA673A/5FD84748" Ref="#PWR?"  Part="1" 
AR Path="/5FB6D140/5FD84748" Ref="#PWR?"  Part="1" 
AR Path="/5FD021E1/5FD84748" Ref="#PWR?"  Part="1" 
AR Path="/5FB5A0A5/5FD84748" Ref="#PWR?"  Part="1" 
AR Path="/5FBBD4DB/5FBBDC0A/5FD84748" Ref="#PWR0142"  Part="1" 
F 0 "#PWR0142" H 9050 4850 50  0001 C CNN
F 1 "VCC" H 9065 5173 50  0000 C CNN
F 2 "" H 9050 5000 50  0001 C CNN
F 3 "" H 9050 5000 50  0001 C CNN
	1    9050 5000
	1    0    0    -1  
$EndComp
$Comp
L A5C:AND02 UAY?
U 1 1 5FD8474E
P 3400 4950
AR Path="/60BA673A/5FD8474E" Ref="UAY?"  Part="1" 
AR Path="/5FB6D140/5FD8474E" Ref="UAY?"  Part="1" 
AR Path="/5FD021E1/5FD8474E" Ref="UAT358"  Part="1" 
AR Path="/5FB5A0A5/5FD8474E" Ref="UAT358"  Part="1" 
AR Path="/5FBBD4DB/5FBBDC0A/5FD8474E" Ref="UAT358"  Part="1" 
F 0 "UAT358" H 3425 5217 50  0000 C CNN
F 1 "AND02" H 3425 5126 50  0000 C CNN
F 2 "" H 3400 4950 50  0001 C CNN
F 3 "" H 3400 4950 50  0001 C CNN
	1    3400 4950
	1    0    0    -1  
$EndComp
$Comp
L A5C:AND02 UAY?
U 1 1 5FD84754
P 3400 5400
AR Path="/60BA673A/5FD84754" Ref="UAY?"  Part="1" 
AR Path="/5FB6D140/5FD84754" Ref="UAY?"  Part="1" 
AR Path="/5FD021E1/5FD84754" Ref="UAT355"  Part="1" 
AR Path="/5FB5A0A5/5FD84754" Ref="UAT355"  Part="1" 
AR Path="/5FBBD4DB/5FBBDC0A/5FD84754" Ref="UAT355"  Part="1" 
F 0 "UAT355" H 3425 5667 50  0000 C CNN
F 1 "AND02" H 3425 5576 50  0000 C CNN
F 2 "" H 3400 5400 50  0001 C CNN
F 3 "" H 3400 5400 50  0001 C CNN
	1    3400 5400
	1    0    0    -1  
$EndComp
$Comp
L A5C:NAND02 UAY?
U 1 1 5FD8475A
P 6050 5000
AR Path="/60BA673A/5FD8475A" Ref="UAY?"  Part="1" 
AR Path="/5FB6D140/5FD8475A" Ref="UAY?"  Part="1" 
AR Path="/5FD021E1/5FD8475A" Ref="UAT330"  Part="1" 
AR Path="/5FB5A0A5/5FD8475A" Ref="UAT330"  Part="1" 
AR Path="/5FBBD4DB/5FBBDC0A/5FD8475A" Ref="UAT330"  Part="1" 
F 0 "UAT330" H 6075 5267 50  0000 C CNN
F 1 "NAND02" H 6075 5176 50  0000 C CNN
F 2 "" H 6050 5000 50  0001 C CNN
F 3 "" H 6050 5000 50  0001 C CNN
	1    6050 5000
	1    0    0    -1  
$EndComp
$Comp
L A5C:XOR02 UAY?
U 1 1 5FD84760
P 7600 1900
AR Path="/60BA673A/5FD84760" Ref="UAY?"  Part="1" 
AR Path="/5FB6D140/5FD84760" Ref="UAY?"  Part="1" 
AR Path="/5FD021E1/5FD84760" Ref="UAT332"  Part="1" 
AR Path="/5FB5A0A5/5FD84760" Ref="UAT332"  Part="1" 
AR Path="/5FBBD4DB/5FBBDC0A/5FD84760" Ref="UAT332"  Part="1" 
F 0 "UAT332" H 7625 2167 50  0000 C CNN
F 1 "XOR02" H 7625 2076 50  0000 C CNN
F 2 "" H 7600 1900 50  0001 C CNN
F 3 "" H 7600 1900 50  0001 C CNN
	1    7600 1900
	1    0    0    -1  
$EndComp
$Comp
L A5C:NOR02 UAY?
U 1 1 5FD84766
P 7600 2550
AR Path="/60BA673A/5FD84766" Ref="UAY?"  Part="1" 
AR Path="/5FB6D140/5FD84766" Ref="UAY?"  Part="1" 
AR Path="/5FD021E1/5FD84766" Ref="UAT342"  Part="1" 
AR Path="/5FB5A0A5/5FD84766" Ref="UAT342"  Part="1" 
AR Path="/5FBBD4DB/5FBBDC0A/5FD84766" Ref="UAT342"  Part="1" 
F 0 "UAT342" H 7625 2817 50  0000 C CNN
F 1 "NOR02" H 7625 2726 50  0000 C CNN
F 2 "" H 7600 2550 50  0001 C CNN
F 3 "" H 7600 2550 50  0001 C CNN
	1    7600 2550
	1    0    0    -1  
$EndComp
$Comp
L A5C:XNOR02 UAY?
U 1 1 5FD8476C
P 8150 2650
AR Path="/60BA673A/5FD8476C" Ref="UAY?"  Part="1" 
AR Path="/5FB6D140/5FD8476C" Ref="UAY?"  Part="1" 
AR Path="/5FD021E1/5FD8476C" Ref="UAT345"  Part="1" 
AR Path="/5FB5A0A5/5FD8476C" Ref="UAT345"  Part="1" 
AR Path="/5FBBD4DB/5FBBDC0A/5FD8476C" Ref="UAT345"  Part="1" 
F 0 "UAT345" H 8175 2917 50  0000 C CNN
F 1 "XNOR02" H 8175 2826 50  0000 C CNN
F 2 "" H 8175 2650 50  0001 C CNN
F 3 "" H 8175 2650 50  0001 C CNN
	1    8150 2650
	1    0    0    -1  
$EndComp
$Comp
L A5C:XNOR02 UAZ?
U 1 1 5FD84772
P 8200 3400
AR Path="/60BA673A/5FD84772" Ref="UAZ?"  Part="1" 
AR Path="/5FB6D140/5FD84772" Ref="UAZ?"  Part="1" 
AR Path="/5FD021E1/5FD84772" Ref="UAU355"  Part="1" 
AR Path="/5FB5A0A5/5FD84772" Ref="UAU355"  Part="1" 
AR Path="/5FBBD4DB/5FBBDC0A/5FD84772" Ref="UAU355"  Part="1" 
F 0 "UAU355" H 8225 3667 50  0000 C CNN
F 1 "XNOR02" H 8225 3576 50  0000 C CNN
F 2 "" H 8225 3400 50  0001 C CNN
F 3 "" H 8225 3400 50  0001 C CNN
	1    8200 3400
	1    0    0    -1  
$EndComp
$Comp
L A5C:XNOR02 UAZ?
U 1 1 5FD84778
P 8200 4150
AR Path="/60BA673A/5FD84778" Ref="UAZ?"  Part="1" 
AR Path="/5FB6D140/5FD84778" Ref="UAZ?"  Part="1" 
AR Path="/5FD021E1/5FD84778" Ref="UAU341"  Part="1" 
AR Path="/5FB5A0A5/5FD84778" Ref="UAU341"  Part="1" 
AR Path="/5FBBD4DB/5FBBDC0A/5FD84778" Ref="UAU341"  Part="1" 
F 0 "UAU341" H 8225 4417 50  0000 C CNN
F 1 "XNOR02" H 8225 4326 50  0000 C CNN
F 2 "" H 8225 4150 50  0001 C CNN
F 3 "" H 8225 4150 50  0001 C CNN
	1    8200 4150
	1    0    0    -1  
$EndComp
$Comp
L A5C:NOR02 UAZ?
U 1 1 5FD8477E
P 9900 4650
AR Path="/60BA673A/5FD8477E" Ref="UAZ?"  Part="1" 
AR Path="/5FB6D140/5FD8477E" Ref="UAZ?"  Part="1" 
AR Path="/5FD021E1/5FD8477E" Ref="UAU329"  Part="1" 
AR Path="/5FB5A0A5/5FD8477E" Ref="UAU329"  Part="1" 
AR Path="/5FBBD4DB/5FBBDC0A/5FD8477E" Ref="UAU329"  Part="1" 
F 0 "UAU329" H 9925 4917 50  0000 C CNN
F 1 "NOR02" H 9925 4826 50  0000 C CNN
F 2 "" H 9900 4650 50  0001 C CNN
F 3 "" H 9900 4650 50  0001 C CNN
	1    9900 4650
	1    0    0    -1  
$EndComp
$Comp
L A5C:INV01 UAY?
U 1 1 5FD8478A
P 2850 4900
AR Path="/60BA673A/5FD8478A" Ref="UAY?"  Part="1" 
AR Path="/5FB6D140/5FD8478A" Ref="UAY?"  Part="1" 
AR Path="/5FD021E1/5FD8478A" Ref="UAT357"  Part="1" 
AR Path="/5FB5A0A5/5FD8478A" Ref="UAT357"  Part="1" 
AR Path="/5FBBD4DB/5FBBDC0A/5FD8478A" Ref="UAT357"  Part="1" 
F 0 "UAT357" H 2850 5217 50  0000 C CNN
F 1 "INV01" H 2850 5126 50  0000 C CNN
F 2 "" H 2850 4700 50  0001 C CNN
F 3 "" H 2850 4700 50  0001 C CNN
	1    2850 4900
	1    0    0    -1  
$EndComp
$Comp
L A5C:NOR03 UAZ?
U 1 1 5FD847A2
P 7650 3250
AR Path="/60BA673A/5FD847A2" Ref="UAZ?"  Part="1" 
AR Path="/5FB6D140/5FD847A2" Ref="UAZ?"  Part="1" 
AR Path="/5FD021E1/5FD847A2" Ref="UAU358"  Part="1" 
AR Path="/5FB5A0A5/5FD847A2" Ref="UAU358"  Part="1" 
AR Path="/5FBBD4DB/5FBBDC0A/5FD847A2" Ref="UAU358"  Part="1" 
F 0 "UAU358" H 7650 3567 50  0000 C CNN
F 1 "NOR03" H 7650 3476 50  0000 C CNN
F 2 "" H 7650 3250 50  0001 C CNN
F 3 "" H 7650 3250 50  0001 C CNN
	1    7650 3250
	1    0    0    -1  
$EndComp
$Comp
L A5C:INV01 UAY?
U 1 1 5FD847A8
P 9350 5000
AR Path="/60BA673A/5FD847A8" Ref="UAY?"  Part="1" 
AR Path="/5FB6D140/5FD847A8" Ref="UAY?"  Part="1" 
AR Path="/5FD021E1/5FD847A8" Ref="UAT329"  Part="1" 
AR Path="/5FB5A0A5/5FD847A8" Ref="UAT329"  Part="1" 
AR Path="/5FBBD4DB/5FBBDC0A/5FD847A8" Ref="UAT329"  Part="1" 
F 0 "UAT329" H 9350 5317 50  0000 C CNN
F 1 "INV01" H 9350 5226 50  0000 C CNN
F 2 "" H 9350 4800 50  0001 C CNN
F 3 "" H 9350 4800 50  0001 C CNN
	1    9350 5000
	1    0    0    -1  
$EndComp
$Comp
L A5C:DFFCOO UAY?
U 1 1 5FD847AE
P 6100 2050
AR Path="/60BA673A/5FD847AE" Ref="UAY?"  Part="1" 
AR Path="/5FB6D140/5FD847AE" Ref="UAY?"  Part="1" 
AR Path="/5FD021E1/5FD847AE" Ref="UAT338"  Part="1" 
AR Path="/5FB5A0A5/5FD847AE" Ref="UAT338"  Part="1" 
AR Path="/5FBBD4DB/5FBBDC0A/5FD847AE" Ref="UAT338"  Part="1" 
F 0 "UAT338" H 6100 2415 50  0000 C CNN
F 1 "DFFCOO" H 6100 2324 50  0000 C CNN
F 2 "" H 6100 2050 50  0001 C CNN
F 3 "" H 6100 2050 50  0001 C CNN
	1    6100 2050
	1    0    0    -1  
$EndComp
$Comp
L A5C:DFFCOO UAY?
U 1 1 5FD847B4
P 6100 2800
AR Path="/60BA673A/5FD847B4" Ref="UAY?"  Part="1" 
AR Path="/5FB6D140/5FD847B4" Ref="UAY?"  Part="1" 
AR Path="/5FD021E1/5FD847B4" Ref="UAT350"  Part="1" 
AR Path="/5FB5A0A5/5FD847B4" Ref="UAT350"  Part="1" 
AR Path="/5FBBD4DB/5FBBDC0A/5FD847B4" Ref="UAT350"  Part="1" 
F 0 "UAT350" H 6100 3165 50  0000 C CNN
F 1 "DFFCOO" H 6100 3074 50  0000 C CNN
F 2 "" H 6100 2800 50  0001 C CNN
F 3 "" H 6100 2800 50  0001 C CNN
	1    6100 2800
	1    0    0    -1  
$EndComp
$Comp
L A5C:DFFCOO UAZ?
U 1 1 5FD847BA
P 6100 3550
AR Path="/60BA673A/5FD847BA" Ref="UAZ?"  Part="1" 
AR Path="/5FB6D140/5FD847BA" Ref="UAZ?"  Part="1" 
AR Path="/5FD021E1/5FD847BA" Ref="UAU347"  Part="1" 
AR Path="/5FB5A0A5/5FD847BA" Ref="UAU347"  Part="1" 
AR Path="/5FBBD4DB/5FBBDC0A/5FD847BA" Ref="UAU347"  Part="1" 
F 0 "UAU347" H 6100 3915 50  0000 C CNN
F 1 "DFFCOO" H 6100 3824 50  0000 C CNN
F 2 "" H 6100 3550 50  0001 C CNN
F 3 "" H 6100 3550 50  0001 C CNN
	1    6100 3550
	1    0    0    -1  
$EndComp
$Comp
L A5C:DFFCOO UAZ?
U 1 1 5FD847C0
P 6100 4300
AR Path="/60BA673A/5FD847C0" Ref="UAZ?"  Part="1" 
AR Path="/5FB6D140/5FD847C0" Ref="UAZ?"  Part="1" 
AR Path="/5FD021E1/5FD847C0" Ref="UAU334"  Part="1" 
AR Path="/5FB5A0A5/5FD847C0" Ref="UAU334"  Part="1" 
AR Path="/5FBBD4DB/5FBBDC0A/5FD847C0" Ref="UAU334"  Part="1" 
F 0 "UAU334" H 6100 4665 50  0000 C CNN
F 1 "DFFCOO" H 6100 4574 50  0000 C CNN
F 2 "" H 6100 4300 50  0001 C CNN
F 3 "" H 6100 4300 50  0001 C CNN
	1    6100 4300
	1    0    0    -1  
$EndComp
$Comp
L A5C:NOR04 UAZ?
U 1 1 5FD847C6
P 7650 3950
AR Path="/60BA673A/5FD847C6" Ref="UAZ?"  Part="1" 
AR Path="/5FB6D140/5FD847C6" Ref="UAZ?"  Part="1" 
AR Path="/5FD021E1/5FD847C6" Ref="UAU344"  Part="1" 
AR Path="/5FB5A0A5/5FD847C6" Ref="UAU344"  Part="1" 
AR Path="/5FBBD4DB/5FBBDC0A/5FD847C6" Ref="UAU344"  Part="1" 
F 0 "UAU344" H 7650 4292 50  0000 C CNN
F 1 "NOR04" H 7650 4201 50  0000 C CNN
F 2 "" H 7650 3950 50  0001 C CNN
F 3 "" H 7650 3950 50  0001 C CNN
	1    7650 3950
	1    0    0    -1  
$EndComp
$Comp
L A5C:OR04 UAZ?
U 1 1 5FD847CC
P 7650 4600
AR Path="/60BA673A/5FD847CC" Ref="UAZ?"  Part="1" 
AR Path="/5FB6D140/5FD847CC" Ref="UAZ?"  Part="1" 
AR Path="/5FD021E1/5FD847CC" Ref="UAU331"  Part="1" 
AR Path="/5FB5A0A5/5FD847CC" Ref="UAU331"  Part="1" 
AR Path="/5FBBD4DB/5FBBDC0A/5FD847CC" Ref="UAU331"  Part="1" 
F 0 "UAU331" H 7650 4942 50  0000 C CNN
F 1 "OR04" H 7650 4851 50  0000 C CNN
F 2 "" H 7650 4600 50  0001 C CNN
F 3 "" H 7650 4600 50  0001 C CNN
	1    7650 4600
	1    0    0    -1  
$EndComp
$Comp
L A5C:AOI22 UAY?
U 1 1 5FD847D2
P 5200 1900
AR Path="/60BA673A/5FD847D2" Ref="UAY?"  Part="1" 
AR Path="/5FB6D140/5FD847D2" Ref="UAY?"  Part="1" 
AR Path="/5FD021E1/5FD847D2" Ref="UAT335"  Part="1" 
AR Path="/5FB5A0A5/5FD847D2" Ref="UAT335"  Part="1" 
AR Path="/5FBBD4DB/5FBBDC0A/5FD847D2" Ref="UAT335"  Part="1" 
F 0 "UAT335" H 5225 2217 50  0000 C CNN
F 1 "AOI22" H 5225 2126 50  0000 C CNN
F 2 "" H 5350 1900 50  0001 C CNN
F 3 "" H 5350 1900 50  0001 C CNN
	1    5200 1900
	1    0    0    -1  
$EndComp
$Comp
L A5C:AOI22 UAY?
U 1 1 5FD847D8
P 5200 2650
AR Path="/60BA673A/5FD847D8" Ref="UAY?"  Part="1" 
AR Path="/5FB6D140/5FD847D8" Ref="UAY?"  Part="1" 
AR Path="/5FD021E1/5FD847D8" Ref="UAT347"  Part="1" 
AR Path="/5FB5A0A5/5FD847D8" Ref="UAT347"  Part="1" 
AR Path="/5FBBD4DB/5FBBDC0A/5FD847D8" Ref="UAT347"  Part="1" 
F 0 "UAT347" H 5225 2967 50  0000 C CNN
F 1 "AOI22" H 5225 2876 50  0000 C CNN
F 2 "" H 5350 2650 50  0001 C CNN
F 3 "" H 5350 2650 50  0001 C CNN
	1    5200 2650
	1    0    0    -1  
$EndComp
$Comp
L A5C:AOI22 UAZ?
U 1 1 5FD847DE
P 5200 3400
AR Path="/60BA673A/5FD847DE" Ref="UAZ?"  Part="1" 
AR Path="/5FB6D140/5FD847DE" Ref="UAZ?"  Part="1" 
AR Path="/5FD021E1/5FD847DE" Ref="UAU352"  Part="1" 
AR Path="/5FB5A0A5/5FD847DE" Ref="UAU352"  Part="1" 
AR Path="/5FBBD4DB/5FBBDC0A/5FD847DE" Ref="UAU352"  Part="1" 
F 0 "UAU352" H 5225 3717 50  0000 C CNN
F 1 "AOI22" H 5225 3626 50  0000 C CNN
F 2 "" H 5350 3400 50  0001 C CNN
F 3 "" H 5350 3400 50  0001 C CNN
	1    5200 3400
	1    0    0    -1  
$EndComp
$Comp
L A5C:AOI22 UAZ?
U 1 1 5FD847E4
P 5200 4150
AR Path="/60BA673A/5FD847E4" Ref="UAZ?"  Part="1" 
AR Path="/5FB6D140/5FD847E4" Ref="UAZ?"  Part="1" 
AR Path="/5FD021E1/5FD847E4" Ref="UAU339"  Part="1" 
AR Path="/5FB5A0A5/5FD847E4" Ref="UAU339"  Part="1" 
AR Path="/5FBBD4DB/5FBBDC0A/5FD847E4" Ref="UAU339"  Part="1" 
F 0 "UAU339" H 5225 4467 50  0000 C CNN
F 1 "AOI22" H 5225 4376 50  0000 C CNN
F 2 "" H 5350 4150 50  0001 C CNN
F 3 "" H 5350 4150 50  0001 C CNN
	1    5200 4150
	1    0    0    -1  
$EndComp
NoConn ~ 6350 2050
NoConn ~ 6350 2800
NoConn ~ 6350 3550
NoConn ~ 6350 4300
Wire Bus Line
	3400 1600 3400 3950
$EndSCHEMATC
