EESchema Schematic File Version 4
EELAYER 30 0
EELAYER END
$Descr A4 11693 8268
encoding utf-8
Sheet 7 69
Title ""
Date "2020-11-26"
Rev ""
Comp ""
Comment1 "Licence: CC-BY"
Comment2 "Author: Loïc *WydD* Petit"
Comment3 ""
Comment4 ""
$EndDescr
Entry Wire Line
	2050 1450 1950 1350
Entry Wire Line
	2050 1950 1950 1850
Entry Wire Line
	2050 2450 1950 2350
Entry Wire Line
	2050 2950 1950 2850
Entry Wire Line
	2050 3450 1950 3350
Entry Wire Line
	2050 3950 1950 3850
Entry Wire Line
	2050 4450 1950 4350
Entry Wire Line
	2050 4950 1950 4850
Entry Wire Line
	2050 5450 1950 5350
Entry Wire Line
	2050 5950 1950 5850
Entry Wire Line
	2050 6450 1950 6350
Entry Wire Line
	2050 6950 1950 6850
Entry Wire Line
	6450 1450 6550 1350
Entry Wire Line
	6450 1950 6550 1850
Entry Wire Line
	6450 2450 6550 2350
Entry Wire Line
	6450 2950 6550 2850
Entry Wire Line
	6450 3450 6550 3350
Entry Wire Line
	6450 3950 6550 3850
Entry Wire Line
	6450 4450 6550 4350
Entry Wire Line
	6450 4950 6550 4850
Entry Wire Line
	6450 5450 6550 5350
Entry Wire Line
	6450 5950 6550 5850
Entry Wire Line
	6450 6450 6550 6350
Entry Wire Line
	6450 6950 6550 6850
Wire Wire Line
	2050 1450 3950 1450
Wire Wire Line
	2050 1950 3950 1950
Wire Wire Line
	2050 2450 3950 2450
Wire Wire Line
	2050 2950 3950 2950
Wire Wire Line
	2050 3450 3950 3450
Wire Wire Line
	2050 3950 3950 3950
Wire Wire Line
	2050 4450 3950 4450
Wire Wire Line
	2050 4950 3950 4950
Wire Wire Line
	2050 5450 3950 5450
Wire Wire Line
	2050 5950 3950 5950
Wire Wire Line
	2050 6450 3950 6450
Wire Wire Line
	2050 6950 3950 6950
Wire Wire Line
	6450 1450 4550 1450
Wire Wire Line
	6450 1950 4550 1950
Wire Wire Line
	6450 2450 4550 2450
Wire Wire Line
	6450 2950 4550 2950
Wire Wire Line
	6450 3450 4550 3450
Wire Wire Line
	6450 3950 4550 3950
Wire Wire Line
	6450 4450 4550 4450
Wire Wire Line
	6450 4950 4550 4950
Wire Wire Line
	6450 5450 4550 5450
Wire Wire Line
	6450 5950 4550 5950
Wire Wire Line
	6450 6450 4550 6450
Wire Wire Line
	6450 6950 4550 6950
Wire Bus Line
	1650 1050 1950 1050
Wire Bus Line
	6850 1050 6550 1050
Text Label 2100 1450 0    50   ~ 0
IN0
Text Label 2100 1950 0    50   ~ 0
IN1
Text Label 2100 2450 0    50   ~ 0
IN2
Text Label 2100 2950 0    50   ~ 0
IN3
Text Label 2100 3450 0    50   ~ 0
IN4
Text Label 2100 3950 0    50   ~ 0
IN5
Text Label 2100 4450 0    50   ~ 0
IN6
Text Label 2100 4950 0    50   ~ 0
IN7
Text Label 2100 5450 0    50   ~ 0
IN8
Text Label 2100 5950 0    50   ~ 0
IN9
Text Label 2100 6450 0    50   ~ 0
IN10
Text Label 2100 6950 0    50   ~ 0
IN11
Text HLabel 1650 1050 0    50   Input ~ 0
IN[0..11]
Text HLabel 6850 1050 2    50   Output ~ 0
OUT[0..11]
$Comp
L A5C:BUF12 UBU1
U 1 1 5FAD911E
P 4250 1450
AR Path="/5FB27466/5FAD911E" Ref="UBU1"  Part="1" 
AR Path="/5FB062CA/5FBB6A46/5FAD911E" Ref="UBU1"  Part="1" 
AR Path="/5FBB8592/5FAD911E" Ref="UBU1"  Part="1" 
AR Path="/5FBDA2C0/5FBDAC10/5FAD911E" Ref="UBU1"  Part="1" 
F 0 "UBU1" H 4250 1766 50  0000 C CNN
F 1 "BUF12" H 4250 1675 50  0000 C CNN
F 2 "" H 4250 1450 50  0001 C CNN
F 3 "" H 4250 1450 50  0001 C CNN
	1    4250 1450
	1    0    0    -1  
$EndComp
$Comp
L A5C:BUF12 UBR1
U 1 1 5FAD9D91
P 4250 1950
AR Path="/5FB27466/5FAD9D91" Ref="UBR1"  Part="1" 
AR Path="/5FB062CA/5FBB6A46/5FAD9D91" Ref="UBR1"  Part="1" 
AR Path="/5FBB8592/5FAD9D91" Ref="UBR1"  Part="1" 
AR Path="/5FBDA2C0/5FBDAC10/5FAD9D91" Ref="UBR1"  Part="1" 
F 0 "UBR1" H 4250 2266 50  0000 C CNN
F 1 "BUF12" H 4250 2175 50  0000 C CNN
F 2 "" H 4250 1950 50  0001 C CNN
F 3 "" H 4250 1950 50  0001 C CNN
	1    4250 1950
	1    0    0    -1  
$EndComp
$Comp
L A5C:BUF12 UBH193
U 1 1 5FAE282F
P 4250 2450
AR Path="/5FB27466/5FAE282F" Ref="UBH193"  Part="1" 
AR Path="/5FB062CA/5FBB6A46/5FAE282F" Ref="UBH193"  Part="1" 
AR Path="/5FBB8592/5FAE282F" Ref="UBH193"  Part="1" 
AR Path="/5FBDA2C0/5FBDAC10/5FAE282F" Ref="UBH193"  Part="1" 
F 0 "UBH193" H 4250 2766 50  0000 C CNN
F 1 "BUF12" H 4250 2675 50  0000 C CNN
F 2 "" H 4250 2450 50  0001 C CNN
F 3 "" H 4250 2450 50  0001 C CNN
	1    4250 2450
	1    0    0    -1  
$EndComp
$Comp
L A5C:BUF12 UBH219
U 1 1 5FAEA3E0
P 4250 2950
AR Path="/5FB27466/5FAEA3E0" Ref="UBH219"  Part="1" 
AR Path="/5FB062CA/5FBB6A46/5FAEA3E0" Ref="UBH219"  Part="1" 
AR Path="/5FBB8592/5FAEA3E0" Ref="UBH219"  Part="1" 
AR Path="/5FBDA2C0/5FBDAC10/5FAEA3E0" Ref="UBH219"  Part="1" 
F 0 "UBH219" H 4250 3266 50  0000 C CNN
F 1 "BUF12" H 4250 3175 50  0000 C CNN
F 2 "" H 4250 2950 50  0001 C CNN
F 3 "" H 4250 2950 50  0001 C CNN
	1    4250 2950
	1    0    0    -1  
$EndComp
$Comp
L A5C:BUF12 UBD217
U 1 1 5FAEA3C2
P 4250 3450
AR Path="/5FB27466/5FAEA3C2" Ref="UBD217"  Part="1" 
AR Path="/5FB062CA/5FBB6A46/5FAEA3C2" Ref="UBD217"  Part="1" 
AR Path="/5FBB8592/5FAEA3C2" Ref="UBD217"  Part="1" 
AR Path="/5FBDA2C0/5FBDAC10/5FAEA3C2" Ref="UBD217"  Part="1" 
F 0 "UBD217" H 4250 3766 50  0000 C CNN
F 1 "BUF12" H 4250 3675 50  0000 C CNN
F 2 "" H 4250 3450 50  0001 C CNN
F 3 "" H 4250 3450 50  0001 C CNN
	1    4250 3450
	1    0    0    -1  
$EndComp
$Comp
L A5C:BUF12 UBR3
U 1 1 5FAEA3D1
P 4250 3950
AR Path="/5FB27466/5FAEA3D1" Ref="UBR3"  Part="1" 
AR Path="/5FB062CA/5FBB6A46/5FAEA3D1" Ref="UBR3"  Part="1" 
AR Path="/5FBB8592/5FAEA3D1" Ref="UBR3"  Part="1" 
AR Path="/5FBDA2C0/5FBDAC10/5FAEA3D1" Ref="UBR3"  Part="1" 
F 0 "UBR3" H 4250 4266 50  0000 C CNN
F 1 "BUF12" H 4250 4175 50  0000 C CNN
F 2 "" H 4250 3950 50  0001 C CNN
F 3 "" H 4250 3950 50  0001 C CNN
	1    4250 3950
	1    0    0    -1  
$EndComp
$Comp
L A5C:BUF12 UBD316
U 1 1 5FB04EFB
P 4250 4450
AR Path="/5FB27466/5FB04EFB" Ref="UBD316"  Part="1" 
AR Path="/5FB062CA/5FBB6A46/5FB04EFB" Ref="UBD316"  Part="1" 
AR Path="/5FBB8592/5FB04EFB" Ref="UBD316"  Part="1" 
AR Path="/5FBDA2C0/5FBDAC10/5FB04EFB" Ref="UBD316"  Part="1" 
F 0 "UBD316" H 4250 4766 50  0000 C CNN
F 1 "BUF12" H 4250 4675 50  0000 C CNN
F 2 "" H 4250 4450 50  0001 C CNN
F 3 "" H 4250 4450 50  0001 C CNN
	1    4250 4450
	1    0    0    -1  
$EndComp
$Comp
L A5C:BUF12 UBK193
U 1 1 5FB04EBF
P 4250 4950
AR Path="/5FB27466/5FB04EBF" Ref="UBK193"  Part="1" 
AR Path="/5FB062CA/5FBB6A46/5FB04EBF" Ref="UBK193"  Part="1" 
AR Path="/5FBB8592/5FB04EBF" Ref="UBK193"  Part="1" 
AR Path="/5FBDA2C0/5FBDAC10/5FB04EBF" Ref="UBK193"  Part="1" 
F 0 "UBK193" H 4250 5266 50  0000 C CNN
F 1 "BUF12" H 4250 5175 50  0000 C CNN
F 2 "" H 4250 4950 50  0001 C CNN
F 3 "" H 4250 4950 50  0001 C CNN
	1    4250 4950
	1    0    0    -1  
$EndComp
$Comp
L A5C:BUF12 UBR44
U 1 1 5FB04EDD
P 4250 5450
AR Path="/5FB27466/5FB04EDD" Ref="UBR44"  Part="1" 
AR Path="/5FB062CA/5FBB6A46/5FB04EDD" Ref="UBR44"  Part="1" 
AR Path="/5FBB8592/5FB04EDD" Ref="UBR44"  Part="1" 
AR Path="/5FBDA2C0/5FBDAC10/5FB04EDD" Ref="UBR44"  Part="1" 
F 0 "UBR44" H 4250 5766 50  0000 C CNN
F 1 "BUF12" H 4250 5675 50  0000 C CNN
F 2 "" H 4250 5450 50  0001 C CNN
F 3 "" H 4250 5450 50  0001 C CNN
	1    4250 5450
	1    0    0    -1  
$EndComp
$Comp
L A5C:BUF12 UBH217
U 1 1 5FB04EEC
P 4250 5950
AR Path="/5FB27466/5FB04EEC" Ref="UBH217"  Part="1" 
AR Path="/5FB062CA/5FBB6A46/5FB04EEC" Ref="UBH217"  Part="1" 
AR Path="/5FBB8592/5FB04EEC" Ref="UBH217"  Part="1" 
AR Path="/5FBDA2C0/5FBDAC10/5FB04EEC" Ref="UBH217"  Part="1" 
F 0 "UBH217" H 4250 6266 50  0000 C CNN
F 1 "BUF12" H 4250 6175 50  0000 C CNN
F 2 "" H 4250 5950 50  0001 C CNN
F 3 "" H 4250 5950 50  0001 C CNN
	1    4250 5950
	1    0    0    -1  
$EndComp
$Comp
L A5C:BUF12 UBK217
U 1 1 5FB04EB0
P 4250 6450
AR Path="/5FB27466/5FB04EB0" Ref="UBK217"  Part="1" 
AR Path="/5FB062CA/5FBB6A46/5FB04EB0" Ref="UBK217"  Part="1" 
AR Path="/5FBB8592/5FB04EB0" Ref="UBK217"  Part="1" 
AR Path="/5FBDA2C0/5FBDAC10/5FB04EB0" Ref="UBK217"  Part="1" 
F 0 "UBK217" H 4250 6766 50  0000 C CNN
F 1 "BUF12" H 4250 6675 50  0000 C CNN
F 2 "" H 4250 6450 50  0001 C CNN
F 3 "" H 4250 6450 50  0001 C CNN
	1    4250 6450
	1    0    0    -1  
$EndComp
$Comp
L A5C:BUF12 UBR5
U 1 1 5FB04ECE
P 4250 6950
AR Path="/5FB27466/5FB04ECE" Ref="UBR5"  Part="1" 
AR Path="/5FB062CA/5FBB6A46/5FB04ECE" Ref="UBR5"  Part="1" 
AR Path="/5FBB8592/5FB04ECE" Ref="UBR5"  Part="1" 
AR Path="/5FBDA2C0/5FBDAC10/5FB04ECE" Ref="UBR5"  Part="1" 
F 0 "UBR5" H 4250 7266 50  0000 C CNN
F 1 "BUF12" H 4250 7175 50  0000 C CNN
F 2 "" H 4250 6950 50  0001 C CNN
F 3 "" H 4250 6950 50  0001 C CNN
	1    4250 6950
	1    0    0    -1  
$EndComp
Text Label 6150 1450 2    50   ~ 0
OUT0
Text Label 6150 1950 2    50   ~ 0
OUT1
Text Label 6150 2450 2    50   ~ 0
OUT2
Text Label 6150 2950 2    50   ~ 0
OUT3
Text Label 6150 3450 2    50   ~ 0
OUT4
Text Label 6150 3950 2    50   ~ 0
OUT5
Text Label 6150 4450 2    50   ~ 0
OUT6
Text Label 6150 4950 2    50   ~ 0
OUT7
Text Label 6150 5450 2    50   ~ 0
OUT8
Text Label 6150 5950 2    50   ~ 0
OUT9
Text Label 6150 6450 2    50   ~ 0
OUT10
Text Label 6150 6950 2    50   ~ 0
OUT11
Wire Bus Line
	1950 1050 1950 6850
Wire Bus Line
	6550 1050 6550 6850
$EndSCHEMATC
