EESchema Schematic File Version 4
EELAYER 30 0
EELAYER END
$Descr A3 16535 11693
encoding utf-8
Sheet 29 69
Title ""
Date "2020-11-26"
Rev ""
Comp ""
Comment1 "Licence: CC-BY"
Comment2 "Author: Loïc *WydD* Petit"
Comment3 ""
Comment4 ""
$EndDescr
Connection ~ 8700 4800
Connection ~ 8700 8300
Connection ~ 8300 5600
Connection ~ 8600 4900
Connection ~ 8700 1450
Connection ~ 8600 1350
Connection ~ 8800 8400
Wire Wire Line
	6350 850  8900 850 
Wire Wire Line
	6350 950  8900 950 
Wire Wire Line
	6350 1050 8900 1050
Wire Wire Line
	6350 1150 8900 1150
Wire Wire Line
	6350 1350 8600 1350
Wire Wire Line
	6350 1450 8700 1450
Wire Wire Line
	6350 1650 8200 1650
Wire Wire Line
	6350 1950 6450 1950
Wire Wire Line
	6350 4300 8900 4300
Wire Wire Line
	6350 4400 8900 4400
Wire Wire Line
	6350 4500 8900 4500
Wire Wire Line
	6350 4600 8900 4600
Wire Wire Line
	6350 4800 8700 4800
Wire Wire Line
	6350 4900 8600 4900
Wire Wire Line
	6350 5100 8300 5100
Wire Wire Line
	6350 5200 8200 5200
Wire Wire Line
	6350 5500 6500 5500
Wire Wire Line
	6350 7800 8900 7800
Wire Wire Line
	6350 7900 8900 7900
Wire Wire Line
	6350 8000 8900 8000
Wire Wire Line
	6350 8100 8900 8100
Wire Wire Line
	6350 8300 8700 8300
Wire Wire Line
	6350 8400 8800 8400
Wire Wire Line
	6350 8500 8500 8500
Wire Wire Line
	6350 8700 8300 8700
Wire Wire Line
	6500 5500 6500 6150
Wire Wire Line
	6550 1850 6350 1850
Wire Wire Line
	6650 2100 8500 2100
Wire Wire Line
	8100 3200 10450 3200
Wire Wire Line
	8100 5850 8200 5850
Wire Wire Line
	8100 6650 10450 6650
Wire Wire Line
	8100 9350 8200 9350
Wire Wire Line
	8100 10150 10450 10150
Wire Wire Line
	8200 1650 8200 2400
Wire Wire Line
	8200 2400 8100 2400
Wire Wire Line
	8200 5200 8200 5850
Wire Wire Line
	8200 8800 6350 8800
Wire Wire Line
	8200 9350 8200 8800
Wire Wire Line
	8300 5100 8300 5600
Wire Wire Line
	8300 5600 8300 5950
Wire Wire Line
	8300 5950 8100 5950
Wire Wire Line
	8300 8700 8300 9450
Wire Wire Line
	8300 9450 8100 9450
Wire Wire Line
	8500 2250 8500 2100
Wire Wire Line
	8500 8500 8500 9100
Wire Wire Line
	8500 9100 8900 9100
Wire Wire Line
	8600 1350 8900 1350
Wire Wire Line
	8600 2650 8600 1350
Wire Wire Line
	8600 4900 8600 5900
Wire Wire Line
	8600 4900 8900 4900
Wire Wire Line
	8600 5900 8900 5900
Wire Wire Line
	8700 1450 8700 2550
Wire Wire Line
	8700 1450 8900 1450
Wire Wire Line
	8700 2550 8900 2550
Wire Wire Line
	8700 4800 8700 6000
Wire Wire Line
	8700 4800 8900 4800
Wire Wire Line
	8700 8300 8900 8300
Wire Wire Line
	8700 9400 8700 8300
Wire Wire Line
	8800 8400 8900 8400
Wire Wire Line
	8800 9500 8800 8400
Wire Wire Line
	8900 2250 8500 2250
Wire Wire Line
	8900 2650 8600 2650
Wire Wire Line
	8900 5600 8300 5600
Wire Wire Line
	8900 6000 8700 6000
Wire Wire Line
	8900 9400 8700 9400
Wire Wire Line
	8900 9500 8800 9500
Wire Wire Line
	10100 7800 10450 7800
Wire Wire Line
	10100 7900 10450 7900
Wire Wire Line
	10100 8000 10450 8000
Wire Wire Line
	10100 8100 10450 8100
Wire Wire Line
	10150 850  10450 850 
Wire Wire Line
	10150 950  10450 950 
Wire Wire Line
	10150 1050 10450 1050
Wire Wire Line
	10150 1150 10450 1150
Wire Wire Line
	10150 2250 10450 2250
Wire Wire Line
	10150 4300 10450 4300
Wire Wire Line
	10150 4400 10450 4400
Wire Wire Line
	10150 4500 10450 4500
Wire Wire Line
	10150 4600 10450 4600
Wire Wire Line
	10450 5600 10100 5600
Wire Wire Line
	10450 9100 10100 9100
Wire Bus Line
	6750 9000 6750 9450
Wire Bus Line
	6750 9450 6850 9450
Wire Bus Line
	8100 3000 10450 3000
Wire Bus Line
	8100 3100 10450 3100
Wire Bus Line
	8100 6150 8400 6150
Wire Bus Line
	8100 6250 8500 6250
Wire Bus Line
	8100 6450 10450 6450
Wire Bus Line
	8100 6550 10450 6550
Wire Bus Line
	8100 9650 8600 9650
Wire Bus Line
	8100 10050 10450 10050
Wire Bus Line
	8300 1650 8300 2500
Wire Bus Line
	8300 1650 8900 1650
Wire Bus Line
	8300 2500 8100 2500
Wire Bus Line
	8400 5050 8900 5050
Wire Bus Line
	8400 6150 8400 5050
Wire Bus Line
	8400 9000 6750 9000
Wire Bus Line
	8400 9250 8400 9000
Wire Bus Line
	8400 9250 8900 9250
Wire Bus Line
	8500 5750 8900 5750
Wire Bus Line
	8500 6250 8500 5750
Wire Bus Line
	8600 8550 8900 8550
Wire Bus Line
	8600 9650 8600 8550
Wire Bus Line
	8800 1750 8800 2400
Wire Bus Line
	8800 2400 8900 2400
Wire Bus Line
	8900 1750 8800 1750
Wire Bus Line
	10450 9950 8100 9950
Text Notes 14500 2000 2    200  ~ 0
SCROLL1 8x8
Text Notes 14850 5550 2    200  ~ 0
SCROLL2 16x16
Text Notes 14850 8550 2    200  ~ 0
SCROLL2 32x32
Text Label 4900 1450 2    50   ~ 0
GFX-CHNL
Text Label 4900 1650 2    50   ~ 0
SERIAL-LOAD
Text Label 4900 1750 2    50   ~ 0
SERIAL-CHNL
Text Label 4900 1950 2    50   ~ 0
CLK8M
Text Label 10450 3600 2    50   ~ 0
~LAYERS-E0
Text Label 10450 7100 2    50   ~ 0
~LAYERS-E1
Text Label 10450 10650 2    50   ~ 0
~LAYERS-E2
$Sheet
S 6850 2250 1250 1600
U 5FBBDBE7
F0 "cb-bus1" 50
F1 "cb-bus1.sch" 50
F2 "XSEL-OUT" O R 8100 2400 50 
F3 "XS-OUT[0..2]" O R 8100 2500 50 
F4 "XS[0..2]" I L 6850 2500 50 
F5 "XSEL" I L 6850 2400 50 
F6 "CLK8M" I L 6850 3650 50 
F7 "CDEN" I L 6850 3150 50 
F8 "CPC[0..1]" I L 6850 3050 50 
F9 "CB[0..4]" I L 6850 2950 50 
F10 "SERIAL-LOAD" I L 6850 3350 50 
F11 "LOAD-CHNLB" I L 6850 2750 50 
F12 "SERIAL-CHNL" I L 6850 3450 50 
F13 "LOAD-CHNLA" I L 6850 2650 50 
F14 "CPC-OUT[0..1]" O R 8100 3100 50 
F15 "CB-OUT[0..4]" O R 8100 3000 50 
F16 "CDEN-OUT" O R 8100 3200 50 
$EndSheet
$Sheet
S 6850 5700 1250 1750
U 5FBBDC03
F0 "cb-bus2" 50
F1 "cb-bus2.sch" 50
F2 "XSEL" I L 6850 5850 50 
F3 "XS[0..3]" I L 6850 5950 50 
F4 "CPC[0..1]" I L 6850 6550 50 
F5 "CB[0..4]" I L 6850 6450 50 
F6 "CDEN" I L 6850 6650 50 
F7 "CPC-OUT[0..1]" O R 8100 6550 50 
F8 "CB-OUT[0..4]" O R 8100 6450 50 
F9 "CDEN-OUT" O R 8100 6650 50 
F10 "XSEL-OUT" O R 8100 5950 50 
F11 "XS-OUT[0..3]" O R 8100 6150 50 
F12 "LOAD-CHNLB" I L 6850 6150 50 
F13 "CLK8M" I L 6850 7300 50 
F14 "SERIAL-LOAD" I L 6850 6850 50 
F15 "SERIAL-CHNL" I L 6850 6950 50 
F16 "SERIAL-CHNL-O" O R 8100 5850 50 
F17 "T-XS[0..3]" O R 8100 6250 50 
$EndSheet
$Sheet
S 6850 9200 1250 1200
U 5FBBDB83
F0 "cb-bus3" 50
F1 "cb-bus3.sch" 50
F2 "CPC[0..1]" I L 6850 10050 50 
F3 "CB[0..4]" I L 6850 9950 50 
F4 "LOAD-CHNLB" I L 6850 9750 50 
F5 "CDEN" I L 6850 10150 50 
F6 "XSEL" I L 6850 9350 50 
F7 "XS[0..3]" I L 6850 9450 50 
F8 "SERIAL-CHNL" I L 6850 10300 50 
F9 "SERIAL-CHNL-O" O R 8100 9350 50 
F10 "CB-OUT[0..4]" O R 8100 9950 50 
F11 "CDEN-OUT" O R 8100 10150 50 
F12 "CPC-OUT[0..1]" O R 8100 10050 50 
F13 "XSEL-OUT" O R 8100 9450 50 
F14 "XS-OUT[0..3]" O R 8100 9650 50 
F15 "LOAD-CHNLA" I L 6850 9650 50 
$EndSheet
$Sheet
S 10450 700  1100 3100
U 5FBBDBFE
F0 "col2-assemble" 50
F1 "col2-assemble.sch" 50
F2 "SERIAL-END" I L 10450 2250 50 
F3 "CLK8M" I L 10450 3500 50 
F4 "~COL2-E" I L 10450 3600 50 
F5 "TD[0..11]" O R 11550 1050 50 
F6 "COL2-D[0..11]" O R 11550 850 50 
F7 "CPC[0..1]" I L 10450 3100 50 
F8 "CB[0..4]" I L 10450 3000 50 
F9 "CDEN" I L 10450 3200 50 
F10 "GFX-A" I L 10450 850 50 
F11 "GFX-B" I L 10450 950 50 
F12 "GFX-C" I L 10450 1050 50 
F13 "GFX-D" I L 10450 1150 50 
F14 "~DEBUG" I L 10450 3400 50 
$EndSheet
$Sheet
S 10450 4150 1050 3100
U 5FBBDC12
F0 "col3-assemble" 50
F1 "col3-assemble.sch" 50
F2 "SERIAL-END" I L 10450 5600 50 
F3 "CLK8M" I L 10450 7000 50 
F4 "~COL3-E" I L 10450 7100 50 
F5 "TD[0..11]" O R 11500 4450 50 
F6 "CPC[0..1]" I L 10450 6550 50 
F7 "CB[0..4]" I L 10450 6450 50 
F8 "CDEN" I L 10450 6650 50 
F9 "GFX-A" I L 10450 4300 50 
F10 "GFX-B" I L 10450 4400 50 
F11 "GFX-C" I L 10450 4500 50 
F12 "GFX-D" I L 10450 4600 50 
F13 "COL3-D[0..11]" O R 11500 4300 50 
F14 "~DEBUG" I L 10450 6900 50 
$EndSheet
$Sheet
S 10450 7650 1050 3200
U 5FBBDC09
F0 "col4-assemble" 50
F1 "col4-assemble.sch" 50
F2 "CPC[0..1]" I L 10450 10050 50 
F3 "GFX-A" I L 10450 7800 50 
F4 "GFX-B" I L 10450 7900 50 
F5 "GFX-C" I L 10450 8000 50 
F6 "GFX-D" I L 10450 8100 50 
F7 "CB[0..4]" I L 10450 9950 50 
F8 "CDEN" I L 10450 10150 50 
F9 "~COL4-E" I L 10450 10650 50 
F10 "TD[0..11]" O R 11500 8000 50 
F11 "COL4-D[0..11]" O R 11500 7800 50 
F12 "SERIAL-END" I L 10450 9100 50 
F13 "CLK8M" I L 10450 10550 50 
F14 "~DEBUG" I L 10450 10450 50 
$EndSheet
$Sheet
S 8900 700  1250 1200
U 5FBBDBF0
F0 "sr1" 50
F1 "sr1.sch" 50
F2 "XS[0..2]" I L 8900 1650 50 
F3 "A" I L 8900 850 50 
F4 "B" I L 8900 950 50 
F5 "C" I L 8900 1050 50 
F6 "D" I L 8900 1150 50 
F7 "~RESET" I L 8900 1350 50 
F8 "~CLK8M" I L 8900 1450 50 
F9 "GFX-A" O R 10150 850 50 
F10 "GFX-B" O R 10150 950 50 
F11 "GFX-C" O R 10150 1050 50 
F12 "GFX-D" O R 10150 1150 50 
F13 "XS-BUF[0..2]" O L 8900 1750 50 
$EndSheet
$Sheet
S 8900 2100 1250 700 
U 5FBBDBF1
F0 "sr1-sync" 50
F1 "sr1-sync.sch" 50
F2 "LOAD" I L 8900 2250 50 
F3 "~CLK8M" I L 8900 2550 50 
F4 "SERIAL-END" O R 10150 2250 50 
F5 "XS[0..3]" I L 8900 2400 50 
F6 "~RESET" I L 8900 2650 50 
$EndSheet
$Sheet
S 8900 4150 1250 1050
U 5FBBDC13
F0 "sr2" 50
F1 "sr2.sch" 50
F2 "A" I L 8900 4300 50 
F3 "B" I L 8900 4400 50 
F4 "C" I L 8900 4500 50 
F5 "D" I L 8900 4600 50 
F6 "~CLK8M" I L 8900 4900 50 
F7 "XS[0..3]" I L 8900 5050 50 
F8 "GFX-A" O R 10150 4300 50 
F9 "GFX-B" O R 10150 4400 50 
F10 "GFX-C" O R 10150 4500 50 
F11 "GFX-D" O R 10150 4600 50 
F12 "~RESET" I L 8900 4800 50 
$EndSheet
$Sheet
S 8900 5450 1200 700 
U 5FBBDC14
F0 "sr2-sync" 50
F1 "sr2-sync.sch" 50
F2 "~LOAD" I L 8900 5600 50 
F3 "XS[0..3]" I L 8900 5750 50 
F4 "~CLK8M" I L 8900 5900 50 
F5 "SERIAL-END" O R 10100 5600 50 
F6 "~RESET" I L 8900 6000 50 
$EndSheet
$Sheet
S 8900 7650 1200 1050
U 5FBBDC0B
F0 "sr3" 50
F1 "sr3.sch" 50
F2 "A" I L 8900 7800 50 
F3 "B" I L 8900 7900 50 
F4 "C" I L 8900 8000 50 
F5 "D" I L 8900 8100 50 
F6 "~CLK8M" I L 8900 8300 50 
F7 "XS[0..3]" I L 8900 8550 50 
F8 "GFX-A" O R 10100 7800 50 
F9 "GFX-B" O R 10100 7900 50 
F10 "GFX-C" O R 10100 8000 50 
F11 "GFX-D" O R 10100 8100 50 
F12 "~RESET" I L 8900 8400 50 
$EndSheet
$Sheet
S 8900 8950 1200 700 
U 5FBBDC0A
F0 "sr3-sync" 50
F1 "sr3-sync.sch" 50
F2 "~LOAD" I L 8900 9100 50 
F3 "XS[0..3]" I L 8900 9250 50 
F4 "~CLK8M" I L 8900 9400 50 
F5 "SERIAL-END" O R 10100 9100 50 
F6 "~RESET" I L 8900 9500 50 
$EndSheet
$Sheet
S 5000 700  1350 1550
U 5FBBDBB4
F0 "xpd-bus1" 50
F1 "xpd-bus1.sch" 50
F2 "CLK8M" I L 5000 1950 50 
F3 "~RESET" I L 5000 2100 50 
F4 "B" O R 6350 950 50 
F5 "D" O R 6350 1150 50 
F6 "A" O R 6350 850 50 
F7 "C" O R 6350 1050 50 
F8 "XSEL" I R 6350 1650 50 
F9 "BPD[0..7]" I L 5000 950 50 
F10 "DPD[0..7]" I L 5000 1150 50 
F11 "APD[0..7]" I L 5000 850 50 
F12 "CPD[0..7]" I L 5000 1050 50 
F13 "~CLK8M" O R 6350 1450 50 
F14 "SERIAL-LOAD" I L 5000 1650 50 
F15 "SERIAL-CHNL" I L 5000 1750 50 
F16 "GFX-LOAD" I L 5000 1350 50 
F17 "GFX-CHNL" I L 5000 1450 50 
F18 "LOAD-CHNLB" O R 6350 1950 50 
F19 "LOAD-CHNLA" O R 6350 1850 50 
F20 "~RESET-BUF" O R 6350 1350 50 
$EndSheet
$Sheet
S 5000 4150 1350 1550
U 5FBBDB8D
F0 "xpd-bus2" 50
F1 "xpd-bus2.sch" 50
F2 "BPD[0..7]" I L 5000 4400 50 
F3 "DPD[0..7]" I L 5000 4600 50 
F4 "APD[0..7]" I L 5000 4300 50 
F5 "CPD[0..7]" I L 5000 4500 50 
F6 "GFX-CHNL" I L 5000 4900 50 
F7 "GFX-LOAD" I L 5000 4800 50 
F8 "CLK8M" I L 5000 5400 50 
F9 "SERIAL-CHNL" I R 6350 5200 50 
F10 "LOAD-CHNLB" O R 6350 5500 50 
F11 "XSEL" I R 6350 5100 50 
F12 "SERIAL-LOAD" I L 5000 5100 50 
F13 "~RESET" I L 5000 5550 50 
F14 "~CLK8M" O R 6350 4900 50 
F15 "B" O R 6350 4400 50 
F16 "D" O R 6350 4600 50 
F17 "A" O R 6350 4300 50 
F18 "C" O R 6350 4500 50 
F19 "~RESET-BUF" O R 6350 4800 50 
$EndSheet
$Sheet
S 5000 7650 1350 1550
U 5FBBDB9D
F0 "xpd-bus3" 50
F1 "xpd-bus3.sch" 50
F2 "BPD[0..7]" I L 5000 7900 50 
F3 "DPD[0..7]" I L 5000 8100 50 
F4 "APD[0..7]" I L 5000 7800 50 
F5 "CPD[0..7]" I L 5000 8000 50 
F6 "GFX-CHNL" I L 5000 8400 50 
F7 "GFX-LOAD" I L 5000 8300 50 
F8 "CLK8M" I L 5000 8900 50 
F9 "SERIAL-CHNL" I R 6350 8800 50 
F10 "LOAD-CHNLB" O R 6350 9050 50 
F11 "XSEL" I R 6350 8700 50 
F12 "SERIAL-LOAD" I L 5000 8600 50 
F13 "~RESET" I L 5000 9050 50 
F14 "~CLK8M" O R 6350 8300 50 
F15 "B" O R 6350 7900 50 
F16 "D" O R 6350 8100 50 
F17 "A" O R 6350 7800 50 
F18 "C" O R 6350 8000 50 
F19 "~SERIAL-LOAD" O R 6350 8500 50 
F20 "~RESET-BUF" O R 6350 8400 50 
F21 "LOAD-CHNLA" O R 6350 8950 50 
$EndSheet
Wire Bus Line
	11550 1050 11650 1050
Wire Bus Line
	11650 1050 11650 4450
Wire Bus Line
	11650 8000 11500 8000
Wire Bus Line
	11500 4450 11650 4450
Connection ~ 11650 4450
Wire Bus Line
	11650 4450 11650 8000
Text Label 10450 3400 2    50   ~ 0
~DEBUG3
Text Label 10450 6900 2    50   ~ 0
~DEBUG4
Text Label 10450 10450 2    50   ~ 0
~DEBUG5
Wire Bus Line
	5000 850  2700 850 
Wire Bus Line
	2700 850  2700 4300
Wire Bus Line
	2700 7800 5000 7800
Wire Bus Line
	5000 4300 2700 4300
Connection ~ 2700 4300
Wire Bus Line
	2700 4300 2700 7800
Wire Bus Line
	5000 4400 2800 4400
Wire Bus Line
	2800 4400 2800 7900
Wire Bus Line
	2800 7900 5000 7900
Wire Bus Line
	5000 8000 2900 8000
Wire Bus Line
	2900 8000 2900 4500
Wire Bus Line
	2900 4500 5000 4500
Wire Bus Line
	5000 4600 3000 4600
Wire Bus Line
	3000 4600 3000 8100
Wire Bus Line
	3000 8100 5000 8100
Wire Bus Line
	2800 4400 2800 950 
Wire Bus Line
	2800 950  5000 950 
Connection ~ 2800 4400
Wire Bus Line
	5000 1050 2900 1050
Wire Bus Line
	2900 1050 2900 4500
Connection ~ 2900 4500
Wire Bus Line
	3000 4600 3000 1150
Wire Bus Line
	3000 1150 5000 1150
Connection ~ 3000 4600
Wire Wire Line
	6850 2400 3100 2400
Wire Wire Line
	3100 2400 3100 5850
Wire Wire Line
	3100 5850 6850 5850
Wire Wire Line
	6850 9350 3100 9350
Wire Wire Line
	3100 9350 3100 5850
Connection ~ 3100 5850
Wire Bus Line
	6750 9450 3200 9450
Wire Bus Line
	3200 9450 3200 5950
Wire Bus Line
	3200 5950 6850 5950
Connection ~ 6750 9450
Wire Bus Line
	3200 5950 3200 2500
Wire Bus Line
	3200 2500 6850 2500
Connection ~ 3200 5950
Wire Bus Line
	6850 2950 3300 2950
Wire Bus Line
	3300 6450 6850 6450
Wire Bus Line
	6850 9950 3300 9950
Wire Bus Line
	3300 9950 3300 6450
Connection ~ 3300 6450
Wire Bus Line
	6850 3050 3400 3050
Wire Bus Line
	3400 10050 6850 10050
Wire Bus Line
	6850 6550 3400 6550
Connection ~ 3400 6550
Wire Bus Line
	3400 6550 3400 10050
Wire Wire Line
	6850 3150 3500 3150
Wire Wire Line
	3500 6650 6850 6650
Wire Wire Line
	3500 6650 3500 10150
Wire Wire Line
	3500 10150 6850 10150
Connection ~ 3500 6650
Wire Wire Line
	3650 1950 3650 3650
Wire Wire Line
	3650 3650 6750 3650
Wire Wire Line
	3650 1950 5000 1950
Wire Wire Line
	3650 3650 3650 5400
Wire Wire Line
	3650 5400 5000 5400
Connection ~ 3650 3650
Wire Wire Line
	3650 5400 3650 7300
Wire Wire Line
	3650 7300 6750 7300
Connection ~ 3650 5400
Wire Wire Line
	3650 7300 3650 8900
Wire Wire Line
	3650 8900 5000 8900
Connection ~ 3650 7300
Connection ~ 3650 8900
Wire Wire Line
	3800 1450 3800 4900
Wire Wire Line
	3800 4900 5000 4900
Wire Wire Line
	3800 1450 5000 1450
Wire Wire Line
	3800 4900 3800 8400
Wire Wire Line
	3800 8400 5000 8400
Connection ~ 3800 4900
Wire Wire Line
	3900 5100 5000 5100
Wire Wire Line
	3900 1650 5000 1650
Wire Wire Line
	3900 5100 3900 6850
Wire Wire Line
	3900 6850 6850 6850
Connection ~ 3900 5100
Wire Wire Line
	3900 6850 3900 8600
Wire Wire Line
	3900 8600 5000 8600
Connection ~ 3900 6850
Wire Wire Line
	4000 3450 6850 3450
Wire Wire Line
	4000 1750 5000 1750
Wire Wire Line
	4000 6950 6850 6950
Wire Wire Line
	4000 6950 4000 10300
Wire Wire Line
	4000 10300 6850 10300
Connection ~ 4000 6950
Wire Bus Line
	3300 2950 3300 6450
Wire Bus Line
	3400 3050 3400 6550
Wire Wire Line
	3500 3150 3500 6650
Connection ~ 3900 3350
Wire Wire Line
	3900 3350 3900 5100
Connection ~ 4000 3450
Wire Wire Line
	4000 3450 4000 6950
Wire Wire Line
	3900 1650 3900 3350
Wire Wire Line
	4000 1750 4000 3450
Wire Wire Line
	3900 3350 6650 3350
Connection ~ 6650 3350
Wire Wire Line
	6650 3350 6850 3350
Wire Wire Line
	6850 2650 6550 2650
Wire Wire Line
	6550 2650 6550 1850
Wire Wire Line
	6450 1950 6450 2750
Wire Wire Line
	6450 2750 6850 2750
Wire Wire Line
	6650 2100 6650 3350
Wire Wire Line
	6850 6150 6500 6150
Wire Wire Line
	6350 9050 6450 9050
Wire Wire Line
	6450 9050 6450 9750
Wire Wire Line
	6450 9750 6850 9750
Wire Wire Line
	6850 9650 6550 9650
Wire Wire Line
	6550 9650 6550 8950
Wire Wire Line
	6550 8950 6350 8950
Wire Wire Line
	5000 2100 4900 2100
Wire Wire Line
	4900 2100 4900 5550
Wire Wire Line
	4900 5550 5000 5550
Wire Wire Line
	4900 5550 4900 9050
Wire Wire Line
	4900 9050 5000 9050
Connection ~ 4900 5550
Wire Wire Line
	6750 7300 6750 7600
Wire Wire Line
	6750 7600 8200 7600
Wire Wire Line
	8200 7600 8200 7000
Wire Wire Line
	8200 7000 10450 7000
Connection ~ 6750 7300
Wire Wire Line
	6750 7300 6850 7300
Wire Wire Line
	10450 3500 8200 3500
Wire Wire Line
	8200 3500 8200 4000
Wire Wire Line
	8200 4000 6750 4000
Wire Wire Line
	6750 4000 6750 3650
Connection ~ 6750 3650
Wire Wire Line
	6750 3650 6850 3650
Text HLabel 2200 10550 0    50   Input ~ 0
CLK8M
Wire Wire Line
	3500 10150 2200 10150
Connection ~ 3500 10150
Text HLabel 2200 10150 0    50   Input ~ 0
CDEN
Wire Bus Line
	3400 10050 2200 10050
Connection ~ 3400 10050
Wire Bus Line
	3300 9950 2200 9950
Connection ~ 3300 9950
Text HLabel 2200 10050 0    50   Input ~ 0
CPC[0..1]
Text HLabel 2200 9950 0    50   Input ~ 0
CB[0..4]
Wire Bus Line
	3200 9450 2200 9450
Connection ~ 3200 9450
Text HLabel 2200 9450 0    50   Input ~ 0
XS[0..3]
Text HLabel 2200 9350 0    50   Input ~ 0
XSEL
Wire Wire Line
	2200 9350 3100 9350
Connection ~ 3100 9350
Wire Bus Line
	3000 8100 2200 8100
Connection ~ 3000 8100
Wire Bus Line
	2900 8000 2200 8000
Connection ~ 2900 8000
Wire Bus Line
	2800 7900 2200 7900
Connection ~ 2800 7900
Wire Bus Line
	2700 7800 2200 7800
Connection ~ 2700 7800
Text HLabel 2200 7800 0    50   Input ~ 0
APD[0..7]
Text HLabel 2200 7900 0    50   Input ~ 0
BPD[0..7]
Text HLabel 2200 8000 0    50   Input ~ 0
CPD[0..7]
Text HLabel 2200 8100 0    50   Input ~ 0
DPD[0..7]
Wire Wire Line
	2200 1450 3800 1450
Connection ~ 3800 1450
Wire Wire Line
	3900 1650 2200 1650
Connection ~ 3900 1650
Wire Wire Line
	4000 1750 2200 1750
Connection ~ 4000 1750
Wire Wire Line
	4900 2100 2200 2100
Connection ~ 4900 2100
Text HLabel 2200 1450 0    50   Input ~ 0
GFX-CHNL
Text HLabel 2200 1650 0    50   Input ~ 0
SERIAL-LOAD
Text HLabel 2200 1750 0    50   Input ~ 0
SERIAL-CHNL
Text HLabel 2200 2100 0    50   Input ~ 0
~RESET
Text HLabel 2200 1350 0    50   Input ~ 0
LOAD-XPD1
Wire Wire Line
	2200 1350 5000 1350
Text HLabel 2200 4800 0    50   Input ~ 0
LOAD-XPD2
Wire Wire Line
	2200 4800 5000 4800
Text HLabel 2200 8300 0    50   Input ~ 0
LOAD-XPD3
Wire Wire Line
	2200 8300 5000 8300
Wire Bus Line
	11550 850  12150 850 
Text HLabel 12150 850  2    50   Output ~ 0
SCROLL1-D[0..11]
Text HLabel 12150 1050 2    50   3State ~ 0
TD[0..11]
Wire Bus Line
	12150 1050 11650 1050
Connection ~ 11650 1050
Wire Bus Line
	11500 4300 12100 4300
Text HLabel 12100 4300 2    50   Output ~ 0
SCROLL2-D[0..11]
Wire Bus Line
	11500 7800 12100 7800
Text HLabel 12100 7800 2    50   Output ~ 0
SCROLL3-D[0..11]
Text HLabel 14200 6200 0    50   Input ~ 0
~LAYERS-E[0..2]
Wire Bus Line
	14200 6200 14350 6200
Entry Wire Line
	14350 6450 14450 6550
Entry Wire Line
	14350 6350 14450 6450
Entry Wire Line
	14350 6250 14450 6350
Text Label 14500 6350 0    50   ~ 0
~LAYERS-E0
Wire Wire Line
	14450 6350 15050 6350
Text Label 14500 6450 0    50   ~ 0
~LAYERS-E1
Wire Wire Line
	14450 6450 15050 6450
Text Label 14500 6550 0    50   ~ 0
~LAYERS-E2
Wire Wire Line
	14450 6550 15050 6550
Text HLabel 14200 6700 0    50   Input ~ 0
~DEBUG[3..5]
Wire Bus Line
	14200 6700 14350 6700
Entry Wire Line
	14350 6950 14450 7050
Entry Wire Line
	14350 6850 14450 6950
Entry Wire Line
	14350 6750 14450 6850
Text Label 14500 6850 0    50   ~ 0
~DEBUG3
Wire Wire Line
	14450 6850 15050 6850
Text Label 14500 6950 0    50   ~ 0
~DEBUG4
Wire Wire Line
	14450 6950 15050 6950
Text Label 14500 7050 0    50   ~ 0
~DEBUG5
Wire Wire Line
	14450 7050 15050 7050
Wire Wire Line
	2200 10550 3650 10550
Wire Wire Line
	3650 8900 3650 10550
Connection ~ 3650 10550
Wire Bus Line
	14350 6200 14350 6450
Wire Bus Line
	14350 6700 14350 6950
Wire Wire Line
	3650 10550 10450 10550
$EndSCHEMATC
