EESchema Schematic File Version 4
EELAYER 30 0
EELAYER END
$Descr A4 11693 8268
encoding utf-8
Sheet 48 69
Title ""
Date "2020-11-26"
Rev ""
Comp ""
Comment1 "Licence: CC-BY"
Comment2 "Author: Loïc *WydD* Petit"
Comment3 ""
Comment4 ""
$EndDescr
Connection ~ 2450 3000
Connection ~ 2450 3750
Connection ~ 2450 4500
Connection ~ 2350 4300
Connection ~ 2350 3550
Connection ~ 2350 2800
Connection ~ 4150 3000
Connection ~ 4150 3750
Connection ~ 4150 4500
Connection ~ 4050 4300
Connection ~ 4050 3550
Connection ~ 4050 2800
Connection ~ 5850 3000
Connection ~ 5850 3750
Connection ~ 5850 4500
Connection ~ 5750 4300
Connection ~ 5750 3550
Connection ~ 5750 2800
Connection ~ 7550 3000
Connection ~ 7550 3750
Connection ~ 7550 4500
Connection ~ 7450 4300
Connection ~ 7450 3550
Connection ~ 7450 2800
Connection ~ 2800 5250
Connection ~ 4150 5250
Connection ~ 4500 5250
Connection ~ 5850 5250
Connection ~ 6200 5250
Connection ~ 7550 5250
Connection ~ 2350 5050
Connection ~ 7450 5050
Connection ~ 5750 5050
Connection ~ 5750 5350
Connection ~ 4050 5050
Connection ~ 4050 5350
Connection ~ 2450 5250
Connection ~ 2350 5350
NoConn ~ 3050 1950
NoConn ~ 3050 2700
NoConn ~ 3050 3450
NoConn ~ 3050 4200
NoConn ~ 3050 4950
NoConn ~ 4750 4950
NoConn ~ 4750 4200
NoConn ~ 4750 3450
NoConn ~ 4750 2700
NoConn ~ 4750 1950
NoConn ~ 6450 4950
NoConn ~ 6450 4200
NoConn ~ 6450 3450
NoConn ~ 6450 2700
NoConn ~ 6450 1950
NoConn ~ 8150 4950
NoConn ~ 8150 4200
NoConn ~ 8150 3450
NoConn ~ 8150 2700
NoConn ~ 8150 1950
Wire Wire Line
	2150 1850 2550 1850
Wire Wire Line
	2150 3350 2550 3350
Wire Wire Line
	2150 4850 2550 4850
Wire Wire Line
	2350 2050 2350 2800
Wire Wire Line
	2350 2800 2350 3550
Wire Wire Line
	2350 3550 2350 4300
Wire Wire Line
	2350 4300 2350 5050
Wire Wire Line
	2350 5050 2350 5350
Wire Wire Line
	2350 5050 2550 5050
Wire Wire Line
	2350 5350 4050 5350
Wire Wire Line
	2350 5750 2350 5350
Wire Wire Line
	2450 2250 2800 2250
Wire Wire Line
	2450 3000 2450 2250
Wire Wire Line
	2450 3750 2450 3000
Wire Wire Line
	2450 4500 2450 3750
Wire Wire Line
	2450 5250 2150 5250
Wire Wire Line
	2450 5250 2450 4500
Wire Wire Line
	2550 2050 2350 2050
Wire Wire Line
	2550 2600 2150 2600
Wire Wire Line
	2550 2800 2350 2800
Wire Wire Line
	2550 3550 2350 3550
Wire Wire Line
	2550 4100 2150 4100
Wire Wire Line
	2550 4300 2350 4300
Wire Wire Line
	2800 3000 2450 3000
Wire Wire Line
	2800 3750 2450 3750
Wire Wire Line
	2800 4500 2450 4500
Wire Wire Line
	2800 5250 2450 5250
Wire Wire Line
	2800 5250 4150 5250
Wire Wire Line
	3050 1850 4250 1850
Wire Wire Line
	3050 3350 4250 3350
Wire Wire Line
	3050 4850 4250 4850
Wire Wire Line
	4050 2050 4050 2800
Wire Wire Line
	4050 2800 4050 3550
Wire Wire Line
	4050 3550 4050 4300
Wire Wire Line
	4050 4300 4050 5050
Wire Wire Line
	4050 5050 4050 5350
Wire Wire Line
	4050 5050 4250 5050
Wire Wire Line
	4050 5350 5750 5350
Wire Wire Line
	4150 2250 4500 2250
Wire Wire Line
	4150 3000 4150 2250
Wire Wire Line
	4150 3750 4150 3000
Wire Wire Line
	4150 4500 4150 3750
Wire Wire Line
	4150 5250 4150 4500
Wire Wire Line
	4250 2050 4050 2050
Wire Wire Line
	4250 2600 3050 2600
Wire Wire Line
	4250 2800 4050 2800
Wire Wire Line
	4250 3550 4050 3550
Wire Wire Line
	4250 4100 3050 4100
Wire Wire Line
	4250 4300 4050 4300
Wire Wire Line
	4500 3000 4150 3000
Wire Wire Line
	4500 3750 4150 3750
Wire Wire Line
	4500 4500 4150 4500
Wire Wire Line
	4500 5250 4150 5250
Wire Wire Line
	4500 5250 5850 5250
Wire Wire Line
	4750 1850 5950 1850
Wire Wire Line
	4750 3350 5950 3350
Wire Wire Line
	4750 4850 5950 4850
Wire Wire Line
	5750 2050 5750 2800
Wire Wire Line
	5750 2800 5750 3550
Wire Wire Line
	5750 3550 5750 4300
Wire Wire Line
	5750 4300 5750 5050
Wire Wire Line
	5750 5050 5750 5350
Wire Wire Line
	5750 5050 5950 5050
Wire Wire Line
	5750 5350 7450 5350
Wire Wire Line
	5850 2250 6200 2250
Wire Wire Line
	5850 3000 5850 2250
Wire Wire Line
	5850 3750 5850 3000
Wire Wire Line
	5850 4500 5850 3750
Wire Wire Line
	5850 5250 5850 4500
Wire Wire Line
	5850 5250 6200 5250
Wire Wire Line
	5950 2050 5750 2050
Wire Wire Line
	5950 2600 4750 2600
Wire Wire Line
	5950 2800 5750 2800
Wire Wire Line
	5950 3550 5750 3550
Wire Wire Line
	5950 4100 4750 4100
Wire Wire Line
	5950 4300 5750 4300
Wire Wire Line
	6200 3000 5850 3000
Wire Wire Line
	6200 3750 5850 3750
Wire Wire Line
	6200 4500 5850 4500
Wire Wire Line
	6200 5250 7550 5250
Wire Wire Line
	6450 1850 7650 1850
Wire Wire Line
	6450 3350 7650 3350
Wire Wire Line
	6450 4850 7650 4850
Wire Wire Line
	7450 2050 7450 2800
Wire Wire Line
	7450 2800 7450 3550
Wire Wire Line
	7450 3550 7450 4300
Wire Wire Line
	7450 4300 7450 5050
Wire Wire Line
	7450 5050 7650 5050
Wire Wire Line
	7450 5350 7450 5050
Wire Wire Line
	7550 2250 7900 2250
Wire Wire Line
	7550 3000 7550 2250
Wire Wire Line
	7550 3750 7550 3000
Wire Wire Line
	7550 4500 7550 3750
Wire Wire Line
	7550 5250 7550 4500
Wire Wire Line
	7550 5250 7900 5250
Wire Wire Line
	7650 2050 7450 2050
Wire Wire Line
	7650 2600 6450 2600
Wire Wire Line
	7650 2800 7450 2800
Wire Wire Line
	7650 3550 7450 3550
Wire Wire Line
	7650 4100 6450 4100
Wire Wire Line
	7650 4300 7450 4300
Wire Wire Line
	7900 3000 7550 3000
Wire Wire Line
	7900 3750 7550 3750
Wire Wire Line
	7900 4500 7550 4500
Text HLabel 1750 5750 0    50   Input ~ 0
CLK8M
Text HLabel 2150 1850 0    50   Input ~ 0
VSYNC-IN
Text HLabel 2150 2600 0    50   Input ~ 0
~VBLANK-IN
Text HLabel 2150 3350 0    50   Input ~ 0
HSYNC-IN
Text HLabel 2150 4100 0    50   Input ~ 0
~HBLANK-IN
Text HLabel 2150 4850 0    50   Input ~ 0
BLANK
Text HLabel 2150 5250 0    50   Input ~ 0
~RESET
Text HLabel 8750 1850 2    50   Output ~ 0
VSYNC-OUT
Text HLabel 8750 2600 2    50   Output ~ 0
~VBLANK-OUT
Text HLabel 8750 3350 2    50   Output ~ 0
HSYNC-OUT
Text HLabel 8750 4100 2    50   Output ~ 0
~HBLANK-OUT
Text HLabel 8750 4850 2    50   Output ~ 0
BLANK-OUT
$Comp
L A5C:NBUF02 UBH?
U 1 1 60F0E5D6
P 2050 5750
AR Path="/60F0E5D6" Ref="UBH?"  Part="1" 
AR Path="/608619A2/60F0E5D6" Ref="UBH331"  Part="1" 
AR Path="/5FC16B93/5FC17155/60F0E5D6" Ref="UBH331"  Part="1" 
F 0 "UBH331" H 2050 6066 50  0000 C CNN
F 1 "NBUF02" H 2050 5975 50  0000 C CNN
F 2 "" H 2050 5550 50  0001 C CNN
F 3 "" H 2050 5550 50  0001 C CNN
	1    2050 5750
	1    0    0    -1  
$EndComp
$Comp
L A5C:BUF12 UAA482
U 1 1 60897286
P 8450 1850
AR Path="/608619A2/60897286" Ref="UAA482"  Part="1" 
AR Path="/5FC16B93/5FC17155/60897286" Ref="UAA482"  Part="1" 
F 0 "UAA482" H 8450 2167 50  0000 C CNN
F 1 "BUF12" H 8450 2076 50  0000 C CNN
F 2 "" H 8450 1850 50  0001 C CNN
F 3 "" H 8450 1850 50  0001 C CNN
	1    8450 1850
	1    0    0    -1  
$EndComp
$Comp
L A5C:BUF12 UAA506
U 1 1 6089713A
P 8450 2600
AR Path="/608619A2/6089713A" Ref="UAA506"  Part="1" 
AR Path="/5FC16B93/5FC17155/6089713A" Ref="UAA506"  Part="1" 
F 0 "UAA506" H 8450 2917 50  0000 C CNN
F 1 "BUF12" H 8450 2826 50  0000 C CNN
F 2 "" H 8450 2600 50  0001 C CNN
F 3 "" H 8450 2600 50  0001 C CNN
	1    8450 2600
	1    0    0    -1  
$EndComp
$Comp
L A5C:BUF12 UAA485
U 1 1 60896FDE
P 8450 3350
AR Path="/608619A2/60896FDE" Ref="UAA485"  Part="1" 
AR Path="/5FC16B93/5FC17155/60896FDE" Ref="UAA485"  Part="1" 
F 0 "UAA485" H 8450 3667 50  0000 C CNN
F 1 "BUF12" H 8450 3576 50  0000 C CNN
F 2 "" H 8450 3350 50  0001 C CNN
F 3 "" H 8450 3350 50  0001 C CNN
	1    8450 3350
	1    0    0    -1  
$EndComp
$Comp
L A5C:BUF12 UAA511
U 1 1 60895405
P 8450 4100
AR Path="/608619A2/60895405" Ref="UAA511"  Part="1" 
AR Path="/5FC16B93/5FC17155/60895405" Ref="UAA511"  Part="1" 
F 0 "UAA511" H 8450 4417 50  0000 C CNN
F 1 "BUF12" H 8450 4326 50  0000 C CNN
F 2 "" H 8450 4100 50  0001 C CNN
F 3 "" H 8450 4100 50  0001 C CNN
	1    8450 4100
	1    0    0    -1  
$EndComp
$Comp
L A5C:BUF12 UBK435
U 1 1 608912DE
P 8450 4850
AR Path="/608619A2/608912DE" Ref="UBK435"  Part="1" 
AR Path="/5FC16B93/5FC17155/608912DE" Ref="UBK435"  Part="1" 
F 0 "UBK435" H 8450 5167 50  0000 C CNN
F 1 "BUF12" H 8450 5076 50  0000 C CNN
F 2 "" H 8450 4850 50  0001 C CNN
F 3 "" H 8450 4850 50  0001 C CNN
	1    8450 4850
	1    0    0    -1  
$EndComp
$Comp
L A5C:DFFCOR UBU388
U 1 1 60865A47
P 2800 1950
AR Path="/608619A2/60865A47" Ref="UBU388"  Part="1" 
AR Path="/5FC16B93/5FC17155/60865A47" Ref="UBU388"  Part="1" 
F 0 "UBU388" H 2800 2315 50  0000 C CNN
F 1 "DFFCOR" H 2800 2224 50  0000 C CNN
F 2 "" H 2800 1950 50  0001 C CNN
F 3 "" H 2800 1950 50  0001 C CNN
F 4 "UBU385;UBU410" H 2800 1950 50  0001 C CNN "MiscRef"
	1    2800 1950
	1    0    0    -1  
$EndComp
$Comp
L A5C:DFFCOR UBU392
U 1 1 60865D2B
P 2800 2700
AR Path="/608619A2/60865D2B" Ref="UBU392"  Part="1" 
AR Path="/5FC16B93/5FC17155/60865D2B" Ref="UBU392"  Part="1" 
F 0 "UBU392" H 2800 3065 50  0000 C CNN
F 1 "DFFCOR" H 2800 2974 50  0000 C CNN
F 2 "" H 2800 2700 50  0001 C CNN
F 3 "" H 2800 2700 50  0001 C CNN
	1    2800 2700
	1    0    0    -1  
$EndComp
$Comp
L A5C:DFFCOR UBU396
U 1 1 60865EA7
P 2800 3450
AR Path="/608619A2/60865EA7" Ref="UBU396"  Part="1" 
AR Path="/5FC16B93/5FC17155/60865EA7" Ref="UBU396"  Part="1" 
F 0 "UBU396" H 2800 3815 50  0000 C CNN
F 1 "DFFCOR" H 2800 3724 50  0000 C CNN
F 2 "" H 2800 3450 50  0001 C CNN
F 3 "" H 2800 3450 50  0001 C CNN
	1    2800 3450
	1    0    0    -1  
$EndComp
$Comp
L A5C:DFFCOR UBU401
U 1 1 60865FAF
P 2800 4200
AR Path="/608619A2/60865FAF" Ref="UBU401"  Part="1" 
AR Path="/5FC16B93/5FC17155/60865FAF" Ref="UBU401"  Part="1" 
F 0 "UBU401" H 2800 4565 50  0000 C CNN
F 1 "DFFCOR" H 2800 4474 50  0000 C CNN
F 2 "" H 2800 4200 50  0001 C CNN
F 3 "" H 2800 4200 50  0001 C CNN
	1    2800 4200
	1    0    0    -1  
$EndComp
$Comp
L A5C:DFFCOR UBU405
U 1 1 60866223
P 2800 4950
AR Path="/608619A2/60866223" Ref="UBU405"  Part="1" 
AR Path="/5FC16B93/5FC17155/60866223" Ref="UBU405"  Part="1" 
F 0 "UBU405" H 2800 5315 50  0000 C CNN
F 1 "DFFCOR" H 2800 5224 50  0000 C CNN
F 2 "" H 2800 4950 50  0001 C CNN
F 3 "" H 2800 4950 50  0001 C CNN
	1    2800 4950
	1    0    0    -1  
$EndComp
$Comp
L A5C:DFFCOR UBR401
U 1 1 6086B4E3
P 4500 1950
AR Path="/608619A2/6086B4E3" Ref="UBR401"  Part="1" 
AR Path="/5FC16B93/5FC17155/6086B4E3" Ref="UBR401"  Part="1" 
F 0 "UBR401" H 4500 2315 50  0000 C CNN
F 1 "DFFCOR" H 4500 2224 50  0000 C CNN
F 2 "" H 4500 1950 50  0001 C CNN
F 3 "" H 4500 1950 50  0001 C CNN
F 4 "UBR399;UBR424" H 4500 1950 50  0001 C CNN "MiscRef"
	1    4500 1950
	1    0    0    -1  
$EndComp
$Comp
L A5C:DFFCOR UBR406
U 1 1 6086B4E9
P 4500 2700
AR Path="/608619A2/6086B4E9" Ref="UBR406"  Part="1" 
AR Path="/5FC16B93/5FC17155/6086B4E9" Ref="UBR406"  Part="1" 
F 0 "UBR406" H 4500 3065 50  0000 C CNN
F 1 "DFFCOR" H 4500 2974 50  0000 C CNN
F 2 "" H 4500 2700 50  0001 C CNN
F 3 "" H 4500 2700 50  0001 C CNN
	1    4500 2700
	1    0    0    -1  
$EndComp
$Comp
L A5C:DFFCOR UBR410
U 1 1 6086B4EF
P 4500 3450
AR Path="/608619A2/6086B4EF" Ref="UBR410"  Part="1" 
AR Path="/5FC16B93/5FC17155/6086B4EF" Ref="UBR410"  Part="1" 
F 0 "UBR410" H 4500 3815 50  0000 C CNN
F 1 "DFFCOR" H 4500 3724 50  0000 C CNN
F 2 "" H 4500 3450 50  0001 C CNN
F 3 "" H 4500 3450 50  0001 C CNN
	1    4500 3450
	1    0    0    -1  
$EndComp
$Comp
L A5C:DFFCOR UBR415
U 1 1 6086B4F5
P 4500 4200
AR Path="/608619A2/6086B4F5" Ref="UBR415"  Part="1" 
AR Path="/5FC16B93/5FC17155/6086B4F5" Ref="UBR415"  Part="1" 
F 0 "UBR415" H 4500 4565 50  0000 C CNN
F 1 "DFFCOR" H 4500 4474 50  0000 C CNN
F 2 "" H 4500 4200 50  0001 C CNN
F 3 "" H 4500 4200 50  0001 C CNN
	1    4500 4200
	1    0    0    -1  
$EndComp
$Comp
L A5C:DFFCOR UBR419
U 1 1 6086B4FB
P 4500 4950
AR Path="/608619A2/6086B4FB" Ref="UBR419"  Part="1" 
AR Path="/5FC16B93/5FC17155/6086B4FB" Ref="UBR419"  Part="1" 
F 0 "UBR419" H 4500 5315 50  0000 C CNN
F 1 "DFFCOR" H 4500 5224 50  0000 C CNN
F 2 "" H 4500 4950 50  0001 C CNN
F 3 "" H 4500 4950 50  0001 C CNN
	1    4500 4950
	1    0    0    -1  
$EndComp
$Comp
L A5C:DFFCOR UBR429
U 1 1 60877ED2
P 6200 1950
AR Path="/608619A2/60877ED2" Ref="UBR429"  Part="1" 
AR Path="/5FC16B93/5FC17155/60877ED2" Ref="UBR429"  Part="1" 
F 0 "UBR429" H 6200 2315 50  0000 C CNN
F 1 "DFFCOR" H 6200 2224 50  0000 C CNN
F 2 "" H 6200 1950 50  0001 C CNN
F 3 "" H 6200 1950 50  0001 C CNN
F 4 "UBR426;UBR451" H 6200 1950 50  0001 C CNN "MiscRef"
	1    6200 1950
	1    0    0    -1  
$EndComp
$Comp
L A5C:DFFCOR UBR434
U 1 1 60877ED8
P 6200 2700
AR Path="/608619A2/60877ED8" Ref="UBR434"  Part="1" 
AR Path="/5FC16B93/5FC17155/60877ED8" Ref="UBR434"  Part="1" 
F 0 "UBR434" H 6200 3065 50  0000 C CNN
F 1 "DFFCOR" H 6200 2974 50  0000 C CNN
F 2 "" H 6200 2700 50  0001 C CNN
F 3 "" H 6200 2700 50  0001 C CNN
	1    6200 2700
	1    0    0    -1  
$EndComp
$Comp
L A5C:DFFCOR UBR438
U 1 1 60877EDE
P 6200 3450
AR Path="/608619A2/60877EDE" Ref="UBR438"  Part="1" 
AR Path="/5FC16B93/5FC17155/60877EDE" Ref="UBR438"  Part="1" 
F 0 "UBR438" H 6200 3815 50  0000 C CNN
F 1 "DFFCOR" H 6200 3724 50  0000 C CNN
F 2 "" H 6200 3450 50  0001 C CNN
F 3 "" H 6200 3450 50  0001 C CNN
	1    6200 3450
	1    0    0    -1  
$EndComp
$Comp
L A5C:DFFCOR UBR442
U 1 1 60877EE4
P 6200 4200
AR Path="/608619A2/60877EE4" Ref="UBR442"  Part="1" 
AR Path="/5FC16B93/5FC17155/60877EE4" Ref="UBR442"  Part="1" 
F 0 "UBR442" H 6200 4565 50  0000 C CNN
F 1 "DFFCOR" H 6200 4474 50  0000 C CNN
F 2 "" H 6200 4200 50  0001 C CNN
F 3 "" H 6200 4200 50  0001 C CNN
	1    6200 4200
	1    0    0    -1  
$EndComp
$Comp
L A5C:DFFCOR UBR447
U 1 1 60877EEA
P 6200 4950
AR Path="/608619A2/60877EEA" Ref="UBR447"  Part="1" 
AR Path="/5FC16B93/5FC17155/60877EEA" Ref="UBR447"  Part="1" 
F 0 "UBR447" H 6200 5315 50  0000 C CNN
F 1 "DFFCOR" H 6200 5224 50  0000 C CNN
F 2 "" H 6200 4950 50  0001 C CNN
F 3 "" H 6200 4950 50  0001 C CNN
	1    6200 4950
	1    0    0    -1  
$EndComp
$Comp
L A5C:DFFCOR UBH436
U 1 1 60881009
P 7900 1950
AR Path="/608619A2/60881009" Ref="UBH436"  Part="1" 
AR Path="/5FC16B93/5FC17155/60881009" Ref="UBH436"  Part="1" 
F 0 "UBH436" H 7900 2315 50  0000 C CNN
F 1 "DFFCOR" H 7900 2224 50  0000 C CNN
F 2 "" H 7900 1950 50  0001 C CNN
F 3 "" H 7900 1950 50  0001 C CNN
F 4 "UBH433;UBH458" H 7900 1950 50  0001 C CNN "MiscRef"
	1    7900 1950
	1    0    0    -1  
$EndComp
$Comp
L A5C:DFFCOR UBH441
U 1 1 6088100F
P 7900 2700
AR Path="/608619A2/6088100F" Ref="UBH441"  Part="1" 
AR Path="/5FC16B93/5FC17155/6088100F" Ref="UBH441"  Part="1" 
F 0 "UBH441" H 7900 3065 50  0000 C CNN
F 1 "DFFCOR" H 7900 2974 50  0000 C CNN
F 2 "" H 7900 2700 50  0001 C CNN
F 3 "" H 7900 2700 50  0001 C CNN
	1    7900 2700
	1    0    0    -1  
$EndComp
$Comp
L A5C:DFFCOR UBH445
U 1 1 60881015
P 7900 3450
AR Path="/608619A2/60881015" Ref="UBH445"  Part="1" 
AR Path="/5FC16B93/5FC17155/60881015" Ref="UBH445"  Part="1" 
F 0 "UBH445" H 7900 3815 50  0000 C CNN
F 1 "DFFCOR" H 7900 3724 50  0000 C CNN
F 2 "" H 7900 3450 50  0001 C CNN
F 3 "" H 7900 3450 50  0001 C CNN
	1    7900 3450
	1    0    0    -1  
$EndComp
$Comp
L A5C:DFFCOR UBH450
U 1 1 6088101B
P 7900 4200
AR Path="/608619A2/6088101B" Ref="UBH450"  Part="1" 
AR Path="/5FC16B93/5FC17155/6088101B" Ref="UBH450"  Part="1" 
F 0 "UBH450" H 7900 4565 50  0000 C CNN
F 1 "DFFCOR" H 7900 4474 50  0000 C CNN
F 2 "" H 7900 4200 50  0001 C CNN
F 3 "" H 7900 4200 50  0001 C CNN
	1    7900 4200
	1    0    0    -1  
$EndComp
$Comp
L A5C:DFFCOR UBH454
U 1 1 60881021
P 7900 4950
AR Path="/608619A2/60881021" Ref="UBH454"  Part="1" 
AR Path="/5FC16B93/5FC17155/60881021" Ref="UBH454"  Part="1" 
F 0 "UBH454" H 7900 5315 50  0000 C CNN
F 1 "DFFCOR" H 7900 5224 50  0000 C CNN
F 2 "" H 7900 4950 50  0001 C CNN
F 3 "" H 7900 4950 50  0001 C CNN
	1    7900 4950
	1    0    0    -1  
$EndComp
$EndSCHEMATC
