EESchema Schematic File Version 4
EELAYER 30 0
EELAYER END
$Descr A3 11693 16535 portrait
encoding utf-8
Sheet 42 69
Title ""
Date "2020-11-26"
Rev ""
Comp ""
Comment1 "Licence: CC-BY"
Comment2 "Author: Loïc *WydD* Petit"
Comment3 ""
Comment4 ""
$EndDescr
Connection ~ 5450 2850
Connection ~ 5550 2950
Connection ~ 5650 3050
Connection ~ 5750 3150
Connection ~ 5850 3250
Connection ~ 5950 3350
Connection ~ 6050 3450
Connection ~ 6150 3550
Connection ~ 4350 4150
Connection ~ 4450 5850
Connection ~ 7100 2600
Connection ~ 4350 3800
Connection ~ 4450 5500
Connection ~ 4550 3900
Connection ~ 4650 5600
Connection ~ 5250 1800
Connection ~ 5450 6250
Connection ~ 5550 6350
Connection ~ 5650 6450
Connection ~ 5750 6550
Connection ~ 5850 6650
Connection ~ 5950 6750
Connection ~ 6050 6850
Connection ~ 6150 6950
Connection ~ 7100 6000
Connection ~ 4350 7200
Connection ~ 4350 7550
Connection ~ 4550 7300
Connection ~ 4450 8900
Connection ~ 4450 9250
Connection ~ 4650 9000
Connection ~ 6400 3950
Connection ~ 6500 3850
Connection ~ 6600 3700
Connection ~ 6700 4100
Connection ~ 3700 1600
Connection ~ 3600 1500
Connection ~ 3200 900 
Connection ~ 3700 1950
Connection ~ 5450 9650
Connection ~ 5550 9750
Connection ~ 5650 9850
Connection ~ 5750 9950
Connection ~ 5850 10050
Connection ~ 5950 10150
Connection ~ 6050 10250
Connection ~ 6150 10350
Connection ~ 4350 10950
Connection ~ 4450 12650
Connection ~ 7100 9400
Connection ~ 5450 13050
Connection ~ 5550 13150
Connection ~ 5650 13250
Connection ~ 5750 13350
Connection ~ 5850 13450
Connection ~ 5950 13550
Connection ~ 6050 13650
Connection ~ 6150 13750
Connection ~ 7100 12800
Connection ~ 4350 14000
Connection ~ 4450 15700
Connection ~ 4350 10600
Connection ~ 4450 12300
Connection ~ 4550 10700
Connection ~ 4650 12400
Connection ~ 6400 10750
Connection ~ 6400 7350
Connection ~ 6500 10650
Connection ~ 6500 7250
Connection ~ 6600 10500
Connection ~ 6600 7100
Connection ~ 6700 7500
Connection ~ 6700 10900
Connection ~ 7800 6350
Connection ~ 7900 6550
Connection ~ 7800 9750
Connection ~ 7900 9950
Connection ~ 7800 13150
Connection ~ 7900 13350
Connection ~ 8950 4650
Connection ~ 7800 4200
Connection ~ 7900 4650
Connection ~ 3050 4000
Connection ~ 3050 7400
Connection ~ 3050 10800
Connection ~ 3050 14200
Connection ~ 7550 1650
Connection ~ 8150 1650
Connection ~ 7200 1650
Connection ~ 4350 1500
Connection ~ 4450 1000
Connection ~ 5750 2350
Connection ~ 6700 2200
NoConn ~ 7550 2950
NoConn ~ 7550 3050
NoConn ~ 7550 3150
NoConn ~ 7550 3250
NoConn ~ 7550 3350
NoConn ~ 7550 3450
NoConn ~ 7550 6350
NoConn ~ 7550 6450
NoConn ~ 7550 6550
NoConn ~ 7550 6650
NoConn ~ 7550 6750
NoConn ~ 7550 6850
NoConn ~ 7550 9750
NoConn ~ 7550 9850
NoConn ~ 7550 9950
NoConn ~ 7550 10050
NoConn ~ 7550 10150
NoConn ~ 7550 10250
NoConn ~ 7550 13150
NoConn ~ 7550 13250
NoConn ~ 7550 13350
NoConn ~ 7550 13450
NoConn ~ 7550 13550
NoConn ~ 7550 13650
Entry Wire Line
	3050 2950 3150 2850
Entry Wire Line
	3050 3050 3150 2950
Entry Wire Line
	3050 3150 3150 3050
Entry Wire Line
	3050 3250 3150 3150
Entry Wire Line
	3050 3350 3150 3250
Entry Wire Line
	3050 3450 3150 3350
Entry Wire Line
	3050 3550 3150 3450
Entry Wire Line
	3050 3650 3150 3550
Entry Wire Line
	3050 4450 3150 4550
Entry Wire Line
	3050 4550 3150 4650
Entry Wire Line
	3050 4650 3150 4750
Entry Wire Line
	3050 4750 3150 4850
Entry Wire Line
	3050 4850 3150 4950
Entry Wire Line
	3050 4950 3150 5050
Entry Wire Line
	3050 5050 3150 5150
Entry Wire Line
	3050 5150 3150 5250
Entry Wire Line
	3050 6350 3150 6250
Entry Wire Line
	3050 6450 3150 6350
Entry Wire Line
	3050 6550 3150 6450
Entry Wire Line
	3050 6650 3150 6550
Entry Wire Line
	3050 6750 3150 6650
Entry Wire Line
	3050 6850 3150 6750
Entry Wire Line
	3050 6950 3150 6850
Entry Wire Line
	3050 7050 3150 6950
Entry Wire Line
	3050 7850 3150 7950
Entry Wire Line
	3050 7950 3150 8050
Entry Wire Line
	3050 8050 3150 8150
Entry Wire Line
	3050 8150 3150 8250
Entry Wire Line
	3050 8250 3150 8350
Entry Wire Line
	3050 8350 3150 8450
Entry Wire Line
	3050 8450 3150 8550
Entry Wire Line
	3050 8550 3150 8650
Entry Wire Line
	3050 9750 3150 9650
Entry Wire Line
	3050 9850 3150 9750
Entry Wire Line
	3050 9950 3150 9850
Entry Wire Line
	3050 10050 3150 9950
Entry Wire Line
	3050 10150 3150 10050
Entry Wire Line
	3050 10250 3150 10150
Entry Wire Line
	3050 10350 3150 10250
Entry Wire Line
	3050 10450 3150 10350
Entry Wire Line
	3050 11250 3150 11350
Entry Wire Line
	3050 11350 3150 11450
Entry Wire Line
	3050 11450 3150 11550
Entry Wire Line
	3050 11550 3150 11650
Entry Wire Line
	3050 11650 3150 11750
Entry Wire Line
	3050 11750 3150 11850
Entry Wire Line
	3050 11850 3150 11950
Entry Wire Line
	3050 11950 3150 12050
Entry Wire Line
	3050 13150 3150 13050
Entry Wire Line
	3050 13250 3150 13150
Entry Wire Line
	3050 13350 3150 13250
Entry Wire Line
	3050 13450 3150 13350
Entry Wire Line
	3050 13550 3150 13450
Entry Wire Line
	3050 13650 3150 13550
Entry Wire Line
	3050 13750 3150 13650
Entry Wire Line
	3050 13850 3150 13750
Entry Wire Line
	3050 14650 3150 14750
Entry Wire Line
	3050 14750 3150 14850
Entry Wire Line
	3050 14850 3150 14950
Entry Wire Line
	3050 14950 3150 15050
Entry Wire Line
	3050 15050 3150 15150
Entry Wire Line
	3050 15150 3150 15250
Entry Wire Line
	3050 15250 3150 15350
Entry Wire Line
	3050 15350 3150 15450
Wire Wire Line
	3100 1950 3700 1950
Wire Wire Line
	3200 900  3100 900 
Wire Wire Line
	3200 1400 3200 900 
Wire Wire Line
	3450 3800 3450 4150
Wire Wire Line
	3450 3800 3650 3800
Wire Wire Line
	3450 4150 4350 4150
Wire Wire Line
	3450 5500 3450 5850
Wire Wire Line
	3450 5500 3650 5500
Wire Wire Line
	3450 5850 4450 5850
Wire Wire Line
	3450 7200 3450 7550
Wire Wire Line
	3450 7200 3650 7200
Wire Wire Line
	3450 7550 4350 7550
Wire Wire Line
	3450 8900 3450 9250
Wire Wire Line
	3450 8900 3650 8900
Wire Wire Line
	3450 9250 4450 9250
Wire Wire Line
	3450 10600 3450 10950
Wire Wire Line
	3450 10600 3650 10600
Wire Wire Line
	3450 10950 4350 10950
Wire Wire Line
	3450 12300 3450 12650
Wire Wire Line
	3450 12300 3650 12300
Wire Wire Line
	3450 12650 4450 12650
Wire Wire Line
	3450 14000 3450 14350
Wire Wire Line
	3450 14000 3650 14000
Wire Wire Line
	3450 14350 4350 14350
Wire Wire Line
	3450 15700 3450 16050
Wire Wire Line
	3450 15700 3650 15700
Wire Wire Line
	3450 16050 4450 16050
Wire Wire Line
	3600 1000 3800 1000
Wire Wire Line
	3600 1500 3100 1500
Wire Wire Line
	3600 1500 3600 1000
Wire Wire Line
	3650 2850 3150 2850
Wire Wire Line
	3650 2950 3150 2950
Wire Wire Line
	3650 3050 3150 3050
Wire Wire Line
	3650 3150 3150 3150
Wire Wire Line
	3650 3250 3150 3250
Wire Wire Line
	3650 3350 3150 3350
Wire Wire Line
	3650 3450 3150 3450
Wire Wire Line
	3650 3550 3150 3550
Wire Wire Line
	3650 4550 3150 4550
Wire Wire Line
	3650 4650 3150 4650
Wire Wire Line
	3650 4750 3150 4750
Wire Wire Line
	3650 4850 3150 4850
Wire Wire Line
	3650 4950 3150 4950
Wire Wire Line
	3650 5050 3150 5050
Wire Wire Line
	3650 5150 3150 5150
Wire Wire Line
	3650 5250 3150 5250
Wire Wire Line
	3650 6250 3150 6250
Wire Wire Line
	3650 6350 3150 6350
Wire Wire Line
	3650 6450 3150 6450
Wire Wire Line
	3650 6550 3150 6550
Wire Wire Line
	3650 6650 3150 6650
Wire Wire Line
	3650 6750 3150 6750
Wire Wire Line
	3650 6850 3150 6850
Wire Wire Line
	3650 6950 3150 6950
Wire Wire Line
	3650 7950 3150 7950
Wire Wire Line
	3650 8050 3150 8050
Wire Wire Line
	3650 8150 3150 8150
Wire Wire Line
	3650 8250 3150 8250
Wire Wire Line
	3650 8350 3150 8350
Wire Wire Line
	3650 8450 3150 8450
Wire Wire Line
	3650 8550 3150 8550
Wire Wire Line
	3650 8650 3150 8650
Wire Wire Line
	3650 9650 3150 9650
Wire Wire Line
	3650 9750 3150 9750
Wire Wire Line
	3650 9850 3150 9850
Wire Wire Line
	3650 9950 3150 9950
Wire Wire Line
	3650 10050 3150 10050
Wire Wire Line
	3650 10150 3150 10150
Wire Wire Line
	3650 10250 3150 10250
Wire Wire Line
	3650 10350 3150 10350
Wire Wire Line
	3650 11350 3150 11350
Wire Wire Line
	3650 11450 3150 11450
Wire Wire Line
	3650 11550 3150 11550
Wire Wire Line
	3650 11650 3150 11650
Wire Wire Line
	3650 11750 3150 11750
Wire Wire Line
	3650 11850 3150 11850
Wire Wire Line
	3650 11950 3150 11950
Wire Wire Line
	3650 12050 3150 12050
Wire Wire Line
	3650 13050 3150 13050
Wire Wire Line
	3650 13150 3150 13150
Wire Wire Line
	3650 13250 3150 13250
Wire Wire Line
	3650 13350 3150 13350
Wire Wire Line
	3650 13450 3150 13450
Wire Wire Line
	3650 13550 3150 13550
Wire Wire Line
	3650 13650 3150 13650
Wire Wire Line
	3650 13750 3150 13750
Wire Wire Line
	3650 14750 3150 14750
Wire Wire Line
	3650 14850 3150 14850
Wire Wire Line
	3650 14950 3150 14950
Wire Wire Line
	3650 15050 3150 15050
Wire Wire Line
	3650 15150 3150 15150
Wire Wire Line
	3650 15250 3150 15250
Wire Wire Line
	3650 15350 3150 15350
Wire Wire Line
	3650 15450 3150 15450
Wire Wire Line
	3700 1100 3800 1100
Wire Wire Line
	3700 1600 3100 1600
Wire Wire Line
	3700 1600 3700 1100
Wire Wire Line
	3700 1950 3700 2350
Wire Wire Line
	3800 1400 3200 1400
Wire Wire Line
	3800 1500 3600 1500
Wire Wire Line
	3800 1600 3700 1600
Wire Wire Line
	4250 2850 4750 2850
Wire Wire Line
	4250 2950 4750 2950
Wire Wire Line
	4250 3050 4750 3050
Wire Wire Line
	4250 3150 4750 3150
Wire Wire Line
	4250 3250 4750 3250
Wire Wire Line
	4250 3350 4750 3350
Wire Wire Line
	4250 3450 4750 3450
Wire Wire Line
	4250 3550 4750 3550
Wire Wire Line
	4250 4550 4750 4550
Wire Wire Line
	4250 4650 4750 4650
Wire Wire Line
	4250 4750 4750 4750
Wire Wire Line
	4250 4850 4750 4850
Wire Wire Line
	4250 4950 4750 4950
Wire Wire Line
	4250 5050 4750 5050
Wire Wire Line
	4250 5150 4750 5150
Wire Wire Line
	4250 5250 4750 5250
Wire Wire Line
	4250 6250 4750 6250
Wire Wire Line
	4250 6350 4750 6350
Wire Wire Line
	4250 6450 4750 6450
Wire Wire Line
	4250 6550 4750 6550
Wire Wire Line
	4250 6650 4750 6650
Wire Wire Line
	4250 6750 4750 6750
Wire Wire Line
	4250 6850 4750 6850
Wire Wire Line
	4250 6950 4750 6950
Wire Wire Line
	4250 7950 4750 7950
Wire Wire Line
	4250 8050 4750 8050
Wire Wire Line
	4250 8150 4750 8150
Wire Wire Line
	4250 8250 4750 8250
Wire Wire Line
	4250 8350 4750 8350
Wire Wire Line
	4250 8450 4750 8450
Wire Wire Line
	4250 8550 4750 8550
Wire Wire Line
	4250 8650 4750 8650
Wire Wire Line
	4250 9650 4750 9650
Wire Wire Line
	4250 9750 4750 9750
Wire Wire Line
	4250 9850 4750 9850
Wire Wire Line
	4250 9950 4750 9950
Wire Wire Line
	4250 10050 4750 10050
Wire Wire Line
	4250 10150 4750 10150
Wire Wire Line
	4250 10250 4750 10250
Wire Wire Line
	4250 10350 4750 10350
Wire Wire Line
	4250 11350 4750 11350
Wire Wire Line
	4250 11450 4750 11450
Wire Wire Line
	4250 11550 4750 11550
Wire Wire Line
	4250 11650 4750 11650
Wire Wire Line
	4250 11750 4750 11750
Wire Wire Line
	4250 11850 4750 11850
Wire Wire Line
	4250 11950 4750 11950
Wire Wire Line
	4250 12050 4750 12050
Wire Wire Line
	4250 13050 4750 13050
Wire Wire Line
	4250 13150 4750 13150
Wire Wire Line
	4250 13250 4750 13250
Wire Wire Line
	4250 13350 4750 13350
Wire Wire Line
	4250 13450 4750 13450
Wire Wire Line
	4250 13550 4750 13550
Wire Wire Line
	4250 13650 4750 13650
Wire Wire Line
	4250 13750 4750 13750
Wire Wire Line
	4250 14750 4750 14750
Wire Wire Line
	4250 14850 4750 14850
Wire Wire Line
	4250 14950 4750 14950
Wire Wire Line
	4250 15050 4750 15050
Wire Wire Line
	4250 15150 4750 15150
Wire Wire Line
	4250 15250 4750 15250
Wire Wire Line
	4250 15350 4750 15350
Wire Wire Line
	4250 15450 4750 15450
Wire Wire Line
	4300 2350 4550 2350
Wire Wire Line
	4350 1500 4350 3800
Wire Wire Line
	4350 1500 4650 1500
Wire Wire Line
	4350 3800 4350 4150
Wire Wire Line
	4350 3800 4750 3800
Wire Wire Line
	4350 4150 4350 7200
Wire Wire Line
	4350 7200 4350 7550
Wire Wire Line
	4350 7200 4750 7200
Wire Wire Line
	4350 7550 4350 10600
Wire Wire Line
	4350 10600 4350 10950
Wire Wire Line
	4350 10600 4750 10600
Wire Wire Line
	4350 10950 4350 14000
Wire Wire Line
	4350 14000 4350 14350
Wire Wire Line
	4350 14000 4750 14000
Wire Wire Line
	4450 1000 4350 1000
Wire Wire Line
	4450 1000 4450 5500
Wire Wire Line
	4450 1000 4650 1000
Wire Wire Line
	4450 5500 4450 5850
Wire Wire Line
	4450 5500 4750 5500
Wire Wire Line
	4450 5850 4450 8900
Wire Wire Line
	4450 8900 4450 9250
Wire Wire Line
	4450 8900 4750 8900
Wire Wire Line
	4450 9250 4450 12300
Wire Wire Line
	4450 12300 4450 12650
Wire Wire Line
	4450 12300 4750 12300
Wire Wire Line
	4450 12650 4450 15700
Wire Wire Line
	4450 15700 4450 16050
Wire Wire Line
	4450 15700 4750 15700
Wire Wire Line
	4550 2350 4550 3900
Wire Wire Line
	4550 3900 4550 7300
Wire Wire Line
	4550 7300 4550 10700
Wire Wire Line
	4550 10700 4550 14100
Wire Wire Line
	4650 1950 3700 1950
Wire Wire Line
	4650 1950 4650 5600
Wire Wire Line
	4650 5600 4650 9000
Wire Wire Line
	4650 9000 4650 12400
Wire Wire Line
	4650 12400 4650 15800
Wire Wire Line
	4750 3900 4550 3900
Wire Wire Line
	4750 5600 4650 5600
Wire Wire Line
	4750 7300 4550 7300
Wire Wire Line
	4750 9000 4650 9000
Wire Wire Line
	4750 10700 4550 10700
Wire Wire Line
	4750 12400 4650 12400
Wire Wire Line
	4750 14100 4550 14100
Wire Wire Line
	4750 15800 4650 15800
Wire Wire Line
	5250 1800 5050 1800
Wire Wire Line
	5250 2250 5250 1800
Wire Wire Line
	5300 2350 5750 2350
Wire Wire Line
	5350 2850 5450 2850
Wire Wire Line
	5350 2950 5550 2950
Wire Wire Line
	5350 3050 5650 3050
Wire Wire Line
	5350 3150 5750 3150
Wire Wire Line
	5350 3250 5850 3250
Wire Wire Line
	5350 3350 5950 3350
Wire Wire Line
	5350 3450 6050 3450
Wire Wire Line
	5350 3550 6150 3550
Wire Wire Line
	5350 4550 5450 4550
Wire Wire Line
	5350 4750 5650 4750
Wire Wire Line
	5350 4950 5850 4950
Wire Wire Line
	5350 5150 6050 5150
Wire Wire Line
	5350 6250 5450 6250
Wire Wire Line
	5350 6350 5550 6350
Wire Wire Line
	5350 6450 5650 6450
Wire Wire Line
	5350 6550 5750 6550
Wire Wire Line
	5350 6650 5850 6650
Wire Wire Line
	5350 6750 5950 6750
Wire Wire Line
	5350 6850 6050 6850
Wire Wire Line
	5350 6950 6150 6950
Wire Wire Line
	5350 7950 5450 7950
Wire Wire Line
	5350 8150 5650 8150
Wire Wire Line
	5350 8350 5850 8350
Wire Wire Line
	5350 8550 6050 8550
Wire Wire Line
	5350 9650 5450 9650
Wire Wire Line
	5350 9750 5550 9750
Wire Wire Line
	5350 9850 5650 9850
Wire Wire Line
	5350 9950 5750 9950
Wire Wire Line
	5350 10050 5850 10050
Wire Wire Line
	5350 10150 5950 10150
Wire Wire Line
	5350 10250 6050 10250
Wire Wire Line
	5350 10350 6150 10350
Wire Wire Line
	5350 11350 5450 11350
Wire Wire Line
	5350 11550 5650 11550
Wire Wire Line
	5350 11750 5850 11750
Wire Wire Line
	5350 11950 6050 11950
Wire Wire Line
	5350 13050 5450 13050
Wire Wire Line
	5350 13150 5550 13150
Wire Wire Line
	5350 13250 5650 13250
Wire Wire Line
	5350 13350 5750 13350
Wire Wire Line
	5350 13450 5850 13450
Wire Wire Line
	5350 13550 5950 13550
Wire Wire Line
	5350 13650 6050 13650
Wire Wire Line
	5350 13750 6150 13750
Wire Wire Line
	5350 14750 5450 14750
Wire Wire Line
	5350 14950 5650 14950
Wire Wire Line
	5350 15150 5850 15150
Wire Wire Line
	5350 15350 6050 15350
Wire Wire Line
	5450 2850 6750 2850
Wire Wire Line
	5450 4550 5450 2850
Wire Wire Line
	5450 6250 6750 6250
Wire Wire Line
	5450 7950 5450 6250
Wire Wire Line
	5450 9650 6750 9650
Wire Wire Line
	5450 11350 5450 9650
Wire Wire Line
	5450 13050 6750 13050
Wire Wire Line
	5450 14750 5450 13050
Wire Wire Line
	5550 2950 5550 4650
Wire Wire Line
	5550 2950 6750 2950
Wire Wire Line
	5550 4650 5350 4650
Wire Wire Line
	5550 6350 5550 8050
Wire Wire Line
	5550 6350 6750 6350
Wire Wire Line
	5550 8050 5350 8050
Wire Wire Line
	5550 9750 5550 11450
Wire Wire Line
	5550 9750 6750 9750
Wire Wire Line
	5550 11450 5350 11450
Wire Wire Line
	5550 13150 5550 14850
Wire Wire Line
	5550 13150 6750 13150
Wire Wire Line
	5550 14850 5350 14850
Wire Wire Line
	5650 3050 6750 3050
Wire Wire Line
	5650 4750 5650 3050
Wire Wire Line
	5650 6450 6750 6450
Wire Wire Line
	5650 8150 5650 6450
Wire Wire Line
	5650 9850 6750 9850
Wire Wire Line
	5650 11550 5650 9850
Wire Wire Line
	5650 13250 6750 13250
Wire Wire Line
	5650 14950 5650 13250
Wire Wire Line
	5750 1900 5750 2350
Wire Wire Line
	5750 1900 5850 1900
Wire Wire Line
	5750 3150 5750 4850
Wire Wire Line
	5750 3150 6750 3150
Wire Wire Line
	5750 4850 5350 4850
Wire Wire Line
	5750 6550 5750 8250
Wire Wire Line
	5750 6550 6750 6550
Wire Wire Line
	5750 8250 5350 8250
Wire Wire Line
	5750 9950 5750 11650
Wire Wire Line
	5750 9950 6750 9950
Wire Wire Line
	5750 11650 5350 11650
Wire Wire Line
	5750 13350 5750 15050
Wire Wire Line
	5750 13350 6750 13350
Wire Wire Line
	5750 15050 5350 15050
Wire Wire Line
	5850 2250 5250 2250
Wire Wire Line
	5850 2350 5750 2350
Wire Wire Line
	5850 3250 6750 3250
Wire Wire Line
	5850 4950 5850 3250
Wire Wire Line
	5850 6650 6750 6650
Wire Wire Line
	5850 8350 5850 6650
Wire Wire Line
	5850 10050 6750 10050
Wire Wire Line
	5850 11750 5850 10050
Wire Wire Line
	5850 13450 6750 13450
Wire Wire Line
	5850 15150 5850 13450
Wire Wire Line
	5950 3350 5950 5050
Wire Wire Line
	5950 3350 6750 3350
Wire Wire Line
	5950 5050 5350 5050
Wire Wire Line
	5950 6750 5950 8450
Wire Wire Line
	5950 6750 6750 6750
Wire Wire Line
	5950 8450 5350 8450
Wire Wire Line
	5950 10150 5950 11850
Wire Wire Line
	5950 10150 6750 10150
Wire Wire Line
	5950 11850 5350 11850
Wire Wire Line
	5950 13550 5950 15250
Wire Wire Line
	5950 13550 6750 13550
Wire Wire Line
	5950 15250 5350 15250
Wire Wire Line
	6050 3450 6750 3450
Wire Wire Line
	6050 5150 6050 3450
Wire Wire Line
	6050 6850 6750 6850
Wire Wire Line
	6050 8550 6050 6850
Wire Wire Line
	6050 10250 6750 10250
Wire Wire Line
	6050 11950 6050 10250
Wire Wire Line
	6050 13650 6750 13650
Wire Wire Line
	6050 15350 6050 13650
Wire Wire Line
	6150 3550 6150 5250
Wire Wire Line
	6150 3550 6750 3550
Wire Wire Line
	6150 5250 5350 5250
Wire Wire Line
	6150 6950 6150 8650
Wire Wire Line
	6150 6950 6750 6950
Wire Wire Line
	6150 8650 5350 8650
Wire Wire Line
	6150 10350 6150 12050
Wire Wire Line
	6150 10350 6750 10350
Wire Wire Line
	6150 12050 5350 12050
Wire Wire Line
	6150 13750 6150 15450
Wire Wire Line
	6150 13750 6750 13750
Wire Wire Line
	6150 15450 5350 15450
Wire Wire Line
	6400 1850 6500 1850
Wire Wire Line
	6400 2300 6400 3950
Wire Wire Line
	6400 3950 6400 7350
Wire Wire Line
	6400 3950 6750 3950
Wire Wire Line
	6400 7350 6750 7350
Wire Wire Line
	6400 10750 6400 7350
Wire Wire Line
	6400 10750 6400 14150
Wire Wire Line
	6400 10750 6750 10750
Wire Wire Line
	6400 14150 6750 14150
Wire Wire Line
	6500 1850 6500 3850
Wire Wire Line
	6500 3850 6500 7250
Wire Wire Line
	6500 7250 6500 10650
Wire Wire Line
	6500 10650 6500 14050
Wire Wire Line
	6600 1650 6600 3700
Wire Wire Line
	6600 1650 7200 1650
Wire Wire Line
	6600 3700 6600 7100
Wire Wire Line
	6600 10500 6600 7100
Wire Wire Line
	6600 10500 6600 13900
Wire Wire Line
	6700 2200 6700 1200
Wire Wire Line
	6700 2200 6800 2200
Wire Wire Line
	6700 4100 6700 2200
Wire Wire Line
	6700 4100 6700 7500
Wire Wire Line
	6700 7500 6700 10900
Wire Wire Line
	6700 10900 6700 14300
Wire Wire Line
	6750 3700 6600 3700
Wire Wire Line
	6750 3850 6500 3850
Wire Wire Line
	6750 4100 6700 4100
Wire Wire Line
	6750 7100 6600 7100
Wire Wire Line
	6750 7250 6500 7250
Wire Wire Line
	6750 7500 6700 7500
Wire Wire Line
	6750 10500 6600 10500
Wire Wire Line
	6750 10650 6500 10650
Wire Wire Line
	6750 10900 6700 10900
Wire Wire Line
	6750 13900 6600 13900
Wire Wire Line
	6750 14050 6500 14050
Wire Wire Line
	6750 14300 6700 14300
Wire Wire Line
	7100 1900 7200 1900
Wire Wire Line
	7100 2600 7200 2600
Wire Wire Line
	7100 6000 7200 6000
Wire Wire Line
	7100 9400 7200 9400
Wire Wire Line
	7100 12800 7200 12800
Wire Wire Line
	7200 1650 7550 1650
Wire Wire Line
	7200 1900 7200 1650
Wire Wire Line
	7650 3050 7650 3550
Wire Wire Line
	7650 3050 8000 3050
Wire Wire Line
	7650 3550 7550 3550
Wire Wire Line
	7650 6450 7650 6950
Wire Wire Line
	7650 6950 7550 6950
Wire Wire Line
	7650 9850 7650 10350
Wire Wire Line
	7650 10350 7550 10350
Wire Wire Line
	7650 13250 7650 13750
Wire Wire Line
	7650 13750 7550 13750
Wire Wire Line
	7800 2950 7800 4200
Wire Wire Line
	7800 4200 7800 6350
Wire Wire Line
	7800 6350 7800 9750
Wire Wire Line
	7800 9750 7800 13150
Wire Wire Line
	7800 13150 7800 14000
Wire Wire Line
	7800 13150 8000 13150
Wire Wire Line
	7900 3150 7900 4650
Wire Wire Line
	7900 3150 8000 3150
Wire Wire Line
	7900 4650 7900 6550
Wire Wire Line
	7900 6550 7900 9950
Wire Wire Line
	7900 9950 7900 13350
Wire Wire Line
	7900 13350 7900 14000
Wire Wire Line
	8000 2850 7550 2850
Wire Wire Line
	8000 2950 7800 2950
Wire Wire Line
	8000 6250 7550 6250
Wire Wire Line
	8000 6350 7800 6350
Wire Wire Line
	8000 6450 7650 6450
Wire Wire Line
	8000 6550 7900 6550
Wire Wire Line
	8000 9650 7550 9650
Wire Wire Line
	8000 9750 7800 9750
Wire Wire Line
	8000 9850 7650 9850
Wire Wire Line
	8000 9950 7900 9950
Wire Wire Line
	8000 13050 7550 13050
Wire Wire Line
	8000 13250 7650 13250
Wire Wire Line
	8000 13350 7900 13350
Wire Wire Line
	8150 1650 8350 1650
Wire Wire Line
	8350 4650 7900 4650
Wire Wire Line
	8950 4200 7800 4200
Wire Wire Line
	8950 4650 8950 4200
Wire Bus Line
	3050 4000 2750 4000
Wire Bus Line
	3050 7400 2750 7400
Wire Bus Line
	3050 10800 2750 10800
Wire Bus Line
	3050 14200 2750 14200
Text Notes 750  8300 0    50   ~ 0
TOP MATRIX BUS\n0: MAIN-~RESETI\n1: CLK8M\n2: UBD337-Q / UK4-CNT2 (in UK5)\n3: UAA254-Q (in UK5)\n4: UBD383-Q / UK4-CNT0 (in UK5)\n\n5: BPD0 (P129)\n6: BPD1 (P130)\n7: BPD2 (P131)\n8: BPD3 (P132)\n9: BPD4 (P133)\n10: BPD5 (P134)\n11: BPD6 (P135)\n12: BPD7 (P136)\n\n13: APD0 (P137)\n14: APD1 (P138)\n15: APD2 (P139)\n16: APD3 (P140)\n17: APD4 (P141)\n18: APD5 (P142)\n19: APD6 (P143)\n20: APD7 (P144)\n\n21: DPD0 (P145)\n22: DPD1 (P146)\n23: DPD2 (P147)\n24: DPD3 (P148)\n25: DPD4 (P149)\n26: DPD5 (P150)\n27: DPD6 (P151)\n28: DPD7 (P152)\n\n29: CPD0 (P137)\n30: CPD1 (P138)\n31: CPD2 (P139)\n32: CPD3 (P140)\n33: CPD4 (P141)\n34: CPD5 (P142)\n35: CPD6 (P143)\n36: CPD7 (P144)
Text Notes 2000 1550 0    50   ~ 0
9, 11\nLoop at 16
Text Notes 2000 2000 0    50   ~ 0
8-15\nLoop at 16
Text Notes 2050 950  0    50   ~ 0
2-3\nLoop at 4
Text Notes 4750 2250 0    50   ~ 0
3\nLoop at 8
Text Label 3300 9650 0    50   ~ 0
APD0
Text Label 3300 9750 0    50   ~ 0
APD1
Text Label 3300 9850 0    50   ~ 0
APD2
Text Label 3300 9950 0    50   ~ 0
APD3
Text Label 3300 10050 0    50   ~ 0
APD4
Text Label 3300 10150 0    50   ~ 0
APD5
Text Label 3300 10250 0    50   ~ 0
APD6
Text Label 3300 10350 0    50   ~ 0
APD7
Text Label 3300 11350 0    50   ~ 0
APD0
Text Label 3300 11450 0    50   ~ 0
APD1
Text Label 3300 11550 0    50   ~ 0
APD2
Text Label 3300 11650 0    50   ~ 0
APD3
Text Label 3300 11750 0    50   ~ 0
APD4
Text Label 3300 11850 0    50   ~ 0
APD5
Text Label 3300 11950 0    50   ~ 0
APD6
Text Label 3300 12050 0    50   ~ 0
APD7
Text Label 3500 2850 2    50   ~ 0
BPD0
Text Label 3500 2950 2    50   ~ 0
BPD1
Text Label 3500 3050 2    50   ~ 0
BPD2
Text Label 3500 3150 2    50   ~ 0
BPD3
Text Label 3500 3250 2    50   ~ 0
BPD4
Text Label 3500 3350 2    50   ~ 0
BPD5
Text Label 3500 3450 2    50   ~ 0
BPD6
Text Label 3500 3550 2    50   ~ 0
BPD7
Text Label 3500 4550 2    50   ~ 0
BPD0
Text Label 3500 4650 2    50   ~ 0
BPD1
Text Label 3500 4750 2    50   ~ 0
BPD2
Text Label 3500 4850 2    50   ~ 0
BPD3
Text Label 3500 4950 2    50   ~ 0
BPD4
Text Label 3500 5050 2    50   ~ 0
BPD5
Text Label 3500 5150 2    50   ~ 0
BPD6
Text Label 3500 5250 2    50   ~ 0
BPD7
Text Label 3500 6250 2    50   ~ 0
DPD0
Text Label 3500 6350 2    50   ~ 0
DPD1
Text Label 3500 6450 2    50   ~ 0
DPD2
Text Label 3500 6550 2    50   ~ 0
DPD3
Text Label 3500 6650 2    50   ~ 0
DPD4
Text Label 3500 6750 2    50   ~ 0
DPD5
Text Label 3500 6850 2    50   ~ 0
DPD6
Text Label 3500 6950 2    50   ~ 0
DPD7
Text Label 3500 7950 2    50   ~ 0
DPD0
Text Label 3500 8050 2    50   ~ 0
DPD1
Text Label 3500 8150 2    50   ~ 0
DPD2
Text Label 3500 8250 2    50   ~ 0
DPD3
Text Label 3500 8350 2    50   ~ 0
DPD4
Text Label 3500 8450 2    50   ~ 0
DPD5
Text Label 3500 8550 2    50   ~ 0
DPD6
Text Label 3500 8650 2    50   ~ 0
DPD7
Text Label 3500 13050 2    50   ~ 0
CPD0
Text Label 3500 13150 2    50   ~ 0
CPD1
Text Label 3500 13250 2    50   ~ 0
CPD2
Text Label 3500 13350 2    50   ~ 0
CPD3
Text Label 3500 13450 2    50   ~ 0
CPD4
Text Label 3500 13550 2    50   ~ 0
CPD5
Text Label 3500 13650 2    50   ~ 0
CPD6
Text Label 3500 13750 2    50   ~ 0
CPD7
Text Label 3500 14750 2    50   ~ 0
CPD0
Text Label 3500 14850 2    50   ~ 0
CPD1
Text Label 3500 14950 2    50   ~ 0
CPD2
Text Label 3500 15050 2    50   ~ 0
CPD3
Text Label 3500 15150 2    50   ~ 0
CPD4
Text Label 3500 15250 2    50   ~ 0
CPD5
Text Label 3500 15350 2    50   ~ 0
CPD6
Text Label 3500 15450 2    50   ~ 0
CPD7
Text HLabel 2750 4000 0    50   Input ~ 0
BPD[0..7]
Text HLabel 2750 7400 0    50   Input ~ 0
DPD[0..7]
Text HLabel 2750 10800 0    50   Input ~ 0
APD[0..7]
Text HLabel 2750 14200 0    50   Input ~ 0
CPD[0..7]
Text HLabel 3100 900  0    50   Input ~ 0
GFX-CHNL
Text HLabel 3100 1500 0    50   Input ~ 0
GFX-LOAD
Text HLabel 3100 1600 0    50   Input ~ 0
CLK8M
Text HLabel 3100 1950 0    50   Input ~ 0
SERIAL-CHNL
Text HLabel 4650 1000 2    50   Output ~ 0
LOAD-CHNLB
Text HLabel 4650 1500 2    50   Output ~ 0
LOAD-CHNLA
Text HLabel 5050 1800 0    50   Input ~ 0
XSEL
Text HLabel 5300 2350 0    50   Input ~ 0
SERIAL-LOAD
Text HLabel 6100 1200 0    50   Output ~ 0
~RESET-BUF
Text HLabel 6800 2200 2    50   Input ~ 0
~RESET
Text HLabel 7100 1900 0    50   Output ~ 0
~CLK8M
Text HLabel 8350 1650 2    50   Input ~ 0
CLK8M
Text HLabel 8850 3000 2    50   Output ~ 0
B
Text HLabel 8850 6400 2    50   Output ~ 0
D
Text HLabel 8850 9800 2    50   Output ~ 0
A
Text HLabel 8850 13200 2    50   Output ~ 0
C
Text HLabel 9550 4650 2    50   Input ~ 0
XSEL
$Comp
L power:VCC #PWR?
U 1 1 643E793C
P 7100 2600
AR Path="/6428BC4C/643E793C" Ref="#PWR?"  Part="1" 
AR Path="/5FBBD4DB/5FBBDBB4/643E793C" Ref="#PWR0143"  Part="1" 
F 0 "#PWR0143" H 7100 2450 50  0001 C CNN
F 1 "VCC" H 7115 2773 50  0000 C CNN
F 2 "" H 7100 2600 50  0001 C CNN
F 3 "" H 7100 2600 50  0001 C CNN
	1    7100 2600
	1    0    0    -1  
$EndComp
$Comp
L power:VCC #PWR?
U 1 1 6449E1B7
P 7100 6000
AR Path="/6428BC4C/6449E1B7" Ref="#PWR?"  Part="1" 
AR Path="/5FBBD4DB/5FBBDBB4/6449E1B7" Ref="#PWR0144"  Part="1" 
F 0 "#PWR0144" H 7100 5850 50  0001 C CNN
F 1 "VCC" H 7115 6173 50  0000 C CNN
F 2 "" H 7100 6000 50  0001 C CNN
F 3 "" H 7100 6000 50  0001 C CNN
	1    7100 6000
	1    0    0    -1  
$EndComp
$Comp
L power:VCC #PWR?
U 1 1 648468D3
P 7100 9400
AR Path="/6428BC4C/648468D3" Ref="#PWR?"  Part="1" 
AR Path="/5FBBD4DB/5FBBDBB4/648468D3" Ref="#PWR0145"  Part="1" 
F 0 "#PWR0145" H 7100 9250 50  0001 C CNN
F 1 "VCC" H 7115 9573 50  0000 C CNN
F 2 "" H 7100 9400 50  0001 C CNN
F 3 "" H 7100 9400 50  0001 C CNN
	1    7100 9400
	1    0    0    -1  
$EndComp
$Comp
L power:VCC #PWR?
U 1 1 64846966
P 7100 12800
AR Path="/6428BC4C/64846966" Ref="#PWR?"  Part="1" 
AR Path="/5FBBD4DB/5FBBDBB4/64846966" Ref="#PWR0146"  Part="1" 
F 0 "#PWR0146" H 7100 12650 50  0001 C CNN
F 1 "VCC" H 7115 12973 50  0000 C CNN
F 2 "" H 7100 12800 50  0001 C CNN
F 3 "" H 7100 12800 50  0001 C CNN
	1    7100 12800
	1    0    0    -1  
$EndComp
$Comp
L power:GND #PWR?
U 1 1 64334B17
P 3650 3900
AR Path="/6428BC4C/64334B17" Ref="#PWR?"  Part="1" 
AR Path="/5FBBD4DB/5FBBDBB4/64334B17" Ref="#PWR0147"  Part="1" 
F 0 "#PWR0147" H 3650 3650 50  0001 C CNN
F 1 "GND" H 3655 3727 50  0000 C CNN
F 2 "" H 3650 3900 50  0001 C CNN
F 3 "" H 3650 3900 50  0001 C CNN
	1    3650 3900
	1    0    0    -1  
$EndComp
$Comp
L power:GND #PWR?
U 1 1 64341CCE
P 3650 5600
AR Path="/6428BC4C/64341CCE" Ref="#PWR?"  Part="1" 
AR Path="/5FBBD4DB/5FBBDBB4/64341CCE" Ref="#PWR0148"  Part="1" 
F 0 "#PWR0148" H 3650 5350 50  0001 C CNN
F 1 "GND" H 3655 5427 50  0000 C CNN
F 2 "" H 3650 5600 50  0001 C CNN
F 3 "" H 3650 5600 50  0001 C CNN
	1    3650 5600
	1    0    0    -1  
$EndComp
$Comp
L power:GND #PWR?
U 1 1 6449E137
P 3650 7300
AR Path="/6428BC4C/6449E137" Ref="#PWR?"  Part="1" 
AR Path="/5FBBD4DB/5FBBDBB4/6449E137" Ref="#PWR0149"  Part="1" 
F 0 "#PWR0149" H 3650 7050 50  0001 C CNN
F 1 "GND" H 3655 7127 50  0000 C CNN
F 2 "" H 3650 7300 50  0001 C CNN
F 3 "" H 3650 7300 50  0001 C CNN
	1    3650 7300
	1    0    0    -1  
$EndComp
$Comp
L power:GND #PWR?
U 1 1 6449E164
P 3650 9000
AR Path="/6428BC4C/6449E164" Ref="#PWR?"  Part="1" 
AR Path="/5FBBD4DB/5FBBDBB4/6449E164" Ref="#PWR0150"  Part="1" 
F 0 "#PWR0150" H 3650 8750 50  0001 C CNN
F 1 "GND" H 3655 8827 50  0000 C CNN
F 2 "" H 3650 9000 50  0001 C CNN
F 3 "" H 3650 9000 50  0001 C CNN
	1    3650 9000
	1    0    0    -1  
$EndComp
$Comp
L power:GND #PWR?
U 1 1 64846854
P 3650 10700
AR Path="/6428BC4C/64846854" Ref="#PWR?"  Part="1" 
AR Path="/5FBBD4DB/5FBBDBB4/64846854" Ref="#PWR0151"  Part="1" 
F 0 "#PWR0151" H 3650 10450 50  0001 C CNN
F 1 "GND" H 3655 10527 50  0000 C CNN
F 2 "" H 3650 10700 50  0001 C CNN
F 3 "" H 3650 10700 50  0001 C CNN
	1    3650 10700
	1    0    0    -1  
$EndComp
$Comp
L power:GND #PWR?
U 1 1 64846881
P 3650 12400
AR Path="/6428BC4C/64846881" Ref="#PWR?"  Part="1" 
AR Path="/5FBBD4DB/5FBBDBB4/64846881" Ref="#PWR0152"  Part="1" 
F 0 "#PWR0152" H 3650 12150 50  0001 C CNN
F 1 "GND" H 3655 12227 50  0000 C CNN
F 2 "" H 3650 12400 50  0001 C CNN
F 3 "" H 3650 12400 50  0001 C CNN
	1    3650 12400
	1    0    0    -1  
$EndComp
$Comp
L power:GND #PWR?
U 1 1 64846903
P 3650 14100
AR Path="/6428BC4C/64846903" Ref="#PWR?"  Part="1" 
AR Path="/5FBBD4DB/5FBBDBB4/64846903" Ref="#PWR0153"  Part="1" 
F 0 "#PWR0153" H 3650 13850 50  0001 C CNN
F 1 "GND" H 3655 13927 50  0000 C CNN
F 2 "" H 3650 14100 50  0001 C CNN
F 3 "" H 3650 14100 50  0001 C CNN
	1    3650 14100
	1    0    0    -1  
$EndComp
$Comp
L power:GND #PWR?
U 1 1 64846928
P 3650 15800
AR Path="/6428BC4C/64846928" Ref="#PWR?"  Part="1" 
AR Path="/5FBBD4DB/5FBBDBB4/64846928" Ref="#PWR0154"  Part="1" 
F 0 "#PWR0154" H 3650 15550 50  0001 C CNN
F 1 "GND" H 3655 15627 50  0000 C CNN
F 2 "" H 3650 15800 50  0001 C CNN
F 3 "" H 3650 15800 50  0001 C CNN
	1    3650 15800
	1    0    0    -1  
$EndComp
$Comp
L A5C:OR02 UAI39
U 1 1 64404289
P 6100 1850
AR Path="/6428BC4C/64404289" Ref="UAI39"  Part="1" 
AR Path="/5FBBD4DB/5FBBDBB4/64404289" Ref="UAI39"  Part="1" 
F 0 "UAI39" H 6125 2117 50  0000 C CNN
F 1 "OR02" H 6125 2026 50  0000 C CNN
F 2 "" H 6150 1850 50  0001 C CNN
F 3 "" H 6150 1850 50  0001 C CNN
	1    6100 1850
	1    0    0    -1  
$EndComp
$Comp
L A5C:OR02 UAH38
U 1 1 64413B7D
P 6100 2300
AR Path="/6428BC4C/64413B7D" Ref="UAH38"  Part="1" 
AR Path="/5FBBD4DB/5FBBDBB4/64413B7D" Ref="UAH38"  Part="1" 
F 0 "UAH38" H 6125 2567 50  0000 C CNN
F 1 "OR02" H 6125 2476 50  0000 C CNN
F 2 "" H 6150 2300 50  0001 C CNN
F 3 "" H 6150 2300 50  0001 C CNN
	1    6100 2300
	1    0    0    -1  
$EndComp
$Comp
L A5C:NAND03 UAG38
U 1 1 64621441
P 4050 1000
AR Path="/6428BC4C/64621441" Ref="UAG38"  Part="1" 
AR Path="/5FBBD4DB/5FBBDBB4/64621441" Ref="UAG38"  Part="1" 
F 0 "UAG38" H 4075 1292 50  0000 C CNN
F 1 "NAND03" H 4075 1201 50  0000 C CNN
F 2 "" H 4050 1000 50  0001 C CNN
F 3 "" H 4050 1000 50  0001 C CNN
	1    4050 1000
	1    0    0    -1  
$EndComp
$Comp
L A5C:NAND03 UAE38
U 1 1 6462186C
P 4050 1500
AR Path="/6428BC4C/6462186C" Ref="UAE38"  Part="1" 
AR Path="/5FBBD4DB/5FBBDBB4/6462186C" Ref="UAE38"  Part="1" 
F 0 "UAE38" H 4075 1792 50  0000 C CNN
F 1 "NAND03" H 4075 1701 50  0000 C CNN
F 2 "" H 4050 1500 50  0001 C CNN
F 3 "" H 4050 1500 50  0001 C CNN
	1    4050 1500
	1    0    0    -1  
$EndComp
$Comp
L A5C:INV01 UAG40
U 1 1 6464B22A
P 3500 900
AR Path="/6428BC4C/6464B22A" Ref="UAG40"  Part="1" 
AR Path="/5FBBD4DB/5FBBDBB4/6464B22A" Ref="UAG40"  Part="1" 
F 0 "UAG40" H 3500 1217 50  0000 C CNN
F 1 "INV01" H 3500 1126 50  0000 C CNN
F 2 "" H 3500 700 50  0001 C CNN
F 3 "" H 3500 700 50  0001 C CNN
	1    3500 900 
	1    0    0    -1  
$EndComp
$Comp
L A5C:INV01 UAH40
U 1 1 6434568C
P 4000 2350
AR Path="/6428BC4C/6434568C" Ref="UAH40"  Part="1" 
AR Path="/5FBBD4DB/5FBBDBB4/6434568C" Ref="UAH40"  Part="1" 
F 0 "UAH40" H 4000 2667 50  0000 C CNN
F 1 "INV01" H 4000 2576 50  0000 C CNN
F 2 "" H 4000 2150 50  0001 C CNN
F 3 "" H 4000 2150 50  0001 C CNN
	1    4000 2350
	1    0    0    -1  
$EndComp
$Comp
L A5C:INV01 UAI37
U 1 1 6445C72B
P 5550 1800
AR Path="/6428BC4C/6445C72B" Ref="UAI37"  Part="1" 
AR Path="/5FBBD4DB/5FBBDBB4/6445C72B" Ref="UAI37"  Part="1" 
F 0 "UAI37" H 5550 2117 50  0000 C CNN
F 1 "INV01" H 5550 2026 50  0000 C CNN
F 2 "" H 5550 1600 50  0001 C CNN
F 3 "" H 5550 1600 50  0001 C CNN
	1    5550 1800
	1    0    0    -1  
$EndComp
$Comp
L A5C:BUF12 UAO?
U 1 1 617D201E
P 6400 1200
AR Path="/617D201E" Ref="UAO?"  Part="1" 
AR Path="/60BA673A/617D201E" Ref="UAO?"  Part="1" 
AR Path="/6428BC4C/617D201E" Ref="UAO0"  Part="1" 
AR Path="/5FBBD4DB/5FBBDBB4/617D201E" Ref="UAO0"  Part="1" 
F 0 "UAO0" H 6400 1517 50  0000 C CNN
F 1 "BUF12" H 6400 1426 50  0000 C CNN
F 2 "" H 6400 1200 50  0001 C CNN
F 3 "" H 6400 1200 50  0001 C CNN
	1    6400 1200
	-1   0    0    -1  
$EndComp
$Comp
L A5C:INV01 UAN76
U 1 1 652AC44C
P 8650 4650
AR Path="/6428BC4C/652AC44C" Ref="UAN76"  Part="1" 
AR Path="/5FBBD4DB/5FBBDBB4/652AC44C" Ref="UAN76"  Part="1" 
F 0 "UAN76" H 8650 4967 50  0000 C CNN
F 1 "INV01" H 8650 4876 50  0000 C CNN
F 2 "" H 8650 4450 50  0001 C CNN
F 3 "" H 8650 4450 50  0001 C CNN
	1    8650 4650
	-1   0    0    -1  
$EndComp
$Comp
L A5C:INV01 UAO76
U 1 1 652AC267
P 9250 4650
AR Path="/6428BC4C/652AC267" Ref="UAO76"  Part="1" 
AR Path="/5FBBD4DB/5FBBDBB4/652AC267" Ref="UAO76"  Part="1" 
F 0 "UAO76" H 9250 4967 50  0000 C CNN
F 1 "INV01" H 9250 4876 50  0000 C CNN
F 2 "" H 9250 4450 50  0001 C CNN
F 3 "" H 9250 4450 50  0001 C CNN
	1    9250 4650
	-1   0    0    -1  
$EndComp
$Comp
L A5C:AO22 UAN?
U 1 1 64E8CFBC
P 8400 2950
AR Path="/60BA673A/64E8CFBC" Ref="UAN?"  Part="1" 
AR Path="/6428BC4C/64E8CFBC" Ref="UAN38"  Part="1" 
AR Path="/5FBBD4DB/5FBBDBB4/64E8CFBC" Ref="UAN38"  Part="1" 
F 0 "UAN38" H 8425 3267 50  0000 C CNN
F 1 "AO22" H 8425 3176 50  0000 C CNN
F 2 "" H 8550 2950 50  0001 C CNN
F 3 "" H 8550 2950 50  0001 C CNN
	1    8400 2950
	1    0    0    -1  
$EndComp
$Comp
L A5C:AO22 UAL?
U 1 1 64E8CFC8
P 8400 6350
AR Path="/60BA673A/64E8CFC8" Ref="UAL?"  Part="1" 
AR Path="/6428BC4C/64E8CFC8" Ref="UAL38"  Part="1" 
AR Path="/5FBBD4DB/5FBBDBB4/64E8CFC8" Ref="UAL38"  Part="1" 
F 0 "UAL38" H 8425 6667 50  0000 C CNN
F 1 "AO22" H 8425 6576 50  0000 C CNN
F 2 "" H 8550 6350 50  0001 C CNN
F 3 "" H 8550 6350 50  0001 C CNN
	1    8400 6350
	1    0    0    -1  
$EndComp
$Comp
L A5C:AO22 UAO?
U 1 1 64E8CFB6
P 8400 9750
AR Path="/60BA673A/64E8CFB6" Ref="UAO?"  Part="1" 
AR Path="/6428BC4C/64E8CFB6" Ref="UAO38"  Part="1" 
AR Path="/5FBBD4DB/5FBBDBB4/64E8CFB6" Ref="UAO38"  Part="1" 
F 0 "UAO38" H 8425 10067 50  0000 C CNN
F 1 "AO22" H 8425 9976 50  0000 C CNN
F 2 "" H 8550 9750 50  0001 C CNN
F 3 "" H 8550 9750 50  0001 C CNN
	1    8400 9750
	1    0    0    -1  
$EndComp
$Comp
L A5C:AO22 UAM?
U 1 1 64E8CFC2
P 8400 13150
AR Path="/60BA673A/64E8CFC2" Ref="UAM?"  Part="1" 
AR Path="/6428BC4C/64E8CFC2" Ref="UAM38"  Part="1" 
AR Path="/5FBBD4DB/5FBBDBB4/64E8CFC2" Ref="UAM38"  Part="1" 
F 0 "UAM38" H 8425 13467 50  0000 C CNN
F 1 "AO22" H 8425 13376 50  0000 C CNN
F 2 "" H 8550 13150 50  0001 C CNN
F 3 "" H 8550 13150 50  0001 C CNN
	1    8400 13150
	1    0    0    -1  
$EndComp
$Comp
L A5C:L8G UAL2
U 1 1 6433466A
P 3950 3250
AR Path="/6428BC4C/6433466A" Ref="UAL2"  Part="1" 
AR Path="/5FBBD4DB/5FBBDBB4/6433466A" Ref="UAL2"  Part="1" 
F 0 "UAL2" H 3950 3915 50  0000 C CNN
F 1 "L8G" H 3950 3824 50  0000 C CNN
F 2 "" H 3900 3550 50  0001 C CNN
F 3 "" H 3900 3550 50  0001 C CNN
	1    3950 3250
	1    0    0    -1  
$EndComp
$Comp
L A5C:L8G UAN2
U 1 1 64341CC2
P 3950 4950
AR Path="/6428BC4C/64341CC2" Ref="UAN2"  Part="1" 
AR Path="/5FBBD4DB/5FBBDBB4/64341CC2" Ref="UAN2"  Part="1" 
F 0 "UAN2" H 3950 5615 50  0000 C CNN
F 1 "L8G" H 3950 5524 50  0000 C CNN
F 2 "" H 3900 5250 50  0001 C CNN
F 3 "" H 3900 5250 50  0001 C CNN
	1    3950 4950
	1    0    0    -1  
$EndComp
$Comp
L A5C:L8G UAE2
U 1 1 6449E12B
P 3950 6650
AR Path="/6428BC4C/6449E12B" Ref="UAE2"  Part="1" 
AR Path="/5FBBD4DB/5FBBDBB4/6449E12B" Ref="UAE2"  Part="1" 
F 0 "UAE2" H 3950 7315 50  0000 C CNN
F 1 "L8G" H 3950 7224 50  0000 C CNN
F 2 "" H 3900 6950 50  0001 C CNN
F 3 "" H 3900 6950 50  0001 C CNN
	1    3950 6650
	1    0    0    -1  
$EndComp
$Comp
L A5C:L8G UAH2
U 1 1 6449E158
P 3950 8350
AR Path="/6428BC4C/6449E158" Ref="UAH2"  Part="1" 
AR Path="/5FBBD4DB/5FBBDBB4/6449E158" Ref="UAH2"  Part="1" 
F 0 "UAH2" H 3950 9015 50  0000 C CNN
F 1 "L8G" H 3950 8924 50  0000 C CNN
F 2 "" H 3900 8650 50  0001 C CNN
F 3 "" H 3900 8650 50  0001 C CNN
	1    3950 8350
	1    0    0    -1  
$EndComp
$Comp
L A5C:L8G UAL41
U 1 1 64846848
P 3950 10050
AR Path="/6428BC4C/64846848" Ref="UAL41"  Part="1" 
AR Path="/5FBBD4DB/5FBBDBB4/64846848" Ref="UAL41"  Part="1" 
F 0 "UAL41" H 3950 10715 50  0000 C CNN
F 1 "L8G" H 3950 10624 50  0000 C CNN
F 2 "" H 3900 10350 50  0001 C CNN
F 3 "" H 3900 10350 50  0001 C CNN
	1    3950 10050
	1    0    0    -1  
$EndComp
$Comp
L A5C:L8G UAN41
U 1 1 64846875
P 3950 11750
AR Path="/6428BC4C/64846875" Ref="UAN41"  Part="1" 
AR Path="/5FBBD4DB/5FBBDBB4/64846875" Ref="UAN41"  Part="1" 
F 0 "UAN41" H 3950 12415 50  0000 C CNN
F 1 "L8G" H 3950 12324 50  0000 C CNN
F 2 "" H 3900 12050 50  0001 C CNN
F 3 "" H 3900 12050 50  0001 C CNN
	1    3950 11750
	1    0    0    -1  
$EndComp
$Comp
L A5C:L8G UAE41
U 1 1 648468F7
P 3950 13450
AR Path="/6428BC4C/648468F7" Ref="UAE41"  Part="1" 
AR Path="/5FBBD4DB/5FBBDBB4/648468F7" Ref="UAE41"  Part="1" 
F 0 "UAE41" H 3950 14115 50  0000 C CNN
F 1 "L8G" H 3950 14024 50  0000 C CNN
F 2 "" H 3900 13750 50  0001 C CNN
F 3 "" H 3900 13750 50  0001 C CNN
	1    3950 13450
	1    0    0    -1  
$EndComp
$Comp
L A5C:L8G UAH41
U 1 1 6484691C
P 3950 15150
AR Path="/6428BC4C/6484691C" Ref="UAH41"  Part="1" 
AR Path="/5FBBD4DB/5FBBDBB4/6484691C" Ref="UAH41"  Part="1" 
F 0 "UAH41" H 3950 15815 50  0000 C CNN
F 1 "L8G" H 3950 15724 50  0000 C CNN
F 2 "" H 3900 15450 50  0001 C CNN
F 3 "" H 3900 15450 50  0001 C CNN
	1    3950 15150
	1    0    0    -1  
$EndComp
$Comp
L A5C:L8G UAM2
U 1 1 643347FE
P 5050 3250
AR Path="/6428BC4C/643347FE" Ref="UAM2"  Part="1" 
AR Path="/5FBBD4DB/5FBBDBB4/643347FE" Ref="UAM2"  Part="1" 
F 0 "UAM2" H 5050 3915 50  0000 C CNN
F 1 "L8G" H 5050 3824 50  0000 C CNN
F 2 "" H 5000 3550 50  0001 C CNN
F 3 "" H 5000 3550 50  0001 C CNN
	1    5050 3250
	1    0    0    -1  
$EndComp
$Comp
L A5C:L8G UAO2
U 1 1 64341CC8
P 5050 4950
AR Path="/6428BC4C/64341CC8" Ref="UAO2"  Part="1" 
AR Path="/5FBBD4DB/5FBBDBB4/64341CC8" Ref="UAO2"  Part="1" 
F 0 "UAO2" H 5050 5615 50  0000 C CNN
F 1 "L8G" H 5050 5524 50  0000 C CNN
F 2 "" H 5000 5250 50  0001 C CNN
F 3 "" H 5000 5250 50  0001 C CNN
	1    5050 4950
	1    0    0    -1  
$EndComp
$Comp
L A5C:L8G UAF2
U 1 1 6449E131
P 5050 6650
AR Path="/6428BC4C/6449E131" Ref="UAF2"  Part="1" 
AR Path="/5FBBD4DB/5FBBDBB4/6449E131" Ref="UAF2"  Part="1" 
F 0 "UAF2" H 5050 7315 50  0000 C CNN
F 1 "L8G" H 5050 7224 50  0000 C CNN
F 2 "" H 5000 6950 50  0001 C CNN
F 3 "" H 5000 6950 50  0001 C CNN
	1    5050 6650
	1    0    0    -1  
$EndComp
$Comp
L A5C:L8G UAI2
U 1 1 6449E15E
P 5050 8350
AR Path="/6428BC4C/6449E15E" Ref="UAI2"  Part="1" 
AR Path="/5FBBD4DB/5FBBDBB4/6449E15E" Ref="UAI2"  Part="1" 
F 0 "UAI2" H 5050 9015 50  0000 C CNN
F 1 "L8G" H 5050 8924 50  0000 C CNN
F 2 "" H 5000 8650 50  0001 C CNN
F 3 "" H 5000 8650 50  0001 C CNN
	1    5050 8350
	1    0    0    -1  
$EndComp
$Comp
L A5C:L8G UAM41
U 1 1 6484684E
P 5050 10050
AR Path="/6428BC4C/6484684E" Ref="UAM41"  Part="1" 
AR Path="/5FBBD4DB/5FBBDBB4/6484684E" Ref="UAM41"  Part="1" 
F 0 "UAM41" H 5050 10715 50  0000 C CNN
F 1 "L8G" H 5050 10624 50  0000 C CNN
F 2 "" H 5000 10350 50  0001 C CNN
F 3 "" H 5000 10350 50  0001 C CNN
	1    5050 10050
	1    0    0    -1  
$EndComp
$Comp
L A5C:L8G UAO41
U 1 1 6484687B
P 5050 11750
AR Path="/6428BC4C/6484687B" Ref="UAO41"  Part="1" 
AR Path="/5FBBD4DB/5FBBDBB4/6484687B" Ref="UAO41"  Part="1" 
F 0 "UAO41" H 5050 12415 50  0000 C CNN
F 1 "L8G" H 5050 12324 50  0000 C CNN
F 2 "" H 5000 12050 50  0001 C CNN
F 3 "" H 5000 12050 50  0001 C CNN
	1    5050 11750
	1    0    0    -1  
$EndComp
$Comp
L A5C:L8G UAF41
U 1 1 648468FD
P 5050 13450
AR Path="/6428BC4C/648468FD" Ref="UAF41"  Part="1" 
AR Path="/5FBBD4DB/5FBBDBB4/648468FD" Ref="UAF41"  Part="1" 
F 0 "UAF41" H 5050 14115 50  0000 C CNN
F 1 "L8G" H 5050 14024 50  0000 C CNN
F 2 "" H 5000 13750 50  0001 C CNN
F 3 "" H 5000 13750 50  0001 C CNN
	1    5050 13450
	1    0    0    -1  
$EndComp
$Comp
L A5C:L8G UAI41
U 1 1 64846922
P 5050 15150
AR Path="/6428BC4C/64846922" Ref="UAI41"  Part="1" 
AR Path="/5FBBD4DB/5FBBDBB4/64846922" Ref="UAI41"  Part="1" 
F 0 "UAI41" H 5050 15815 50  0000 C CNN
F 1 "L8G" H 5050 15724 50  0000 C CNN
F 2 "" H 5000 15450 50  0001 C CNN
F 3 "" H 5000 15450 50  0001 C CNN
	1    5050 15150
	1    0    0    -1  
$EndComp
$Comp
L A5C:M198C UAP1
U 1 1 643ED543
P 7000 3100
AR Path="/6428BC4C/643ED543" Ref="UAP1"  Part="1" 
AR Path="/5FBBD4DB/5FBBDBB4/643ED543" Ref="UAP1"  Part="1" 
F 0 "UAP1" H 7150 1927 50  0000 C CNN
F 1 "M198C" H 7150 1836 50  0000 C CNN
F 2 "" H 7000 3100 50  0001 C CNN
F 3 "" H 7000 3100 50  0001 C CNN
	1    7000 3100
	1    0    0    -1  
$EndComp
$Comp
L A5C:M198C UAJ1
U 1 1 6449E1BE
P 7000 6500
AR Path="/6428BC4C/6449E1BE" Ref="UAJ1"  Part="1" 
AR Path="/5FBBD4DB/5FBBDBB4/6449E1BE" Ref="UAJ1"  Part="1" 
F 0 "UAJ1" H 7150 5327 50  0000 C CNN
F 1 "M198C" H 7150 5236 50  0000 C CNN
F 2 "" H 7000 6500 50  0001 C CNN
F 3 "" H 7000 6500 50  0001 C CNN
	1    7000 6500
	1    0    0    -1  
$EndComp
$Comp
L A5C:M198C UAP39
U 1 1 648468DA
P 7000 9900
AR Path="/6428BC4C/648468DA" Ref="UAP39"  Part="1" 
AR Path="/5FBBD4DB/5FBBDBB4/648468DA" Ref="UAP39"  Part="1" 
F 0 "UAP39" H 7150 8727 50  0000 C CNN
F 1 "M198C" H 7150 8636 50  0000 C CNN
F 2 "" H 7000 9900 50  0001 C CNN
F 3 "" H 7000 9900 50  0001 C CNN
	1    7000 9900
	1    0    0    -1  
$EndComp
$Comp
L A5C:M198C UAJ39
U 1 1 6484696D
P 7000 13300
AR Path="/6428BC4C/6484696D" Ref="UAJ39"  Part="1" 
AR Path="/5FBBD4DB/5FBBDBB4/6484696D" Ref="UAJ39"  Part="1" 
F 0 "UAJ39" H 7150 12127 50  0000 C CNN
F 1 "M198C" H 7150 12036 50  0000 C CNN
F 2 "" H 7000 13300 50  0001 C CNN
F 3 "" H 7000 13300 50  0001 C CNN
	1    7000 13300
	1    0    0    -1  
$EndComp
$Comp
L A5C:NBUF02 UAE?
U 1 1 648B9EA7
P 7850 900
AR Path="/5FBBD4DB/5FBBDB9D/648B9EA7" Ref="UAE?"  Part="1" 
AR Path="/5FBBD4DB/5FBBDBB4/648B9EA7" Ref="UAF1"  Part="1" 
F 0 "UAF1" H 7850 1217 50  0000 C CNN
F 1 "INV01" H 7850 1126 50  0000 C CNN
F 2 "" H 7850 700 50  0001 C CNN
F 3 "" H 7850 700 50  0001 C CNN
	1    7850 900 
	-1   0    0    -1  
$EndComp
$Comp
L A5C:NBUF02 UAG?
U 1 1 648B9EAD
P 7850 1400
AR Path="/5FBBD4DB/5FBBDB9D/648B9EAD" Ref="UAG?"  Part="1" 
AR Path="/5FBBD4DB/5FBBDBB4/648B9EAD" Ref="UAG1"  Part="1" 
F 0 "UAG1" H 7850 1717 50  0000 C CNN
F 1 "INV01" H 7850 1626 50  0000 C CNN
F 2 "" H 7850 1200 50  0001 C CNN
F 3 "" H 7850 1200 50  0001 C CNN
	1    7850 1400
	-1   0    0    -1  
$EndComp
$Comp
L A5C:NBUF02 UAH?
U 1 1 648B9EB3
P 7850 1900
AR Path="/5FBBD4DB/5FBBDB9D/648B9EB3" Ref="UAH?"  Part="1" 
AR Path="/5FBBD4DB/5FBBDBB4/648B9EB3" Ref="UAH1"  Part="1" 
F 0 "UAH1" H 7850 2217 50  0000 C CNN
F 1 "INV01" H 7850 2126 50  0000 C CNN
F 2 "" H 7850 1700 50  0001 C CNN
F 3 "" H 7850 1700 50  0001 C CNN
	1    7850 1900
	-1   0    0    -1  
$EndComp
$Comp
L A5C:NBUF02 UAI?
U 1 1 648B9EB9
P 7850 2400
AR Path="/5FBBD4DB/5FBBDB9D/648B9EB9" Ref="UAI?"  Part="1" 
AR Path="/5FBBD4DB/5FBBDBB4/648B9EB9" Ref="UAI1"  Part="1" 
F 0 "UAI1" H 7850 2717 50  0000 C CNN
F 1 "INV01" H 7850 2626 50  0000 C CNN
F 2 "" H 7850 2200 50  0001 C CNN
F 3 "" H 7850 2200 50  0001 C CNN
	1    7850 2400
	-1   0    0    -1  
$EndComp
Wire Wire Line
	8150 900  8150 1400
Wire Wire Line
	7550 900  7550 1400
Wire Wire Line
	8150 1650 8150 1900
Wire Wire Line
	7550 1650 7550 1900
Connection ~ 7550 1400
Wire Wire Line
	7550 1400 7550 1650
Connection ~ 7550 1900
Wire Wire Line
	7550 1900 7550 2400
Connection ~ 8150 1400
Wire Wire Line
	8150 1400 8150 1650
Connection ~ 8150 1900
Wire Wire Line
	8150 1900 8150 2400
Wire Bus Line
	3050 2950 3050 4000
Wire Bus Line
	3050 4000 3050 5150
Wire Bus Line
	3050 6350 3050 7400
Wire Bus Line
	3050 7400 3050 8550
Wire Bus Line
	3050 9750 3050 10800
Wire Bus Line
	3050 10800 3050 11950
Wire Bus Line
	3050 13150 3050 14200
Wire Bus Line
	3050 14200 3050 15350
$EndSCHEMATC
