EESchema Schematic File Version 4
EELAYER 30 0
EELAYER END
$Descr A4 11693 8268
encoding utf-8
Sheet 24 69
Title ""
Date "2020-11-26"
Rev ""
Comp ""
Comment1 "Licence: CC-BY"
Comment2 "Author: Loïc *WydD* Petit"
Comment3 ""
Comment4 ""
$EndDescr
Connection ~ 4150 5250
Connection ~ 4150 5900
Connection ~ 4150 3950
Connection ~ 4150 4600
Connection ~ 4150 2650
Connection ~ 4150 3300
Connection ~ 4150 2000
Connection ~ 4150 6550
NoConn ~ 4750 1150
NoConn ~ 4750 1800
NoConn ~ 4750 2450
NoConn ~ 4750 3100
NoConn ~ 4750 3750
NoConn ~ 4750 4500
NoConn ~ 4750 5150
NoConn ~ 4750 5800
NoConn ~ 4750 6450
Entry Wire Line
	3100 1050 3200 1150
Entry Wire Line
	3100 1700 3200 1800
Entry Wire Line
	3100 2350 3200 2450
Entry Wire Line
	3100 3000 3200 3100
Entry Wire Line
	3100 3650 3200 3750
Entry Wire Line
	3100 4300 3200 4400
Entry Wire Line
	3100 4950 3200 5050
Entry Wire Line
	3100 5600 3200 5700
Entry Wire Line
	3100 6250 3200 6350
Entry Wire Line
	5800 1250 5900 1150
Entry Wire Line
	5800 1900 5900 1800
Entry Wire Line
	5800 2550 5900 2450
Entry Wire Line
	5800 3200 5900 3100
Entry Wire Line
	5800 3850 5900 3750
Entry Wire Line
	5800 4400 5900 4500
Entry Wire Line
	5800 5050 5900 5150
Entry Wire Line
	5800 5700 5900 5800
Entry Wire Line
	5800 6350 5900 6450
Wire Wire Line
	3850 6850 4150 6850
Wire Wire Line
	4150 1350 4150 2000
Wire Wire Line
	4150 1350 4250 1350
Wire Wire Line
	4150 2000 4150 2650
Wire Wire Line
	4150 2650 4150 3300
Wire Wire Line
	4150 3300 4150 3950
Wire Wire Line
	4150 3950 4250 3950
Wire Wire Line
	4150 4600 4150 3950
Wire Wire Line
	4150 4600 4150 5250
Wire Wire Line
	4150 5250 4150 5900
Wire Wire Line
	4150 5900 4150 6550
Wire Wire Line
	4150 6550 4250 6550
Wire Wire Line
	4150 6850 4150 6550
Wire Wire Line
	4250 1150 3200 1150
Wire Wire Line
	4250 1800 3200 1800
Wire Wire Line
	4250 2000 4150 2000
Wire Wire Line
	4250 2450 3200 2450
Wire Wire Line
	4250 2650 4150 2650
Wire Wire Line
	4250 3100 3200 3100
Wire Wire Line
	4250 3300 4150 3300
Wire Wire Line
	4250 3750 3200 3750
Wire Wire Line
	4250 4400 3200 4400
Wire Wire Line
	4250 4600 4150 4600
Wire Wire Line
	4250 5050 3200 5050
Wire Wire Line
	4250 5250 4150 5250
Wire Wire Line
	4250 5700 3200 5700
Wire Wire Line
	4250 5900 4150 5900
Wire Wire Line
	4250 6350 3200 6350
Wire Wire Line
	4750 1250 5800 1250
Wire Wire Line
	4750 1900 5800 1900
Wire Wire Line
	4750 2550 5800 2550
Wire Wire Line
	4750 3200 5800 3200
Wire Wire Line
	4750 3850 5800 3850
Wire Wire Line
	4750 4400 5800 4400
Wire Wire Line
	4750 5050 5800 5050
Wire Wire Line
	4750 5700 5800 5700
Wire Wire Line
	4750 6350 5800 6350
Wire Bus Line
	3100 950  3000 950 
Wire Bus Line
	3100 950  3100 6250
Wire Bus Line
	5900 1050 5900 3750
Wire Bus Line
	5900 1050 6000 1050
Wire Bus Line
	5900 4500 5900 6550
Wire Bus Line
	5900 6550 6000 6550
Text Label 2900 6800 2    50   ~ 0
UBN260-Q
Text Label 2900 6900 2    50   ~ 0
CLK8M
Text Label 3350 1150 0    50   ~ 0
PD0
Text Label 3350 1800 0    50   ~ 0
PD1
Text Label 3350 2450 0    50   ~ 0
PD2
Text Label 3350 3100 0    50   ~ 0
PD3
Text Label 3350 3750 0    50   ~ 0
PD4
Text Label 3350 4400 0    50   ~ 0
PD5
Text Label 3350 5050 0    50   ~ 0
PD6
Text Label 3350 5700 0    50   ~ 0
PD7
Text Label 3350 6350 0    50   ~ 0
PD8
Text Label 4850 1250 0    50   ~ 0
~PD-OUT0
Text Label 4850 1900 0    50   ~ 0
~PD-OUT1
Text Label 4850 2550 0    50   ~ 0
~PD-OUT2
Text Label 4850 3200 0    50   ~ 0
~PD-OUT3
Text Label 4850 3850 0    50   ~ 0
~PD-OUT4
Text Label 4850 4400 0    50   ~ 0
PD-OUT5
Text Label 4850 5050 0    50   ~ 0
PD-OUT6
Text Label 4850 5700 0    50   ~ 0
PD-OUT7
Text Label 4850 6350 0    50   ~ 0
PD-OUT8
Text HLabel 3000 950  0    50   Input ~ 0
PD[0..8]
Text HLabel 3300 6800 0    50   Input ~ 0
~LOAD
Text HLabel 3300 6900 0    50   Input ~ 0
CLK8M
Text HLabel 6000 1050 2    50   Output ~ 0
~PD-OUT[0..4]
Text HLabel 6000 6550 2    50   Output ~ 0
PD-OUT[5..8]
$Comp
L A5C:NAND02 UBN?
U 1 1 61B547A8
P 3550 6850
AR Path="/5FAAFB48/61B547A8" Ref="UBN?"  Part="1" 
AR Path="/61B4D40C/61B547A8" Ref="UBW93"  Part="1" 
AR Path="/5FBCE4A9/5FBD0B26/61B547A8" Ref="UBW93"  Part="1" 
F 0 "UBW93" H 3575 7117 50  0000 C CNN
F 1 "NAND02" H 3575 7026 50  0000 C CNN
F 2 "" H 3550 6850 50  0001 C CNN
F 3 "" H 3550 6850 50  0001 C CNN
	1    3550 6850
	1    0    0    -1  
$EndComp
$Comp
L A5C:DFFCOO UBR?
U 1 1 61B547AE
P 4500 1250
AR Path="/5FAAFB48/61B547AE" Ref="UBR?"  Part="1" 
AR Path="/61B4D40C/61B547AE" Ref="UBW69"  Part="1" 
AR Path="/5FBCE4A9/5FBD0B26/61B547AE" Ref="UBW69"  Part="1" 
F 0 "UBW69" H 4500 1615 50  0000 C CNN
F 1 "DFFCOO" H 4500 1524 50  0000 C CNN
F 2 "" H 4500 1250 50  0001 C CNN
F 3 "" H 4500 1250 50  0001 C CNN
	1    4500 1250
	1    0    0    -1  
$EndComp
$Comp
L A5C:DFFCOO UBR?
U 1 1 61B547B5
P 4500 1900
AR Path="/5FAAFB48/61B547B5" Ref="UBR?"  Part="1" 
AR Path="/61B4D40C/61B547B5" Ref="UBW73"  Part="1" 
AR Path="/5FBCE4A9/5FBD0B26/61B547B5" Ref="UBW73"  Part="1" 
F 0 "UBW73" H 4500 2265 50  0000 C CNN
F 1 "FFCOO" H 4500 2174 50  0000 C CNN
F 2 "" H 4500 1900 50  0001 C CNN
F 3 "" H 4500 1900 50  0001 C CNN
F 4 "UBW66" H 4500 1900 50  0001 C CNN "MiscRef"
	1    4500 1900
	1    0    0    -1  
$EndComp
$Comp
L A5C:DFFCOO UBR?
U 1 1 61B547BB
P 4500 2550
AR Path="/5FAAFB48/61B547BB" Ref="UBR?"  Part="1" 
AR Path="/61B4D40C/61B547BB" Ref="UBW76"  Part="1" 
AR Path="/5FBCE4A9/5FBD0B26/61B547BB" Ref="UBW76"  Part="1" 
F 0 "UBW76" H 4500 2915 50  0000 C CNN
F 1 "DFFCOO" H 4500 2824 50  0000 C CNN
F 2 "" H 4500 2550 50  0001 C CNN
F 3 "" H 4500 2550 50  0001 C CNN
	1    4500 2550
	1    0    0    -1  
$EndComp
$Comp
L A5C:DFFCOO UBR?
U 1 1 61B547C1
P 4500 3200
AR Path="/5FAAFB48/61B547C1" Ref="UBR?"  Part="1" 
AR Path="/61B4D40C/61B547C1" Ref="UBW80"  Part="1" 
AR Path="/5FBCE4A9/5FBD0B26/61B547C1" Ref="UBW80"  Part="1" 
F 0 "UBW80" H 4500 3565 50  0000 C CNN
F 1 "DFFCOO" H 4500 3474 50  0000 C CNN
F 2 "" H 4500 3200 50  0001 C CNN
F 3 "" H 4500 3200 50  0001 C CNN
	1    4500 3200
	1    0    0    -1  
$EndComp
$Comp
L A5C:DFFCOO UBR?
U 1 1 61B547C7
P 4500 3850
AR Path="/5FAAFB48/61B547C7" Ref="UBR?"  Part="1" 
AR Path="/61B4D40C/61B547C7" Ref="UBW84"  Part="1" 
AR Path="/5FBCE4A9/5FBD0B26/61B547C7" Ref="UBW84"  Part="1" 
F 0 "UBW84" H 4500 4215 50  0000 C CNN
F 1 "DFFCOO" H 4500 4124 50  0000 C CNN
F 2 "" H 4500 3850 50  0001 C CNN
F 3 "" H 4500 3850 50  0001 C CNN
	1    4500 3850
	1    0    0    -1  
$EndComp
$Comp
L A5C:DFFCOO UBH?
U 1 1 61B547CE
P 4500 4500
AR Path="/5FAAFB48/61B547CE" Ref="UBH?"  Part="1" 
AR Path="/61B4D40C/61B547CE" Ref="UBU141"  Part="1" 
AR Path="/5FBCE4A9/5FBD0B26/61B547CE" Ref="UBU141"  Part="1" 
F 0 "UBU141" H 4500 4865 50  0000 C CNN
F 1 "DFFCOO" H 4500 4774 50  0000 C CNN
F 2 "" H 4500 4500 50  0001 C CNN
F 3 "" H 4500 4500 50  0001 C CNN
F 4 "UBU139" H 4500 4500 50  0001 C CNN "MiscRef"
	1    4500 4500
	1    0    0    -1  
$EndComp
$Comp
L A5C:DFFCOO UBH?
U 1 1 61B547D4
P 4500 5150
AR Path="/5FAAFB48/61B547D4" Ref="UBH?"  Part="1" 
AR Path="/61B4D40C/61B547D4" Ref="UBU145"  Part="1" 
AR Path="/5FBCE4A9/5FBD0B26/61B547D4" Ref="UBU145"  Part="1" 
F 0 "UBU145" H 4500 5515 50  0000 C CNN
F 1 "DFFCOO" H 4500 5424 50  0000 C CNN
F 2 "" H 4500 5150 50  0001 C CNN
F 3 "" H 4500 5150 50  0001 C CNN
	1    4500 5150
	1    0    0    -1  
$EndComp
$Comp
L A5C:DFFCOO UBH?
U 1 1 61B547DA
P 4500 5800
AR Path="/5FAAFB48/61B547DA" Ref="UBH?"  Part="1" 
AR Path="/61B4D40C/61B547DA" Ref="UBU148"  Part="1" 
AR Path="/5FBCE4A9/5FBD0B26/61B547DA" Ref="UBU148"  Part="1" 
F 0 "UBU148" H 4500 6165 50  0000 C CNN
F 1 "DFFCOO" H 4500 6074 50  0000 C CNN
F 2 "" H 4500 5800 50  0001 C CNN
F 3 "" H 4500 5800 50  0001 C CNN
	1    4500 5800
	1    0    0    -1  
$EndComp
$Comp
L A5C:DFFCOO UBH?
U 1 1 61B547E0
P 4500 6450
AR Path="/5FAAFB48/61B547E0" Ref="UBH?"  Part="1" 
AR Path="/61B4D40C/61B547E0" Ref="UBU152"  Part="1" 
AR Path="/5FBCE4A9/5FBD0B26/61B547E0" Ref="UBU152"  Part="1" 
F 0 "UBU152" H 4500 6815 50  0000 C CNN
F 1 "DFFCOO" H 4500 6724 50  0000 C CNN
F 2 "" H 4500 6450 50  0001 C CNN
F 3 "" H 4500 6450 50  0001 C CNN
	1    4500 6450
	1    0    0    -1  
$EndComp
$EndSCHEMATC
