EESchema Schematic File Version 4
EELAYER 30 0
EELAYER END
$Descr A4 11693 8268
encoding utf-8
Sheet 23 69
Title ""
Date "2020-11-26"
Rev ""
Comp ""
Comment1 "Licence: CC-BY"
Comment2 "Author: Loïc *WydD* Petit"
Comment3 ""
Comment4 ""
$EndDescr
Connection ~ 2550 4100
Connection ~ 2550 2800
Connection ~ 2550 2150
Connection ~ 2550 3450
Connection ~ 6700 4200
Connection ~ 7500 4000
Connection ~ 7400 3900
Connection ~ 5300 4700
Connection ~ 7600 4100
Connection ~ 7700 2950
Connection ~ 7700 1650
Connection ~ 7700 2300
Connection ~ 7700 1950
Connection ~ 7300 3800
Connection ~ 2550 4700
Connection ~ 8950 4800
NoConn ~ 3150 2700
NoConn ~ 3150 1400
NoConn ~ 3150 2050
NoConn ~ 3150 3350
NoConn ~ 6200 1850
NoConn ~ 3150 4000
Entry Wire Line
	2100 1300 2000 1200
Entry Wire Line
	2100 1950 2000 1850
Entry Wire Line
	2100 2600 2000 2500
Entry Wire Line
	2100 3250 2000 3150
Entry Wire Line
	2100 3900 2000 3800
Entry Wire Line
	3700 1300 3800 1200
Entry Wire Line
	3700 1950 3800 1850
Entry Wire Line
	3700 2600 3800 2500
Entry Wire Line
	3700 3250 3800 3150
Entry Wire Line
	3700 3900 3800 3800
Entry Wire Line
	4550 3700 4650 3800
Entry Wire Line
	4550 3800 4650 3900
Entry Wire Line
	4550 3900 4650 4000
Entry Wire Line
	4550 4000 4650 4100
Entry Wire Line
	4550 4100 4650 4200
Entry Wire Line
	4550 4200 4650 4300
Entry Wire Line
	4550 4300 4650 4400
Entry Wire Line
	4550 4400 4650 4500
Entry Wire Line
	8850 1050 8950 1150
Entry Wire Line
	8850 1700 8950 1800
Entry Wire Line
	8850 2350 8950 2450
Entry Wire Line
	8850 3000 8950 3100
Entry Wire Line
	8850 3650 8950 3750
Entry Wire Line
	8850 4300 8950 4400
Entry Wire Line
	8850 4400 8950 4500
Entry Wire Line
	8850 4500 8950 4600
Entry Wire Line
	8850 5100 8950 5000
Wire Wire Line
	1700 4650 1800 4650
Wire Wire Line
	1700 4750 1800 4750
Wire Wire Line
	2100 1300 2650 1300
Wire Wire Line
	2100 1950 2650 1950
Wire Wire Line
	2100 2600 2650 2600
Wire Wire Line
	2100 3250 2650 3250
Wire Wire Line
	2350 4700 2550 4700
Wire Wire Line
	2550 1500 2550 2150
Wire Wire Line
	2550 2150 2550 2800
Wire Wire Line
	2550 2150 2650 2150
Wire Wire Line
	2550 2800 2550 3450
Wire Wire Line
	2550 2800 2650 2800
Wire Wire Line
	2550 3450 2550 4100
Wire Wire Line
	2550 4100 2650 4100
Wire Wire Line
	2550 4700 2550 4100
Wire Wire Line
	2550 4700 5300 4700
Wire Wire Line
	2650 1500 2550 1500
Wire Wire Line
	2650 3450 2550 3450
Wire Wire Line
	2650 3900 2100 3900
Wire Wire Line
	3150 3900 3700 3900
Wire Wire Line
	3700 1300 3150 1300
Wire Wire Line
	3700 1950 3150 1950
Wire Wire Line
	3700 2600 3150 2600
Wire Wire Line
	3700 3250 3150 3250
Wire Wire Line
	4650 3800 5400 3800
Wire Wire Line
	4650 3900 5400 3900
Wire Wire Line
	4650 4000 5400 4000
Wire Wire Line
	4650 4100 5400 4100
Wire Wire Line
	4650 4200 5400 4200
Wire Wire Line
	4650 4300 5400 4300
Wire Wire Line
	4650 4400 5400 4400
Wire Wire Line
	4650 4500 5400 4500
Wire Wire Line
	5200 4950 5400 4950
Wire Wire Line
	5300 4700 5300 2050
Wire Wire Line
	5300 4700 5400 4700
Wire Wire Line
	5400 1850 5700 1850
Wire Wire Line
	5400 4950 5400 4800
Wire Wire Line
	5700 2050 5300 2050
Wire Wire Line
	6200 1950 7700 1950
Wire Wire Line
	6400 3800 7300 3800
Wire Wire Line
	6400 3900 7400 3900
Wire Wire Line
	6400 4000 7500 4000
Wire Wire Line
	6400 4100 7600 4100
Wire Wire Line
	6400 4200 6700 4200
Wire Wire Line
	6400 4300 8850 4300
Wire Wire Line
	6400 4400 8850 4400
Wire Wire Line
	6400 4500 8850 4500
Wire Wire Line
	6700 5300 6700 4200
Wire Wire Line
	6700 5300 6800 5300
Wire Wire Line
	7300 1100 7300 3800
Wire Wire Line
	7300 3800 7300 5200
Wire Wire Line
	7400 1750 7400 3900
Wire Wire Line
	7400 1750 7800 1750
Wire Wire Line
	7400 3900 7400 5100
Wire Wire Line
	7400 5100 7950 5100
Wire Wire Line
	7400 5300 7950 5300
Wire Wire Line
	7500 2400 7500 4000
Wire Wire Line
	7500 4000 7500 5000
Wire Wire Line
	7600 3050 7600 4100
Wire Wire Line
	7600 3050 7800 3050
Wire Wire Line
	7600 4100 7600 4900
Wire Wire Line
	7600 4900 7950 4900
Wire Wire Line
	7700 1000 7700 1650
Wire Wire Line
	7700 1000 7800 1000
Wire Wire Line
	7700 1650 7700 1950
Wire Wire Line
	7700 1950 7700 2300
Wire Wire Line
	7700 2300 7700 2950
Wire Wire Line
	7700 2950 7700 3600
Wire Wire Line
	7700 3700 7700 4200
Wire Wire Line
	7700 4200 6700 4200
Wire Wire Line
	7800 1100 7300 1100
Wire Wire Line
	7800 1650 7700 1650
Wire Wire Line
	7800 2300 7700 2300
Wire Wire Line
	7800 2400 7500 2400
Wire Wire Line
	7800 2950 7700 2950
Wire Wire Line
	7800 3600 7700 3600
Wire Wire Line
	7800 3700 7700 3700
Wire Wire Line
	7950 5000 7500 5000
Wire Wire Line
	7950 5200 7300 5200
Wire Wire Line
	8350 1050 8850 1050
Wire Wire Line
	8350 1700 8850 1700
Wire Wire Line
	8350 2350 8850 2350
Wire Wire Line
	8600 5100 8850 5100
Wire Wire Line
	8850 3000 8350 3000
Wire Wire Line
	8850 3650 8350 3650
Wire Bus Line
	1800 900  2000 900 
Wire Bus Line
	2000 900  2000 3800
Wire Bus Line
	3800 900  3800 3800
Wire Bus Line
	4000 900  3800 900 
Wire Bus Line
	4550 3550 4400 3550
Wire Bus Line
	4550 3550 4550 4400
Wire Bus Line
	8950 1150 8950 4800
Wire Bus Line
	8950 4800 8950 5000
Wire Bus Line
	8950 4800 9150 4800
Text Label 1700 4550 2    50   ~ 0
UBK322-Q
Text Label 2150 1300 0    50   ~ 0
XS0
Text Label 2150 1950 0    50   ~ 0
XS1
Text Label 2150 2600 0    50   ~ 0
XS2
Text Label 2150 3250 0    50   ~ 0
XS3
Text Label 2150 3900 0    50   ~ 0
XS4
Text Label 3650 1300 2    50   ~ 0
XS-OUT0
Text Label 3650 1950 2    50   ~ 0
XS-OUT1
Text Label 3650 2600 2    50   ~ 0
XS-OUT2
Text Label 3650 3250 2    50   ~ 0
XS-OUT3
Text Label 3650 3900 2    50   ~ 0
XS-OUT4
Text Label 5000 3800 2    50   ~ 0
APD0
Text Label 5000 3900 2    50   ~ 0
APD1
Text Label 5000 4000 2    50   ~ 0
APD2
Text Label 5000 4100 2    50   ~ 0
APD3
Text Label 5000 4200 2    50   ~ 0
APD4
Text Label 5000 4300 2    50   ~ 0
APD5
Text Label 5000 4400 2    50   ~ 0
APD6
Text Label 5000 4500 2    50   ~ 0
APD7
Text Label 8650 1050 0    50   ~ 0
PD0
Text Label 8650 1700 0    50   ~ 0
PD1
Text Label 8650 2350 0    50   ~ 0
PD2
Text Label 8650 3000 0    50   ~ 0
PD3
Text Label 8650 3650 0    50   ~ 0
PD4
Text Label 8650 4300 0    50   ~ 0
PD5
Text Label 8650 4400 0    50   ~ 0
PD6
Text Label 8650 4500 0    50   ~ 0
PD7
Text Label 8650 5100 0    50   ~ 0
PD8
Text HLabel 1700 4650 0    50   Input ~ 0
LOAD
Text HLabel 1700 4750 0    50   Input ~ 0
CLK8M
Text HLabel 1800 900  0    50   Input ~ 0
XS[0..4]
Text HLabel 4000 900  2    50   Output ~ 0
XS-OUT[0..4]
Text HLabel 4400 3550 0    50   Input ~ 0
APD[0..7]
Text HLabel 5400 1850 0    50   Input ~ 0
FLIP
Text HLabel 9150 4800 2    50   Output ~ 0
PD[0..8]
$Comp
L power:VCC #PWR?
U 1 1 621B152D
P 5200 4950
AR Path="/621ABC04/621B152D" Ref="#PWR?"  Part="1" 
AR Path="/5FBCE4A9/5FBD0AE4/621B152D" Ref="#PWR0112"  Part="1" 
F 0 "#PWR0112" H 5200 4800 50  0001 C CNN
F 1 "VCC" H 5215 5123 50  0000 C CNN
F 2 "" H 5200 4950 50  0001 C CNN
F 3 "" H 5200 4950 50  0001 C CNN
	1    5200 4950
	1    0    0    -1  
$EndComp
$Comp
L A5C:NAND02 UBN282
U 1 1 5FDE8F33
P 2050 4700
AR Path="/621ABC04/5FDE8F33" Ref="UBN282"  Part="1" 
AR Path="/5FBCE4A9/5FBD0AE4/5FDE8F33" Ref="UBN282"  Part="1" 
F 0 "UBN282" H 2075 4966 50  0000 C CNN
F 1 "NAND02" H 2075 4875 50  0000 C CNN
F 2 "" H 2050 4700 50  0001 C CNN
F 3 "" H 2050 4700 50  0001 C CNN
	1    2050 4700
	1    0    0    -1  
$EndComp
$Comp
L A5C:XOR02 UBW131
U 1 1 6232BC7C
P 8050 1050
AR Path="/621ABC04/6232BC7C" Ref="UBW131"  Part="1" 
AR Path="/5FBCE4A9/5FBD0AE4/6232BC7C" Ref="UBW131"  Part="1" 
F 0 "UBW131" H 8075 1317 50  0000 C CNN
F 1 "XOR02" H 8075 1226 50  0000 C CNN
F 2 "" H 8050 1050 50  0001 C CNN
F 3 "" H 8050 1050 50  0001 C CNN
	1    8050 1050
	1    0    0    -1  
$EndComp
$Comp
L A5C:XOR02 UBW134
U 1 1 6232C3ED
P 8050 1700
AR Path="/621ABC04/6232C3ED" Ref="UBW134"  Part="1" 
AR Path="/5FBCE4A9/5FBD0AE4/6232C3ED" Ref="UBW134"  Part="1" 
F 0 "UBW134" H 8075 1967 50  0000 C CNN
F 1 "XOR02" H 8075 1876 50  0000 C CNN
F 2 "" H 8050 1700 50  0001 C CNN
F 3 "" H 8050 1700 50  0001 C CNN
	1    8050 1700
	1    0    0    -1  
$EndComp
$Comp
L A5C:XOR02 UBW137
U 1 1 6232C4B8
P 8050 2350
AR Path="/621ABC04/6232C4B8" Ref="UBW137"  Part="1" 
AR Path="/5FBCE4A9/5FBD0AE4/6232C4B8" Ref="UBW137"  Part="1" 
F 0 "UBW137" H 8075 2617 50  0000 C CNN
F 1 "XOR02" H 8075 2526 50  0000 C CNN
F 2 "" H 8050 2350 50  0001 C CNN
F 3 "" H 8050 2350 50  0001 C CNN
	1    8050 2350
	1    0    0    -1  
$EndComp
$Comp
L A5C:XOR02 UBW139
U 1 1 6232C69E
P 8050 3000
AR Path="/621ABC04/6232C69E" Ref="UBW139"  Part="1" 
AR Path="/5FBCE4A9/5FBD0AE4/6232C69E" Ref="UBW139"  Part="1" 
F 0 "UBW139" H 8075 3267 50  0000 C CNN
F 1 "XOR02" H 8075 3176 50  0000 C CNN
F 2 "" H 8050 3000 50  0001 C CNN
F 3 "" H 8050 3000 50  0001 C CNN
	1    8050 3000
	1    0    0    -1  
$EndComp
$Comp
L A5C:XOR02 UBW142
U 1 1 6232C7E9
P 8050 3650
AR Path="/621ABC04/6232C7E9" Ref="UBW142"  Part="1" 
AR Path="/5FBCE4A9/5FBD0AE4/6232C7E9" Ref="UBW142"  Part="1" 
F 0 "UBW142" H 8075 3917 50  0000 C CNN
F 1 "XOR02" H 8075 3826 50  0000 C CNN
F 2 "" H 8050 3650 50  0001 C CNN
F 3 "" H 8050 3650 50  0001 C CNN
	1    8050 3650
	1    0    0    -1  
$EndComp
$Comp
L A5C:INV01 UBW125
U 1 1 67360A10
P 7100 5300
AR Path="/621ABC04/67360A10" Ref="UBW125"  Part="1" 
AR Path="/5FBCE4A9/5FBD0AE4/67360A10" Ref="UBW125"  Part="1" 
F 0 "UBW125" H 7100 5617 50  0000 C CNN
F 1 "INV01" H 7100 5526 50  0000 C CNN
F 2 "" H 7100 5100 50  0001 C CNN
F 3 "" H 7100 5100 50  0001 C CNN
	1    7100 5300
	1    0    0    1   
$EndComp
$Comp
L A5C:DFFCOO UBZ26
U 1 1 5FC00C0A
P 2900 1400
AR Path="/621ABC04/5FC00C0A" Ref="UBZ26"  Part="1" 
AR Path="/5FBCE4A9/5FBD0AE4/5FC00C0A" Ref="UBZ26"  Part="1" 
F 0 "UBZ26" H 2900 1761 50  0000 C CNN
F 1 "DFFCOO" H 2900 1670 50  0000 C CNN
F 2 "" H 2900 1400 50  0001 C CNN
F 3 "" H 2900 1400 50  0001 C CNN
F 4 "UBZ23" H 2900 1400 50  0001 C CNN "MiscRef"
	1    2900 1400
	1    0    0    -1  
$EndComp
$Comp
L A5C:DFFCOO UBZ30
U 1 1 5FC00C4B
P 2900 2050
AR Path="/621ABC04/5FC00C4B" Ref="UBZ30"  Part="1" 
AR Path="/5FBCE4A9/5FBD0AE4/5FC00C4B" Ref="UBZ30"  Part="1" 
F 0 "UBZ30" H 2900 2411 50  0000 C CNN
F 1 "DFFCOO" H 2900 2320 50  0000 C CNN
F 2 "" H 2900 2050 50  0001 C CNN
F 3 "" H 2900 2050 50  0001 C CNN
	1    2900 2050
	1    0    0    -1  
$EndComp
$Comp
L A5C:DFFCOO UBZ34
U 1 1 5FC00C78
P 2900 2700
AR Path="/621ABC04/5FC00C78" Ref="UBZ34"  Part="1" 
AR Path="/5FBCE4A9/5FBD0AE4/5FC00C78" Ref="UBZ34"  Part="1" 
F 0 "UBZ34" H 2900 3061 50  0000 C CNN
F 1 "DFFCOO" H 2900 2970 50  0000 C CNN
F 2 "" H 2900 2700 50  0001 C CNN
F 3 "" H 2900 2700 50  0001 C CNN
	1    2900 2700
	1    0    0    -1  
$EndComp
$Comp
L A5C:DFFCOO UBZ38
U 1 1 5FC00C63
P 2900 3350
AR Path="/621ABC04/5FC00C63" Ref="UBZ38"  Part="1" 
AR Path="/5FBCE4A9/5FBD0AE4/5FC00C63" Ref="UBZ38"  Part="1" 
F 0 "UBZ38" H 2900 3711 50  0000 C CNN
F 1 "DFFCOO" H 2900 3620 50  0000 C CNN
F 2 "" H 2900 3350 50  0001 C CNN
F 3 "" H 2900 3350 50  0001 C CNN
	1    2900 3350
	1    0    0    -1  
$EndComp
$Comp
L A5C:DFFCOO UBZ42
U 1 1 5FC00C31
P 2900 4000
AR Path="/621ABC04/5FC00C31" Ref="UBZ42"  Part="1" 
AR Path="/5FBCE4A9/5FBD0AE4/5FC00C31" Ref="UBZ42"  Part="1" 
F 0 "UBZ42" H 2900 4361 50  0000 C CNN
F 1 "DFFCOO" H 2900 4270 50  0000 C CNN
F 2 "" H 2900 4000 50  0001 C CNN
F 3 "" H 2900 4000 50  0001 C CNN
	1    2900 4000
	1    0    0    -1  
$EndComp
$Comp
L A5C:DFFCOO UBR233
U 1 1 5FCECB4E
P 5950 1950
AR Path="/621ABC04/5FCECB4E" Ref="UBR233"  Part="1" 
AR Path="/5FBCE4A9/5FBD0AE4/5FCECB4E" Ref="UBR233"  Part="1" 
F 0 "UBR233" H 5950 2315 50  0000 C CNN
F 1 "DFFCOO" H 5950 2224 50  0000 C CNN
F 2 "" H 5950 1950 50  0001 C CNN
F 3 "" H 5950 1950 50  0001 C CNN
F 4 "UBR232" H 5950 1950 50  0001 C CNN "MiscRef"
	1    5950 1950
	1    0    0    -1  
$EndComp
$Comp
L A5C:NAND05 UBR134
U 1 1 67360A0F
P 8250 5100
AR Path="/621ABC04/67360A0F" Ref="UBR134"  Part="1" 
AR Path="/5FBCE4A9/5FBD0AE4/67360A0F" Ref="UBR134"  Part="1" 
F 0 "UBR134" H 8275 5490 50  0000 C CNN
F 1 "NAND05" H 8275 5399 50  0000 C CNN
F 2 "" H 8250 4800 50  0001 C CNN
F 3 "" H 8250 4800 50  0001 C CNN
	1    8250 5100
	1    0    0    1   
$EndComp
$Comp
L A5C:M273C UBN226
U 1 1 67360A0D
P 5900 4300
AR Path="/621ABC04/67360A0D" Ref="UBN226"  Part="1" 
AR Path="/5FBCE4A9/5FBD0AE4/67360A0D" Ref="UBN226"  Part="1" 
F 0 "UBN226" H 5900 5067 50  0000 C CNN
F 1 "M273C" H 5900 4976 50  0000 C CNN
F 2 "" H 5900 4300 50  0001 C CNN
F 3 "" H 5900 4300 50  0001 C CNN
F 4 "UBN223;UBN230;UBN234;UBN238;UBN242;UBN245;UBN249;UBN253" H 5900 4300 50  0001 C CNN "MiscRef"
	1    5900 4300
	1    0    0    -1  
$EndComp
$EndSCHEMATC
