EESchema Schematic File Version 4
EELAYER 30 0
EELAYER END
$Descr A4 8268 11693 portrait
encoding utf-8
Sheet 28 69
Title ""
Date "2020-11-26"
Rev ""
Comp ""
Comment1 "Licence: CC-BY"
Comment2 "Author: Loïc *WydD* Petit"
Comment3 ""
Comment4 ""
$EndDescr
Connection ~ 5100 9050
Connection ~ 5200 8950
Connection ~ 5300 8850
Connection ~ 5600 8650
Connection ~ 5600 7950
Connection ~ 5400 8050
Connection ~ 5400 2850
Connection ~ 5300 2950
Connection ~ 5400 2150
Connection ~ 5300 2250
Connection ~ 5200 3050
Connection ~ 4300 2450
Connection ~ 4300 3250
Connection ~ 1750 3250
Connection ~ 5100 3850
Connection ~ 5200 3750
Connection ~ 4300 8450
Connection ~ 2450 7750
Connection ~ 2450 7650
Connection ~ 5400 1450
Connection ~ 5300 3650
Connection ~ 5400 3550
Connection ~ 4300 4050
Connection ~ 4300 6850
Connection ~ 4300 7650
Connection ~ 5600 6550
Connection ~ 5400 6650
Connection ~ 5400 7350
Connection ~ 5600 7250
Connection ~ 5200 8250
Connection ~ 5300 8150
Connection ~ 5300 7450
Connection ~ 5400 8750
NoConn ~ 5000 3150
NoConn ~ 5000 3950
NoConn ~ 5000 8350
NoConn ~ 5000 1550
NoConn ~ 5000 2350
NoConn ~ 5000 7550
NoConn ~ 5000 6750
NoConn ~ 5000 9150
Entry Wire Line
	1650 2150 1750 2250
Entry Wire Line
	1650 2250 1750 2350
Entry Wire Line
	1650 2350 1750 2450
Entry Wire Line
	1650 2450 1750 2550
Entry Wire Line
	1650 2550 1750 2650
Wire Wire Line
	1650 3250 1750 3250
Wire Wire Line
	1650 3750 2550 3750
Wire Wire Line
	1650 8600 2950 8600
Wire Wire Line
	1750 3250 1750 8450
Wire Wire Line
	1750 3250 2950 3250
Wire Wire Line
	1750 8450 2950 8450
Wire Wire Line
	2200 7750 2450 7750
Wire Wire Line
	2450 2650 1750 2650
Wire Wire Line
	2450 7450 2450 2650
Wire Wire Line
	2450 7550 2450 7650
Wire Wire Line
	2450 7550 2950 7550
Wire Wire Line
	2450 7650 2450 7750
Wire Wire Line
	2450 7650 2950 7650
Wire Wire Line
	2450 7750 2950 7750
Wire Wire Line
	2550 550  7450 550 
Wire Wire Line
	2550 3050 2550 550 
Wire Wire Line
	2550 3400 2550 3750
Wire Wire Line
	2550 5750 7650 5750
Wire Wire Line
	2550 8250 2550 5750
Wire Wire Line
	2650 650  2650 2950
Wire Wire Line
	2650 650  7350 650 
Wire Wire Line
	2650 2950 2950 2950
Wire Wire Line
	2650 5850 2650 8150
Wire Wire Line
	2650 5850 7550 5850
Wire Wire Line
	2650 8150 2950 8150
Wire Wire Line
	2750 750  7250 750 
Wire Wire Line
	2750 2850 2750 750 
Wire Wire Line
	2750 5950 7450 5950
Wire Wire Line
	2750 8050 2750 5950
Wire Wire Line
	2850 850  7150 850 
Wire Wire Line
	2850 2750 2850 850 
Wire Wire Line
	2850 6050 7350 6050
Wire Wire Line
	2850 7950 2850 6050
Wire Wire Line
	2950 2250 1750 2250
Wire Wire Line
	2950 2350 1750 2350
Wire Wire Line
	2950 2450 1750 2450
Wire Wire Line
	2950 2550 1750 2550
Wire Wire Line
	2950 2750 2850 2750
Wire Wire Line
	2950 2850 2750 2850
Wire Wire Line
	2950 3050 2550 3050
Wire Wire Line
	2950 3400 2550 3400
Wire Wire Line
	2950 7450 2450 7450
Wire Wire Line
	2950 7950 2850 7950
Wire Wire Line
	2950 8050 2750 8050
Wire Wire Line
	2950 8250 2550 8250
Wire Wire Line
	3950 2500 4050 2500
Wire Wire Line
	3950 2600 4150 2600
Wire Wire Line
	3950 2700 4150 2700
Wire Wire Line
	3950 2800 4050 2800
Wire Wire Line
	3950 7700 4050 7700
Wire Wire Line
	3950 7800 4150 7800
Wire Wire Line
	3950 7900 4150 7900
Wire Wire Line
	3950 8000 4050 8000
Wire Wire Line
	4050 1450 4500 1450
Wire Wire Line
	4050 2500 4050 1450
Wire Wire Line
	4050 2800 4050 3850
Wire Wire Line
	4050 3850 4500 3850
Wire Wire Line
	4050 4050 4300 4050
Wire Wire Line
	4050 6650 4500 6650
Wire Wire Line
	4050 7700 4050 6650
Wire Wire Line
	4050 8000 4050 9050
Wire Wire Line
	4050 9050 4500 9050
Wire Wire Line
	4150 2250 4500 2250
Wire Wire Line
	4150 2600 4150 2250
Wire Wire Line
	4150 2700 4150 3050
Wire Wire Line
	4150 3050 4500 3050
Wire Wire Line
	4150 7450 4500 7450
Wire Wire Line
	4150 7800 4150 7450
Wire Wire Line
	4150 7900 4150 8250
Wire Wire Line
	4150 8250 4500 8250
Wire Wire Line
	4300 1650 4500 1650
Wire Wire Line
	4300 2450 4300 1650
Wire Wire Line
	4300 2450 4500 2450
Wire Wire Line
	4300 3250 4300 2450
Wire Wire Line
	4300 4050 4300 3250
Wire Wire Line
	4300 4050 4300 6850
Wire Wire Line
	4300 4050 4500 4050
Wire Wire Line
	4300 6850 4500 6850
Wire Wire Line
	4300 7650 4300 6850
Wire Wire Line
	4300 7650 4500 7650
Wire Wire Line
	4300 8450 4300 7650
Wire Wire Line
	4300 9250 4300 8450
Wire Wire Line
	4300 9250 4500 9250
Wire Wire Line
	4500 3250 4300 3250
Wire Wire Line
	4500 8450 4300 8450
Wire Wire Line
	5000 1450 5400 1450
Wire Wire Line
	5000 2250 5300 2250
Wire Wire Line
	5000 3050 5200 3050
Wire Wire Line
	5000 3850 5100 3850
Wire Wire Line
	5000 6650 5400 6650
Wire Wire Line
	5000 7450 5300 7450
Wire Wire Line
	5000 8250 5200 8250
Wire Wire Line
	5000 9050 5100 9050
Wire Wire Line
	5100 1050 5100 3850
Wire Wire Line
	5100 3850 5100 4550
Wire Wire Line
	5100 6250 5100 9050
Wire Wire Line
	5100 9050 5100 9850
Wire Wire Line
	5200 3050 5200 1050
Wire Wire Line
	5200 3050 5200 3750
Wire Wire Line
	5200 3750 5200 4450
Wire Wire Line
	5200 8250 5200 6250
Wire Wire Line
	5200 8250 5200 8950
Wire Wire Line
	5200 8950 5200 9750
Wire Wire Line
	5300 2250 5300 1050
Wire Wire Line
	5300 2250 5300 2950
Wire Wire Line
	5300 2950 5300 3650
Wire Wire Line
	5300 3650 5300 4350
Wire Wire Line
	5300 3650 6000 3650
Wire Wire Line
	5300 7450 5300 6250
Wire Wire Line
	5300 7450 5300 8150
Wire Wire Line
	5300 8150 5300 8850
Wire Wire Line
	5300 8850 5300 9650
Wire Wire Line
	5400 1050 5400 1450
Wire Wire Line
	5400 1450 5400 2150
Wire Wire Line
	5400 1450 7150 1450
Wire Wire Line
	5400 2150 5400 2850
Wire Wire Line
	5400 2150 6600 2150
Wire Wire Line
	5400 2850 5400 3550
Wire Wire Line
	5400 2850 6050 2850
Wire Wire Line
	5400 3550 5400 4250
Wire Wire Line
	5400 3550 6000 3550
Wire Wire Line
	5400 4250 6000 4250
Wire Wire Line
	5400 6250 5400 6650
Wire Wire Line
	5400 6650 5400 7350
Wire Wire Line
	5400 7350 5400 8050
Wire Wire Line
	5400 8050 5400 8750
Wire Wire Line
	5400 8050 6100 8050
Wire Wire Line
	5400 8750 5400 9550
Wire Wire Line
	5600 5550 7450 5550
Wire Wire Line
	5600 6550 5600 5550
Wire Wire Line
	5600 6550 5600 7250
Wire Wire Line
	5600 7250 5600 7950
Wire Wire Line
	5600 7950 5600 8650
Wire Wire Line
	5600 8650 5600 9450
Wire Wire Line
	6000 3750 5200 3750
Wire Wire Line
	6000 4350 5300 4350
Wire Wire Line
	6000 4450 5200 4450
Wire Wire Line
	6000 4550 5100 4550
Wire Wire Line
	6000 9450 5600 9450
Wire Wire Line
	6000 9550 5400 9550
Wire Wire Line
	6000 9650 5300 9650
Wire Wire Line
	6000 9750 5200 9750
Wire Wire Line
	6000 9850 5100 9850
Wire Wire Line
	6050 2950 5300 2950
Wire Wire Line
	6100 7950 5600 7950
Wire Wire Line
	6100 8150 5300 8150
Wire Wire Line
	6100 8650 5600 8650
Wire Wire Line
	6100 8750 5400 8750
Wire Wire Line
	6100 8850 5300 8850
Wire Wire Line
	6100 8950 5200 8950
Wire Wire Line
	6150 7250 5600 7250
Wire Wire Line
	6150 7350 5400 7350
Wire Wire Line
	6600 2250 5300 2250
Wire Wire Line
	6600 2950 6600 2900
Wire Wire Line
	6600 3050 5200 3050
Wire Wire Line
	6600 3750 6600 3650
Wire Wire Line
	6600 3850 5100 3850
Wire Wire Line
	6700 6550 5600 6550
Wire Wire Line
	6700 6650 5400 6650
Wire Wire Line
	6700 7350 6700 7300
Wire Wire Line
	6700 7450 5300 7450
Wire Wire Line
	6700 8150 6700 8050
Wire Wire Line
	6700 8250 5200 8250
Wire Wire Line
	6700 8800 6700 8950
Wire Wire Line
	6700 9050 5100 9050
Wire Wire Line
	7150 1450 7150 850 
Wire Wire Line
	7150 2200 7250 2200
Wire Wire Line
	7150 3800 7450 3800
Wire Wire Line
	7250 750  7250 2200
Wire Wire Line
	7250 6600 7350 6600
Wire Wire Line
	7250 8200 7550 8200
Wire Wire Line
	7250 9000 7650 9000
Wire Wire Line
	7350 650  7350 3000
Wire Wire Line
	7350 3000 7150 3000
Wire Wire Line
	7350 6600 7350 6050
Wire Wire Line
	7450 550  7450 3800
Wire Wire Line
	7450 4400 7200 4400
Wire Wire Line
	7450 5550 7450 4400
Wire Wire Line
	7450 5950 7450 7400
Wire Wire Line
	7450 7400 7250 7400
Wire Wire Line
	7550 8200 7550 5850
Wire Wire Line
	7650 9000 7650 5750
Wire Bus Line
	1650 2000 1550 2000
Wire Bus Line
	1650 2000 1650 2550
Text Label 1000 3900 2    50   ~ 0
~MAIN-RESET
Text Label 1850 2250 0    50   ~ 0
~PD0
Text Label 1850 2350 0    50   ~ 0
~PD1
Text Label 1850 2450 0    50   ~ 0
~PD2
Text Label 1850 2550 0    50   ~ 0
~PD3
Text Label 1850 2650 0    50   ~ 0
~PD4
Text HLabel 1050 3250 0    50   Input ~ 0
LOAD
Text HLabel 1050 3750 0    50   Input ~ 0
~RESET
Text HLabel 1050 8600 0    50   Input ~ 0
~RESET
Text HLabel 1550 2000 0    50   Input ~ 0
~PD[0..4]
Text HLabel 4050 4050 0    50   Input ~ 0
~CLK8M
Text HLabel 6750 9650 2    50   Output ~ 0
ZERO
$Comp
L power:VCC #PWR?
U 1 1 629357C4
P 2200 7750
AR Path="/5FC4E2F1/629357C4" Ref="#PWR?"  Part="1" 
AR Path="/621ABC04/629357C4" Ref="#PWR?"  Part="1" 
AR Path="/5FAC57E1/629357C4" Ref="#PWR?"  Part="1" 
AR Path="/5FBCE4A9/5FBD0B6C/629357C4" Ref="#PWR0115"  Part="1" 
F 0 "#PWR0115" H 2200 7600 50  0001 C CNN
F 1 "VCC" H 2215 7923 50  0000 C CNN
F 2 "" H 2200 7750 50  0001 C CNN
F 3 "" H 2200 7750 50  0001 C CNN
	1    2200 7750
	1    0    0    -1  
$EndComp
$Comp
L A5C:NOR02 UCC?
U 1 1 6251CC00
P 6300 2900
AR Path="/5FD56F21/6251CC00" Ref="UCC?"  Part="1" 
AR Path="/621ABC04/6251CC00" Ref="UCC239"  Part="1" 
AR Path="/5FAC57E1/6251CC00" Ref="UCC239"  Part="1" 
AR Path="/5FBCE4A9/5FBD0B6C/6251CC00" Ref="UCC239"  Part="1" 
F 0 "UCC239" H 6325 3166 50  0000 C CNN
F 1 "NOR02" H 6325 3075 50  0000 C CNN
F 2 "" H 6300 2900 50  0001 C CNN
F 3 "" H 6300 2900 50  0001 C CNN
	1    6300 2900
	1    0    0    -1  
$EndComp
$Comp
L A5C:NOR02 UBR?
U 1 1 6283B21F
P 6400 7300
AR Path="/5FD56F21/6283B21F" Ref="UBR?"  Part="1" 
AR Path="/621ABC04/6283B21F" Ref="UBZ83"  Part="1" 
AR Path="/5FAC57E1/6283B21F" Ref="UBZ83"  Part="1" 
AR Path="/5FBCE4A9/5FBD0B6C/6283B21F" Ref="UBZ83"  Part="1" 
F 0 "UBZ83" H 6425 7566 50  0000 C CNN
F 1 "NOR02" H 6425 7475 50  0000 C CNN
F 2 "" H 6400 7300 50  0001 C CNN
F 3 "" H 6400 7300 50  0001 C CNN
	1    6400 7300
	1    0    0    -1  
$EndComp
$Comp
L A5C:XOR02 UCC?
U 1 1 6251CC06
P 6850 2200
AR Path="/5FD56F21/6251CC06" Ref="UCC?"  Part="1" 
AR Path="/621ABC04/6251CC06" Ref="UCC204"  Part="1" 
AR Path="/5FAC57E1/6251CC06" Ref="UCC204"  Part="1" 
AR Path="/5FBCE4A9/5FBD0B6C/6251CC06" Ref="UCC204"  Part="1" 
F 0 "UCC204" H 6875 2467 50  0000 C CNN
F 1 "XOR02" H 6875 2376 50  0000 C CNN
F 2 "" H 6850 2200 50  0001 C CNN
F 3 "" H 6850 2200 50  0001 C CNN
	1    6850 2200
	1    0    0    -1  
$EndComp
$Comp
L A5C:XNOR02 UCC?
U 1 1 6251CC0C
P 6850 3000
AR Path="/5FD56F21/6251CC0C" Ref="UCC?"  Part="1" 
AR Path="/621ABC04/6251CC0C" Ref="UCC221"  Part="1" 
AR Path="/5FAC57E1/6251CC0C" Ref="UCC221"  Part="1" 
AR Path="/5FBCE4A9/5FBD0B6C/6251CC0C" Ref="UCC221"  Part="1" 
F 0 "UCC221" H 6850 3317 50  0000 C CNN
F 1 "XNOR02" H 6850 3226 50  0000 C CNN
F 2 "" H 6850 3000 50  0001 C CNN
F 3 "" H 6850 3000 50  0001 C CNN
	1    6850 3000
	1    0    0    -1  
$EndComp
$Comp
L A5C:XNOR02 UCC?
U 1 1 6251CC12
P 6850 3800
AR Path="/5FD56F21/6251CC12" Ref="UCC?"  Part="1" 
AR Path="/621ABC04/6251CC12" Ref="UCG209"  Part="1" 
AR Path="/5FAC57E1/6251CC12" Ref="UCG209"  Part="1" 
AR Path="/5FBCE4A9/5FBD0B6C/6251CC12" Ref="UCG209"  Part="1" 
F 0 "UCG209" H 6850 4117 50  0000 C CNN
F 1 "XNOR02" H 6850 4026 50  0000 C CNN
F 2 "" H 6850 3800 50  0001 C CNN
F 3 "" H 6850 3800 50  0001 C CNN
	1    6850 3800
	1    0    0    -1  
$EndComp
$Comp
L A5C:XOR02 UBU?
U 1 1 6283B225
P 6950 6600
AR Path="/5FD56F21/6283B225" Ref="UBU?"  Part="1" 
AR Path="/621ABC04/6283B225" Ref="UBR52"  Part="1" 
AR Path="/5FAC57E1/6283B225" Ref="UBR52"  Part="1" 
AR Path="/5FBCE4A9/5FBD0B6C/6283B225" Ref="UBR52"  Part="1" 
F 0 "UBR52" H 6975 6867 50  0000 C CNN
F 1 "XOR02" H 6975 6776 50  0000 C CNN
F 2 "" H 6950 6600 50  0001 C CNN
F 3 "" H 6950 6600 50  0001 C CNN
	1    6950 6600
	1    0    0    -1  
$EndComp
$Comp
L A5C:XNOR02 UBR?
U 1 1 6283B22B
P 6950 7400
AR Path="/5FD56F21/6283B22B" Ref="UBR?"  Part="1" 
AR Path="/621ABC04/6283B22B" Ref="UBZ87"  Part="1" 
AR Path="/5FAC57E1/6283B22B" Ref="UBZ87"  Part="1" 
AR Path="/5FBCE4A9/5FBD0B6C/6283B22B" Ref="UBZ87"  Part="1" 
F 0 "UBZ87" H 6950 7717 50  0000 C CNN
F 1 "XNOR02" H 6950 7626 50  0000 C CNN
F 2 "" H 6950 7400 50  0001 C CNN
F 3 "" H 6950 7400 50  0001 C CNN
	1    6950 7400
	1    0    0    -1  
$EndComp
$Comp
L A5C:XNOR02 UBU?
U 1 1 6283B231
P 6950 8200
AR Path="/5FD56F21/6283B231" Ref="UBU?"  Part="1" 
AR Path="/621ABC04/6283B231" Ref="UBU77"  Part="1" 
AR Path="/5FAC57E1/6283B231" Ref="UBU77"  Part="1" 
AR Path="/5FBCE4A9/5FBD0B6C/6283B231" Ref="UBU77"  Part="1" 
F 0 "UBU77" H 6950 8517 50  0000 C CNN
F 1 "XNOR02" H 6950 8426 50  0000 C CNN
F 2 "" H 6950 8200 50  0001 C CNN
F 3 "" H 6950 8200 50  0001 C CNN
	1    6950 8200
	1    0    0    -1  
$EndComp
$Comp
L A5C:XNOR02 UBU?
U 1 1 6283B237
P 6950 9000
AR Path="/5FD56F21/6283B237" Ref="UBU?"  Part="1" 
AR Path="/621ABC04/6283B237" Ref="UBR81"  Part="1" 
AR Path="/5FAC57E1/6283B237" Ref="UBR81"  Part="1" 
AR Path="/5FBCE4A9/5FBD0B6C/6283B237" Ref="UBR81"  Part="1" 
F 0 "UBR81" H 6950 9317 50  0000 C CNN
F 1 "XNOR02" H 6950 9226 50  0000 C CNN
F 2 "" H 6950 9000 50  0001 C CNN
F 3 "" H 6950 9000 50  0001 C CNN
	1    6950 9000
	1    0    0    -1  
$EndComp
$Comp
L A5C:INV01 UBU?
U 1 1 627751C1
P 1350 3250
AR Path="/627751C1" Ref="UBU?"  Part="1" 
AR Path="/621ABC04/627751C1" Ref="UBU181"  Part="1" 
AR Path="/5FAC57E1/627751C1" Ref="UBU181"  Part="1" 
AR Path="/5FBCE4A9/5FBD0B6C/627751C1" Ref="UBU181"  Part="1" 
F 0 "UBU181" H 1350 3566 50  0000 C CNN
F 1 "INV01" H 1350 3475 50  0000 C CNN
F 2 "" H 1350 3050 50  0001 C CNN
F 3 "" H 1350 3050 50  0001 C CNN
	1    1350 3250
	1    0    0    -1  
$EndComp
$Comp
L A5C:INV01 UCC?
U 1 1 62662DD2
P 1350 3750
AR Path="/62662DD2" Ref="UCC?"  Part="1" 
AR Path="/621ABC04/62662DD2" Ref="UCC263"  Part="1" 
AR Path="/5FAC57E1/62662DD2" Ref="UCC263"  Part="1" 
AR Path="/5FBCE4A9/5FBD0B6C/62662DD2" Ref="UCC263"  Part="1" 
F 0 "UCC263" H 1350 4067 50  0000 C CNN
F 1 "INV01" H 1350 3976 50  0000 C CNN
F 2 "" H 1350 3550 50  0001 C CNN
F 3 "" H 1350 3550 50  0001 C CNN
	1    1350 3750
	1    0    0    -1  
$EndComp
$Comp
L A5C:INV01 UBR?
U 1 1 62ABD14B
P 1350 8600
AR Path="/62ABD14B" Ref="UBR?"  Part="1" 
AR Path="/621ABC04/62ABD14B" Ref="UBR72"  Part="1" 
AR Path="/5FAC57E1/62ABD14B" Ref="UBR72"  Part="1" 
AR Path="/5FBCE4A9/5FBD0B6C/62ABD14B" Ref="UBR72"  Part="1" 
F 0 "UBR72" H 1350 8917 50  0000 C CNN
F 1 "INV01" H 1350 8826 50  0000 C CNN
F 2 "" H 1350 8400 50  0001 C CNN
F 3 "" H 1350 8400 50  0001 C CNN
	1    1350 8600
	1    0    0    -1  
$EndComp
$Comp
L A5C:NOR03 UCC?
U 1 1 6251CC18
P 6300 3650
AR Path="/5FD56F21/6251CC18" Ref="UCC?"  Part="1" 
AR Path="/621ABC04/6251CC18" Ref="UCG206"  Part="1" 
AR Path="/5FAC57E1/6251CC18" Ref="UCG206"  Part="1" 
AR Path="/5FBCE4A9/5FBD0B6C/6251CC18" Ref="UCG206"  Part="1" 
F 0 "UCG206" H 6300 3966 50  0000 C CNN
F 1 "NOR03" H 6300 3875 50  0000 C CNN
F 2 "" H 6300 3650 50  0001 C CNN
F 3 "" H 6300 3650 50  0001 C CNN
	1    6300 3650
	1    0    0    -1  
$EndComp
$Comp
L A5C:NOR03 UBU?
U 1 1 6283B23D
P 6400 8050
AR Path="/5FD56F21/6283B23D" Ref="UBU?"  Part="1" 
AR Path="/621ABC04/6283B23D" Ref="UBZ80"  Part="1" 
AR Path="/5FAC57E1/6283B23D" Ref="UBZ80"  Part="1" 
AR Path="/5FBCE4A9/5FBD0B6C/6283B23D" Ref="UBZ80"  Part="1" 
F 0 "UBZ80" H 6400 8366 50  0000 C CNN
F 1 "NOR03" H 6400 8275 50  0000 C CNN
F 2 "" H 6400 8050 50  0001 C CNN
F 3 "" H 6400 8050 50  0001 C CNN
	1    6400 8050
	1    0    0    -1  
$EndComp
$Comp
L A5C:INV01 UBU?
U 1 1 6251CC1E
P 6900 4400
AR Path="/5FD56F21/6251CC1E" Ref="UBU?"  Part="1" 
AR Path="/621ABC04/6251CC1E" Ref="UCC96"  Part="1" 
AR Path="/5FAC57E1/6251CC1E" Ref="UCC96"  Part="1" 
AR Path="/5FBCE4A9/5FBD0B6C/6251CC1E" Ref="UCC96"  Part="1" 
F 0 "UCC96" H 6900 4716 50  0000 C CNN
F 1 "INV01" H 6900 4625 50  0000 C CNN
F 2 "" H 6900 4200 50  0001 C CNN
F 3 "" H 6900 4200 50  0001 C CNN
	1    6900 4400
	1    0    0    -1  
$EndComp
$Comp
L A5C:DFFCOO UCC?
U 1 1 6251CC24
P 4750 1550
AR Path="/5FD56F21/6251CC24" Ref="UCC?"  Part="1" 
AR Path="/621ABC04/6251CC24" Ref="UBU218"  Part="1" 
AR Path="/5FAC57E1/6251CC24" Ref="UBU218"  Part="1" 
AR Path="/5FBCE4A9/5FBD0B6C/6251CC24" Ref="UBU218"  Part="1" 
F 0 "UBU218" H 4750 1911 50  0000 C CNN
F 1 "DFFCOO" H 4750 1820 50  0000 C CNN
F 2 "" H 4750 1550 50  0001 C CNN
F 3 "" H 4750 1550 50  0001 C CNN
F 4 "UBU217" H 4750 1550 50  0001 C CNN "MiscRef"
	1    4750 1550
	1    0    0    -1  
$EndComp
$Comp
L A5C:DFFCOO UCC?
U 1 1 6251CC2A
P 4750 2350
AR Path="/5FD56F21/6251CC2A" Ref="UCC?"  Part="1" 
AR Path="/621ABC04/6251CC2A" Ref="UBU222"  Part="1" 
AR Path="/5FAC57E1/6251CC2A" Ref="UBU222"  Part="1" 
AR Path="/5FBCE4A9/5FBD0B6C/6251CC2A" Ref="UBU222"  Part="1" 
F 0 "UBU222" H 4750 2711 50  0000 C CNN
F 1 "DFFCOO" H 4750 2620 50  0000 C CNN
F 2 "" H 4750 2350 50  0001 C CNN
F 3 "" H 4750 2350 50  0001 C CNN
	1    4750 2350
	1    0    0    -1  
$EndComp
$Comp
L A5C:DFFCOO UCC?
U 1 1 6251CC30
P 4750 3150
AR Path="/5FD56F21/6251CC30" Ref="UCC?"  Part="1" 
AR Path="/621ABC04/6251CC30" Ref="UBU226"  Part="1" 
AR Path="/5FAC57E1/6251CC30" Ref="UBU226"  Part="1" 
AR Path="/5FBCE4A9/5FBD0B6C/6251CC30" Ref="UBU226"  Part="1" 
F 0 "UBU226" H 4750 3511 50  0000 C CNN
F 1 "DFFCOO" H 4750 3420 50  0000 C CNN
F 2 "" H 4750 3150 50  0001 C CNN
F 3 "" H 4750 3150 50  0001 C CNN
	1    4750 3150
	1    0    0    -1  
$EndComp
$Comp
L A5C:DFFCOO UCC?
U 1 1 6251CC36
P 4750 3950
AR Path="/5FD56F21/6251CC36" Ref="UCC?"  Part="1" 
AR Path="/621ABC04/6251CC36" Ref="UBU230"  Part="1" 
AR Path="/5FAC57E1/6251CC36" Ref="UBU230"  Part="1" 
AR Path="/5FBCE4A9/5FBD0B6C/6251CC36" Ref="UBU230"  Part="1" 
F 0 "UBU230" H 4750 4311 50  0000 C CNN
F 1 "DFFCOO" H 4750 4220 50  0000 C CNN
F 2 "" H 4750 3950 50  0001 C CNN
F 3 "" H 4750 3950 50  0001 C CNN
	1    4750 3950
	1    0    0    -1  
$EndComp
$Comp
L A5C:DFFCOO UBR?
U 1 1 6283B244
P 4750 6750
AR Path="/5FD56F21/6283B244" Ref="UBR?"  Part="1" 
AR Path="/621ABC04/6283B244" Ref="UBR56"  Part="1" 
AR Path="/5FAC57E1/6283B244" Ref="UBR56"  Part="1" 
AR Path="/5FBCE4A9/5FBD0B6C/6283B244" Ref="UBR56"  Part="1" 
F 0 "UBR56" H 4750 7111 50  0000 C CNN
F 1 "DFFCOO" H 4750 7020 50  0000 C CNN
F 2 "" H 4750 6750 50  0001 C CNN
F 3 "" H 4750 6750 50  0001 C CNN
F 4 "UBR55" H 4750 6750 50  0001 C CNN "MiscRef"
	1    4750 6750
	1    0    0    -1  
$EndComp
$Comp
L A5C:DFFCOO UBR?
U 1 1 6283B24A
P 4750 7550
AR Path="/5FD56F21/6283B24A" Ref="UBR?"  Part="1" 
AR Path="/621ABC04/6283B24A" Ref="UBR60"  Part="1" 
AR Path="/5FAC57E1/6283B24A" Ref="UBR60"  Part="1" 
AR Path="/5FBCE4A9/5FBD0B6C/6283B24A" Ref="UBR60"  Part="1" 
F 0 "UBR60" H 4750 7911 50  0000 C CNN
F 1 "DFFCOO" H 4750 7820 50  0000 C CNN
F 2 "" H 4750 7550 50  0001 C CNN
F 3 "" H 4750 7550 50  0001 C CNN
	1    4750 7550
	1    0    0    -1  
$EndComp
$Comp
L A5C:DFFCOO UBR?
U 1 1 6283B250
P 4750 8350
AR Path="/5FD56F21/6283B250" Ref="UBR?"  Part="1" 
AR Path="/621ABC04/6283B250" Ref="UBR64"  Part="1" 
AR Path="/5FAC57E1/6283B250" Ref="UBR64"  Part="1" 
AR Path="/5FBCE4A9/5FBD0B6C/6283B250" Ref="UBR64"  Part="1" 
F 0 "UBR64" H 4750 8711 50  0000 C CNN
F 1 "DFFCOO" H 4750 8620 50  0000 C CNN
F 2 "" H 4750 8350 50  0001 C CNN
F 3 "" H 4750 8350 50  0001 C CNN
	1    4750 8350
	1    0    0    -1  
$EndComp
$Comp
L A5C:DFFCOO UBR?
U 1 1 6283B256
P 4750 9150
AR Path="/5FD56F21/6283B256" Ref="UBR?"  Part="1" 
AR Path="/621ABC04/6283B256" Ref="UBR68"  Part="1" 
AR Path="/5FAC57E1/6283B256" Ref="UBR68"  Part="1" 
AR Path="/5FBCE4A9/5FBD0B6C/6283B256" Ref="UBR68"  Part="1" 
F 0 "UBR68" H 4750 9511 50  0000 C CNN
F 1 "DFFCOO" H 4750 9420 50  0000 C CNN
F 2 "" H 4750 9150 50  0001 C CNN
F 3 "" H 4750 9150 50  0001 C CNN
	1    4750 9150
	1    0    0    -1  
$EndComp
$Comp
L A5C:NOR04 UCC?
U 1 1 6251CC3C
P 6300 4400
AR Path="/5FD56F21/6251CC3C" Ref="UCC?"  Part="1" 
AR Path="/621ABC04/6251CC3C" Ref="UCG203"  Part="1" 
AR Path="/5FAC57E1/6251CC3C" Ref="UCG203"  Part="1" 
AR Path="/5FBCE4A9/5FBD0B6C/6251CC3C" Ref="UCG203"  Part="1" 
F 0 "UCG203" H 6300 4741 50  0000 C CNN
F 1 "NOR04" H 6300 4650 50  0000 C CNN
F 2 "" H 6300 4400 50  0001 C CNN
F 3 "" H 6300 4400 50  0001 C CNN
	1    6300 4400
	1    0    0    -1  
$EndComp
$Comp
L A5C:NOR04 UBU?
U 1 1 6283B25C
P 6400 8800
AR Path="/5FD56F21/6283B25C" Ref="UBU?"  Part="1" 
AR Path="/621ABC04/6283B25C" Ref="UBR73"  Part="1" 
AR Path="/5FAC57E1/6283B25C" Ref="UBR73"  Part="1" 
AR Path="/5FBCE4A9/5FBD0B6C/6283B25C" Ref="UBR73"  Part="1" 
F 0 "UBR73" H 6400 9141 50  0000 C CNN
F 1 "NOR04" H 6400 9050 50  0000 C CNN
F 2 "" H 6400 8800 50  0001 C CNN
F 3 "" H 6400 8800 50  0001 C CNN
	1    6400 8800
	1    0    0    -1  
$EndComp
$Comp
L A5C:NOR05 UBR?
U 1 1 6283B262
P 6300 9650
AR Path="/5FD56F21/6283B262" Ref="UBR?"  Part="1" 
AR Path="/621ABC04/6283B262" Ref="UBR76"  Part="1" 
AR Path="/5FAC57E1/6283B262" Ref="UBR76"  Part="1" 
AR Path="/5FBCE4A9/5FBD0B6C/6283B262" Ref="UBR76"  Part="1" 
F 0 "UBR76" H 6375 10061 50  0000 C CNN
F 1 "NOR05" H 6375 9970 50  0000 C CNN
F 2 "" H 6300 9700 50  0001 C CNN
F 3 "" H 6300 9700 50  0001 C CNN
	1    6300 9650
	1    0    0    -1  
$EndComp
$Comp
L A5C:M258C UCC224
U 1 1 624E36A7
P 3450 2850
AR Path="/5FAC57E1/624E36A7" Ref="UCC224"  Part="1" 
AR Path="/5FBCE4A9/5FBD0B6C/624E36A7" Ref="UCC224"  Part="1" 
F 0 "UCC224" H 3450 3715 50  0000 C CNN
F 1 "M258C" H 3450 3624 50  0000 C CNN
F 2 "" H 3450 2850 50  0001 C CNN
F 3 "" H 3450 2850 50  0001 C CNN
	1    3450 2850
	1    0    0    -1  
$EndComp
$Comp
L A5C:M258C UBU?
U 1 1 6283B268
P 3450 8050
AR Path="/5FD56F21/6283B268" Ref="UBU?"  Part="1" 
AR Path="/621ABC04/6283B268" Ref="UBR83"  Part="1" 
AR Path="/5FAC57E1/6283B268" Ref="UBR83"  Part="1" 
AR Path="/5FBCE4A9/5FBD0B6C/6283B268" Ref="UBR83"  Part="1" 
F 0 "UBR83" H 3450 8911 50  0000 C CNN
F 1 "M258C" H 3450 8820 50  0000 C CNN
F 2 "" H 3450 8050 50  0001 C CNN
F 3 "" H 3450 8050 50  0001 C CNN
	1    3450 8050
	1    0    0    -1  
$EndComp
$EndSCHEMATC
