EESchema Schematic File Version 4
EELAYER 30 0
EELAYER END
$Descr A3 16535 11693
encoding utf-8
Sheet 1 22
Title "93646A"
Date "2020-12-13"
Rev ""
Comp ""
Comment1 ""
Comment2 "Licence: CC-BY"
Comment3 "Author: Loïc *WydD* Petit"
Comment4 "Project: CPS2 Reverse Engineering: 93646A"
$EndDescr
Connection ~ 3800 2350
Connection ~ 3900 2200
Connection ~ 11800 1600
Connection ~ 8650 1600
Connection ~ 3500 4700
Connection ~ 3800 4950
Connection ~ 12100 4800
Connection ~ 10000 7900
Connection ~ 4600 4600
Connection ~ 4700 4700
Connection ~ 4850 4800
Connection ~ 5000 4950
Connection ~ 6450 4800
Connection ~ 6550 4950
Connection ~ 6700 4600
Connection ~ 6800 4700
Connection ~ 9900 4950
Connection ~ 10050 4800
Connection ~ 3000 4400
Connection ~ 2900 4600
Connection ~ 8450 5850
Connection ~ 8400 5950
Connection ~ 8350 6050
Connection ~ 8300 6700
Connection ~ 8500 5750
Connection ~ 14050 6000
Connection ~ 3400 4400
Connection ~ 10100 7750
Connection ~ 8550 7900
Connection ~ 8300 7650
Connection ~ 8450 7800
Connection ~ 15350 5700
Connection ~ 15450 5550
Connection ~ 15550 5400
Connection ~ 15450 6250
Connection ~ 15550 6400
Connection ~ 15550 4450
Connection ~ 15450 4600
Connection ~ 8250 7250
Connection ~ 8200 7150
Connection ~ 11750 4800
Connection ~ 10300 4600
Connection ~ 10200 4700
Connection ~ 15350 4750
Connection ~ 12550 4800
Connection ~ 12450 4950
Connection ~ 5800 3400
Connection ~ 5700 3600
Entry Wire Line
	13850 7300 13950 7400
Entry Wire Line
	13850 7600 13950 7500
Entry Wire Line
	13950 7600 13850 7700
Entry Wire Line
	13950 7700 13850 7800
Entry Wire Line
	14000 2150 14100 2050
Entry Wire Line
	14000 2300 14100 2200
Entry Wire Line
	15250 2750 15350 2850
Entry Wire Line
	15250 2850 15350 2950
Entry Wire Line
	15350 2600 15450 2700
Wire Wire Line
	1650 4150 2150 4150
Wire Wire Line
	1650 4400 2350 4400
Wire Wire Line
	1650 4500 2700 4500
Wire Wire Line
	1650 4600 2250 4600
Wire Wire Line
	1650 4700 2800 4700
Wire Wire Line
	1650 5250 2300 5250
Wire Wire Line
	1650 5350 2300 5350
Wire Wire Line
	1650 5100 2300 5100
Wire Wire Line
	1650 5450 2300 5450
Wire Wire Line
	1650 5550 2300 5550
Wire Wire Line
	1650 5650 2300 5650
Wire Wire Line
	1650 5750 2300 5750
Wire Wire Line
	1650 5850 2300 5850
Wire Wire Line
	1650 5950 2300 5950
Wire Wire Line
	1650 6050 2300 6050
Wire Wire Line
	1650 6200 2100 6200
Wire Wire Line
	1650 6300 2100 6300
Wire Wire Line
	1650 6400 2100 6400
Wire Wire Line
	1650 6500 2100 6500
Wire Wire Line
	2150 3000 2150 4150
Wire Wire Line
	2150 3000 2550 3000
Wire Wire Line
	2250 3150 2250 4600
Wire Wire Line
	2250 4600 2900 4600
Wire Wire Line
	2350 3250 2550 3250
Wire Wire Line
	2350 4400 2350 3250
Wire Wire Line
	2350 4400 3000 4400
Wire Wire Line
	2450 1800 2450 2450
Wire Wire Line
	2450 2450 2550 2450
Wire Wire Line
	2550 3150 2250 3150
Wire Wire Line
	2700 6900 2700 4500
Wire Wire Line
	2700 6900 3100 6900
Wire Wire Line
	2700 7000 3100 7000
Wire Wire Line
	2800 4700 3500 4700
Wire Wire Line
	2800 6800 2800 4700
Wire Wire Line
	2900 4600 4600 4600
Wire Wire Line
	2900 6700 2900 4600
Wire Wire Line
	3000 4400 3400 4400
Wire Wire Line
	3000 6600 3000 4400
Wire Wire Line
	3100 6600 3000 6600
Wire Wire Line
	3100 6700 2900 6700
Wire Wire Line
	3100 6800 2800 6800
Wire Wire Line
	3250 1950 3800 1950
Wire Wire Line
	3400 3450 4000 3450
Wire Wire Line
	3400 4400 3400 3450
Wire Wire Line
	3400 4400 12350 4400
Wire Wire Line
	3500 3550 3500 4700
Wire Wire Line
	3500 3550 4000 3550
Wire Wire Line
	3500 4700 4700 4700
Wire Wire Line
	3650 2200 3900 2200
Wire Wire Line
	3650 2350 3800 2350
Wire Wire Line
	3650 2500 4000 2500
Wire Wire Line
	3650 2650 4000 2650
Wire Wire Line
	3650 2750 4000 2750
Wire Wire Line
	3650 2850 4000 2850
Wire Wire Line
	3650 3000 4000 3000
Wire Wire Line
	3650 3100 4000 3100
Wire Wire Line
	3650 3250 4000 3250
Wire Wire Line
	3800 1950 3800 2350
Wire Wire Line
	3800 2350 4000 2350
Wire Wire Line
	3900 1950 3900 2200
Wire Wire Line
	3900 1950 5650 1950
Wire Wire Line
	3900 2200 4000 2200
Wire Wire Line
	4600 4600 6700 4600
Wire Wire Line
	4600 5750 4600 4600
Wire Wire Line
	4700 4700 6800 4700
Wire Wire Line
	4700 5650 4700 4700
Wire Wire Line
	4800 6000 5200 6000
Wire Wire Line
	5200 5650 4700 5650
Wire Wire Line
	5200 5750 4600 5750
Wire Wire Line
	5200 6200 4850 6200
Wire Wire Line
	5500 2500 6100 2500
Wire Wire Line
	5500 2700 6100 2700
Wire Wire Line
	5500 2800 6100 2800
Wire Wire Line
	5500 2900 6100 2900
Wire Wire Line
	5650 1950 5650 2350
Wire Wire Line
	5650 2350 6100 2350
Wire Wire Line
	5750 1800 2450 1800
Wire Wire Line
	5750 1800 5750 2200
Wire Wire Line
	5750 2200 6100 2200
Wire Wire Line
	6100 3100 5500 3100
Wire Wire Line
	6100 3200 5500 3200
Wire Wire Line
	6500 6400 6900 6400
Wire Wire Line
	6500 6500 6900 6500
Wire Wire Line
	6500 7850 6900 7850
Wire Wire Line
	6500 8050 6900 8050
Wire Wire Line
	6700 4600 10300 4600
Wire Wire Line
	6700 5450 6700 4600
Wire Wire Line
	6800 4700 10200 4700
Wire Wire Line
	6800 5350 6800 4700
Wire Wire Line
	6900 5350 6800 5350
Wire Wire Line
	6900 5450 6700 5450
Wire Wire Line
	7450 2550 7850 2550
Wire Wire Line
	7450 2650 7850 2650
Wire Wire Line
	7450 2750 7850 2750
Wire Wire Line
	7450 2850 7850 2850
Wire Wire Line
	7450 3100 7850 3100
Wire Wire Line
	7450 3200 7850 3200
Wire Wire Line
	7450 3600 9400 3600
Wire Wire Line
	7450 3700 9400 3700
Wire Wire Line
	8050 5600 8650 5600
Wire Wire Line
	8050 5750 8500 5750
Wire Wire Line
	8050 5850 8450 5850
Wire Wire Line
	8050 5950 8400 5950
Wire Wire Line
	8050 6050 8350 6050
Wire Wire Line
	8050 6350 8650 6350
Wire Wire Line
	8050 6550 8650 6550
Wire Wire Line
	8050 6700 8300 6700
Wire Wire Line
	8050 6800 8250 6800
Wire Wire Line
	8050 6900 8200 6900
Wire Wire Line
	8050 7450 8200 7450
Wire Wire Line
	8050 7550 8250 7550
Wire Wire Line
	8050 7650 8300 7650
Wire Wire Line
	8050 7800 8450 7800
Wire Wire Line
	8050 7900 8550 7900
Wire Wire Line
	8150 7150 8200 7150
Wire Wire Line
	8150 7250 8250 7250
Wire Wire Line
	8200 6900 8200 7150
Wire Wire Line
	8200 7150 8200 7450
Wire Wire Line
	8250 7250 8250 6800
Wire Wire Line
	8250 7550 8250 7250
Wire Wire Line
	8250 8850 8650 8850
Wire Wire Line
	8300 6700 8300 7650
Wire Wire Line
	8300 6700 8650 6700
Wire Wire Line
	8300 7650 8300 8450
Wire Wire Line
	8350 6050 8350 8300
Wire Wire Line
	8350 6050 8650 6050
Wire Wire Line
	8350 8300 8650 8300
Wire Wire Line
	8400 5950 8400 8200
Wire Wire Line
	8400 5950 8650 5950
Wire Wire Line
	8450 5850 8450 7800
Wire Wire Line
	8450 5850 8650 5850
Wire Wire Line
	8450 7800 8450 8100
Wire Wire Line
	8500 1600 8650 1600
Wire Wire Line
	8500 5750 8500 8000
Wire Wire Line
	8500 5750 8650 5750
Wire Wire Line
	8550 7400 8550 7900
Wire Wire Line
	8550 7400 8650 7400
Wire Wire Line
	8650 1600 8650 2000
Wire Wire Line
	8650 6250 8050 6250
Wire Wire Line
	8650 7900 8550 7900
Wire Wire Line
	8650 8000 8500 8000
Wire Wire Line
	8650 8100 8450 8100
Wire Wire Line
	8650 8200 8400 8200
Wire Wire Line
	8650 8450 8300 8450
Wire Wire Line
	8950 2450 9650 2450
Wire Wire Line
	8950 2550 9650 2550
Wire Wire Line
	8950 2650 9650 2650
Wire Wire Line
	9050 1600 9500 1600
Wire Wire Line
	9050 2000 9650 2000
Wire Wire Line
	9500 1600 9500 1900
Wire Wire Line
	9500 1900 9650 1900
Wire Wire Line
	9850 5650 10200 5650
Wire Wire Line
	9850 5750 10300 5750
Wire Wire Line
	9850 6350 10400 6350
Wire Wire Line
	9850 6450 10400 6450
Wire Wire Line
	9850 6850 12100 6850
Wire Wire Line
	9850 6950 12000 6950
Wire Wire Line
	9850 7100 10300 7100
Wire Wire Line
	10100 7300 9850 7300
Wire Wire Line
	10100 7750 10100 7300
Wire Wire Line
	10100 8600 10100 7750
Wire Wire Line
	10200 4700 13950 4700
Wire Wire Line
	10200 5650 10200 4700
Wire Wire Line
	10200 7200 9850 7200
Wire Wire Line
	10200 7200 10200 7600
Wire Wire Line
	10200 7600 10450 7600
Wire Wire Line
	10250 6600 9850 6600
Wire Wire Line
	10250 6700 9850 6700
Wire Wire Line
	10300 4600 13950 4600
Wire Wire Line
	10300 5750 10300 4600
Wire Wire Line
	10300 7100 10300 7500
Wire Wire Line
	10300 7500 10450 7500
Wire Wire Line
	10350 5900 9850 5900
Wire Wire Line
	10450 7750 10100 7750
Wire Wire Line
	10650 1900 10950 1900
Wire Wire Line
	10650 2150 12650 2150
Wire Wire Line
	10650 2550 10900 2550
Wire Wire Line
	10900 2450 10650 2450
Wire Wire Line
	10900 2650 10650 2650
Wire Wire Line
	11100 3450 11500 3450
Wire Wire Line
	11150 1900 11600 1900
Wire Wire Line
	11350 2000 10650 2000
Wire Wire Line
	11550 2000 12000 2000
Wire Wire Line
	11600 1800 11600 1900
Wire Wire Line
	11800 1600 11800 1800
Wire Wire Line
	11850 2450 12650 2450
Wire Wire Line
	11850 2850 12300 2850
Wire Wire Line
	12000 1800 12000 2000
Wire Wire Line
	12000 7600 12000 6950
Wire Wire Line
	12050 7600 12000 7600
Wire Wire Line
	12050 8600 10100 8600
Wire Wire Line
	12100 6850 12100 7300
Wire Wire Line
	12100 7300 13850 7300
Wire Wire Line
	12250 6500 12650 6500
Wire Wire Line
	12300 5950 12650 5950
Wire Wire Line
	12300 6050 12650 6050
Wire Wire Line
	12350 4400 12350 5700
Wire Wire Line
	12350 5700 12650 5700
Wire Wire Line
	12350 6750 12650 6750
Wire Wire Line
	12350 6850 12650 6850
Wire Wire Line
	12650 5800 12250 5800
Wire Wire Line
	12650 6150 12300 6150
Wire Wire Line
	12650 6250 12250 6250
Wire Wire Line
	12650 6350 12250 6350
Wire Wire Line
	13500 2150 14000 2150
Wire Wire Line
	13500 2300 14000 2300
Wire Wire Line
	13850 6550 14250 6550
Wire Wire Line
	13850 6650 14250 6650
Wire Wire Line
	13850 6850 14250 6850
Wire Wire Line
	13850 7600 13050 7600
Wire Wire Line
	13850 7700 13050 7700
Wire Wire Line
	13850 7800 13050 7800
Wire Wire Line
	14250 6750 13850 6750
Wire Wire Line
	14300 2600 14450 2600
Wire Wire Line
	14450 2750 15250 2750
Wire Wire Line
	14450 2850 15250 2850
Wire Wire Line
	14850 2600 15350 2600
Wire Wire Line
	14950 3550 15050 3550
Wire Wire Line
	15050 3450 14950 3450
Wire Bus Line
	1650 4800 3650 4800
Wire Bus Line
	1650 4950 2600 4950
Wire Bus Line
	2600 4950 3800 4950
Wire Bus Line
	2600 7250 2600 4950
Wire Bus Line
	2600 7250 3100 7250
Wire Bus Line
	3650 3650 3650 4800
Wire Bus Line
	3650 3650 4000 3650
Wire Bus Line
	3650 4800 4850 4800
Wire Bus Line
	3800 3800 3800 4950
Wire Bus Line
	3800 3800 4000 3800
Wire Bus Line
	3800 4950 5000 4950
Wire Bus Line
	4850 4800 6450 4800
Wire Bus Line
	4850 5500 4850 4800
Wire Bus Line
	5000 4950 6550 4950
Wire Bus Line
	5000 5350 5000 4950
Wire Bus Line
	5200 5350 5000 5350
Wire Bus Line
	5200 5500 4850 5500
Wire Bus Line
	5500 3400 5800 3400
Wire Bus Line
	5500 3600 5700 3600
Wire Bus Line
	5700 3600 6100 3600
Wire Bus Line
	5700 4200 5700 3600
Wire Bus Line
	5800 3400 6100 3400
Wire Bus Line
	5800 4100 5800 3400
Wire Bus Line
	5800 4100 7550 4100
Wire Bus Line
	6450 4800 10050 4800
Wire Bus Line
	6450 5700 6450 4800
Wire Bus Line
	6550 4950 9900 4950
Wire Bus Line
	6550 5600 6550 4950
Wire Bus Line
	6750 6700 6750 7450
Wire Bus Line
	6900 5600 6550 5600
Wire Bus Line
	6900 5700 6450 5700
Wire Bus Line
	6900 6700 6750 6700
Wire Bus Line
	6900 7450 6750 7450
Wire Bus Line
	7450 2200 7850 2200
Wire Bus Line
	7450 3850 7550 3850
Wire Bus Line
	7850 2350 7450 2350
Wire Bus Line
	8050 5350 8650 5350
Wire Bus Line
	8050 8050 8200 8050
Wire Bus Line
	8200 8050 8200 8650
Wire Bus Line
	8200 8650 8650 8650
Wire Bus Line
	7550 3850 7550 4100
Wire Bus Line
	8650 5500 8050 5500
Wire Bus Line
	8950 3000 9050 3000
Wire Bus Line
	9050 3000 9050 3350
Wire Bus Line
	9050 3350 9400 3350
Wire Bus Line
	9400 3450 7450 3450
Wire Bus Line
	9800 7900 10000 7900
Wire Bus Line
	9800 8050 10450 8050
Wire Bus Line
	9850 5350 9900 5350
Wire Bus Line
	9850 6050 10350 6050
Wire Bus Line
	9850 7400 10000 7400
Wire Bus Line
	9900 4950 12450 4950
Wire Bus Line
	9900 5350 9900 4950
Wire Bus Line
	10000 7400 10000 7900
Wire Bus Line
	10000 7900 10450 7900
Wire Bus Line
	10050 4800 11750 4800
Wire Bus Line
	10050 5500 9850 5500
Wire Bus Line
	10050 5500 10050 4800
Wire Bus Line
	11100 3800 11650 3800
Wire Bus Line
	11100 3950 11550 3950
Wire Bus Line
	11450 5900 11550 5900
Wire Bus Line
	11450 6050 11650 6050
Wire Bus Line
	11550 3950 11550 5900
Wire Bus Line
	11600 7500 11750 7500
Wire Bus Line
	11600 7750 12050 7750
Wire Bus Line
	11600 8050 12050 8050
Wire Bus Line
	11650 3800 11650 6050
Wire Bus Line
	11750 4800 11750 7500
Wire Bus Line
	11750 4800 12100 4800
Wire Bus Line
	11850 3000 12100 3000
Wire Bus Line
	12050 7900 11600 7900
Wire Bus Line
	12050 8200 11600 8200
Wire Bus Line
	12100 3000 12100 4800
Wire Bus Line
	12100 4800 12550 4800
Wire Bus Line
	12450 4950 12450 5550
Wire Bus Line
	12450 4950 13950 4950
Wire Bus Line
	12550 4800 13950 4800
Wire Bus Line
	12550 5400 12550 4800
Wire Bus Line
	12650 5400 12550 5400
Wire Bus Line
	12650 5550 12450 5550
Wire Bus Line
	13850 5550 14000 5550
Wire Bus Line
	13850 6000 14050 6000
Wire Bus Line
	13850 6400 15550 6400
Wire Bus Line
	13950 7400 13950 7500
Wire Bus Line
	13950 7400 15550 7400
Wire Bus Line
	13950 7600 13950 7700
Wire Bus Line
	13950 7600 15450 7600
Wire Bus Line
	14000 5400 13850 5400
Wire Bus Line
	14000 5700 13850 5700
Wire Bus Line
	14050 6000 14050 6100
Wire Bus Line
	14050 6000 15350 6000
Wire Bus Line
	14050 6100 13850 6100
Wire Bus Line
	14100 2050 15550 2050
Wire Bus Line
	14100 2200 15450 2200
Wire Bus Line
	15250 4450 15550 4450
Wire Bus Line
	15250 4750 15350 4750
Wire Bus Line
	15250 5550 15450 5550
Wire Bus Line
	15350 4750 15350 5700
Wire Bus Line
	15350 5700 15250 5700
Wire Bus Line
	15350 5700 15350 6000
Wire Bus Line
	15450 4600 15250 4600
Wire Bus Line
	15450 5550 15450 4600
Wire Bus Line
	15450 5550 15450 6250
Wire Bus Line
	15450 6250 13850 6250
Wire Bus Line
	15450 6250 15450 7600
Wire Bus Line
	15550 4450 15550 2050
Wire Bus Line
	15550 4450 15550 5400
Wire Bus Line
	15550 5400 15250 5400
Wire Bus Line
	15550 6400 15550 5400
Wire Bus Line
	15550 6400 15550 7400
Text Notes 9000 2400 0    50   ~ 0
DIGITAL\nAUDIO OUTPUT
Text Notes 11500 1450 0    50   ~ 0
QSOUND OUTPUT
Text Notes 11700 8500 0    50   ~ 0
DIGITAL\nVIDEO\nOUTPUT
Text Label 1700 5250 0    50   ~ 0
~RESET
Text Label 1700 5350 0    50   ~ 0
~CPSB-OBJUP
Text Label 1700 5100 0    50   ~ 0
~BUS-BGACK
Text Label 1700 5450 0    50   ~ 0
~CPSA-BR
Text Label 1700 5550 0    50   ~ 0
~PRPH-PRESENT
Text Label 1700 5650 0    50   ~ 0
~PRPH-MEM
Text Label 1700 5750 0    50   ~ 0
~PRPH-E
Text Label 1700 5850 0    50   ~ 0
~MISC-E
Text Label 1700 5950 0    50   ~ 0
B-COUNTER
Text Label 1700 6050 0    50   ~ 0
~EPROM-E
Text Label 1700 4400 0    50   ~ 0
~BUS-E
Text Label 1700 4500 0    50   ~ 0
~BUS-UDSW
Text Label 1700 4600 0    50   ~ 0
~BUS-WE
Text Label 1700 4700 0    50   ~ 0
~BUS-OE
Text Label 1700 4800 0    50   ~ 0
BUS-DATA[0..15]
Text Label 1700 4950 0    50   ~ 0
BUS-ADDR[1..23]
Text Label 2050 6200 2    50   ~ 0
A-VSYNC
Text Label 2050 6300 2    50   ~ 0
B-VSYNC
Text Label 2050 6400 2    50   ~ 0
A-HSYNC
Text Label 2050 6500 2    50   ~ 0
B-HSYNC
Text Label 2700 7000 0    50   ~ 0
~VRAM-E
Text Label 3250 1950 0    50   ~ 0
~Z80-BUSREQ
Text Label 4850 6200 0    50   ~ 0
~RAM-E
Text Label 4800 6000 0    50   ~ 0
~REFRESH
Text Label 5600 2500 0    50   ~ 0
~Z80-RESET
Text Label 6400 6050 0    50   ~ 0
~CPSA-BR
Text Label 6400 5900 0    50   ~ 0
~BUS-BGACK
Text Label 6400 6150 0    50   ~ 0
~CPSA-CS
Text Label 6500 6400 0    50   ~ 0
A-HSYNC
Text Label 6500 6500 0    50   ~ 0
A-VSYNC
Text Label 6500 8050 0    50   ~ 0
CLK2M
Text Label 6500 7850 0    50   ~ 0
~REFRESH
Text Label 7500 3850 0    50   ~ 0

Text Label 7500 4100 0    50   ~ 0

Text Label 8150 7150 2    50   ~ 0
CLK4M
Text Label 8150 7250 2    50   ~ 0
CLK8M
Text Label 8250 8850 0    50   ~ 0
~RESET
Text Label 9050 1600 0    50   ~ 0
VOL-UP
Text Label 9050 2000 0    50   ~ 0
VOL-DOWN
Text Label 9900 5900 0    50   ~ 0
CLK2M
Text Label 9900 6350 0    50   ~ 0
~CPSB-CS
Text Label 9900 6450 0    50   ~ 0
~CPSB-OBJUP
Text Label 10250 6600 2    50   ~ 0
B-HSYNC
Text Label 10250 6700 2    50   ~ 0
B-VSYNC
Text Label 11500 3450 2    50   ~ 0
~EPROM-E
Text Label 12500 2600 2    50   ~ 0
~PRPH-PRESENT
Text Label 12500 2700 2    50   ~ 0
~PRPH-MEM
Text Label 12300 2850 2    50   ~ 0
~VOLUME-E
Text Label 12300 6500 0    50   ~ 0
~RESET
Text Label 12350 5950 0    50   ~ 0
~IN0-R
Text Label 12350 6050 0    50   ~ 0
~IN1-R
Text Label 12350 6150 0    50   ~ 0
~IN2-R
Text Label 12350 6750 0    50   ~ 0
CLK4M
Text Label 12350 6850 0    50   ~ 0
CLK8M
Text Label 12600 5800 2    50   ~ 0
~BUS-BGACK
Text Label 12600 6250 2    50   ~ 0
~OUT-W
Text Label 12600 6350 2    50   ~ 0
~COIN-W
Text Label 13350 7300 0    50   ~ 0
JAMMA-S13
Text Label 13350 7600 0    50   ~ 0
JAMMA-S12
Text Label 13350 7700 0    50   ~ 0
JAMMA-C13
Text Label 13350 7800 0    50   ~ 0
JAMMA-C12
Text Label 13550 2150 0    50   ~ 0
JAMMA-S10
Text Label 13550 2300 0    50   ~ 0
JAMMA-C10
Text Label 13900 6550 0    50   ~ 0
~Z80-RESET
Text Label 13900 6650 0    50   ~ 0
B-COUNTER
Text Label 14250 6750 2    50   ~ 0
~VRAM-E
Text Label 14250 6850 2    50   ~ 0
~REFRESH
Text Label 14300 7400 0    50   ~ 0
JAMMA-S[8..25]
Text Label 14300 7600 0    50   ~ 0
JAMMA-C[8..25]
Text Label 14450 2750 0    50   ~ 0
VOL-UP
Text Label 14450 2850 0    50   ~ 0
VOL-DOWN
Text Label 14900 2600 0    50   ~ 0
JAMMA-C15
Text Label 14900 6000 0    50   ~ 0
KICK[7..30]
Text Label 14950 2750 0    50   ~ 0
KICK29
Text Label 14950 2850 0    50   ~ 0
KICK30
$Comp
L power:+12V #PWR0370
U 1 1 62A4556F
P 15050 3450
F 0 "#PWR0370" H 15050 3300 50  0001 C CNN
F 1 "+12V" H 15065 3623 50  0000 C CNN
F 2 "" H 15050 3450 50  0001 C CNN
F 3 "" H 15050 3450 50  0001 C CNN
	1    15050 3450
	1    0    0    -1  
$EndComp
$Comp
L power:GND #PWR0105
U 1 1 5F32253E
P 8500 1600
F 0 "#PWR0105" H 8500 1350 50  0001 C CNN
F 1 "GND" H 8505 1427 50  0001 C CNN
F 2 "" H 8500 1600 50  0001 C CNN
F 3 "" H 8500 1600 50  0001 C CNN
	1    8500 1600
	1    0    0    -1  
$EndComp
$Comp
L power:GND #PWR0104
U 1 1 5F182A02
P 11800 1800
F 0 "#PWR0104" H 11800 1550 50  0001 C CNN
F 1 "GND" H 11805 1627 50  0001 C CNN
F 2 "" H 11800 1800 50  0001 C CNN
F 3 "" H 11800 1800 50  0001 C CNN
	1    11800 1800
	1    0    0    -1  
$EndComp
$Comp
L power:GND #PWR0369
U 1 1 61454856
P 14300 2600
F 0 "#PWR0369" H 14300 2350 50  0001 C CNN
F 1 "GND" H 14305 2427 50  0001 C CNN
F 2 "" H 14300 2600 50  0001 C CNN
F 3 "" H 14300 2600 50  0001 C CNN
	1    14300 2600
	1    0    0    -1  
$EndComp
$Comp
L power:GND #PWR0371
U 1 1 62A5C4AB
P 15050 3550
F 0 "#PWR0371" H 15050 3300 50  0001 C CNN
F 1 "GND" H 15055 3377 50  0001 C CNN
F 2 "" H 15050 3550 50  0001 C CNN
F 3 "" H 15050 3550 50  0001 C CNN
	1    15050 3550
	1    0    0    -1  
$EndComp
$Comp
L Device:Ferrite_Bead_Small FB?
U 1 1 5DED96BB
P 11050 1900
AR Path="/5DDBF667/5DED96BB" Ref="FB?"  Part="1" 
AR Path="/5DED96BB" Ref="FB23"  Part="1" 
F 0 "FB23" V 10905 1900 50  0000 C CNN
F 1 "Ferrite_Bead_Small" V 10904 1900 50  0001 C CNN
F 2 "" V 10980 1900 50  0001 C CNN
F 3 "~" H 11050 1900 50  0001 C CNN
	1    11050 1900
	0    1    1    0   
$EndComp
$Comp
L Device:Ferrite_Bead_Small FB?
U 1 1 5DEF0280
P 11450 2000
AR Path="/5DDBF667/5DEF0280" Ref="FB?"  Part="1" 
AR Path="/5DEF0280" Ref="FB24"  Part="1" 
F 0 "FB24" V 11305 2000 50  0000 C CNN
F 1 "Ferrite_Bead_Small" V 11304 2000 50  0001 C CNN
F 2 "" V 11380 2000 50  0001 C CNN
F 3 "~" H 11450 2000 50  0001 C CNN
	1    11450 2000
	0    1    1    0   
$EndComp
$Comp
L Connector:Conn_01x02_Male CN6
U 1 1 62A2E563
P 14750 3450
F 0 "CN6" H 14650 3400 50  0000 C CNN
F 1 "Conn_01x02_Male" H 14858 3540 50  0001 C CNN
F 2 "" H 14750 3450 50  0001 C CNN
F 3 "~" H 14750 3450 50  0001 C CNN
	1    14750 3450
	1    0    0    -1  
$EndComp
$Comp
L Switch:SW_Push SW2
U 1 1 5F301CAA
P 8850 1600
F 0 "SW2" H 8850 1885 50  0000 C CNN
F 1 "UP" H 8850 1794 50  0000 C CNN
F 2 "" H 8850 1800 50  0001 C CNN
F 3 "~" H 8850 1800 50  0001 C CNN
	1    8850 1600
	1    0    0    -1  
$EndComp
$Comp
L Switch:SW_Push SW3
U 1 1 5F30723C
P 8850 2000
F 0 "SW3" H 8850 2285 50  0000 C CNN
F 1 "DOWN" H 8850 2194 50  0000 C CNN
F 2 "" H 8850 2200 50  0001 C CNN
F 3 "~" H 8850 2200 50  0001 C CNN
	1    8850 2000
	1    0    0    -1  
$EndComp
$Comp
L Switch:SW_Push SW1
U 1 1 614540DD
P 14650 2600
F 0 "SW1" H 14650 2885 50  0000 C CNN
F 1 "TEST" H 14650 2794 50  0000 C CNN
F 2 "" H 14650 2800 50  0001 C CNN
F 3 "~" H 14650 2800 50  0001 C CNN
	1    14650 2600
	1    0    0    -1  
$EndComp
$Comp
L Connector:Conn_Coaxial CNL0
U 1 1 5F15090E
P 11600 1600
F 0 "CNL0" V 11600 1750 50  0000 L CNN
F 1 "Conn_Coaxial" V 11483 1700 50  0001 L CNN
F 2 "" H 11600 1600 50  0001 C CNN
F 3 " ~" H 11600 1600 50  0001 C CNN
	1    11600 1600
	0    -1   -1   0   
$EndComp
$Comp
L Connector:Conn_Coaxial CNR0
U 1 1 5F152BC8
P 12000 1600
F 0 "CNR0" V 12000 1800 50  0000 C CNN
F 1 "Conn_Coaxial" V 11883 1700 50  0001 L CNN
F 2 "" H 12000 1600 50  0001 C CNN
F 3 " ~" H 12000 1600 50  0001 C CNN
	1    12000 1600
	0    1    -1   0   
$EndComp
$Sheet
S 800  4050 850  2550
U 5E5EEEC7
F0 "CN1" 50
F1 "CN1.sch" 50
F2 "BUS-DATA[0..15]" B R 1650 4800 50 
F3 "BUS-ADDR[1..23]" O R 1650 4950 50 
F4 "~Z80-BUS" I R 1650 4150 50 
F5 "~CPSB-OBJUP" I R 1650 5350 50 
F6 "~BUS-E" O R 1650 4400 50 
F7 "~BUS-OE" O R 1650 4700 50 
F8 "~BUS-UDSW" O R 1650 4500 50 
F9 "~BUS-WE" O R 1650 4600 50 
F10 "~CPSA-BR" I R 1650 5450 50 
F11 "~RESET" O R 1650 5250 50 
F12 "~PRPH-PRESENT" O R 1650 5550 50 
F13 "~PRPH-MEM" O R 1650 5650 50 
F14 "~PRPH-E" I R 1650 5750 50 
F15 "~MISC-E" I R 1650 5850 50 
F16 "A-VSYNC" I R 1650 6200 50 
F17 "B-VSYNC" I R 1650 6300 50 
F18 "A-HSYNC" I R 1650 6400 50 
F19 "B-HSYNC" I R 1650 6500 50 
F20 "~EPROM-E" I R 1650 6050 50 
F21 "~BUS-BGACK" O R 1650 5100 50 
F22 "B-COUNTER" I R 1650 5950 50 
$EndSheet
$Sheet
S 6900 7300 1150 900 
U 5FAED6F2
F0 "CN2" 50
F1 "CN2.sch" 50
F2 "CLK16M" I R 8050 7650 50 
F3 "CLK2M" I L 6900 8050 50 
F4 "CLK8M" I R 8050 7550 50 
F5 "CLK4M" I R 8050 7450 50 
F6 "~VBLANK" I R 8050 7900 50 
F7 "~REFRESH" I L 6900 7850 50 
F8 "GFX-ADDR[0..19]" O L 6900 7450 50 
F9 "GFX-OUT[0..15]" O R 8050 8050 50 
F10 "~RESETI" I R 8050 7800 50 
$EndSheet
$Sheet
S 4000 2100 1500 1800
U 5E735482
F0 "Z80" 50
F1 "Z80.sch" 50
F2 "BUS-DATA[0..7]" I L 4000 3650 50 
F3 "~Z80-BUSIO" I L 4000 2850 50 
F4 "~BUS-OE" I L 4000 3550 50 
F5 "~Z80-WAIT" I L 4000 2650 50 
F6 "~Z80-BUSREQ" I L 4000 2350 50 
F7 "~Z80-BUSACK" O L 4000 3000 50 
F8 "~Z80-IOREQ" O L 4000 3100 50 
F9 "~Z80-INT" I L 4000 2750 50 
F10 "~Z80-M1" O L 4000 2200 50 
F11 "~BUS-E" I L 4000 3450 50 
F12 "~BUS-W" I L 4000 3250 50 
F13 "Z80-CLK" I L 4000 2500 50 
F14 "~ENABLE" O R 5500 2900 50 
F15 "~READ" O R 5500 2800 50 
F16 "~WRITE" O R 5500 2700 50 
F17 "~Z80-RESET" I R 5500 2500 50 
F18 "ADDR[0..15]" O R 5500 3400 50 
F19 "DATA[0..7]" B R 5500 3600 50 
F20 "~RAM-E" I R 5500 3100 50 
F21 "~RAM-WE" I R 5500 3200 50 
F22 "BUS-ADDR[1..16]" I L 4000 3800 50 
$EndSheet
$Sheet
S 12650 2000 850  600 
U 5F18B8F1
F0 "amplifier" 50
F1 "amplifier.sch" 50
F2 "MONO" I L 12650 2150 50 
F3 "SHORT-DET" O L 12650 2450 50 
F4 "SPEAKER+" O R 13500 2300 50 
F5 "SPEAKER-" O R 13500 2150 50 
$EndSheet
$Sheet
S 3100 6450 1050 1400
U 5E0AD584
F0 "bus-control" 50
F1 "bus-control.sch" 50
F2 "~BUS-E" I L 3100 6600 50 
F3 "~BUS-OE" I L 3100 6800 50 
F4 "~BUS-WE" I L 3100 6700 50 
F5 "~SOUND" O R 4150 6600 50 
F6 "~PERIPHERALS" O R 4150 6700 50 
F7 "~MISC" O R 4150 6800 50 
F8 "~RAM-E" O R 4150 6900 50 
F9 "~CPSA" O R 4150 7200 50 
F10 "~CPSB" O R 4150 7300 50 
F11 "~VOLUME" O R 4150 7400 50 
F12 "~VRAM-E" I L 3100 7000 50 
F13 "~IN1" O R 4150 7600 50 
F14 "~IN2" O R 4150 7700 50 
F15 "~IN0" O R 4150 7500 50 
F16 "BUS-ADDR[3..23]" I L 3100 7250 50 
F17 "~BUS-UDSW" I L 3100 6900 50 
F18 "~COIN-W" O R 4150 7100 50 
F19 "~OUT-W" O R 4150 7000 50 
$EndSheet
$Sheet
S 6900 5200 1150 1800
U 5DD771EC
F0 "cps-a-01" 50
F1 "cps-a-01.sch" 50
F2 "~RESET" I L 6900 6250 50 
F3 "CLK16M" O R 8050 6700 50 
F4 "~BUS-WR" I L 6900 5450 50 
F5 "~CPSA-CS" I L 6900 6150 50 
F6 "~WSTROM" I R 8050 6250 50 
F7 "WSTLUT" O R 8050 6350 50 
F8 "~BUS-OE" I L 6900 5350 50 
F9 "CLK4M" O R 8050 6900 50 
F10 "CLK8M" O R 8050 6800 50 
F11 "BUS-DATA[0..15]" B L 6900 5700 50 
F12 "GFX-ADDR[0..19]" B L 6900 6700 50 
F13 "VSYNC" O L 6900 6500 50 
F14 "HSYNC" O L 6900 6400 50 
F15 "BUS-ADDR[1..23]" I L 6900 5600 50 
F16 "~BUS-BGACK" I L 6900 5900 50 
F17 "~CPSA-BR" O L 6900 6050 50 
F18 "XSEL" O R 8050 5600 50 
F19 "FLIP" O R 8050 5750 50 
F20 "~RESETI" O R 8050 5850 50 
F21 "FI" O R 8050 5950 50 
F22 "LI" O R 8050 6050 50 
F23 "LUTPRO" O R 8050 6550 50 
F24 "XS[0..4]" O R 8050 5500 50 
F25 "CB[0..4]" O R 8050 5350 50 
$EndSheet
$Sheet
S 8650 5200 1200 2350
U 5DDBF667
F0 "cps-b-21" 50
F1 "cps-b-21.sch" 50
F2 "SEL" O R 9850 5900 50 
F3 "GFX[0..31]" I R 9850 6050 50 
F4 "~CLK8M" O R 9850 6950 50 
F5 "CLK16M" I L 8650 6700 50 
F6 "WSTLUT" I L 8650 6350 50 
F7 "~BUS-OE" I R 9850 5650 50 
F8 "~BUS-W" I R 9850 5750 50 
F9 "~CPSB-CS" I R 9850 6350 50 
F10 "BUS-ADDR[1..5]" I R 9850 5350 50 
F11 "BUS-DATA[0..15]" B R 9850 5500 50 
F12 "~LUT-OE" O R 9850 7100 50 
F13 "~LUT-WR" O R 9850 7200 50 
F14 "LUTA[0..11]" O R 9850 7400 50 
F15 "HSYNC" O R 9850 6600 50 
F16 "VSYNC" O R 9850 6700 50 
F17 "~VBLANK" O L 8650 7400 50 
F18 "~CPSB-OBJUP" O R 9850 6450 50 
F19 "~WSTROM" O L 8650 6250 50 
F20 "SEL-PALETTE" O R 9850 7300 50 
F21 "VSYNC-OUT" O R 9850 6850 50 
F22 "~RESETI" I L 8650 5850 50 
F23 "FI" I L 8650 5950 50 
F24 "LI" I L 8650 6050 50 
F25 "FLIP" I L 8650 5750 50 
F26 "XSEL" I L 8650 5600 50 
F27 "XS[0..4]" I L 8650 5500 50 
F28 "CB[0..4]" I L 8650 5350 50 
F29 "LUTPRO" I L 8650 6550 50 
$EndSheet
$Sheet
S 10350 5800 1100 350 
U 5DC3951B
F0 "gfx-data-bus" 50
F1 "gfx-data-bus.sch" 50
F2 "SEL" I L 10350 5900 50 
F3 "GFXA[0..31]" I R 11450 5900 50 
F4 "GFXB[0..31]" I R 11450 6050 50 
F5 "GFX[0..31]" O L 10350 6050 50 
$EndSheet
$Sheet
S 8650 7750 1150 1250
U 5E82EDA4
F0 "gfx-ram" 50
F1 "gfx-ram.sch" 50
F2 "~RESET" I L 8650 8850 50 
F3 "FLIP" I L 8650 8000 50 
F4 "~VBLANK" I L 8650 7900 50 
F5 "FI" I L 8650 8200 50 
F6 "LI" I L 8650 8300 50 
F7 "CLK16M" I L 8650 8450 50 
F8 "~RESETI" I L 8650 8100 50 
F9 "LUTB[0..11]" O R 9800 8050 50 
F10 "LUTA[0..11]" B R 9800 7900 50 
F11 "GFX-IN[0..15]" I L 8650 8650 50 
$EndSheet
$Sheet
S 14000 5250 1250 600 
U 5DE26A0D
F0 "input-io" 50
F1 "input-io.sch" 50
F2 "JAMMA-S[14..25]" I R 15250 5400 50 
F3 "JAMMA-C[15..25]" I R 15250 5550 50 
F4 "KICK[9..28]" I R 15250 5700 50 
F5 "IN0[0..15]" O L 14000 5400 50 
F6 "IN1[0..15]" O L 14000 5550 50 
F7 "IN2[1..15]" O L 14000 5700 50 
$EndSheet
$Sheet
S 12650 5250 1200 1750
U 5DF46D12
F0 "io-bus" 50
F1 "io-bus.sch" 50
F2 "~RESET" I L 12650 6500 50 
F3 "~IN0-R" I L 12650 5950 50 
F4 "~IN1-R" I L 12650 6050 50 
F5 "~IN2-R" I L 12650 6150 50 
F6 "~OUT-W" I L 12650 6250 50 
F7 "~REFRESH" O R 13850 6850 50 
F8 "~BUS-E" I L 12650 5700 50 
F9 "~BUS-BGACK" I L 12650 5800 50 
F10 "~VRAM-E" O R 13850 6750 50 
F11 "KICK[25..28]" O R 13850 6100 50 
F12 "IN2[1..15]" I R 13850 5700 50 
F13 "IN1[0..15]" I R 13850 5550 50 
F14 "IN0[0..15]" I R 13850 5400 50 
F15 "CLK8M" I L 12650 6850 50 
F16 "CLK4M" I L 12650 6750 50 
F17 "BUS-A[18..23]" I L 12650 5550 50 
F18 "~COIN-W" I L 12650 6350 50 
F19 "~Z80-RESET" O R 13850 6550 50 
F20 "JAMMA-S[8..9]" O R 13850 6400 50 
F21 "JAMMA-C[8..9]" O R 13850 6250 50 
F22 "KICK[7..8]" O R 13850 6000 50 
F23 "B-COUNTER" O R 13850 6650 50 
F24 "BUS-D[0..15]" B L 12650 5400 50 
$EndSheet
$Sheet
S 14450 4300 800  600 
U 60B88DCA
F0 "jamma" 50
F1 "jamma.sch" 50
F2 "JAMMA-S[8..25]" O R 15250 4450 50 
F3 "JAMMA-C[8..25]" O R 15250 4600 50 
F4 "KICK[7..30]" O R 15250 4750 50 
$EndSheet
$Sheet
S 10450 7350 1150 1000
U 5DDE81DD
F0 "palette-ram" 50
F1 "palette-ram.sch" 50
F2 "~RAM-OE" I L 10450 7500 50 
F3 "~RAM-WR" I L 10450 7600 50 
F4 "B[0..3]" O R 11600 7750 50 
F5 "G[0..3]" O R 11600 7900 50 
F6 "R[0..3]" O R 11600 8050 50 
F7 "F[0..3]" O R 11600 8200 50 
F8 "BUS-DATA[0..15]" I R 11600 7500 50 
F9 "LUTB[0..11]" I L 10450 8050 50 
F10 "LUTA[0..11]" I L 10450 7900 50 
F11 "SEL-~A~B" I L 10450 7750 50 
$EndSheet
$Sheet
S 7850 2100 1100 1200
U 5DE724A4
F0 "qsound-dsp" 50
F1 "qsound-dsp.sch" 50
F2 "~RESET" I L 7850 3100 50 
F3 "BUS[0..15]" T L 7850 2200 50 
F4 "ROM[0..7]" I R 8950 3000 50 
F5 "QSAH[0..7]" O L 7850 2350 50 
F6 "~DSP-READY" O L 7850 3200 50 
F7 "~QS1-R" O L 7850 2850 50 
F8 "~QS0-R" O L 7850 2750 50 
F9 "AUDIO-WS" O R 8950 2450 50 
F10 "AUDIO-BCLK" O R 8950 2550 50 
F11 "AUDIO-DATA" O R 8950 2650 50 
F12 "~QSAH-W" O L 7850 2550 50 
F13 "~QSAL-W" O L 7850 2650 50 
F14 "~QS1L-W" I L 7850 2950 50 
$EndSheet
$Sheet
S 10900 2300 950  800 
U 5F1915B1
F0 "qsound-volume-bus" 50
F1 "qsound-volume-bus.sch" 50
F2 "~VOLUME-OE" I R 11850 2850 50 
F3 "BUS[0..15]" O R 11850 3000 50 
F4 "CLK" I L 10900 2450 50 
F5 "STB" I L 10900 2550 50 
F6 "DATA" I L 10900 2650 50 
F7 "SHORT-DET" I R 11850 2450 50 
F8 "~PRPH-PRESENT" I R 11850 2600 50 
F9 "~PRPH-MEM" I R 11850 2700 50 
$EndSheet
$Sheet
S 9650 1800 1000 1000
U 5DDD7054
F0 "sound-dac" 50
F1 "sound-dac.sch" 50
F2 "VOL-CLK" O R 10650 2450 50 
F3 "VOL-DATA" O R 10650 2650 50 
F4 "VOL-STB" O R 10650 2550 50 
F5 "LINE-R" O R 10650 2000 50 
F6 "LINE-L" O R 10650 1900 50 
F7 "MONO" O R 10650 2150 50 
F8 "VOL-UP" I L 9650 1900 50 
F9 "VOL-DOWN" I L 9650 2000 50 
F10 "CLK" I L 9650 2550 50 
F11 "CHANNEL" I L 9650 2450 50 
F12 "DATA" I L 9650 2650 50 
$EndSheet
$Sheet
S 6100 2100 1350 1850
U 5E482366
F0 "sound-registries" 50
F1 "sound-registries.sch" 50
F2 "~RESET" I L 6100 2500 50 
F3 "~DSP-READY" I R 7450 3200 50 
F4 "DATA[0..7]" B L 6100 3600 50 
F5 "A[0..15]" I L 6100 3400 50 
F6 "SOUND-ADDR[14..16]" O R 7450 3850 50 
F7 "~RAM-WE" O L 6100 3200 50 
F8 "~RAM-E" O L 6100 3100 50 
F9 "~SOUND-E1" O R 7450 3600 50 
F10 "~SOUND-E2" O R 7450 3700 50 
F11 "~M1" I L 6100 2350 50 
F12 "PAL3-12" O L 6100 2200 50 
F13 "BUS[0..15]" B R 7450 2200 50 
F14 "QSH[0..7]" I R 7450 2350 50 
F15 "~QSH-W" I R 7450 2550 50 
F16 "~QS1-R" I R 7450 2850 50 
F17 "~QS0-R" I R 7450 2750 50 
F18 "~QSA-W" I R 7450 2650 50 
F19 "QSOUND-ADDR[0..22]" O R 7450 3450 50 
F20 "~WRITE" I L 6100 2700 50 
F21 "~READ" I L 6100 2800 50 
F22 "~ENABLE" I L 6100 2900 50 
F23 "~DSP-RESET" O R 7450 3100 50 
F24 "~QS1L-W" O R 7450 2950 50 
$EndSheet
$Sheet
S 5200 5200 900  1200
U 5DBE0874
F0 "ram" 50
F1 "ram.sch" 50
F2 "BUS-DATA[0..15]" B L 5200 5500 50 
F3 "~E" I L 5200 6200 50 
F4 "~OE" I L 5200 5650 50 
F5 "~WE" I L 5200 5750 50 
F6 "~REFRESH" I L 5200 6000 50 
F7 "BUS-ADDR[1..23]" I L 5200 5350 50 
$EndSheet
$Sheet
S 12050 7450 1000 1300
U 5E5F6742
F0 "video-dac" 50
F1 "video-dac.sch" 50
F2 "G[0..3]" I L 12050 7900 50 
F3 "B[0..3]" I L 12050 7750 50 
F4 "R[0..3]" I L 12050 8050 50 
F5 "F[0..3]" I L 12050 8200 50 
F6 "CLK" I L 12050 7600 50 
F7 "~CLEAR" I L 12050 8600 50 
F8 "BLUE" O R 13050 7600 50 
F9 "GREEN" O R 13050 7800 50 
F10 "RED" O R 13050 7700 50 
$EndSheet
$Sheet
S 2550 2100 1100 1250
U 5E4999E7
F0 "z80-bus-control" 50
F1 "z80-bus-control.sch" 50
F2 "Z80-CLK" O R 3650 2500 50 
F3 "~Z80-BUSACK" I R 3650 3000 50 
F4 "~Z80-WAIT" O R 3650 2650 50 
F5 "~Z80-M1" I R 3650 2200 50 
F6 "~Z80-IOREQ" I R 3650 3100 50 
F7 "~Z80-INT" O R 3650 2750 50 
F8 "~BUS-E" I L 2550 3250 50 
F9 "~BUS-WE" I L 2550 3150 50 
F10 "PALA3-12" I L 2550 2450 50 
F11 "~Z80-BUSIO" O R 3650 2850 50 
F12 "~Z80-BUSW" O R 3650 3250 50 
F13 "~Z80-BUSREQ" I R 3650 2350 50 
F14 "~Z80-BUS" O L 2550 3000 50 
$EndSheet
Wire Wire Line
	7450 2950 7850 2950
Wire Wire Line
	12350 4400 13950 4400
Connection ~ 12350 4400
$Sheet
S 9400 3250 1700 800 
U 5FD09D2D
F0 "CN3-CN4" 50
F1 "CN3-CN4.sch" 50
F2 "SOUND-ADDR[0..16]" I L 9400 3850 50 
F3 "SOUND-DATA[0..7]" O L 9400 3950 50 
F4 "QSOUND-ADDR[0..22]" I L 9400 3450 50 
F5 "QSOUND-DATA[0..7]" O L 9400 3350 50 
F6 "GFXA-DATA[0..31]" O R 11100 3950 50 
F7 "GFXB-DATA[0..31]" O R 11100 3800 50 
F8 "~EEPROM-E" I R 11100 3450 50 
F9 "~SOUND-E1" I L 9400 3600 50 
F10 "~SOUND-E2" I L 9400 3700 50 
$EndSheet
Connection ~ 7550 3850
Wire Bus Line
	7550 3850 9400 3850
Wire Bus Line
	5700 4200 7650 4200
Wire Bus Line
	7650 3950 9400 3950
Wire Bus Line
	7650 3950 7650 4200
Text Label 6400 6250 0    50   ~ 0
~RESET
Text Label 4200 7700 0    50   ~ 0
~IN2-R
Text Label 4200 7600 0    50   ~ 0
~IN1-R
Text Label 4200 7500 0    50   ~ 0
~IN0-R
Wire Wire Line
	4500 7700 4150 7700
Wire Wire Line
	4150 7600 4500 7600
Wire Wire Line
	4150 7500 4500 7500
Wire Wire Line
	4150 6600 4650 6600
Wire Wire Line
	4150 6700 4650 6700
Wire Wire Line
	4150 6800 4650 6800
Wire Wire Line
	4150 6900 4650 6900
Wire Wire Line
	4150 7000 4650 7000
Wire Wire Line
	4150 7100 4650 7100
Wire Wire Line
	4150 7200 4650 7200
Wire Wire Line
	4150 7300 4650 7300
Wire Wire Line
	4150 7400 4650 7400
Text Label 4200 6600 0    50   ~ 0
~Z80-BUSREQ
Text Label 4200 6700 0    50   ~ 0
~PRPH-E
Text Label 4200 6800 0    50   ~ 0
~MISC-E
Text Label 4200 6900 0    50   ~ 0
~RAM-E
Text Label 4200 7000 0    50   ~ 0
~OUT-W
Text Label 4200 7100 0    50   ~ 0
~COIN-W
Text Label 4200 7200 0    50   ~ 0
~CPSB-CS
Text Label 4200 7300 0    50   ~ 0
~CPSA-CS
Text Label 4200 7400 0    50   ~ 0
~VOLUME-E
Wire Wire Line
	11850 2700 12500 2700
Wire Wire Line
	11850 2600 12500 2600
Wire Wire Line
	6400 6050 6900 6050
Wire Wire Line
	6400 5900 6900 5900
Wire Wire Line
	6400 6150 6900 6150
Wire Wire Line
	6400 6250 6900 6250
Connection ~ 2250 4600
Connection ~ 2350 4400
Connection ~ 2600 4950
Connection ~ 2800 4700
Connection ~ 3650 4800
Wire Bus Line
	15450 2200 15450 4600
Wire Bus Line
	15350 2850 15350 4750
$EndSCHEMATC
