EESchema Schematic File Version 4
EELAYER 30 0
EELAYER END
$Descr A4 11693 8268
encoding utf-8
Sheet 2 22
Title ""
Date "2020-12-13"
Rev ""
Comp ""
Comment1 ""
Comment2 "Licence: CC-BY"
Comment3 "Author: Loïc *WydD* Petit"
Comment4 "Project: CPS2 Reverse Engineering: 93646A"
$EndDescr
Connection ~ 9400 5400
Connection ~ 6250 5750
Connection ~ 8800 5400
Connection ~ 8200 5400
Connection ~ 7300 5350
Connection ~ 9950 5400
Connection ~ 4900 1450
Connection ~ 6800 5350
Connection ~ 2250 2600
Connection ~ 2250 2700
Connection ~ 2250 2800
Connection ~ 2250 2900
Connection ~ 2250 3000
Connection ~ 2250 3100
Connection ~ 2250 3400
Connection ~ 2250 3500
Connection ~ 2250 3600
Connection ~ 2250 3700
Connection ~ 2250 3800
Connection ~ 2250 3900
Connection ~ 3300 4250
Connection ~ 3300 4350
Connection ~ 3300 4650
Connection ~ 3300 4750
Connection ~ 2250 5100
Connection ~ 2250 5200
Connection ~ 2250 5300
Connection ~ 2250 5400
Connection ~ 2250 5500
Connection ~ 3300 950 
Connection ~ 3300 1050
Connection ~ 3300 1450
NoConn ~ 6550 1550
Entry Wire Line
	3850 4950 3950 4850
Entry Wire Line
	3850 5050 3950 4950
Entry Wire Line
	3850 5150 3950 5050
Entry Wire Line
	3850 5250 3950 5150
Entry Wire Line
	3850 5350 3950 5250
Entry Wire Line
	3850 5450 3950 5350
Entry Wire Line
	3850 5550 3950 5450
Entry Wire Line
	3850 5650 3950 5550
Entry Wire Line
	3850 5750 3950 5650
Entry Wire Line
	3850 5850 3950 5750
Entry Wire Line
	3850 5950 3950 5850
Entry Wire Line
	3850 6050 3950 5950
Entry Wire Line
	3850 6150 3950 6050
Entry Wire Line
	3850 6250 3950 6150
Entry Wire Line
	3850 6350 3950 6250
Entry Wire Line
	3850 6450 3950 6350
Entry Wire Line
	3900 1650 4000 1550
Entry Wire Line
	3900 1750 4000 1650
Entry Wire Line
	3900 1850 4000 1750
Entry Wire Line
	3900 1950 4000 1850
Entry Wire Line
	3900 2050 4000 1950
Entry Wire Line
	3900 2150 4000 2050
Entry Wire Line
	3900 2250 4000 2150
Entry Wire Line
	3900 2350 4000 2250
Entry Wire Line
	3900 2450 4000 2350
Entry Wire Line
	3900 2550 4000 2450
Entry Wire Line
	3900 2650 4000 2550
Entry Wire Line
	3900 2750 4000 2650
Entry Wire Line
	3900 2850 4000 2750
Entry Wire Line
	3900 2950 4000 2850
Entry Wire Line
	3900 3050 4000 2950
Entry Wire Line
	3900 3150 4000 3050
Entry Wire Line
	3900 3250 4000 3150
Entry Wire Line
	3900 3350 4000 3250
Entry Wire Line
	3900 3450 4000 3350
Entry Wire Line
	3900 3550 4000 3450
Entry Wire Line
	3900 3650 4000 3550
Entry Wire Line
	3900 3750 4000 3650
Entry Wire Line
	3900 3850 4000 3750
Entry Wire Line
	5950 1650 5850 1550
Entry Wire Line
	5950 1750 5850 1650
Entry Wire Line
	5950 1850 5850 1750
Entry Wire Line
	5950 1950 5850 1850
Entry Wire Line
	5950 2050 5850 1950
Entry Wire Line
	5950 2150 5850 2050
Entry Wire Line
	5950 2250 5850 2150
Entry Wire Line
	5950 2600 5850 2500
Entry Wire Line
	5950 2700 5850 2600
Entry Wire Line
	5950 2800 5850 2700
Entry Wire Line
	5950 2900 5850 2800
Entry Wire Line
	5950 3000 5850 2900
Entry Wire Line
	5950 3100 5850 3000
Entry Wire Line
	5950 3200 5850 3100
Entry Wire Line
	5950 3300 5850 3200
Entry Wire Line
	5950 3650 5850 3550
Entry Wire Line
	5950 3750 5850 3650
Entry Wire Line
	5950 3850 5850 3750
Entry Wire Line
	5950 3950 5850 3850
Entry Wire Line
	5950 4050 5850 3950
Entry Wire Line
	5950 4150 5850 4050
Entry Wire Line
	5950 4250 5850 4150
Entry Wire Line
	5950 4350 5850 4250
Wire Wire Line
	1700 4100 2250 4100
Wire Wire Line
	1700 4200 2250 4200
Wire Wire Line
	1700 4300 2250 4300
Wire Wire Line
	1700 4400 2250 4400
Wire Wire Line
	1700 4500 2250 4500
Wire Wire Line
	1700 4600 2250 4600
Wire Wire Line
	1700 4700 2250 4700
Wire Wire Line
	1700 4800 2250 4800
Wire Wire Line
	1700 4900 2250 4900
Wire Wire Line
	2000 3000 2250 3000
Wire Wire Line
	2000 3500 2250 3500
Wire Wire Line
	2000 5500 2250 5500
Wire Wire Line
	2250 2500 2250 2600
Wire Wire Line
	2250 2600 2250 2700
Wire Wire Line
	2250 2700 2250 2800
Wire Wire Line
	2250 2800 2250 2900
Wire Wire Line
	2250 2900 2250 3000
Wire Wire Line
	2250 3000 2250 3100
Wire Wire Line
	2250 3100 2250 3200
Wire Wire Line
	2250 3300 2250 3400
Wire Wire Line
	2250 3400 2250 3500
Wire Wire Line
	2250 3500 2250 3600
Wire Wire Line
	2250 3600 2250 3700
Wire Wire Line
	2250 3700 2250 3800
Wire Wire Line
	2250 3800 2250 3900
Wire Wire Line
	2250 3900 2250 4000
Wire Wire Line
	2250 5000 2250 5100
Wire Wire Line
	2250 5100 2250 5200
Wire Wire Line
	2250 5200 2250 5300
Wire Wire Line
	2250 5300 2250 5400
Wire Wire Line
	2250 5400 2250 5500
Wire Wire Line
	2250 5500 2250 5600
Wire Wire Line
	3300 850  3300 950 
Wire Wire Line
	3300 950  3300 1050
Wire Wire Line
	3300 1050 3300 1150
Wire Wire Line
	3300 1250 3850 1250
Wire Wire Line
	3300 1350 3300 1450
Wire Wire Line
	3300 1450 3300 1550
Wire Wire Line
	3300 1650 3900 1650
Wire Wire Line
	3300 1750 3900 1750
Wire Wire Line
	3300 1850 3900 1850
Wire Wire Line
	3300 1950 3900 1950
Wire Wire Line
	3300 2050 3900 2050
Wire Wire Line
	3300 2150 3900 2150
Wire Wire Line
	3300 2250 3900 2250
Wire Wire Line
	3300 2350 3900 2350
Wire Wire Line
	3300 2450 3900 2450
Wire Wire Line
	3300 2550 3900 2550
Wire Wire Line
	3300 2650 3900 2650
Wire Wire Line
	3300 2750 3900 2750
Wire Wire Line
	3300 2850 3900 2850
Wire Wire Line
	3300 2950 3900 2950
Wire Wire Line
	3300 3050 3900 3050
Wire Wire Line
	3300 3150 3900 3150
Wire Wire Line
	3300 3250 3900 3250
Wire Wire Line
	3300 3350 3900 3350
Wire Wire Line
	3300 3450 3900 3450
Wire Wire Line
	3300 3550 3900 3550
Wire Wire Line
	3300 3650 3900 3650
Wire Wire Line
	3300 3750 3900 3750
Wire Wire Line
	3300 3850 3900 3850
Wire Wire Line
	3300 3950 3900 3950
Wire Wire Line
	3300 4150 3300 4250
Wire Wire Line
	3300 4250 3300 4350
Wire Wire Line
	3300 4350 3300 4450
Wire Wire Line
	3300 4550 3300 4650
Wire Wire Line
	3300 4650 3300 4750
Wire Wire Line
	3300 4650 3650 4650
Wire Wire Line
	3300 4750 3300 4850
Wire Wire Line
	3300 4950 3850 4950
Wire Wire Line
	3300 5050 3850 5050
Wire Wire Line
	3300 5150 3850 5150
Wire Wire Line
	3300 5250 3850 5250
Wire Wire Line
	3300 5350 3850 5350
Wire Wire Line
	3300 5450 3850 5450
Wire Wire Line
	3300 5550 3850 5550
Wire Wire Line
	3300 5650 3850 5650
Wire Wire Line
	3300 5750 3850 5750
Wire Wire Line
	3300 5850 3850 5850
Wire Wire Line
	3300 5950 3850 5950
Wire Wire Line
	3300 6050 3850 6050
Wire Wire Line
	3300 6150 3850 6150
Wire Wire Line
	3300 6250 3850 6250
Wire Wire Line
	3300 6350 3850 6350
Wire Wire Line
	3300 6450 3850 6450
Wire Wire Line
	3300 6550 3850 6550
Wire Wire Line
	3300 6650 3850 6650
Wire Wire Line
	3300 6750 3850 6750
Wire Wire Line
	3300 6850 3850 6850
Wire Wire Line
	3300 6950 4600 6950
Wire Wire Line
	3300 7150 3850 7150
Wire Wire Line
	3300 7250 3850 7250
Wire Wire Line
	3500 1050 3300 1050
Wire Wire Line
	3500 1450 3300 1450
Wire Wire Line
	3650 4350 3300 4350
Wire Wire Line
	4600 6500 4600 6950
Wire Wire Line
	4750 6500 4600 6500
Wire Wire Line
	4750 7050 3300 7050
Wire Wire Line
	5900 5350 6800 5350
Wire Wire Line
	5900 5550 6100 5550
Wire Wire Line
	5950 1650 6550 1650
Wire Wire Line
	5950 1750 6550 1750
Wire Wire Line
	5950 1850 6550 1850
Wire Wire Line
	5950 1950 6550 1950
Wire Wire Line
	5950 2050 6550 2050
Wire Wire Line
	5950 2150 6550 2150
Wire Wire Line
	5950 2250 6550 2250
Wire Wire Line
	5950 2600 6550 2600
Wire Wire Line
	5950 2700 6550 2700
Wire Wire Line
	5950 2800 6550 2800
Wire Wire Line
	5950 2900 6550 2900
Wire Wire Line
	5950 3000 6550 3000
Wire Wire Line
	5950 3100 6550 3100
Wire Wire Line
	5950 3200 6550 3200
Wire Wire Line
	5950 3300 6550 3300
Wire Wire Line
	5950 3650 6550 3650
Wire Wire Line
	5950 3750 6550 3750
Wire Wire Line
	5950 3850 6550 3850
Wire Wire Line
	5950 3950 6550 3950
Wire Wire Line
	5950 4050 6550 4050
Wire Wire Line
	5950 4150 6550 4150
Wire Wire Line
	5950 4250 6550 4250
Wire Wire Line
	5950 4350 6550 4350
Wire Wire Line
	6000 5750 5900 5750
Wire Wire Line
	6100 5750 6100 5550
Wire Wire Line
	6100 5750 6250 5750
Wire Wire Line
	6250 5450 5900 5450
Wire Wire Line
	6800 5050 6800 5100
Wire Wire Line
	6800 5300 6800 5350
Wire Wire Line
	6800 5350 6800 5500
Wire Wire Line
	6800 5350 7300 5350
Wire Wire Line
	6800 5700 6800 5750
Wire Wire Line
	7300 4850 7300 5350
Wire Wire Line
	7300 5350 7300 5900
Wire Wire Line
	7650 4850 7300 4850
Wire Wire Line
	7950 4850 8200 4850
Wire Wire Line
	8200 4850 8200 5400
Wire Wire Line
	8200 5400 8200 5900
Wire Wire Line
	8800 5150 8800 5400
Wire Wire Line
	8800 5400 8800 5650
Wire Wire Line
	9400 5150 9400 5400
Wire Wire Line
	9400 5400 9400 5650
Wire Wire Line
	9400 5400 9950 5400
Wire Wire Line
	9950 5100 9950 5150
Wire Wire Line
	9950 5350 9950 5400
Wire Wire Line
	9950 5400 10350 5400
Wire Bus Line
	3950 4750 4150 4750
Wire Bus Line
	4900 1200 4900 1450
Wire Bus Line
	4900 1200 5050 1200
Wire Bus Line
	4900 1450 4000 1450
Wire Bus Line
	5850 1450 4900 1450
Text Notes 6350 6000 0    50   ~ 0
C26 may not be populated
Text Label 3350 1650 0    50   ~ 0
BUS-ADDR23
Text Label 3350 1750 0    50   ~ 0
BUS-ADDR22
Text Label 3350 1850 0    50   ~ 0
BUS-ADDR21
Text Label 3350 1950 0    50   ~ 0
BUS-ADDR20
Text Label 3350 2050 0    50   ~ 0
BUS-ADDR19
Text Label 3350 2150 0    50   ~ 0
BUS-ADDR18
Text Label 3350 2250 0    50   ~ 0
BUS-ADDR17
Text Label 3350 2350 0    50   ~ 0
BUS-ADDR16
Text Label 3350 2450 0    50   ~ 0
BUS-ADDR15
Text Label 3350 2550 0    50   ~ 0
BUS-ADDR14
Text Label 3350 2650 0    50   ~ 0
BUS-ADDR13
Text Label 3350 2750 0    50   ~ 0
BUS-ADDR12
Text Label 3350 2850 0    50   ~ 0
BUS-ADDR11
Text Label 3350 2950 0    50   ~ 0
BUS-ADDR10
Text Label 3350 3050 0    50   ~ 0
BUS-ADDR9
Text Label 3350 3150 0    50   ~ 0
BUS-ADDR8
Text Label 3350 3250 0    50   ~ 0
BUS-ADDR7
Text Label 3350 3350 0    50   ~ 0
BUS-ADDR6
Text Label 3350 3450 0    50   ~ 0
BUS-ADDR5
Text Label 3350 3550 0    50   ~ 0
BUS-ADDR4
Text Label 3350 3650 0    50   ~ 0
BUS-ADDR3
Text Label 3350 3750 0    50   ~ 0
BUS-ADDR2
Text Label 3350 3850 0    50   ~ 0
BUS-ADDR1
Text Label 3350 3950 0    50   ~ 0
~BUS-E
Text Label 3350 4950 0    50   ~ 0
BUS-DATA15
Text Label 3350 5050 0    50   ~ 0
BUS-DATA14
Text Label 3350 5150 0    50   ~ 0
BUS-DATA13
Text Label 3350 5250 0    50   ~ 0
BUS-DATA12
Text Label 3350 5350 0    50   ~ 0
BUS-DATA11
Text Label 3350 5450 0    50   ~ 0
BUS-DATA10
Text Label 3350 5550 0    50   ~ 0
BUS-DATA9
Text Label 3350 5650 0    50   ~ 0
BUS-DATA8
Text Label 3350 5750 0    50   ~ 0
BUS-DATA7
Text Label 3350 5850 0    50   ~ 0
BUS-DATA6
Text Label 3350 5950 0    50   ~ 0
BUS-DATA5
Text Label 3350 6050 0    50   ~ 0
BUS-DATA4
Text Label 3350 6150 0    50   ~ 0
BUS-DATA3
Text Label 3350 6250 0    50   ~ 0
BUS-DATA2
Text Label 3350 6350 0    50   ~ 0
BUS-DATA1
Text Label 3350 6450 0    50   ~ 0
BUS-DATA0
Text Label 3350 6550 0    50   ~ 0
~BUS-OE
Text Label 3350 6650 0    50   ~ 0
~BUS-UDSW
Text Label 3350 6750 0    50   ~ 0
~BUS-WE
Text Label 3350 6850 0    50   ~ 0
~RESET
Text Label 3350 6950 0    50   ~ 0
CN1-CIF155
Text Label 3350 7050 0    50   ~ 0
CIF153
Text Label 3350 7150 0    50   ~ 0
CIF157
Text Label 6000 1650 0    50   ~ 0
BUS-ADDR23
Text Label 6000 1750 0    50   ~ 0
BUS-ADDR22
Text Label 6000 1850 0    50   ~ 0
BUS-ADDR21
Text Label 6000 1950 0    50   ~ 0
BUS-ADDR20
Text Label 6000 2050 0    50   ~ 0
BUS-ADDR19
Text Label 6000 2150 0    50   ~ 0
BUS-ADDR18
Text Label 6000 2250 0    50   ~ 0
BUS-ADDR17
Text Label 6000 2600 0    50   ~ 0
BUS-ADDR16
Text Label 6000 2700 0    50   ~ 0
BUS-ADDR15
Text Label 6000 2800 0    50   ~ 0
BUS-ADDR14
Text Label 6000 2900 0    50   ~ 0
BUS-ADDR13
Text Label 6000 3000 0    50   ~ 0
BUS-ADDR12
Text Label 6000 3100 0    50   ~ 0
BUS-ADDR11
Text Label 6000 3200 0    50   ~ 0
BUS-ADDR10
Text Label 6000 3300 0    50   ~ 0
BUS-ADDR9
Text Label 6000 3650 0    50   ~ 0
BUS-ADDR8
Text Label 6000 3750 0    50   ~ 0
BUS-ADDR7
Text Label 6000 3850 0    50   ~ 0
BUS-ADDR6
Text Label 6000 3950 0    50   ~ 0
BUS-ADDR5
Text Label 6000 4050 0    50   ~ 0
BUS-ADDR4
Text Label 6000 4150 0    50   ~ 0
BUS-ADDR3
Text Label 6000 4250 0    50   ~ 0
BUS-ADDR2
Text Label 6000 4350 0    50   ~ 0
BUS-ADDR1
Text Label 9600 5400 0    50   ~ 0
~RESET
Text HLabel 1700 4100 0    50   Input ~ 0
~PRPH-E
Text HLabel 1700 4200 0    50   Input ~ 0
~MISC-E
Text HLabel 1700 4300 0    50   Input ~ 0
A-VSYNC
Text HLabel 1700 4400 0    50   Input ~ 0
A-HSYNC
Text HLabel 1700 4500 0    50   Input ~ 0
B-VSYNC
Text HLabel 1700 4600 0    50   Input ~ 0
B-HSYNC
Text HLabel 1700 4700 0    50   Output ~ 0
~PRPH-PRESENT
Text HLabel 1700 4800 0    50   Output ~ 0
~PRPH-MEM
Text HLabel 1700 4900 0    50   Input ~ 0
~EPROM-E
Text HLabel 3850 1250 2    50   Input ~ 0
B-COUNTER
Text HLabel 3850 6550 2    50   Output ~ 0
~BUS-OE
Text HLabel 3850 6650 2    50   Output ~ 0
~BUS-UDSW
Text HLabel 3850 6750 2    50   Output ~ 0
~BUS-WE
Text HLabel 3850 7150 2    50   Input ~ 0
~CPSA-BR
Text HLabel 3850 7250 2    50   Output ~ 0
~BUS-BGACK
Text HLabel 3900 3950 2    50   Output ~ 0
~BUS-E
Text HLabel 4150 4750 2    50   BiDi ~ 0
BUS-DATA[0..15]
Text HLabel 5050 1200 2    50   Output ~ 0
BUS-ADDR[1..23]
Text HLabel 5350 6500 2    50   Input ~ 0
~Z80-BUS
Text HLabel 5350 7050 2    50   Input ~ 0
~CPSB-OBJUP
Text HLabel 10350 5400 2    50   Output ~ 0
~RESET
$Comp
L power:VCC #PWR?
U 1 1 5E30CB4B
P 2000 3000
AR Path="/5E30CB4B" Ref="#PWR?"  Part="1" 
AR Path="/5E4999E7/5E30CB4B" Ref="#PWR?"  Part="1" 
AR Path="/5E5EEEC7/5E30CB4B" Ref="#PWR0404"  Part="1" 
F 0 "#PWR0404" H 2000 2850 50  0001 C CNN
F 1 "VCC" H 2000 3150 50  0000 C CNN
F 2 "" H 2000 3000 50  0001 C CNN
F 3 "" H 2000 3000 50  0001 C CNN
	1    2000 3000
	1    0    0    -1  
$EndComp
$Comp
L power:VCC #PWR?
U 1 1 5E3571C5
P 3500 1050
AR Path="/5E3571C5" Ref="#PWR?"  Part="1" 
AR Path="/5E4999E7/5E3571C5" Ref="#PWR?"  Part="1" 
AR Path="/5E5EEEC7/5E3571C5" Ref="#PWR0409"  Part="1" 
F 0 "#PWR0409" H 3500 900 50  0001 C CNN
F 1 "VCC" H 3500 1200 50  0000 C CNN
F 2 "" H 3500 1050 50  0001 C CNN
F 3 "" H 3500 1050 50  0001 C CNN
	1    3500 1050
	1    0    0    -1  
$EndComp
$Comp
L power:VCC #PWR?
U 1 1 5E30D56A
P 3650 4350
AR Path="/5E30D56A" Ref="#PWR?"  Part="1" 
AR Path="/5E4999E7/5E30D56A" Ref="#PWR?"  Part="1" 
AR Path="/5E5EEEC7/5E30D56A" Ref="#PWR0406"  Part="1" 
F 0 "#PWR0406" H 3650 4200 50  0001 C CNN
F 1 "VCC" H 3650 4500 50  0000 C CNN
F 2 "" H 3650 4350 50  0001 C CNN
F 3 "" H 3650 4350 50  0001 C CNN
	1    3650 4350
	1    0    0    -1  
$EndComp
$Comp
L power:VCC #PWR?
U 1 1 5E607BAD
P 6000 5750
AR Path="/5E607BAD" Ref="#PWR?"  Part="1" 
AR Path="/5E4999E7/5E607BAD" Ref="#PWR?"  Part="1" 
AR Path="/5E5EEEC7/5E607BAD" Ref="#PWR0155"  Part="1" 
F 0 "#PWR0155" H 6000 5600 50  0001 C CNN
F 1 "VCC" H 6000 5900 50  0000 C CNN
F 2 "" H 6000 5750 50  0001 C CNN
F 3 "" H 6000 5750 50  0001 C CNN
	1    6000 5750
	1    0    0    -1  
$EndComp
$Comp
L power:VCC #PWR?
U 1 1 5E607BE0
P 6800 5050
AR Path="/5E607BE0" Ref="#PWR?"  Part="1" 
AR Path="/5E4999E7/5E607BE0" Ref="#PWR?"  Part="1" 
AR Path="/5E5EEEC7/5E607BE0" Ref="#PWR0156"  Part="1" 
F 0 "#PWR0156" H 6800 4900 50  0001 C CNN
F 1 "VCC" H 6800 5200 50  0000 C CNN
F 2 "" H 6800 5050 50  0001 C CNN
F 3 "" H 6800 5050 50  0001 C CNN
	1    6800 5050
	1    0    0    -1  
$EndComp
$Comp
L power:VCC #PWR0159
U 1 1 5DE4F2D2
P 6950 1550
F 0 "#PWR0159" H 6950 1400 50  0001 C CNN
F 1 "VCC" H 6967 1723 50  0000 C CNN
F 2 "" H 6950 1550 50  0001 C CNN
F 3 "" H 6950 1550 50  0001 C CNN
	1    6950 1550
	1    0    0    -1  
$EndComp
$Comp
L power:VCC #PWR0160
U 1 1 5DE4F71F
P 6950 2600
F 0 "#PWR0160" H 6950 2450 50  0001 C CNN
F 1 "VCC" H 6967 2773 50  0000 C CNN
F 2 "" H 6950 2600 50  0001 C CNN
F 3 "" H 6950 2600 50  0001 C CNN
	1    6950 2600
	1    0    0    -1  
$EndComp
$Comp
L power:VCC #PWR0161
U 1 1 5DE4FC34
P 6950 3650
F 0 "#PWR0161" H 6950 3500 50  0001 C CNN
F 1 "VCC" H 6967 3823 50  0000 C CNN
F 2 "" H 6950 3650 50  0001 C CNN
F 3 "" H 6950 3650 50  0001 C CNN
	1    6950 3650
	1    0    0    -1  
$EndComp
$Comp
L power:VCC #PWR?
U 1 1 5E88CFCC
P 9250 2700
AR Path="/5E88CFCC" Ref="#PWR?"  Part="1" 
AR Path="/5E4999E7/5E88CFCC" Ref="#PWR?"  Part="1" 
AR Path="/5E5EEEC7/5E88CFCC" Ref="#PWR07"  Part="1" 
F 0 "#PWR07" H 9250 2550 50  0001 C CNN
F 1 "VCC" H 9250 2850 50  0000 C CNN
F 2 "" H 9250 2700 50  0001 C CNN
F 3 "" H 9250 2700 50  0001 C CNN
	1    9250 2700
	1    0    0    -1  
$EndComp
$Comp
L power:VCC #PWR?
U 1 1 5E607B8B
P 9950 5100
AR Path="/5E607B8B" Ref="#PWR?"  Part="1" 
AR Path="/5E4999E7/5E607B8B" Ref="#PWR?"  Part="1" 
AR Path="/5E5EEEC7/5E607B8B" Ref="#PWR0153"  Part="1" 
F 0 "#PWR0153" H 9950 4950 50  0001 C CNN
F 1 "VCC" H 9950 5250 50  0000 C CNN
F 2 "" H 9950 5100 50  0001 C CNN
F 3 "" H 9950 5100 50  0001 C CNN
	1    9950 5100
	1    0    0    -1  
$EndComp
$Comp
L power:GND #PWR?
U 1 1 5E30D0F9
P 2000 3500
AR Path="/5E30D0F9" Ref="#PWR?"  Part="1" 
AR Path="/5E4999E7/5E30D0F9" Ref="#PWR?"  Part="1" 
AR Path="/5E5EEEC7/5E30D0F9" Ref="#PWR0405"  Part="1" 
F 0 "#PWR0405" H 2000 3250 50  0001 C CNN
F 1 "GND" H 2005 3327 50  0001 C CNN
F 2 "" H 2000 3500 50  0001 C CNN
F 3 "" H 2000 3500 50  0001 C CNN
	1    2000 3500
	1    0    0    -1  
$EndComp
$Comp
L power:GND #PWR?
U 1 1 5E30DD16
P 2000 5500
AR Path="/5E30DD16" Ref="#PWR?"  Part="1" 
AR Path="/5E4999E7/5E30DD16" Ref="#PWR?"  Part="1" 
AR Path="/5E5EEEC7/5E30DD16" Ref="#PWR0408"  Part="1" 
F 0 "#PWR0408" H 2000 5250 50  0001 C CNN
F 1 "GND" H 2005 5327 50  0001 C CNN
F 2 "" H 2000 5500 50  0001 C CNN
F 3 "" H 2000 5500 50  0001 C CNN
	1    2000 5500
	1    0    0    -1  
$EndComp
$Comp
L power:GND #PWR?
U 1 1 5E3576BB
P 3500 1450
AR Path="/5E3576BB" Ref="#PWR?"  Part="1" 
AR Path="/5E4999E7/5E3576BB" Ref="#PWR?"  Part="1" 
AR Path="/5E5EEEC7/5E3576BB" Ref="#PWR0410"  Part="1" 
F 0 "#PWR0410" H 3500 1200 50  0001 C CNN
F 1 "GND" H 3505 1277 50  0001 C CNN
F 2 "" H 3500 1450 50  0001 C CNN
F 3 "" H 3500 1450 50  0001 C CNN
	1    3500 1450
	1    0    0    -1  
$EndComp
$Comp
L power:GND #PWR?
U 1 1 5E30DA28
P 3650 4650
AR Path="/5E30DA28" Ref="#PWR?"  Part="1" 
AR Path="/5E4999E7/5E30DA28" Ref="#PWR?"  Part="1" 
AR Path="/5E5EEEC7/5E30DA28" Ref="#PWR0407"  Part="1" 
F 0 "#PWR0407" H 3650 4400 50  0001 C CNN
F 1 "GND" H 3655 4477 50  0001 C CNN
F 2 "" H 3650 4650 50  0001 C CNN
F 3 "" H 3650 4650 50  0001 C CNN
	1    3650 4650
	1    0    0    -1  
$EndComp
$Comp
L power:GND #PWR?
U 1 1 5E607BA7
P 6250 5750
AR Path="/5E607BA7" Ref="#PWR?"  Part="1" 
AR Path="/5E4999E7/5E607BA7" Ref="#PWR?"  Part="1" 
AR Path="/5E5EEEC7/5E607BA7" Ref="#PWR0154"  Part="1" 
F 0 "#PWR0154" H 6250 5500 50  0001 C CNN
F 1 "GND" H 6255 5577 50  0001 C CNN
F 2 "" H 6250 5750 50  0001 C CNN
F 3 "" H 6250 5750 50  0001 C CNN
	1    6250 5750
	1    0    0    -1  
$EndComp
$Comp
L power:GND #PWR?
U 1 1 5E871A35
P 6800 5750
AR Path="/5E871A35" Ref="#PWR?"  Part="1" 
AR Path="/5E4999E7/5E871A35" Ref="#PWR?"  Part="1" 
AR Path="/5E5EEEC7/5E871A35" Ref="#PWR05"  Part="1" 
F 0 "#PWR05" H 6800 5500 50  0001 C CNN
F 1 "GND" H 6805 5577 50  0001 C CNN
F 2 "" H 6800 5750 50  0001 C CNN
F 3 "" H 6800 5750 50  0001 C CNN
	1    6800 5750
	1    0    0    -1  
$EndComp
$Comp
L power:GND #PWR?
U 1 1 5E88CC15
P 9250 3700
AR Path="/5E88CC15" Ref="#PWR?"  Part="1" 
AR Path="/5E4999E7/5E88CC15" Ref="#PWR?"  Part="1" 
AR Path="/5E5EEEC7/5E88CC15" Ref="#PWR08"  Part="1" 
F 0 "#PWR08" H 9250 3450 50  0001 C CNN
F 1 "GND" H 9255 3527 50  0001 C CNN
F 2 "" H 9250 3700 50  0001 C CNN
F 3 "" H 9250 3700 50  0001 C CNN
	1    9250 3700
	1    0    0    -1  
$EndComp
$Comp
L Device:R_Small R?
U 1 1 5E607BCE
P 6800 5200
AR Path="/5E607BCE" Ref="R?"  Part="1" 
AR Path="/5E4999E7/5E607BCE" Ref="R?"  Part="1" 
AR Path="/5E5EEEC7/5E607BCE" Ref="R41"  Part="1" 
F 0 "R41" H 6859 5246 50  0000 L CNN
F 1 "4.7k" H 6859 5155 50  0000 L CNN
F 2 "" H 6800 5200 50  0001 C CNN
F 3 "~" H 6800 5200 50  0001 C CNN
	1    6800 5200
	1    0    0    -1  
$EndComp
$Comp
L Device:R_Small R?
U 1 1 5E607B84
P 9950 5250
AR Path="/5E607B84" Ref="R?"  Part="1" 
AR Path="/5E4999E7/5E607B84" Ref="R?"  Part="1" 
AR Path="/5E5EEEC7/5E607B84" Ref="R40"  Part="1" 
F 0 "R40" H 10009 5296 50  0000 L CNN
F 1 "4.7k" H 10009 5205 50  0000 L CNN
F 2 "" H 9950 5250 50  0001 C CNN
F 3 "~" H 9950 5250 50  0001 C CNN
	1    9950 5250
	1    0    0    -1  
$EndComp
$Comp
L Device:C_Small C26
U 1 1 5E852BF8
P 6800 5600
F 0 "C26" H 6892 5646 50  0000 L CNN
F 1 "0.1u" H 6892 5555 50  0000 L CNN
F 2 "" H 6800 5600 50  0001 C CNN
F 3 "~" H 6800 5600 50  0001 C CNN
	1    6800 5600
	1    0    0    -1  
$EndComp
$Comp
L Jumper:SolderJumper_2_Open JP?
U 1 1 5E607B95
P 7800 4850
AR Path="/5E607B95" Ref="JP?"  Part="1" 
AR Path="/5E4999E7/5E607B95" Ref="JP?"  Part="1" 
AR Path="/5E5EEEC7/5E607B95" Ref="JP1"  Part="1" 
F 0 "JP1" H 7800 4963 50  0000 C CNN
F 1 "SolderJumper_2_Open" H 7800 4964 50  0001 C CNN
F 2 "" H 7800 4850 50  0001 C CNN
F 3 "~" H 7800 4850 50  0001 C CNN
	1    7800 4850
	1    0    0    -1  
$EndComp
$Comp
L Jumper:SolderJumper_2_Bridged JP?
U 1 1 5E607B9B
P 8050 5900
AR Path="/5E607B9B" Ref="JP?"  Part="1" 
AR Path="/5E4999E7/5E607B9B" Ref="JP?"  Part="1" 
AR Path="/5E5EEEC7/5E607B9B" Ref="JP2"  Part="1" 
F 0 "JP2" H 8050 6013 50  0000 C CNN
F 1 "SolderJumper_2_Bridged" H 8050 6014 50  0001 C CNN
F 2 "" H 8050 5900 50  0001 C CNN
F 3 "~" H 8050 5900 50  0001 C CNN
	1    8050 5900
	1    0    0    -1  
$EndComp
$Comp
L Device:CP CC?
U 1 1 5E607BB4
P 6250 5600
AR Path="/5E607BB4" Ref="CC?"  Part="1" 
AR Path="/5E4999E7/5E607BB4" Ref="CC?"  Part="1" 
AR Path="/5E5EEEC7/5E607BB4" Ref="CC29"  Part="1" 
F 0 "CC29" H 6550 5550 50  0000 R CNN
F 1 "1u" H 6450 5650 50  0000 R CNN
F 2 "" H 6288 5450 50  0001 C CNN
F 3 "~" H 6250 5600 50  0001 C CNN
	1    6250 5600
	1    0    0    -1  
$EndComp
$Comp
L 74xx:74LS07 UK?
U 4 1 5E639B07
P 5050 6500
AR Path="/5E639B07" Ref="UK?"  Part="4" 
AR Path="/5E4999E7/5E639B07" Ref="UK?"  Part="4" 
AR Path="/5E5EEEC7/5E639B07" Ref="UK11"  Part="4" 
F 0 "UK11" H 5050 6200 50  0000 C CNN
F 1 "74LS07" H 5050 6300 50  0000 C CNN
F 2 "" H 5050 6500 50  0001 C CNN
F 3 "www.ti.com/lit/ds/symlink/sn74ls07.pdf" H 5050 6500 50  0001 C CNN
	4    5050 6500
	-1   0    0    1   
$EndComp
$Comp
L 74xx:74LS07 UK?
U 5 1 5E607BE9
P 5050 7050
AR Path="/5E607BE9" Ref="UK?"  Part="5" 
AR Path="/5E4999E7/5E607BE9" Ref="UK?"  Part="5" 
AR Path="/5E5EEEC7/5E607BE9" Ref="UK11"  Part="5" 
F 0 "UK11" H 5050 7367 50  0000 C CNN
F 1 "74LS07" H 5050 7276 50  0000 C CNN
F 2 "" H 5050 7050 50  0001 C CNN
F 3 "www.ti.com/lit/ds/symlink/sn74ls07.pdf" H 5050 7050 50  0001 C CNN
	5    5050 7050
	-1   0    0    -1  
$EndComp
$Comp
L 74xx:74LS04 UK?
U 4 1 5E607BF7
P 7600 5900
AR Path="/5E607BF7" Ref="UK?"  Part="4" 
AR Path="/5E4999E7/5E607BF7" Ref="UK?"  Part="4" 
AR Path="/5E5EEEC7/5E607BF7" Ref="UK13"  Part="4" 
F 0 "UK13" H 7600 6217 50  0000 C CNN
F 1 "74LS04" H 7600 6126 50  0000 C CNN
F 2 "" H 7600 5900 50  0001 C CNN
F 3 "http://www.ti.com/lit/gpn/sn74LS04" H 7600 5900 50  0001 C CNN
	4    7600 5900
	1    0    0    -1  
$EndComp
$Comp
L 74xx:74LS04 UK?
U 6 1 5E607BF1
P 8500 5400
AR Path="/5E607BF1" Ref="UK?"  Part="6" 
AR Path="/5E4999E7/5E607BF1" Ref="UK?"  Part="6" 
AR Path="/5E5EEEC7/5E607BF1" Ref="UK13"  Part="6" 
F 0 "UK13" H 8500 5717 50  0000 C CNN
F 1 "74LS04" H 8500 5626 50  0000 C CNN
F 2 "" H 8500 5400 50  0001 C CNN
F 3 "http://www.ti.com/lit/gpn/sn74LS04" H 8500 5400 50  0001 C CNN
	6    8500 5400
	1    0    0    -1  
$EndComp
$Comp
L 74xx:74LS07 UK?
U 1 1 5E607BBF
P 9100 5150
AR Path="/5E607BBF" Ref="UK?"  Part="1" 
AR Path="/5E4999E7/5E607BBF" Ref="UK?"  Part="1" 
AR Path="/5E5EEEC7/5E607BBF" Ref="UK11"  Part="1" 
F 0 "UK11" H 9100 5467 50  0000 C CNN
F 1 "74LS07" H 9100 5376 50  0000 C CNN
F 2 "" H 9100 5150 50  0001 C CNN
F 3 "www.ti.com/lit/ds/symlink/sn74ls07.pdf" H 9100 5150 50  0001 C CNN
	1    9100 5150
	1    0    0    -1  
$EndComp
$Comp
L 74xx:74LS07 UK?
U 2 1 5E607BC5
P 9100 5650
AR Path="/5E607BC5" Ref="UK?"  Part="2" 
AR Path="/5E4999E7/5E607BC5" Ref="UK?"  Part="2" 
AR Path="/5E5EEEC7/5E607BC5" Ref="UK11"  Part="2" 
F 0 "UK11" H 9100 5967 50  0000 C CNN
F 1 "74LS07" H 9100 5876 50  0000 C CNN
F 2 "" H 9100 5650 50  0001 C CNN
F 3 "www.ti.com/lit/ds/symlink/sn74ls07.pdf" H 9100 5650 50  0001 C CNN
	2    9100 5650
	1    0    0    -1  
$EndComp
$Comp
L CPS2-Custom:M51953B UL?
U 1 1 5E607BA1
P 5650 5550
AR Path="/5E607BA1" Ref="UL?"  Part="1" 
AR Path="/5E4999E7/5E607BA1" Ref="UL?"  Part="1" 
AR Path="/5E5EEEC7/5E607BA1" Ref="UL12"  Part="1" 
F 0 "UL12" H 5650 5250 50  0000 C CNN
F 1 "M51953B" H 5650 5850 50  0000 C CNN
F 2 "" H 6000 5400 50  0001 C CNN
F 3 "" H 6000 5400 50  0001 C CNN
	1    5650 5550
	1    0    0    1   
$EndComp
$Comp
L Device:R_Network08 RA17
U 1 1 5DE2B5FA
P 6750 1950
F 0 "RA17" V 6133 1950 50  0000 C CNN
F 1 "10k" V 6224 1950 50  0000 C CNN
F 2 "Resistor_THT:R_Array_SIP9" V 7225 1950 50  0001 C CNN
F 3 "http://www.vishay.com/docs/31509/csc.pdf" H 6750 1950 50  0001 C CNN
	1    6750 1950
	0    1    1    0   
$EndComp
$Comp
L Device:R_Network08 RA19
U 1 1 5DE30C7E
P 6750 3000
F 0 "RA19" V 6133 3000 50  0000 C CNN
F 1 "10k" V 6224 3000 50  0000 C CNN
F 2 "Resistor_THT:R_Array_SIP9" V 7225 3000 50  0001 C CNN
F 3 "http://www.vishay.com/docs/31509/csc.pdf" H 6750 3000 50  0001 C CNN
	1    6750 3000
	0    1    1    0   
$EndComp
$Comp
L Device:R_Network08 RA20
U 1 1 5DE34D5B
P 6750 4050
F 0 "RA20" V 6133 4050 50  0000 C CNN
F 1 "10k" V 6224 4050 50  0000 C CNN
F 2 "Resistor_THT:R_Array_SIP9" V 7225 4050 50  0001 C CNN
F 3 "http://www.vishay.com/docs/31509/csc.pdf" H 6750 4050 50  0001 C CNN
	1    6750 4050
	0    1    1    0   
$EndComp
$Comp
L 74xx:74LS07 UK11
U 7 1 5E88C4D5
P 9250 3200
F 0 "UK11" H 9480 3246 50  0000 L CNN
F 1 "74LS07" H 9480 3155 50  0000 L CNN
F 2 "" H 9250 3200 50  0001 C CNN
F 3 "www.ti.com/lit/ds/symlink/sn74ls07.pdf" H 9250 3200 50  0001 C CNN
	7    9250 3200
	1    0    0    -1  
$EndComp
$Comp
L CPS2-Custom:96PIN_Sep CN?
U 1 1 5E5FB277
P 2800 4050
AR Path="/5E5FB277" Ref="CN?"  Part="1" 
AR Path="/5E5EEEC7/5E5FB277" Ref="CN1"  Part="1" 
F 0 "CN1" V -573 4025 50  0000 C CNN
F 1 "96PIN_Sep" H -527 3980 50  0001 R CNN
F 2 "" H 1600 4350 50  0001 C CNN
F 3 "" H 1600 4350 50  0001 C CNN
	1    2800 4050
	0    1    1    0   
$EndComp
Wire Bus Line
	3950 4750 3950 6350
Wire Bus Line
	4000 1450 4000 3750
Wire Bus Line
	5850 1450 5850 4250
$EndSCHEMATC
