EESchema Schematic File Version 4
EELAYER 30 0
EELAYER END
$Descr A4 11693 8268
encoding utf-8
Sheet 9 22
Title ""
Date "2020-12-13"
Rev ""
Comp ""
Comment1 ""
Comment2 "Licence: CC-BY"
Comment3 "Author: Loïc *WydD* Petit"
Comment4 "Project: CPS2 Reverse Engineering: 93646A"
$EndDescr
Connection ~ 3150 600 
Connection ~ 5200 600 
Connection ~ 5350 600 
Connection ~ 6350 2950
Connection ~ 6350 2850
Connection ~ 3200 6950
Connection ~ 3500 6950
Connection ~ 8450 6050
Connection ~ 8450 6250
Connection ~ 8450 6150
Connection ~ 7350 5450
Connection ~ 7350 5850
Connection ~ 7450 5950
Connection ~ 7850 6300
Connection ~ 5500 7750
Connection ~ 4700 7750
NoConn ~ 3650 600 
NoConn ~ 3750 600 
NoConn ~ 3850 600 
NoConn ~ 3950 600 
NoConn ~ 4050 600 
NoConn ~ 4150 600 
NoConn ~ 4250 600 
NoConn ~ 4350 600 
NoConn ~ 4450 600 
NoConn ~ 4550 600 
NoConn ~ 4650 600 
NoConn ~ 4750 600 
NoConn ~ 9450 5950
NoConn ~ 9450 5450
NoConn ~ 9450 5550
NoConn ~ 9450 5650
NoConn ~ 3000 7300
NoConn ~ 5600 6950
NoConn ~ 3800 6950
NoConn ~ 3900 6950
NoConn ~ 4000 6950
NoConn ~ 4100 6950
NoConn ~ 3400 6950
NoConn ~ 5700 6950
NoConn ~ 5800 6950
NoConn ~ 5900 6950
NoConn ~ 6350 6100
NoConn ~ 2000 4150
NoConn ~ 6350 4000
Entry Wire Line
	1300 4200 1400 4300
Entry Wire Line
	1300 4300 1400 4400
Entry Wire Line
	1300 4400 1400 4500
Entry Wire Line
	1300 4500 1400 4600
Entry Wire Line
	1300 4600 1400 4700
Entry Wire Line
	1350 4950 1450 4850
Entry Wire Line
	1350 5050 1450 4950
Entry Wire Line
	1350 5150 1450 5050
Entry Wire Line
	1350 5250 1450 5150
Entry Wire Line
	1350 5350 1450 5250
Entry Wire Line
	1350 5450 1450 5350
Entry Wire Line
	1350 5550 1450 5450
Entry Wire Line
	1350 5650 1450 5550
Entry Wire Line
	1350 5750 1450 5650
Entry Wire Line
	1350 5850 1450 5750
Entry Wire Line
	1350 5950 1450 5850
Entry Wire Line
	1350 6050 1450 5950
Entry Wire Line
	1350 6150 1450 6050
Entry Wire Line
	1350 6250 1450 6150
Entry Wire Line
	1350 6350 1450 6250
Entry Wire Line
	1350 6450 1450 6350
Entry Wire Line
	1550 800  1650 900 
Entry Wire Line
	1550 900  1650 1000
Entry Wire Line
	1550 1000 1650 1100
Entry Wire Line
	1550 1100 1650 1200
Entry Wire Line
	1550 1200 1650 1300
Entry Wire Line
	1550 1300 1650 1400
Entry Wire Line
	1550 1400 1650 1500
Entry Wire Line
	1550 1500 1650 1600
Entry Wire Line
	1550 1600 1650 1700
Entry Wire Line
	1550 1700 1650 1800
Entry Wire Line
	1550 1800 1650 1900
Entry Wire Line
	1550 1900 1650 2000
Entry Wire Line
	1550 2000 1650 2100
Entry Wire Line
	1550 2100 1650 2200
Entry Wire Line
	1550 2200 1650 2300
Entry Wire Line
	1550 2300 1650 2400
Entry Wire Line
	1550 2400 1650 2500
Entry Wire Line
	1550 2500 1650 2600
Entry Wire Line
	1550 2600 1650 2700
Entry Wire Line
	1550 2700 1650 2800
Entry Wire Line
	1550 2800 1650 2900
Entry Wire Line
	1550 2900 1650 3000
Entry Wire Line
	1550 3000 1650 3100
Entry Wire Line
	1550 3100 1650 3200
Entry Wire Line
	1550 3200 1650 3300
Entry Wire Line
	1550 3300 1650 3400
Entry Wire Line
	1550 3400 1650 3500
Entry Wire Line
	1550 3500 1650 3600
Entry Wire Line
	1550 3600 1650 3700
Entry Wire Line
	1550 3700 1650 3800
Entry Wire Line
	1550 3800 1650 3900
Entry Wire Line
	1550 3900 1650 4000
Entry Wire Line
	6650 4250 6750 4350
Entry Wire Line
	6650 4350 6750 4450
Entry Wire Line
	6650 4450 6750 4550
Entry Wire Line
	6650 4550 6750 4650
Entry Wire Line
	6650 4650 6750 4750
Entry Wire Line
	6650 4800 6750 4900
Entry Wire Line
	6650 4900 6750 5000
Entry Wire Line
	6650 5000 6750 5100
Entry Wire Line
	6650 5100 6750 5200
Entry Wire Line
	6650 5200 6750 5300
Entry Wire Line
	7050 1100 7150 1200
Entry Wire Line
	7050 1200 7150 1300
Entry Wire Line
	7050 1300 7150 1400
Entry Wire Line
	7050 1400 7150 1500
Entry Wire Line
	7050 1500 7150 1600
Entry Wire Line
	7050 1600 7150 1700
Entry Wire Line
	7050 1700 7150 1800
Entry Wire Line
	7050 1800 7150 1900
Entry Wire Line
	7050 1900 7150 2000
Entry Wire Line
	7050 2000 7150 2100
Entry Wire Line
	7050 2100 7150 2200
Entry Wire Line
	7050 2200 7150 2300
Wire Wire Line
	1400 4300 2000 4300
Wire Wire Line
	1400 4400 2000 4400
Wire Wire Line
	1400 4500 2000 4500
Wire Wire Line
	1400 4600 2000 4600
Wire Wire Line
	1400 4700 2000 4700
Wire Wire Line
	1450 4850 2000 4850
Wire Wire Line
	1450 4950 2000 4950
Wire Wire Line
	1450 5050 2000 5050
Wire Wire Line
	1450 5150 2000 5150
Wire Wire Line
	1450 5250 2000 5250
Wire Wire Line
	1450 5350 2000 5350
Wire Wire Line
	1450 5450 2000 5450
Wire Wire Line
	1450 5550 2000 5550
Wire Wire Line
	1450 5650 2000 5650
Wire Wire Line
	1450 5750 2000 5750
Wire Wire Line
	1450 5850 2000 5850
Wire Wire Line
	1450 5950 2000 5950
Wire Wire Line
	1450 6050 2000 6050
Wire Wire Line
	1450 6150 2000 6150
Wire Wire Line
	1450 6250 2000 6250
Wire Wire Line
	1450 6350 2000 6350
Wire Wire Line
	1650 900  2000 900 
Wire Wire Line
	1650 1000 2000 1000
Wire Wire Line
	1650 1100 2000 1100
Wire Wire Line
	1650 1200 2000 1200
Wire Wire Line
	1650 1300 2000 1300
Wire Wire Line
	1650 1400 2000 1400
Wire Wire Line
	1650 1500 2000 1500
Wire Wire Line
	1650 1600 2000 1600
Wire Wire Line
	1650 1700 2000 1700
Wire Wire Line
	1650 1800 2000 1800
Wire Wire Line
	1650 1900 2000 1900
Wire Wire Line
	1650 2000 2000 2000
Wire Wire Line
	1650 2100 2000 2100
Wire Wire Line
	1650 2200 2000 2200
Wire Wire Line
	1650 2300 2000 2300
Wire Wire Line
	1650 2400 2000 2400
Wire Wire Line
	1650 2500 2000 2500
Wire Wire Line
	1650 2600 2000 2600
Wire Wire Line
	1650 2700 2000 2700
Wire Wire Line
	1650 2800 2000 2800
Wire Wire Line
	1650 2900 2000 2900
Wire Wire Line
	1650 3000 2000 3000
Wire Wire Line
	1650 3100 2000 3100
Wire Wire Line
	1650 3200 2000 3200
Wire Wire Line
	1650 3300 2000 3300
Wire Wire Line
	1650 3400 2000 3400
Wire Wire Line
	1650 3500 2000 3500
Wire Wire Line
	1650 3600 2000 3600
Wire Wire Line
	1650 3700 2000 3700
Wire Wire Line
	1650 3800 2000 3800
Wire Wire Line
	1650 3900 2000 3900
Wire Wire Line
	1650 4000 2000 4000
Wire Wire Line
	2500 6950 2500 7300
Wire Wire Line
	2600 6950 2600 7300
Wire Wire Line
	2700 6950 2700 7300
Wire Wire Line
	2800 6950 2800 7300
Wire Wire Line
	2900 6950 2900 7300
Wire Wire Line
	3000 600  3150 600 
Wire Wire Line
	3000 7100 3500 7100
Wire Wire Line
	3100 6950 3200 6950
Wire Wire Line
	3100 7200 3100 7300
Wire Wire Line
	3100 7200 3500 7200
Wire Wire Line
	3150 600  3300 600 
Wire Wire Line
	3200 6950 3300 6950
Wire Wire Line
	3200 7300 3500 7300
Wire Wire Line
	3200 7700 3200 7750
Wire Wire Line
	3200 7750 4700 7750
Wire Wire Line
	3500 6950 3600 6950
Wire Wire Line
	3500 7100 3500 6950
Wire Wire Line
	4000 7300 4000 7000
Wire Wire Line
	4100 7300 4100 7000
Wire Wire Line
	4200 7300 4200 7000
Wire Wire Line
	4300 6950 4300 7300
Wire Wire Line
	4400 6950 4400 7300
Wire Wire Line
	4500 6950 4500 7300
Wire Wire Line
	4600 6950 4600 7300
Wire Wire Line
	4700 6950 4700 7300
Wire Wire Line
	4700 7700 4700 7750
Wire Wire Line
	4700 7750 5500 7750
Wire Wire Line
	4800 6950 4800 7300
Wire Wire Line
	4900 6950 4900 7300
Wire Wire Line
	5000 6950 5000 7300
Wire Wire Line
	5050 600  5200 600 
Wire Wire Line
	5100 6950 5100 7300
Wire Wire Line
	5200 600  5350 600 
Wire Wire Line
	5200 6950 5200 7300
Wire Wire Line
	5300 6950 5300 7300
Wire Wire Line
	5400 6950 5400 7300
Wire Wire Line
	5500 6950 5500 7300
Wire Wire Line
	5500 7750 5500 7700
Wire Wire Line
	5650 600  5350 600 
Wire Wire Line
	5850 7700 5850 7750
Wire Wire Line
	5850 7750 5500 7750
Wire Wire Line
	6350 900  6750 900 
Wire Wire Line
	6350 1100 7050 1100
Wire Wire Line
	6350 1200 7050 1200
Wire Wire Line
	6350 1300 7050 1300
Wire Wire Line
	6350 1400 7050 1400
Wire Wire Line
	6350 1500 7050 1500
Wire Wire Line
	6350 1600 7050 1600
Wire Wire Line
	6350 1700 7050 1700
Wire Wire Line
	6350 1800 7050 1800
Wire Wire Line
	6350 1900 7050 1900
Wire Wire Line
	6350 2000 7050 2000
Wire Wire Line
	6350 2100 7050 2100
Wire Wire Line
	6350 2200 7050 2200
Wire Wire Line
	6350 2300 6700 2300
Wire Wire Line
	6350 2400 6700 2400
Wire Wire Line
	6350 2500 6850 2500
Wire Wire Line
	6350 2600 6850 2600
Wire Wire Line
	6350 2850 6350 2750
Wire Wire Line
	6350 2850 6500 2850
Wire Wire Line
	6350 2950 6350 2850
Wire Wire Line
	6350 2950 6350 3050
Wire Wire Line
	6350 3350 6500 3350
Wire Wire Line
	6350 3450 6500 3450
Wire Wire Line
	6350 3550 6500 3550
Wire Wire Line
	6350 3700 6650 3700
Wire Wire Line
	6350 3800 6750 3800
Wire Wire Line
	6350 3900 6650 3900
Wire Wire Line
	6350 4150 6750 4150
Wire Wire Line
	6350 4250 6650 4250
Wire Wire Line
	6350 4350 6650 4350
Wire Wire Line
	6350 4450 6650 4450
Wire Wire Line
	6350 4550 6650 4550
Wire Wire Line
	6350 4650 6650 4650
Wire Wire Line
	6350 4800 6650 4800
Wire Wire Line
	6350 4900 6650 4900
Wire Wire Line
	6350 5000 6650 5000
Wire Wire Line
	6350 5100 6650 5100
Wire Wire Line
	6350 5200 6650 5200
Wire Wire Line
	6350 5300 6650 5300
Wire Wire Line
	6350 5400 6650 5400
Wire Wire Line
	6350 5500 6650 5500
Wire Wire Line
	6350 5650 7000 5650
Wire Wire Line
	6350 5850 7350 5850
Wire Wire Line
	6350 6200 6850 6200
Wire Wire Line
	6500 3200 6350 3200
Wire Wire Line
	7000 5450 7000 5650
Wire Wire Line
	7100 5550 7100 5750
Wire Wire Line
	7100 5550 8450 5550
Wire Wire Line
	7100 5750 6350 5750
Wire Wire Line
	7350 5350 7350 5450
Wire Wire Line
	7350 5450 7000 5450
Wire Wire Line
	7350 5650 7350 5850
Wire Wire Line
	7350 5850 8450 5850
Wire Wire Line
	7450 5750 7450 5950
Wire Wire Line
	7450 5950 6350 5950
Wire Wire Line
	7450 5950 8450 5950
Wire Wire Line
	7450 6300 7600 6300
Wire Wire Line
	7550 5350 7350 5350
Wire Wire Line
	7550 5650 7350 5650
Wire Wire Line
	7550 5750 7450 5750
Wire Wire Line
	7850 6300 7800 6300
Wire Wire Line
	7850 6300 7850 6450
Wire Wire Line
	7850 6450 8200 6450
Wire Wire Line
	8050 5350 8450 5350
Wire Wire Line
	8200 6300 7850 6300
Wire Wire Line
	8250 6050 8450 6050
Wire Wire Line
	8300 5750 8450 5750
Wire Wire Line
	8450 5450 7350 5450
Wire Wire Line
	8450 5650 8300 5650
Wire Wire Line
	8450 6050 8450 6150
Wire Wire Line
	8450 6150 8450 6250
Wire Wire Line
	8450 6250 8450 6450
Wire Wire Line
	8450 6450 8950 6450
Wire Wire Line
	9450 5350 9950 5350
Wire Wire Line
	9450 5850 9950 5850
Wire Wire Line
	9450 6050 9950 6050
Wire Wire Line
	9700 5600 9700 5750
Wire Wire Line
	9700 5750 9450 5750
Wire Wire Line
	10400 5600 10300 5600
Wire Wire Line
	10700 5600 10600 5600
Wire Bus Line
	1300 4050 1200 4050
Wire Bus Line
	1350 6700 1250 6700
Wire Bus Line
	1550 700  1350 700 
Wire Bus Line
	6750 4850 6850 4850
Wire Bus Line
	6750 5400 6850 5400
Wire Bus Line
	7150 2400 7300 2400
Text Notes 5700 7350 0    50   ~ 0
/!\ Order may not be accurate\nin the RA
Text Notes 8450 4900 0    50   ~ 0
/o12 = /i4 + /o18\n/o13 = o18 + /i5 * i2\n/o14 := /o17 * /i2 + /o17 * /i3\n/o15 := i6 * i7\n/o16 := /o14\n/o17 := /i2 + /i3\n/o18 = o13 + i5 * i2\n/o19 = /i5 + /o18\n\n\n/WSTLUT@CPSB = /WSTLUT@CPSA + LUTPRO@VBLANK\n/PALETTEA-SEL := /VBLANK + /HBLANK\n/WSTROM = /LUTPRO@VBLANK + /LUTPRO\n
Text Label 1450 4300 0    50   ~ 0
BUS-ADDR1
Text Label 1450 4400 0    50   ~ 0
BUS-ADDR2
Text Label 1450 4500 0    50   ~ 0
BUS-ADDR3
Text Label 1450 4600 0    50   ~ 0
BUS-ADDR4
Text Label 1450 4700 0    50   ~ 0
BUS-ADDR5
Text Label 1500 4850 0    50   ~ 0
BUS-DATA0
Text Label 1500 4950 0    50   ~ 0
BUS-DATA1
Text Label 1500 5050 0    50   ~ 0
BUS-DATA2
Text Label 1500 5150 0    50   ~ 0
BUS-DATA3
Text Label 1500 5250 0    50   ~ 0
BUS-DATA4
Text Label 1500 5350 0    50   ~ 0
BUS-DATA5
Text Label 1500 5450 0    50   ~ 0
BUS-DATA6
Text Label 1500 5550 0    50   ~ 0
BUS-DATA7
Text Label 1500 5650 0    50   ~ 0
BUS-DATA8
Text Label 1500 5750 0    50   ~ 0
BUS-DATA9
Text Label 1500 5850 0    50   ~ 0
BUS-DATA10
Text Label 1500 5950 0    50   ~ 0
BUS-DATA11
Text Label 1500 6050 0    50   ~ 0
BUS-DATA12
Text Label 1500 6150 0    50   ~ 0
BUS-DATA13
Text Label 1500 6250 0    50   ~ 0
BUS-DATA14
Text Label 1500 6350 0    50   ~ 0
BUS-DATA15
Text Label 1700 900  0    50   ~ 0
GFX0
Text Label 1700 1000 0    50   ~ 0
GFX1
Text Label 1700 1100 0    50   ~ 0
GFX2
Text Label 1700 1200 0    50   ~ 0
GFX3
Text Label 1700 1300 0    50   ~ 0
GFX4
Text Label 1700 1400 0    50   ~ 0
GFX5
Text Label 1700 1500 0    50   ~ 0
GFX6
Text Label 1700 1600 0    50   ~ 0
GFX7
Text Label 1700 1700 0    50   ~ 0
GFX8
Text Label 1700 1800 0    50   ~ 0
GFX9
Text Label 1700 1900 0    50   ~ 0
GFX10
Text Label 1700 2000 0    50   ~ 0
GFX11
Text Label 1700 2100 0    50   ~ 0
GFX12
Text Label 1700 2200 0    50   ~ 0
GFX13
Text Label 1700 2300 0    50   ~ 0
GFX14
Text Label 1700 2400 0    50   ~ 0
GFX15
Text Label 1700 2500 0    50   ~ 0
GFX16
Text Label 1700 2600 0    50   ~ 0
GFX17
Text Label 1700 2700 0    50   ~ 0
GFX18
Text Label 1700 2800 0    50   ~ 0
GFX19
Text Label 1700 2900 0    50   ~ 0
GFX20
Text Label 1700 3000 0    50   ~ 0
GFX21
Text Label 1700 3100 0    50   ~ 0
GFX22
Text Label 1700 3200 0    50   ~ 0
GFX23
Text Label 1700 3300 0    50   ~ 0
GFX24
Text Label 1700 3400 0    50   ~ 0
GFX25
Text Label 1700 3500 0    50   ~ 0
GFX26
Text Label 1700 3600 0    50   ~ 0
GFX27
Text Label 1700 3700 0    50   ~ 0
GFX28
Text Label 1700 3800 0    50   ~ 0
GFX29
Text Label 1700 3900 0    50   ~ 0
GFX30
Text Label 1700 4000 0    50   ~ 0
GFX31
Text Label 3250 7200 0    50   ~ 0
OBJEO
Text Label 3250 7300 0    50   ~ 0
FRAME
Text Label 4000 7250 1    50   ~ 0
CPC0
Text Label 4100 7250 1    50   ~ 0
CPC1
Text Label 4200 7250 1    50   ~ 0
CDEN
Text Label 6400 900  0    50   ~ 0
PX-CLK
Text Label 6400 2500 0    50   ~ 0
~WSTROM
Text Label 6400 3700 0    50   ~ 0
OBJEO
Text Label 6400 3900 0    50   ~ 0
FRAME
Text Label 6400 4250 0    50   ~ 0
XS0
Text Label 6400 4350 0    50   ~ 0
XS1
Text Label 6400 4450 0    50   ~ 0
XS2
Text Label 6400 4550 0    50   ~ 0
XS3
Text Label 6400 4650 0    50   ~ 0
XS4
Text Label 6400 4800 0    50   ~ 0
CB0
Text Label 6400 4900 0    50   ~ 0
CB1
Text Label 6400 5000 0    50   ~ 0
CB2
Text Label 6400 5100 0    50   ~ 0
CB3
Text Label 6400 5200 0    50   ~ 0
CB4
Text Label 6400 5300 0    50   ~ 0
CPC0
Text Label 6400 5400 0    50   ~ 0
CPC1
Text Label 6400 5500 0    50   ~ 0
CDEN
Text Label 6750 1100 0    50   ~ 0
LUTA0
Text Label 6750 1200 0    50   ~ 0
LUTA1
Text Label 6750 1300 0    50   ~ 0
LUTA2
Text Label 6750 1400 0    50   ~ 0
LUTA3
Text Label 6750 1500 0    50   ~ 0
LUTA4
Text Label 6750 1600 0    50   ~ 0
LUTA5
Text Label 6750 1700 0    50   ~ 0
LUTA6
Text Label 6750 1800 0    50   ~ 0
LUTA7
Text Label 6750 1900 0    50   ~ 0
LUTA8
Text Label 6750 2000 0    50   ~ 0
LUTA9
Text Label 6750 2100 0    50   ~ 0
LUTA10
Text Label 6750 2200 0    50   ~ 0
LUTA11
Text Label 7900 6300 0    50   ~ 0
CN2-2
Text Label 8100 5350 0    50   ~ 0
PX-CLK
Text Label 9500 5350 0    50   ~ 0
~WSTROM
Text Label 9500 6050 0    50   ~ 0
WSTLUT-B
Text HLabel 1200 4050 0    50   Input ~ 0
BUS-ADDR[1..5]
Text HLabel 1250 6700 0    50   BiDi ~ 0
BUS-DATA[0..15]
Text HLabel 1350 700  0    50   Input ~ 0
GFX[0..31]
Text HLabel 2000 6500 0    50   Input ~ 0
~CPSB-CS
Text HLabel 2000 6600 0    50   Input ~ 0
~BUS-OE
Text HLabel 2000 6700 0    50   Input ~ 0
~BUS-W
Text HLabel 6350 1000 2    50   Input ~ 0
LUTPRO
Text HLabel 6350 6450 2    50   Input ~ 0
CLK16M
Text HLabel 6500 3200 2    50   Input ~ 0
~RESETI
Text HLabel 6500 3350 2    50   Input ~ 0
FI
Text HLabel 6500 3450 2    50   Input ~ 0
LI
Text HLabel 6500 3550 2    50   Input ~ 0
FLIP
Text HLabel 6700 2300 2    50   Output ~ 0
~LUT-OE
Text HLabel 6700 2400 2    50   Output ~ 0
~LUT-WR
Text HLabel 6750 900  2    50   Output ~ 0
~CLK8M
Text HLabel 6750 3800 2    50   Output ~ 0
~CPSB-OBJUP
Text HLabel 6750 4150 2    50   Input ~ 0
XSEL
Text HLabel 6850 4850 2    50   Input ~ 0
XS[0..4]
Text HLabel 6850 5400 2    50   Input ~ 0
CB[0..4]
Text HLabel 7300 2400 2    50   Output ~ 0
LUTA[0..11]
Text HLabel 7550 5350 2    50   Output ~ 0
~VBLANK
Text HLabel 7550 5650 2    50   Output ~ 0
HSYNC
Text HLabel 7550 5750 2    50   Output ~ 0
VSYNC
Text HLabel 8200 6450 2    50   Output ~ 0
SEL
Text HLabel 8300 5650 0    50   Input ~ 0
WSTLUT
Text HLabel 8300 5750 0    50   Input ~ 0
LUTPRO
Text HLabel 9950 5350 2    50   Output ~ 0
~WSTROM
Text HLabel 9950 5850 2    50   Output ~ 0
SEL-PALETTE
Text HLabel 10700 5600 2    50   Output ~ 0
VSYNC-OUT
$Comp
L power:VCC #PWR0274
U 1 1 5DDCB524
P 3150 600
F 0 "#PWR0274" H 3150 450 50  0001 C CNN
F 1 "VCC" H 3000 700 50  0000 C CNN
F 2 "" H 3150 600 50  0001 C CNN
F 3 "" H 3150 600 50  0001 C CNN
	1    3150 600 
	1    0    0    -1  
$EndComp
$Comp
L power:VCC #PWR0377
U 1 1 62A9C220
P 5850 7700
F 0 "#PWR0377" H 5850 7550 50  0001 C CNN
F 1 "VCC" H 5700 7800 50  0000 C CNN
F 2 "" H 5850 7700 50  0001 C CNN
F 3 "" H 5850 7700 50  0001 C CNN
	1    5850 7700
	1    0    0    -1  
$EndComp
$Comp
L power:VCC #PWR0313
U 1 1 5E798003
P 8950 5150
F 0 "#PWR0313" H 8950 5000 50  0001 C CNN
F 1 "VCC" H 8800 5250 50  0000 C CNN
F 2 "" H 8950 5150 50  0001 C CNN
F 3 "" H 8950 5150 50  0001 C CNN
	1    8950 5150
	1    0    0    -1  
$EndComp
$Comp
L power:GND #PWR0280
U 1 1 5DF70DF0
P 3200 6950
F 0 "#PWR0280" H 3200 6700 50  0001 C CNN
F 1 "GND" H 3205 6777 50  0001 C CNN
F 2 "" H 3200 6950 50  0001 C CNN
F 3 "" H 3200 6950 50  0001 C CNN
	1    3200 6950
	1    0    0    -1  
$EndComp
$Comp
L power:GND #PWR0275
U 1 1 5DDCC7A5
P 5650 600
F 0 "#PWR0275" H 5650 350 50  0001 C CNN
F 1 "GND" H 5655 427 50  0001 C CNN
F 2 "" H 5650 600 50  0001 C CNN
F 3 "" H 5650 600 50  0001 C CNN
	1    5650 600 
	1    0    0    -1  
$EndComp
$Comp
L power:GND #PWR0279
U 1 1 5DF3DA31
P 6500 2850
F 0 "#PWR0279" H 6500 2600 50  0001 C CNN
F 1 "GND" H 6505 2677 50  0001 C CNN
F 2 "" H 6500 2850 50  0001 C CNN
F 3 "" H 6500 2850 50  0001 C CNN
	1    6500 2850
	1    0    0    -1  
$EndComp
$Comp
L power:GND #PWR?
U 1 1 5DE7ACB4
P 6850 6400
AR Path="/5DE7ACB4" Ref="#PWR?"  Part="1" 
AR Path="/5E4999E7/5DE7ACB4" Ref="#PWR?"  Part="1" 
AR Path="/5DDBF667/5DE7ACB4" Ref="#PWR0276"  Part="1" 
F 0 "#PWR0276" H 6850 6150 50  0001 C CNN
F 1 "GND" H 6855 6227 50  0001 C CNN
F 2 "" H 6850 6400 50  0001 C CNN
F 3 "" H 6850 6400 50  0001 C CNN
	1    6850 6400
	1    0    0    -1  
$EndComp
$Comp
L power:GND #PWR?
U 1 1 5E34BA31
P 8250 6050
AR Path="/5E34BA31" Ref="#PWR?"  Part="1" 
AR Path="/5E4999E7/5E34BA31" Ref="#PWR?"  Part="1" 
AR Path="/5DDBF667/5E34BA31" Ref="#PWR0312"  Part="1" 
F 0 "#PWR0312" H 8250 5800 50  0001 C CNN
F 1 "GND" H 8255 5877 50  0001 C CNN
F 2 "" H 8250 6050 50  0001 C CNN
F 3 "" H 8250 6050 50  0001 C CNN
	1    8250 6050
	1    0    0    -1  
$EndComp
$Comp
L Device:R_Small R33
U 1 1 5FA40242
P 10500 5600
F 0 "R33" V 10304 5600 50  0000 C CNN
F 1 "220" V 10395 5600 50  0000 C CNN
F 2 "" H 10500 5600 50  0001 C CNN
F 3 "~" H 10500 5600 50  0001 C CNN
	1    10500 5600
	0    1    1    0   
$EndComp
$Comp
L Device:Ferrite_Bead_Small FB36
U 1 1 5DDA2FB6
P 7700 6300
F 0 "FB36" V 7555 6300 50  0000 C CNN
F 1 "Ferrite_Bead_Small" V 7554 6300 50  0001 C CNN
F 2 "" V 7630 6300 50  0001 C CNN
F 3 "~" H 7700 6300 50  0001 C CNN
	1    7700 6300
	0    1    1    0   
$EndComp
$Comp
L 74xx:74LS04 UH8
U 5 1 5F9F3983
P 10000 5600
F 0 "UH8" H 10100 5750 50  0000 C CNN
F 1 "74LS04" H 10150 5450 50  0000 C CNN
F 2 "" H 10000 5600 50  0001 C CNN
F 3 "http://www.ti.com/lit/gpn/sn74LS04" H 10000 5600 50  0001 C CNN
	5    10000 5600
	1    0    0    -1  
$EndComp
$Comp
L 74xx:74LS32 U?
U 2 1 5DE7ACAE
P 7150 6300
AR Path="/5DE7ACAE" Ref="U?"  Part="2" 
AR Path="/5DDBF667/5DE7ACAE" Ref="US6"  Part="2" 
F 0 "US6" H 7150 6550 50  0000 C CNN
F 1 "F32" H 7350 6150 50  0000 C CNN
F 2 "" H 7150 6300 50  0001 C CNN
F 3 "http://www.ti.com/lit/gpn/sn74LS32" H 7150 6300 50  0001 C CNN
	2    7150 6300
	1    0    0    -1  
$EndComp
$Comp
L Device:R_Network08 RA23
U 1 1 62AB0C58
P 2800 7500
F 0 "RA23" H 3100 7700 50  0000 R CNN
F 1 "4.7k" H 2650 7700 50  0000 R CNN
F 2 "Resistor_THT:R_Array_SIP9" V 3275 7500 50  0001 C CNN
F 3 "http://www.vishay.com/docs/31509/csc.pdf" H 2800 7500 50  0001 C CNN
	1    2800 7500
	-1   0    0    1   
$EndComp
$Comp
L Device:R_Network08 RA22
U 1 1 62A8B7D7
P 4300 7500
F 0 "RA22" H 4600 7700 50  0000 R CNN
F 1 "4.7k" H 4150 7700 50  0000 R CNN
F 2 "Resistor_THT:R_Array_SIP9" V 4775 7500 50  0001 C CNN
F 3 "http://www.vishay.com/docs/31509/csc.pdf" H 4300 7500 50  0001 C CNN
	1    4300 7500
	-1   0    0    1   
$EndComp
$Comp
L Device:R_Network08 RA21
U 1 1 62A76876
P 5100 7500
F 0 "RA21" H 5400 7700 50  0000 R CNN
F 1 "4.7k" H 4950 7700 50  0000 R CNN
F 2 "Resistor_THT:R_Array_SIP9" V 5575 7500 50  0001 C CNN
F 3 "http://www.vishay.com/docs/31509/csc.pdf" H 5100 7500 50  0001 C CNN
	1    5100 7500
	-1   0    0    1   
$EndComp
$Comp
L CPS2-Custom:PAL16R4 US7
U 1 1 5E3227F9
P 8950 5850
F 0 "US7" H 8650 6500 50  0000 C CNN
F 1 "PAL16R4 (BGSA5)" H 9350 5300 50  0000 C CNN
F 2 "" H 8950 5850 50  0001 C CNN
F 3 "" H 8950 5850 50  0001 C CNN
	1    8950 5850
	1    0    0    -1  
$EndComp
$Comp
L CPS2-Custom:DL-0921 UU5
U 1 1 5DDBF734
P 4200 3900
F 0 "UU5" H 4200 4250 200 0000 C CNN
F 1 "DL-0921" H 4200 3550 200 0000 C CNN
F 2 "" H 6600 2950 50  0001 C CNN
F 3 "" H 6600 2950 50  0001 C CNN
	1    4200 3900
	1    0    0    -1  
$EndComp
$Comp
L power:GND #PWR0419
U 1 1 5FBB47FB
P 3700 6950
F 0 "#PWR0419" H 3700 6700 50  0001 C CNN
F 1 "GND" H 3705 6777 50  0001 C CNN
F 2 "" H 3700 6950 50  0001 C CNN
F 3 "" H 3700 6950 50  0001 C CNN
	1    3700 6950
	1    0    0    -1  
$EndComp
Wire Wire Line
	2350 7100 3000 7100
$Comp
L power:VCC #PWR0420
U 1 1 5FBB5599
P 2350 7100
F 0 "#PWR0420" H 2350 6950 50  0001 C CNN
F 1 "VCC" H 2200 7200 50  0000 C CNN
F 2 "" H 2350 7100 50  0001 C CNN
F 3 "" H 2350 7100 50  0001 C CNN
	1    2350 7100
	1    0    0    -1  
$EndComp
Connection ~ 3000 7100
Wire Wire Line
	3000 6950 3000 7100
Text Label 6400 2600 0    50   ~ 0
WSTLUT-B
Wire Bus Line
	6750 4900 6750 5400
Wire Bus Line
	6750 4350 6750 4850
Wire Bus Line
	1300 4050 1300 4600
Wire Bus Line
	7150 1200 7150 2400
Wire Bus Line
	1350 4950 1350 6700
Wire Bus Line
	1550 700  1550 3900
$EndSCHEMATC
