EESchema Schematic File Version 4
EELAYER 30 0
EELAYER END
$Descr A4 11693 8268
encoding utf-8
Sheet 17 22
Title ""
Date "2020-12-13"
Rev ""
Comp ""
Comment1 ""
Comment2 "Licence: CC-BY"
Comment3 "Author: Loïc *WydD* Petit"
Comment4 "Project: CPS2 Reverse Engineering: 93646A"
$EndDescr
Connection ~ 8500 950 
Connection ~ 6500 6150
Connection ~ 6300 6350
Connection ~ 4000 6150
Connection ~ 3800 6350
Connection ~ 6000 950 
Connection ~ 3450 950 
Connection ~ 1250 3500
Connection ~ 1450 3650
Connection ~ 2450 3400
Connection ~ 2450 5850
Connection ~ 5000 5800
Connection ~ 7500 5800
Connection ~ 10050 5750
Connection ~ 10050 3300
Connection ~ 7500 3350
Connection ~ 5000 3350
Entry Wire Line
	1350 1800 1250 1900
Entry Wire Line
	1350 2100 1250 2200
Entry Wire Line
	1350 2400 1250 2500
Entry Wire Line
	1350 2700 1250 2800
Entry Wire Line
	1350 4250 1250 4350
Entry Wire Line
	1350 4550 1250 4650
Entry Wire Line
	1350 4850 1250 4950
Entry Wire Line
	1350 5150 1250 5250
Entry Wire Line
	1450 2000 1550 1900
Entry Wire Line
	1450 2300 1550 2200
Entry Wire Line
	1450 2600 1550 2500
Entry Wire Line
	1450 2900 1550 2800
Entry Wire Line
	1450 4450 1550 4350
Entry Wire Line
	1450 4750 1550 4650
Entry Wire Line
	1450 5050 1550 4950
Entry Wire Line
	1450 5350 1550 5250
Entry Wire Line
	3350 1800 3450 1700
Entry Wire Line
	3350 2100 3450 2000
Entry Wire Line
	3350 2400 3450 2300
Entry Wire Line
	3350 2700 3450 2600
Entry Wire Line
	3350 4250 3450 4150
Entry Wire Line
	3350 4550 3450 4450
Entry Wire Line
	3350 4850 3450 4750
Entry Wire Line
	3350 5150 3450 5050
Entry Wire Line
	3900 1750 3800 1850
Entry Wire Line
	3900 2050 3800 2150
Entry Wire Line
	3900 2350 3800 2450
Entry Wire Line
	3900 2650 3800 2750
Entry Wire Line
	3900 4200 3800 4300
Entry Wire Line
	3900 4500 3800 4600
Entry Wire Line
	3900 4800 3800 4900
Entry Wire Line
	3900 5100 3800 5200
Entry Wire Line
	4000 1950 4100 1850
Entry Wire Line
	4000 2250 4100 2150
Entry Wire Line
	4000 2550 4100 2450
Entry Wire Line
	4000 2850 4100 2750
Entry Wire Line
	4000 4400 4100 4300
Entry Wire Line
	4000 4700 4100 4600
Entry Wire Line
	4000 5000 4100 4900
Entry Wire Line
	4000 5300 4100 5200
Entry Wire Line
	5900 1750 6000 1650
Entry Wire Line
	5900 2050 6000 1950
Entry Wire Line
	5900 2350 6000 2250
Entry Wire Line
	5900 2650 6000 2550
Entry Wire Line
	5900 4200 6000 4100
Entry Wire Line
	5900 4500 6000 4400
Entry Wire Line
	5900 4800 6000 4700
Entry Wire Line
	5900 5100 6000 5000
Entry Wire Line
	6400 1750 6300 1850
Entry Wire Line
	6400 2050 6300 2150
Entry Wire Line
	6400 2350 6300 2450
Entry Wire Line
	6400 2650 6300 2750
Entry Wire Line
	6400 4200 6300 4300
Entry Wire Line
	6400 4500 6300 4600
Entry Wire Line
	6400 4800 6300 4900
Entry Wire Line
	6400 5100 6300 5200
Entry Wire Line
	6500 1950 6600 1850
Entry Wire Line
	6500 2250 6600 2150
Entry Wire Line
	6500 2550 6600 2450
Entry Wire Line
	6500 2850 6600 2750
Entry Wire Line
	6500 4400 6600 4300
Entry Wire Line
	6500 4700 6600 4600
Entry Wire Line
	6500 5000 6600 4900
Entry Wire Line
	6500 5300 6600 5200
Entry Wire Line
	8400 1750 8500 1650
Entry Wire Line
	8400 2050 8500 1950
Entry Wire Line
	8400 2350 8500 2250
Entry Wire Line
	8400 2650 8500 2550
Entry Wire Line
	8400 4200 8500 4100
Entry Wire Line
	8400 4500 8500 4400
Entry Wire Line
	8400 4800 8500 4700
Entry Wire Line
	8400 5100 8500 5000
Entry Wire Line
	8950 1700 8850 1800
Entry Wire Line
	8950 2000 8850 2100
Entry Wire Line
	8950 2300 8850 2400
Entry Wire Line
	8950 2600 8850 2700
Entry Wire Line
	8950 4150 8850 4250
Entry Wire Line
	8950 4450 8850 4550
Entry Wire Line
	8950 4750 8850 4850
Entry Wire Line
	8950 5050 8850 5150
Entry Wire Line
	9050 1900 9150 1800
Entry Wire Line
	9050 2200 9150 2100
Entry Wire Line
	9050 2500 9150 2400
Entry Wire Line
	9050 2800 9150 2700
Entry Wire Line
	9050 4350 9150 4250
Entry Wire Line
	9050 4650 9150 4550
Entry Wire Line
	9050 4950 9150 4850
Entry Wire Line
	9050 5250 9150 5150
Entry Wire Line
	10950 1700 11050 1600
Entry Wire Line
	10950 2000 11050 1900
Entry Wire Line
	10950 2300 11050 2200
Entry Wire Line
	10950 2600 11050 2500
Entry Wire Line
	10950 4150 11050 4050
Entry Wire Line
	10950 4450 11050 4350
Entry Wire Line
	10950 4750 11050 4650
Entry Wire Line
	10950 5050 11050 4950
Wire Wire Line
	1150 3000 1950 3000
Wire Wire Line
	1350 1800 1950 1800
Wire Wire Line
	1350 2100 1950 2100
Wire Wire Line
	1350 2400 1950 2400
Wire Wire Line
	1350 2700 1950 2700
Wire Wire Line
	1350 4250 1950 4250
Wire Wire Line
	1350 4550 1950 4550
Wire Wire Line
	1350 4850 1950 4850
Wire Wire Line
	1350 5150 1950 5150
Wire Wire Line
	1550 1900 1950 1900
Wire Wire Line
	1550 2200 1950 2200
Wire Wire Line
	1550 2500 1950 2500
Wire Wire Line
	1550 2800 1950 2800
Wire Wire Line
	1550 4350 1950 4350
Wire Wire Line
	1550 4650 1950 4650
Wire Wire Line
	1550 4950 1950 4950
Wire Wire Line
	1550 5250 1950 5250
Wire Wire Line
	1600 5450 1950 5450
Wire Wire Line
	1950 3100 1950 3400
Wire Wire Line
	1950 3400 2450 3400
Wire Wire Line
	1950 5550 1950 5850
Wire Wire Line
	1950 5850 2450 5850
Wire Wire Line
	2950 1800 3350 1800
Wire Wire Line
	2950 2100 3350 2100
Wire Wire Line
	2950 2400 3350 2400
Wire Wire Line
	2950 2700 3350 2700
Wire Wire Line
	2950 4250 3350 4250
Wire Wire Line
	2950 4550 3350 4550
Wire Wire Line
	2950 4850 3350 4850
Wire Wire Line
	2950 5150 3350 5150
Wire Wire Line
	3900 1750 4500 1750
Wire Wire Line
	3900 2050 4500 2050
Wire Wire Line
	3900 2350 4500 2350
Wire Wire Line
	3900 2650 4500 2650
Wire Wire Line
	3900 4200 4500 4200
Wire Wire Line
	3900 4500 4500 4500
Wire Wire Line
	3900 4800 4500 4800
Wire Wire Line
	3900 5100 4500 5100
Wire Wire Line
	4100 1850 4500 1850
Wire Wire Line
	4100 2150 4500 2150
Wire Wire Line
	4100 2450 4500 2450
Wire Wire Line
	4100 2750 4500 2750
Wire Wire Line
	4100 4300 4500 4300
Wire Wire Line
	4100 4600 4500 4600
Wire Wire Line
	4100 4900 4500 4900
Wire Wire Line
	4100 5200 4500 5200
Wire Wire Line
	4150 2950 4500 2950
Wire Wire Line
	4150 5400 4500 5400
Wire Wire Line
	4500 3050 4500 3350
Wire Wire Line
	4500 3350 5000 3350
Wire Wire Line
	4500 5500 4500 5800
Wire Wire Line
	4500 5800 5000 5800
Wire Wire Line
	5500 1750 5900 1750
Wire Wire Line
	5500 2050 5900 2050
Wire Wire Line
	5500 2350 5900 2350
Wire Wire Line
	5500 2650 5900 2650
Wire Wire Line
	5500 4200 5900 4200
Wire Wire Line
	5500 4500 5900 4500
Wire Wire Line
	5500 4800 5900 4800
Wire Wire Line
	5500 5100 5900 5100
Wire Wire Line
	6400 1750 7000 1750
Wire Wire Line
	6400 2050 7000 2050
Wire Wire Line
	6400 2350 7000 2350
Wire Wire Line
	6400 2650 7000 2650
Wire Wire Line
	6400 4200 7000 4200
Wire Wire Line
	6400 4500 7000 4500
Wire Wire Line
	6400 4800 7000 4800
Wire Wire Line
	6400 5100 7000 5100
Wire Wire Line
	6600 1850 7000 1850
Wire Wire Line
	6600 2150 7000 2150
Wire Wire Line
	6600 2450 7000 2450
Wire Wire Line
	6600 2750 7000 2750
Wire Wire Line
	6600 4300 7000 4300
Wire Wire Line
	6600 4600 7000 4600
Wire Wire Line
	6600 4900 7000 4900
Wire Wire Line
	6600 5200 7000 5200
Wire Wire Line
	6650 2950 7000 2950
Wire Wire Line
	6650 5400 7000 5400
Wire Wire Line
	7000 3050 7000 3350
Wire Wire Line
	7000 3350 7500 3350
Wire Wire Line
	7000 5500 7000 5800
Wire Wire Line
	7000 5800 7500 5800
Wire Wire Line
	8000 1750 8400 1750
Wire Wire Line
	8000 2050 8400 2050
Wire Wire Line
	8000 2350 8400 2350
Wire Wire Line
	8000 2650 8400 2650
Wire Wire Line
	8000 4200 8400 4200
Wire Wire Line
	8000 4500 8400 4500
Wire Wire Line
	8000 4800 8400 4800
Wire Wire Line
	8000 5100 8400 5100
Wire Wire Line
	8950 1700 9550 1700
Wire Wire Line
	8950 2000 9550 2000
Wire Wire Line
	8950 2300 9550 2300
Wire Wire Line
	8950 2600 9550 2600
Wire Wire Line
	8950 4150 9550 4150
Wire Wire Line
	8950 4450 9550 4450
Wire Wire Line
	8950 4750 9550 4750
Wire Wire Line
	8950 5050 9550 5050
Wire Wire Line
	9150 1800 9550 1800
Wire Wire Line
	9150 2100 9550 2100
Wire Wire Line
	9150 2400 9550 2400
Wire Wire Line
	9150 2700 9550 2700
Wire Wire Line
	9150 4250 9550 4250
Wire Wire Line
	9150 4550 9550 4550
Wire Wire Line
	9150 4850 9550 4850
Wire Wire Line
	9150 5150 9550 5150
Wire Wire Line
	9200 2900 9550 2900
Wire Wire Line
	9200 5350 9550 5350
Wire Wire Line
	9550 3000 9550 3300
Wire Wire Line
	9550 3300 10050 3300
Wire Wire Line
	9550 5450 9550 5750
Wire Wire Line
	9550 5750 10050 5750
Wire Wire Line
	10550 1700 10950 1700
Wire Wire Line
	10550 2000 10950 2000
Wire Wire Line
	10550 2300 10950 2300
Wire Wire Line
	10550 2600 10950 2600
Wire Wire Line
	10550 4150 10950 4150
Wire Wire Line
	10550 4450 10950 4450
Wire Wire Line
	10550 4750 10950 4750
Wire Wire Line
	10550 5050 10950 5050
Wire Bus Line
	1150 3500 1250 3500
Wire Bus Line
	1150 3650 1450 3650
Wire Bus Line
	1250 1900 1250 2500
Wire Bus Line
	1250 2500 1250 3500
Wire Bus Line
	1250 3500 1250 4650
Wire Bus Line
	1250 4650 1250 4950
Wire Bus Line
	1250 4950 1250 6350
Wire Bus Line
	1250 6350 3800 6350
Wire Bus Line
	1450 2000 1450 2600
Wire Bus Line
	1450 2600 1450 3650
Wire Bus Line
	1450 3650 1450 4750
Wire Bus Line
	1450 4750 1450 5050
Wire Bus Line
	1450 5050 1450 6150
Wire Bus Line
	1450 6150 4000 6150
Wire Bus Line
	3300 950  3450 950 
Wire Bus Line
	3450 950  3450 2000
Wire Bus Line
	3450 950  6000 950 
Wire Bus Line
	3450 2000 3450 2600
Wire Bus Line
	3450 2600 3450 4450
Wire Bus Line
	3450 4450 3450 5050
Wire Bus Line
	3800 1850 3800 2450
Wire Bus Line
	3800 2450 3800 4300
Wire Bus Line
	3800 4300 3800 4900
Wire Bus Line
	3800 4900 3800 6350
Wire Bus Line
	3800 6350 6300 6350
Wire Bus Line
	4000 1950 4000 2550
Wire Bus Line
	4000 2550 4000 2850
Wire Bus Line
	4000 2850 4000 4700
Wire Bus Line
	4000 4700 4000 5300
Wire Bus Line
	4000 5300 4000 6150
Wire Bus Line
	6000 950  6000 1950
Wire Bus Line
	6000 1950 6000 2550
Wire Bus Line
	6000 2550 6000 4400
Wire Bus Line
	6000 4400 6000 5000
Wire Bus Line
	6300 1850 6300 2450
Wire Bus Line
	6300 2450 6300 4300
Wire Bus Line
	6300 4300 6300 4900
Wire Bus Line
	6300 4900 6300 6350
Wire Bus Line
	6300 6350 8850 6350
Wire Bus Line
	6500 1950 6500 2250
Wire Bus Line
	6500 2250 6500 2850
Wire Bus Line
	6500 2850 6500 4700
Wire Bus Line
	6500 4700 6500 5300
Wire Bus Line
	6500 5300 6500 6150
Wire Bus Line
	6500 6150 4000 6150
Wire Bus Line
	8500 950  6000 950 
Wire Bus Line
	8500 950  8500 1650
Wire Bus Line
	8500 1650 8500 2250
Wire Bus Line
	8500 2250 8500 4100
Wire Bus Line
	8500 4100 8500 4700
Wire Bus Line
	8500 4700 8500 5000
Wire Bus Line
	8850 1800 8850 2400
Wire Bus Line
	8850 2400 8850 4250
Wire Bus Line
	8850 4250 8850 4850
Wire Bus Line
	8850 4850 8850 6350
Wire Bus Line
	9050 1900 9050 2500
Wire Bus Line
	9050 2500 9050 4350
Wire Bus Line
	9050 4350 9050 4950
Wire Bus Line
	9050 4950 9050 6150
Wire Bus Line
	9050 6150 6500 6150
Wire Bus Line
	11050 950  8500 950 
Wire Bus Line
	11050 950  11050 1900
Wire Bus Line
	11050 1900 11050 2500
Wire Bus Line
	11050 2500 11050 4350
Wire Bus Line
	11050 4350 11050 4950
Text Label 1600 1800 0    50   ~ 0
GFXA3
Text Label 1600 1900 0    50   ~ 0
GFXB3
Text Label 1600 2100 0    50   ~ 0
GFXA2
Text Label 1600 2200 0    50   ~ 0
GFXB2
Text Label 1600 2400 0    50   ~ 0
GFXA0
Text Label 1600 2500 0    50   ~ 0
GFXB0
Text Label 1600 2700 0    50   ~ 0
GFXA1
Text Label 1600 2800 0    50   ~ 0
GFXB1
Text Label 1600 4250 0    50   ~ 0
GFXA7
Text Label 1600 4350 0    50   ~ 0
GFXB7
Text Label 1600 4550 0    50   ~ 0
GFXA6
Text Label 1600 4650 0    50   ~ 0
GFXB6
Text Label 1600 4850 0    50   ~ 0
GFXA4
Text Label 1600 4950 0    50   ~ 0
GFXB4
Text Label 1600 5150 0    50   ~ 0
GFXA5
Text Label 1600 5250 0    50   ~ 0
GFXB5
Text Label 1650 3000 0    50   ~ 0
SEL
Text Label 1650 5450 0    50   ~ 0
SEL
Text Label 3000 1800 0    50   ~ 0
GFX3
Text Label 3000 2100 0    50   ~ 0
GFX2
Text Label 3000 2400 0    50   ~ 0
GFX0
Text Label 3000 2700 0    50   ~ 0
GFX1
Text Label 3000 4250 0    50   ~ 0
GFX7
Text Label 3000 4550 0    50   ~ 0
GFX6
Text Label 3000 4850 0    50   ~ 0
GFX4
Text Label 3000 5150 0    50   ~ 0
GFX5
Text Label 4150 1750 0    50   ~ 0
GFXA11
Text Label 4150 1850 0    50   ~ 0
GFXB11
Text Label 4150 2050 0    50   ~ 0
GFXA10
Text Label 4150 2150 0    50   ~ 0
GFXB10
Text Label 4150 2350 0    50   ~ 0
GFXA8
Text Label 4150 2450 0    50   ~ 0
GFXB8
Text Label 4150 2650 0    50   ~ 0
GFXA9
Text Label 4150 2750 0    50   ~ 0
GFXB9
Text Label 4150 4200 0    50   ~ 0
GFXA15
Text Label 4150 4300 0    50   ~ 0
GFXB15
Text Label 4150 4500 0    50   ~ 0
GFXA14
Text Label 4150 4600 0    50   ~ 0
GFXB14
Text Label 4150 4800 0    50   ~ 0
GFXA12
Text Label 4150 4900 0    50   ~ 0
GFXB12
Text Label 4150 5100 0    50   ~ 0
GFXA13
Text Label 4150 5200 0    50   ~ 0
GFXB13
Text Label 4200 2950 0    50   ~ 0
SEL
Text Label 4200 5400 0    50   ~ 0
SEL
Text Label 5550 1750 0    50   ~ 0
GFX11
Text Label 5550 2050 0    50   ~ 0
GFX10
Text Label 5550 2350 0    50   ~ 0
GFX8
Text Label 5550 2650 0    50   ~ 0
GFX9
Text Label 5550 4200 0    50   ~ 0
GFX15
Text Label 5550 4500 0    50   ~ 0
GFX14
Text Label 5550 4800 0    50   ~ 0
GFX12
Text Label 5550 5100 0    50   ~ 0
GFX13
Text Label 6650 1750 0    50   ~ 0
GFXA19
Text Label 6650 1850 0    50   ~ 0
GFXB19
Text Label 6650 2050 0    50   ~ 0
GFXA18
Text Label 6650 2150 0    50   ~ 0
GFXB18
Text Label 6650 2350 0    50   ~ 0
GFXA16
Text Label 6650 2450 0    50   ~ 0
GFXB16
Text Label 6650 2650 0    50   ~ 0
GFXA17
Text Label 6650 2750 0    50   ~ 0
GFXB17
Text Label 6650 4200 0    50   ~ 0
GFXA23
Text Label 6650 4300 0    50   ~ 0
GFXB23
Text Label 6650 4500 0    50   ~ 0
GFXA22
Text Label 6650 4600 0    50   ~ 0
GFXB22
Text Label 6650 4800 0    50   ~ 0
GFXA20
Text Label 6650 4900 0    50   ~ 0
GFXB20
Text Label 6650 5100 0    50   ~ 0
GFXA21
Text Label 6650 5200 0    50   ~ 0
GFXB21
Text Label 6700 2950 0    50   ~ 0
SEL
Text Label 6700 5400 0    50   ~ 0
SEL
Text Label 8050 1750 0    50   ~ 0
GFX19
Text Label 8050 2050 0    50   ~ 0
GFX18
Text Label 8050 2350 0    50   ~ 0
GFX16
Text Label 8050 2650 0    50   ~ 0
GFX17
Text Label 8050 4200 0    50   ~ 0
GFX23
Text Label 8050 4500 0    50   ~ 0
GFX22
Text Label 8050 4800 0    50   ~ 0
GFX20
Text Label 8050 5100 0    50   ~ 0
GFX21
Text Label 9200 1700 0    50   ~ 0
GFXA27
Text Label 9200 1800 0    50   ~ 0
GFXB27
Text Label 9200 2000 0    50   ~ 0
GFXA26
Text Label 9200 2100 0    50   ~ 0
GFXB26
Text Label 9200 2300 0    50   ~ 0
GFXA24
Text Label 9200 2400 0    50   ~ 0
GFXB24
Text Label 9200 2600 0    50   ~ 0
GFXA25
Text Label 9200 2700 0    50   ~ 0
GFXB25
Text Label 9200 4150 0    50   ~ 0
GFXA31
Text Label 9200 4250 0    50   ~ 0
GFXB31
Text Label 9200 4450 0    50   ~ 0
GFXA30
Text Label 9200 4550 0    50   ~ 0
GFXB30
Text Label 9200 4750 0    50   ~ 0
GFXA28
Text Label 9200 4850 0    50   ~ 0
GFXB28
Text Label 9200 5050 0    50   ~ 0
GFXA29
Text Label 9200 5150 0    50   ~ 0
GFXB29
Text Label 9250 2900 0    50   ~ 0
SEL
Text Label 9250 5350 0    50   ~ 0
SEL
Text Label 10600 1700 0    50   ~ 0
GFX27
Text Label 10600 2000 0    50   ~ 0
GFX26
Text Label 10600 2300 0    50   ~ 0
GFX24
Text Label 10600 2600 0    50   ~ 0
GFX25
Text Label 10600 4150 0    50   ~ 0
GFX31
Text Label 10600 4450 0    50   ~ 0
GFX30
Text Label 10600 4750 0    50   ~ 0
GFX28
Text Label 10600 5050 0    50   ~ 0
GFX29
Text HLabel 1150 3000 0    50   Input ~ 0
SEL
Text HLabel 1150 3500 0    50   Input ~ 0
GFXA[0..31]
Text HLabel 1150 3650 0    50   Input ~ 0
GFXB[0..31]
Text HLabel 3300 950  0    50   Output ~ 0
GFX[0..31]
$Comp
L power:VCC #PWR0205
U 1 1 5DC403C6
P 2450 1500
F 0 "#PWR0205" H 2450 1350 50  0001 C CNN
F 1 "VCC" H 2467 1673 50  0000 C CNN
F 2 "" H 2450 1500 50  0001 C CNN
F 3 "" H 2450 1500 50  0001 C CNN
	1    2450 1500
	1    0    0    -1  
$EndComp
$Comp
L power:VCC #PWR0207
U 1 1 5DC421F2
P 2450 3950
F 0 "#PWR0207" H 2450 3800 50  0001 C CNN
F 1 "VCC" H 2467 4123 50  0000 C CNN
F 2 "" H 2450 3950 50  0001 C CNN
F 3 "" H 2450 3950 50  0001 C CNN
	1    2450 3950
	1    0    0    -1  
$EndComp
$Comp
L power:VCC #PWR0209
U 1 1 5DC453D4
P 5000 1450
F 0 "#PWR0209" H 5000 1300 50  0001 C CNN
F 1 "VCC" H 5017 1623 50  0000 C CNN
F 2 "" H 5000 1450 50  0001 C CNN
F 3 "" H 5000 1450 50  0001 C CNN
	1    5000 1450
	1    0    0    -1  
$EndComp
$Comp
L power:VCC #PWR0211
U 1 1 5DC453E6
P 5000 3900
F 0 "#PWR0211" H 5000 3750 50  0001 C CNN
F 1 "VCC" H 5017 4073 50  0000 C CNN
F 2 "" H 5000 3900 50  0001 C CNN
F 3 "" H 5000 3900 50  0001 C CNN
	1    5000 3900
	1    0    0    -1  
$EndComp
$Comp
L power:VCC #PWR0213
U 1 1 5DC47826
P 7500 1450
F 0 "#PWR0213" H 7500 1300 50  0001 C CNN
F 1 "VCC" H 7517 1623 50  0000 C CNN
F 2 "" H 7500 1450 50  0001 C CNN
F 3 "" H 7500 1450 50  0001 C CNN
	1    7500 1450
	1    0    0    -1  
$EndComp
$Comp
L power:VCC #PWR0215
U 1 1 5DC47838
P 7500 3900
F 0 "#PWR0215" H 7500 3750 50  0001 C CNN
F 1 "VCC" H 7517 4073 50  0000 C CNN
F 2 "" H 7500 3900 50  0001 C CNN
F 3 "" H 7500 3900 50  0001 C CNN
	1    7500 3900
	1    0    0    -1  
$EndComp
$Comp
L power:VCC #PWR0217
U 1 1 5DC4B1F8
P 10050 1400
F 0 "#PWR0217" H 10050 1250 50  0001 C CNN
F 1 "VCC" H 10067 1573 50  0000 C CNN
F 2 "" H 10050 1400 50  0001 C CNN
F 3 "" H 10050 1400 50  0001 C CNN
	1    10050 1400
	1    0    0    -1  
$EndComp
$Comp
L power:VCC #PWR0219
U 1 1 5DC4B20A
P 10050 3850
F 0 "#PWR0219" H 10050 3700 50  0001 C CNN
F 1 "VCC" H 10067 4023 50  0000 C CNN
F 2 "" H 10050 3850 50  0001 C CNN
F 3 "" H 10050 3850 50  0001 C CNN
	1    10050 3850
	1    0    0    -1  
$EndComp
$Comp
L power:GND #PWR0204
U 1 1 5DC3FD93
P 2450 3400
F 0 "#PWR0204" H 2450 3150 50  0001 C CNN
F 1 "GND" H 2455 3227 50  0001 C CNN
F 2 "" H 2450 3400 50  0001 C CNN
F 3 "" H 2450 3400 50  0001 C CNN
	1    2450 3400
	1    0    0    -1  
$EndComp
$Comp
L power:GND #PWR0206
U 1 1 5DC421EC
P 2450 5850
F 0 "#PWR0206" H 2450 5600 50  0001 C CNN
F 1 "GND" H 2455 5677 50  0001 C CNN
F 2 "" H 2450 5850 50  0001 C CNN
F 3 "" H 2450 5850 50  0001 C CNN
	1    2450 5850
	1    0    0    -1  
$EndComp
$Comp
L power:GND #PWR0208
U 1 1 5DC453CE
P 5000 3350
F 0 "#PWR0208" H 5000 3100 50  0001 C CNN
F 1 "GND" H 5005 3177 50  0001 C CNN
F 2 "" H 5000 3350 50  0001 C CNN
F 3 "" H 5000 3350 50  0001 C CNN
	1    5000 3350
	1    0    0    -1  
$EndComp
$Comp
L power:GND #PWR0210
U 1 1 5DC453E0
P 5000 5800
F 0 "#PWR0210" H 5000 5550 50  0001 C CNN
F 1 "GND" H 5005 5627 50  0001 C CNN
F 2 "" H 5000 5800 50  0001 C CNN
F 3 "" H 5000 5800 50  0001 C CNN
	1    5000 5800
	1    0    0    -1  
$EndComp
$Comp
L power:GND #PWR0212
U 1 1 5DC47820
P 7500 3350
F 0 "#PWR0212" H 7500 3100 50  0001 C CNN
F 1 "GND" H 7505 3177 50  0001 C CNN
F 2 "" H 7500 3350 50  0001 C CNN
F 3 "" H 7500 3350 50  0001 C CNN
	1    7500 3350
	1    0    0    -1  
$EndComp
$Comp
L power:GND #PWR0214
U 1 1 5DC47832
P 7500 5800
F 0 "#PWR0214" H 7500 5550 50  0001 C CNN
F 1 "GND" H 7505 5627 50  0001 C CNN
F 2 "" H 7500 5800 50  0001 C CNN
F 3 "" H 7500 5800 50  0001 C CNN
	1    7500 5800
	1    0    0    -1  
$EndComp
$Comp
L power:GND #PWR0216
U 1 1 5DC4B1F2
P 10050 3300
F 0 "#PWR0216" H 10050 3050 50  0001 C CNN
F 1 "GND" H 10055 3127 50  0001 C CNN
F 2 "" H 10050 3300 50  0001 C CNN
F 3 "" H 10050 3300 50  0001 C CNN
	1    10050 3300
	1    0    0    -1  
$EndComp
$Comp
L power:GND #PWR0218
U 1 1 5DC4B204
P 10050 5750
F 0 "#PWR0218" H 10050 5500 50  0001 C CNN
F 1 "GND" H 10055 5577 50  0001 C CNN
F 2 "" H 10050 5750 50  0001 C CNN
F 3 "" H 10050 5750 50  0001 C CNN
	1    10050 5750
	1    0    0    -1  
$EndComp
$Comp
L 74xx:74LS157 U?
U 1 1 5DC3E3FD
P 2450 2400
AR Path="/5DC3E3FD" Ref="U?"  Part="1" 
AR Path="/5DC3951B/5DC3E3FD" Ref="UW2"  Part="1" 
F 0 "UW2" H 2200 3150 50  0000 C CNN
F 1 "74LS157" H 2650 1500 50  0000 C CNN
F 2 "" H 2450 2400 50  0001 C CNN
F 3 "http://www.ti.com/lit/gpn/sn74LS157" H 2450 2400 50  0001 C CNN
	1    2450 2400
	1    0    0    -1  
$EndComp
$Comp
L 74xx:74LS157 UM?
U 1 1 5DC421E6
P 2450 4850
AR Path="/5DC421E6" Ref="UM?"  Part="1" 
AR Path="/5DC3951B/5DC421E6" Ref="UW3"  Part="1" 
F 0 "UW3" H 2200 5600 50  0000 C CNN
F 1 "74LS157" H 2650 3950 50  0000 C CNN
F 2 "" H 2450 4850 50  0001 C CNN
F 3 "http://www.ti.com/lit/gpn/sn74LS157" H 2450 4850 50  0001 C CNN
	1    2450 4850
	1    0    0    -1  
$EndComp
$Comp
L 74xx:74LS157 UM?
U 1 1 5DC453C8
P 5000 2350
AR Path="/5DC453C8" Ref="UM?"  Part="1" 
AR Path="/5DC3951B/5DC453C8" Ref="UV2"  Part="1" 
F 0 "UV2" H 4750 3100 50  0000 C CNN
F 1 "74LS157" H 5200 1450 50  0000 C CNN
F 2 "" H 5000 2350 50  0001 C CNN
F 3 "http://www.ti.com/lit/gpn/sn74LS157" H 5000 2350 50  0001 C CNN
	1    5000 2350
	1    0    0    -1  
$EndComp
$Comp
L 74xx:74LS157 UM?
U 1 1 5DC453DA
P 5000 4800
AR Path="/5DC453DA" Ref="UM?"  Part="1" 
AR Path="/5DC3951B/5DC453DA" Ref="UV3"  Part="1" 
F 0 "UV3" H 4750 5550 50  0000 C CNN
F 1 "74LS157" H 5200 3900 50  0000 C CNN
F 2 "" H 5000 4800 50  0001 C CNN
F 3 "http://www.ti.com/lit/gpn/sn74LS157" H 5000 4800 50  0001 C CNN
	1    5000 4800
	1    0    0    -1  
$EndComp
$Comp
L 74xx:74LS157 UM?
U 1 1 5DC4781A
P 7500 2350
AR Path="/5DC4781A" Ref="UM?"  Part="1" 
AR Path="/5DC3951B/5DC4781A" Ref="UU2"  Part="1" 
F 0 "UU2" H 7250 3100 50  0000 C CNN
F 1 "74LS157" H 7700 1450 50  0000 C CNN
F 2 "" H 7500 2350 50  0001 C CNN
F 3 "http://www.ti.com/lit/gpn/sn74LS157" H 7500 2350 50  0001 C CNN
	1    7500 2350
	1    0    0    -1  
$EndComp
$Comp
L 74xx:74LS157 UM?
U 1 1 5DC4782C
P 7500 4800
AR Path="/5DC4782C" Ref="UM?"  Part="1" 
AR Path="/5DC3951B/5DC4782C" Ref="UU3"  Part="1" 
F 0 "UU3" H 7250 5550 50  0000 C CNN
F 1 "74LS157" H 7700 3900 50  0000 C CNN
F 2 "" H 7500 4800 50  0001 C CNN
F 3 "http://www.ti.com/lit/gpn/sn74LS157" H 7500 4800 50  0001 C CNN
	1    7500 4800
	1    0    0    -1  
$EndComp
$Comp
L 74xx:74LS157 UM?
U 1 1 5DC4B1EC
P 10050 2300
AR Path="/5DC4B1EC" Ref="UM?"  Part="1" 
AR Path="/5DC3951B/5DC4B1EC" Ref="UT2"  Part="1" 
F 0 "UT2" H 9800 3050 50  0000 C CNN
F 1 "74LS157" H 10250 1400 50  0000 C CNN
F 2 "" H 10050 2300 50  0001 C CNN
F 3 "http://www.ti.com/lit/gpn/sn74LS157" H 10050 2300 50  0001 C CNN
	1    10050 2300
	1    0    0    -1  
$EndComp
$Comp
L 74xx:74LS157 UM?
U 1 1 5DC4B1FE
P 10050 4750
AR Path="/5DC4B1FE" Ref="UM?"  Part="1" 
AR Path="/5DC3951B/5DC4B1FE" Ref="UT3"  Part="1" 
F 0 "UT3" H 9800 5500 50  0000 C CNN
F 1 "74LS157" H 10250 3850 50  0000 C CNN
F 2 "" H 10050 4750 50  0001 C CNN
F 3 "http://www.ti.com/lit/gpn/sn74LS157" H 10050 4750 50  0001 C CNN
	1    10050 4750
	1    0    0    -1  
$EndComp
$EndSCHEMATC
