EESchema Schematic File Version 4
EELAYER 30 0
EELAYER END
$Descr A4 11693 8268
encoding utf-8
Sheet 19 22
Title ""
Date "2020-12-13"
Rev ""
Comp ""
Comment1 ""
Comment2 "Licence: CC-BY"
Comment3 "Author: Loïc *WydD* Petit"
Comment4 "Project: CPS2 Reverse Engineering: 93646A"
$EndDescr
Connection ~ 4800 1300
Connection ~ 4800 3900
Connection ~ 10300 4800
Connection ~ 5850 2600
Connection ~ 3700 3550
Connection ~ 5950 5700
Entry Wire Line
	3700 1600 3800 1500
Entry Wire Line
	3700 1700 3800 1600
Entry Wire Line
	3700 1800 3800 1700
Entry Wire Line
	3700 1900 3800 1800
Entry Wire Line
	3700 2000 3800 1900
Entry Wire Line
	3700 2100 3800 2000
Entry Wire Line
	3700 2200 3800 2100
Entry Wire Line
	3700 2300 3800 2200
Entry Wire Line
	3700 2400 3800 2300
Entry Wire Line
	3700 2500 3800 2400
Entry Wire Line
	3700 2600 3800 2500
Entry Wire Line
	3700 2700 3800 2600
Entry Wire Line
	3700 2800 3800 2700
Entry Wire Line
	3700 2900 3800 2800
Entry Wire Line
	3700 3000 3800 2900
Entry Wire Line
	3700 3100 3800 3000
Entry Wire Line
	3700 3200 3800 3100
Entry Wire Line
	3700 4000 3800 4100
Entry Wire Line
	3700 4100 3800 4200
Entry Wire Line
	3700 4200 3800 4300
Entry Wire Line
	3700 4300 3800 4400
Entry Wire Line
	3700 4400 3800 4500
Entry Wire Line
	3700 4500 3800 4600
Entry Wire Line
	3700 4600 3800 4700
Entry Wire Line
	3700 4700 3800 4800
Entry Wire Line
	3700 4800 3800 4900
Entry Wire Line
	3700 4900 3800 5000
Entry Wire Line
	3700 5000 3800 5100
Entry Wire Line
	3700 5100 3800 5200
Entry Wire Line
	3700 5200 3800 5300
Entry Wire Line
	3700 5300 3800 5400
Entry Wire Line
	3700 5400 3800 5500
Entry Wire Line
	3700 5500 3800 5600
Entry Wire Line
	3700 5600 3800 5700
Entry Wire Line
	3700 6250 3800 6350
Entry Wire Line
	5750 1500 5850 1600
Entry Wire Line
	5750 1600 5850 1700
Entry Wire Line
	5750 1700 5850 1800
Entry Wire Line
	5750 1800 5850 1900
Entry Wire Line
	5750 1900 5850 2000
Entry Wire Line
	5750 2000 5850 2100
Entry Wire Line
	5750 2100 5850 2200
Entry Wire Line
	5750 2200 5850 2300
Entry Wire Line
	5850 4000 5750 4100
Entry Wire Line
	5850 4100 5750 4200
Entry Wire Line
	5850 4200 5750 4300
Entry Wire Line
	5850 4300 5750 4400
Entry Wire Line
	5850 4400 5750 4500
Entry Wire Line
	5850 4500 5750 4600
Entry Wire Line
	5850 4600 5750 4700
Entry Wire Line
	5850 4700 5750 4800
Wire Wire Line
	3800 1500 4400 1500
Wire Wire Line
	3800 1600 4400 1600
Wire Wire Line
	3800 1700 4400 1700
Wire Wire Line
	3800 1800 4400 1800
Wire Wire Line
	3800 1900 4400 1900
Wire Wire Line
	3800 2000 4400 2000
Wire Wire Line
	3800 2100 4400 2100
Wire Wire Line
	3800 2200 4400 2200
Wire Wire Line
	3800 2300 4400 2300
Wire Wire Line
	3800 2400 4400 2400
Wire Wire Line
	3800 2500 4400 2500
Wire Wire Line
	3800 2600 4400 2600
Wire Wire Line
	3800 2700 4400 2700
Wire Wire Line
	3800 2800 4400 2800
Wire Wire Line
	3800 2900 4400 2900
Wire Wire Line
	3800 3000 4400 3000
Wire Wire Line
	3800 3100 4400 3100
Wire Wire Line
	3800 4100 4400 4100
Wire Wire Line
	3800 4200 4400 4200
Wire Wire Line
	3800 4300 4400 4300
Wire Wire Line
	3800 4400 4400 4400
Wire Wire Line
	3800 4500 4400 4500
Wire Wire Line
	3800 4600 4400 4600
Wire Wire Line
	3800 4700 4400 4700
Wire Wire Line
	3800 4800 4400 4800
Wire Wire Line
	3800 4900 4400 4900
Wire Wire Line
	3800 5000 4400 5000
Wire Wire Line
	3800 5100 4400 5100
Wire Wire Line
	3800 5200 4400 5200
Wire Wire Line
	3800 5300 4400 5300
Wire Wire Line
	3800 5400 4400 5400
Wire Wire Line
	3800 5500 4400 5500
Wire Wire Line
	3800 5600 4400 5600
Wire Wire Line
	3800 5700 4400 5700
Wire Wire Line
	3800 6350 4500 6350
Wire Wire Line
	4500 6550 3900 6550
Wire Wire Line
	4950 1300 4800 1300
Wire Wire Line
	4950 3900 4800 3900
Wire Wire Line
	5100 6450 5950 6450
Wire Wire Line
	5200 1500 5750 1500
Wire Wire Line
	5200 1600 5750 1600
Wire Wire Line
	5200 1700 5750 1700
Wire Wire Line
	5200 1800 5750 1800
Wire Wire Line
	5200 1900 5750 1900
Wire Wire Line
	5200 2000 5750 2000
Wire Wire Line
	5200 2100 5750 2100
Wire Wire Line
	5200 2200 5750 2200
Wire Wire Line
	5200 3100 5950 3100
Wire Wire Line
	5200 4100 5750 4100
Wire Wire Line
	5200 4200 5750 4200
Wire Wire Line
	5200 4300 5750 4300
Wire Wire Line
	5200 4400 5750 4400
Wire Wire Line
	5200 4500 5750 4500
Wire Wire Line
	5200 4600 5750 4600
Wire Wire Line
	5200 4700 5750 4700
Wire Wire Line
	5200 4800 5750 4800
Wire Wire Line
	5200 5700 5950 5700
Wire Wire Line
	5350 2600 5200 2600
Wire Wire Line
	5350 5200 5200 5200
Wire Wire Line
	5950 3100 5950 5700
Wire Wire Line
	5950 6450 5950 5700
Wire Wire Line
	10500 4800 10300 4800
Wire Bus Line
	3250 3550 3700 3550
Wire Bus Line
	6300 2600 5850 2600
Text Label 3850 1500 0    50   ~ 0
BUS-ADDR1
Text Label 3850 1600 0    50   ~ 0
BUS-ADDR2
Text Label 3850 1700 0    50   ~ 0
BUS-ADDR3
Text Label 3850 1800 0    50   ~ 0
BUS-ADDR4
Text Label 3850 1900 0    50   ~ 0
BUS-ADDR5
Text Label 3850 2000 0    50   ~ 0
BUS-ADDR6
Text Label 3850 2100 0    50   ~ 0
BUS-ADDR7
Text Label 3850 2200 0    50   ~ 0
BUS-ADDR8
Text Label 3850 2300 0    50   ~ 0
BUS-ADDR9
Text Label 3850 2400 0    50   ~ 0
BUS-ADDR10
Text Label 3850 2500 0    50   ~ 0
BUS-ADDR11
Text Label 3850 2600 0    50   ~ 0
BUS-ADDR12
Text Label 3850 2700 0    50   ~ 0
BUS-ADDR13
Text Label 3850 2800 0    50   ~ 0
BUS-ADDR14
Text Label 3850 2900 0    50   ~ 0
BUS-ADDR15
Text Label 3850 3000 0    50   ~ 0
BUS-ADDR16
Text Label 3850 3100 0    50   ~ 0
BUS-ADDR17
Text Label 3850 4100 0    50   ~ 0
BUS-ADDR1
Text Label 3850 4200 0    50   ~ 0
BUS-ADDR2
Text Label 3850 4300 0    50   ~ 0
BUS-ADDR3
Text Label 3850 4400 0    50   ~ 0
BUS-ADDR4
Text Label 3850 4500 0    50   ~ 0
BUS-ADDR5
Text Label 3850 4600 0    50   ~ 0
BUS-ADDR6
Text Label 3850 4700 0    50   ~ 0
BUS-ADDR7
Text Label 3850 4800 0    50   ~ 0
BUS-ADDR8
Text Label 3850 4900 0    50   ~ 0
BUS-ADDR9
Text Label 3850 5000 0    50   ~ 0
BUS-ADDR10
Text Label 3850 5100 0    50   ~ 0
BUS-ADDR11
Text Label 3850 5200 0    50   ~ 0
BUS-ADDR12
Text Label 3850 5300 0    50   ~ 0
BUS-ADDR13
Text Label 3850 5400 0    50   ~ 0
BUS-ADDR14
Text Label 3850 5500 0    50   ~ 0
BUS-ADDR15
Text Label 3850 5600 0    50   ~ 0
BUS-ADDR16
Text Label 3850 5700 0    50   ~ 0
BUS-ADDR17
Text Label 4450 6350 2    50   ~ 0
BUS-ADDR23
Text Label 5250 1500 0    50   ~ 0
BUS-DATA0
Text Label 5250 1600 0    50   ~ 0
BUS-DATA1
Text Label 5250 1700 0    50   ~ 0
BUS-DATA2
Text Label 5250 1800 0    50   ~ 0
BUS-DATA3
Text Label 5250 1900 0    50   ~ 0
BUS-DATA4
Text Label 5250 2000 0    50   ~ 0
BUS-DATA5
Text Label 5250 2100 0    50   ~ 0
BUS-DATA6
Text Label 5250 2200 0    50   ~ 0
BUS-DATA7
Text Label 5250 4100 0    50   ~ 0
BUS-DATA8
Text Label 5250 4200 0    50   ~ 0
BUS-DATA9
Text Label 5250 4300 0    50   ~ 0
BUS-DATA10
Text Label 5250 4400 0    50   ~ 0
BUS-DATA11
Text Label 5250 4500 0    50   ~ 0
BUS-DATA12
Text Label 5250 4600 0    50   ~ 0
BUS-DATA13
Text Label 5250 4700 0    50   ~ 0
BUS-DATA14
Text Label 5250 4800 0    50   ~ 0
BUS-DATA15
Text HLabel 3250 3550 0    50   Input ~ 0
BUS-ADDR[1..23]
Text HLabel 3900 6550 0    50   Input ~ 0
~REFRESH
Text HLabel 5200 2700 2    50   Input ~ 0
~E
Text HLabel 5200 2800 2    50   Input ~ 0
~OE
Text HLabel 5200 2900 2    50   Input ~ 0
~WE
Text HLabel 5200 5300 2    50   Input ~ 0
~E
Text HLabel 5200 5400 2    50   Input ~ 0
~OE
Text HLabel 5200 5500 2    50   Input ~ 0
~WE
Text HLabel 6300 2600 2    50   BiDi ~ 0
BUS-DATA[0..15]
$Comp
L power:VCC #PWR0124
U 1 1 5DC13700
P 4800 1300
F 0 "#PWR0124" H 4800 1150 50  0001 C CNN
F 1 "VCC" H 4817 1473 50  0000 C CNN
F 2 "" H 4800 1300 50  0001 C CNN
F 3 "" H 4800 1300 50  0001 C CNN
	1    4800 1300
	1    0    0    -1  
$EndComp
$Comp
L power:VCC #PWR0123
U 1 1 5DC130CC
P 4800 3900
F 0 "#PWR0123" H 4800 3750 50  0001 C CNN
F 1 "VCC" H 4817 4073 50  0000 C CNN
F 2 "" H 4800 3900 50  0001 C CNN
F 3 "" H 4800 3900 50  0001 C CNN
	1    4800 3900
	1    0    0    -1  
$EndComp
$Comp
L power:VCC #PWR0132
U 1 1 5DBEA249
P 5350 2600
F 0 "#PWR0132" H 5350 2450 50  0001 C CNN
F 1 "VCC" H 5367 2773 50  0000 C CNN
F 2 "" H 5350 2600 50  0001 C CNN
F 3 "" H 5350 2600 50  0001 C CNN
	1    5350 2600
	1    0    0    -1  
$EndComp
$Comp
L power:VCC #PWR0122
U 1 1 5DBEA242
P 5350 5200
F 0 "#PWR0122" H 5350 5050 50  0001 C CNN
F 1 "VCC" H 5367 5373 50  0000 C CNN
F 2 "" H 5350 5200 50  0001 C CNN
F 3 "" H 5350 5200 50  0001 C CNN
	1    5350 5200
	1    0    0    -1  
$EndComp
$Comp
L power:VCC #PWR0128
U 1 1 5DCB1185
P 10300 4800
F 0 "#PWR0128" H 10300 4650 50  0001 C CNN
F 1 "VCC" H 10317 4973 50  0000 C CNN
F 2 "" H 10300 4800 50  0001 C CNN
F 3 "" H 10300 4800 50  0001 C CNN
	1    10300 4800
	1    0    0    -1  
$EndComp
$Comp
L power:GND #PWR0126
U 1 1 5DC14598
P 4800 3350
F 0 "#PWR0126" H 4800 3100 50  0001 C CNN
F 1 "GND" H 4805 3177 50  0001 C CNN
F 2 "" H 4800 3350 50  0001 C CNN
F 3 "" H 4800 3350 50  0001 C CNN
	1    4800 3350
	1    0    0    -1  
$EndComp
$Comp
L power:GND #PWR0125
U 1 1 5DC13D33
P 4800 5950
F 0 "#PWR0125" H 4800 5700 50  0001 C CNN
F 1 "GND" H 4805 5777 50  0001 C CNN
F 2 "" H 4800 5950 50  0001 C CNN
F 3 "" H 4800 5950 50  0001 C CNN
	1    4800 5950
	1    0    0    -1  
$EndComp
$Comp
L power:GND #PWR?
U 1 1 5DCBADBD
P 5150 1300
AR Path="/5DCBADBD" Ref="#PWR?"  Part="1" 
AR Path="/5F1915B1/5DCBADBD" Ref="#PWR?"  Part="1" 
AR Path="/5DBE0874/5DCBADBD" Ref="#PWR0131"  Part="1" 
F 0 "#PWR0131" H 5150 1050 50  0001 C CNN
F 1 "GND" H 5155 1127 50  0001 C CNN
F 2 "" H 5150 1300 50  0001 C CNN
F 3 "" H 5150 1300 50  0001 C CNN
	1    5150 1300
	1    0    0    -1  
$EndComp
$Comp
L power:GND #PWR?
U 1 1 5DCB8250
P 5150 3900
AR Path="/5DCB8250" Ref="#PWR?"  Part="1" 
AR Path="/5F1915B1/5DCB8250" Ref="#PWR?"  Part="1" 
AR Path="/5DBE0874/5DCB8250" Ref="#PWR0130"  Part="1" 
F 0 "#PWR0130" H 5150 3650 50  0001 C CNN
F 1 "GND" H 5155 3727 50  0001 C CNN
F 2 "" H 5150 3900 50  0001 C CNN
F 3 "" H 5150 3900 50  0001 C CNN
	1    5150 3900
	1    0    0    -1  
$EndComp
$Comp
L power:GND #PWR0127
U 1 1 5DCB0D9D
P 10300 5800
F 0 "#PWR0127" H 10300 5550 50  0001 C CNN
F 1 "GND" H 10305 5627 50  0001 C CNN
F 2 "" H 10300 5800 50  0001 C CNN
F 3 "" H 10300 5800 50  0001 C CNN
	1    10300 5800
	1    0    0    -1  
$EndComp
$Comp
L power:GND #PWR?
U 1 1 5DCB2BD0
P 10700 4800
AR Path="/5DCB2BD0" Ref="#PWR?"  Part="1" 
AR Path="/5F1915B1/5DCB2BD0" Ref="#PWR?"  Part="1" 
AR Path="/5DBE0874/5DCB2BD0" Ref="#PWR0129"  Part="1" 
F 0 "#PWR0129" H 10700 4550 50  0001 C CNN
F 1 "GND" H 10705 4627 50  0001 C CNN
F 2 "" H 10700 4800 50  0001 C CNN
F 3 "" H 10700 4800 50  0001 C CNN
	1    10700 4800
	1    0    0    -1  
$EndComp
$Comp
L Device:C_Small CX?
U 1 1 5DCBADB7
P 5050 1300
AR Path="/5F1915B1/5DCBADB7" Ref="CX?"  Part="1" 
AR Path="/5DBE0874/5DCBADB7" Ref="CX2"  Part="1" 
F 0 "CX2" V 4821 1300 50  0001 C CNN
F 1 "0.1u" V 5187 1300 50  0000 C CNN
F 2 "" H 5050 1300 50  0001 C CNN
F 3 "~" H 5050 1300 50  0001 C CNN
	1    5050 1300
	0    -1   -1   0   
$EndComp
$Comp
L Device:C_Small CX?
U 1 1 5DCB824A
P 5050 3900
AR Path="/5F1915B1/5DCB824A" Ref="CX?"  Part="1" 
AR Path="/5DBE0874/5DCB824A" Ref="CX3"  Part="1" 
F 0 "CX3" V 4821 3900 50  0001 C CNN
F 1 "0.1u" V 5187 3900 50  0000 C CNN
F 2 "" H 5050 3900 50  0001 C CNN
F 3 "~" H 5050 3900 50  0001 C CNN
	1    5050 3900
	0    -1   -1   0   
$EndComp
$Comp
L Device:C_Small CX?
U 1 1 5DCB2BCA
P 10600 4800
AR Path="/5F1915B1/5DCB2BCA" Ref="CX?"  Part="1" 
AR Path="/5DBE0874/5DCB2BCA" Ref="CX4"  Part="1" 
F 0 "CX4" V 10371 4800 50  0001 C CNN
F 1 "0.1u" V 10737 4800 50  0000 C CNN
F 2 "" H 10600 4800 50  0001 C CNN
F 3 "~" H 10600 4800 50  0001 C CNN
	1    10600 4800
	0    -1   -1   0   
$EndComp
$Comp
L 74xx:74LS32 US14
U 1 1 5DBF190D
P 4800 6450
F 0 "US14" H 4800 6775 50  0000 C CNN
F 1 "74LS32" H 4800 6684 50  0000 C CNN
F 2 "" H 4800 6450 50  0001 C CNN
F 3 "http://www.ti.com/lit/gpn/sn74LS32" H 4800 6450 50  0001 C CNN
	1    4800 6450
	1    0    0    1   
$EndComp
$Comp
L 74xx:74LS32 US14
U 5 1 5DCAF18E
P 10300 5300
F 0 "US14" H 10530 5346 50  0000 L CNN
F 1 "74LS32" H 10530 5255 50  0000 L CNN
F 2 "" H 10300 5300 50  0001 C CNN
F 3 "http://www.ti.com/lit/gpn/sn74LS32" H 10300 5300 50  0001 C CNN
	5    10300 5300
	1    0    0    -1  
$EndComp
$Comp
L CPS2-Custom:HM658128 UR14
U 1 1 5DBEA23A
P 4800 2300
F 0 "UR14" H 4600 3250 50  0000 C CNN
F 1 "HM658128" H 5050 1250 50  0000 C CNN
F 2 "Package_SO:TSSOP-32_6.1x11mm_P0.65mm" H 4900 2300 50  0001 C CNN
F 3 "http://ww1.microchip.com/downloads/en/DeviceDoc/doc0015.pdf" H 4800 2200 50  0001 C CNN
	1    4800 2300
	1    0    0    -1  
$EndComp
$Comp
L CPS2-Custom:HM658128 UR13
U 1 1 5DBEA234
P 4800 4900
F 0 "UR13" H 4600 5850 50  0000 C CNN
F 1 "HM658128" H 5050 3850 50  0000 C CNN
F 2 "Package_SO:TSSOP-32_6.1x11mm_P0.65mm" H 4900 4900 50  0001 C CNN
F 3 "http://ww1.microchip.com/downloads/en/DeviceDoc/doc0015.pdf" H 4800 4800 50  0001 C CNN
	1    4800 4900
	1    0    0    -1  
$EndComp
Wire Bus Line
	5850 1600 5850 2600
Wire Bus Line
	5850 2600 5850 4700
Wire Bus Line
	3700 3550 3700 6250
Wire Bus Line
	3700 1600 3700 3550
$EndSCHEMATC
