EESchema Schematic File Version 4
EELAYER 30 0
EELAYER END
$Descr A4 11693 8268
encoding utf-8
Sheet 16 17
Title ""
Date "2019-10-17"
Rev ""
Comp ""
Comment1 ""
Comment2 "Licence: CC-BY"
Comment3 "Author: Loic *WydD* Petit"
Comment4 "Project: CPS2 Reverse Engineering: 93646B"
$EndDescr
Connection ~ 9800 3400
Connection ~ 9800 5000
Connection ~ 8800 4000
Connection ~ 9300 4300
Connection ~ 7050 5800
Connection ~ 2000 7100
Connection ~ 1300 3500
Connection ~ 1300 4400
Connection ~ 1300 5100
Connection ~ 1300 5700
Connection ~ 1100 5400
Connection ~ 1100 5100
Connection ~ 7050 5500
Connection ~ 1900 7300
Connection ~ 1800 7200
NoConn ~ 10300 3700
NoConn ~ 10300 3800
NoConn ~ 9300 3700
NoConn ~ 9300 3800
NoConn ~ 5750 3400
NoConn ~ 5750 3600
NoConn ~ 5750 3700
NoConn ~ 5750 3800
NoConn ~ 5750 3900
NoConn ~ 5750 4100
NoConn ~ 5750 4200
NoConn ~ 5750 4300
NoConn ~ 5750 4400
NoConn ~ 5750 4500
NoConn ~ 5750 4600
NoConn ~ 5750 4700
NoConn ~ 5750 4800
Entry Wire Line
	950  7000 1050 7100
Entry Wire Line
	950  7100 1050 7200
Entry Wire Line
	950  7200 1050 7300
Entry Wire Line
	950  7300 1050 7400
Entry Wire Line
	1500 1200 1600 1300
Entry Wire Line
	1500 1100 1600 1200
Entry Wire Line
	1500 1000 1600 1100
Entry Wire Line
	1500 900  1600 1000
Entry Wire Line
	2200 7700 2300 7600
Entry Wire Line
	2300 7700 2400 7600
Entry Wire Line
	2400 7700 2500 7600
Entry Wire Line
	2500 7700 2600 7600
Entry Wire Line
	2600 7700 2700 7600
Entry Wire Line
	2700 7700 2800 7600
Entry Wire Line
	2800 7700 2900 7600
Entry Wire Line
	2900 7700 3000 7600
Entry Wire Line
	2800 800  2900 700 
Entry Wire Line
	2900 800  3000 700 
Entry Wire Line
	3300 7600 3200 7500
Entry Wire Line
	3000 800  3100 700 
Entry Wire Line
	3400 7600 3300 7500
Entry Wire Line
	3100 800  3200 700 
Entry Wire Line
	3500 7600 3400 7500
Entry Wire Line
	3200 800  3300 700 
Entry Wire Line
	3600 7600 3500 7500
Entry Wire Line
	3300 800  3400 700 
Entry Wire Line
	3700 7600 3600 7500
Entry Wire Line
	3400 800  3500 700 
Entry Wire Line
	3800 7600 3700 7500
Entry Wire Line
	3500 800  3600 700 
Entry Wire Line
	3900 7600 3800 7500
Entry Wire Line
	3600 800  3700 700 
Entry Wire Line
	4000 7600 3900 7500
Entry Wire Line
	3700 800  3800 700 
Entry Wire Line
	4100 7600 4000 7500
Entry Wire Line
	3800 800  3900 700 
Entry Wire Line
	4200 7600 4100 7500
Entry Wire Line
	3900 800  4000 700 
Entry Wire Line
	4300 7600 4200 7500
Entry Wire Line
	4000 800  4100 700 
Entry Wire Line
	4400 7600 4300 7500
Entry Wire Line
	4100 800  4200 700 
Entry Wire Line
	4500 7600 4400 7500
Entry Wire Line
	4200 800  4300 700 
Entry Wire Line
	4300 800  4400 700 
Entry Wire Line
	4650 7600 4550 7500
Entry Wire Line
	4750 7600 4650 7500
Entry Wire Line
	4850 7600 4750 7500
Entry Wire Line
	4550 800  4650 700 
Entry Wire Line
	4950 7600 4850 7500
Entry Wire Line
	4650 800  4750 700 
Entry Wire Line
	5050 7600 4950 7500
Entry Wire Line
	4750 800  4850 700 
Entry Wire Line
	5150 7600 5050 7500
Entry Wire Line
	4850 800  4950 700 
Entry Wire Line
	5250 7600 5150 7500
Entry Wire Line
	4950 800  5050 700 
Entry Wire Line
	5350 7600 5250 7500
Entry Wire Line
	5050 800  5150 700 
Entry Wire Line
	5450 7600 5350 7500
Entry Wire Line
	5150 800  5250 700 
Entry Wire Line
	5550 7600 5450 7500
Entry Wire Line
	5250 800  5350 700 
Entry Wire Line
	5650 7600 5550 7500
Entry Wire Line
	5350 800  5450 700 
Entry Wire Line
	5750 7600 5650 7500
Entry Wire Line
	5450 800  5550 700 
Entry Wire Line
	5850 7600 5750 7500
Entry Wire Line
	5550 800  5650 700 
Entry Wire Line
	5950 7600 5850 7500
Entry Wire Line
	5650 800  5750 700 
Entry Wire Line
	6050 7600 5950 7500
Entry Wire Line
	5750 800  5850 700 
Entry Wire Line
	6150 7600 6050 7500
Entry Wire Line
	7550 3800 7450 3900
Entry Wire Line
	7550 3900 7450 4000
Entry Wire Line
	7550 4000 7450 4100
Entry Wire Line
	7550 4100 7450 4200
Entry Wire Line
	7550 4200 7450 4300
Entry Wire Line
	7550 4300 7450 4400
Entry Wire Line
	8650 3800 8750 3900
Entry Wire Line
	8650 3900 8750 4000
Entry Wire Line
	8650 4000 8750 4100
Entry Wire Line
	8650 4100 8750 4200
Entry Wire Line
	8650 4200 8750 4300
Entry Wire Line
	11050 3900 11150 4000
Entry Wire Line
	11050 4000 11150 4100
Entry Wire Line
	11050 4100 11150 4200
Entry Wire Line
	11050 4200 11150 4300
Entry Wire Line
	11050 4450 11150 4550
Wire Wire Line
	850  5400 1100 5400
Wire Wire Line
	950  3500 1300 3500
Wire Wire Line
	950  4400 1300 4400
Wire Wire Line
	1050 7100 1700 7100
Wire Wire Line
	1050 7200 1800 7200
Wire Wire Line
	1050 7300 1900 7300
Wire Wire Line
	1050 7400 2000 7400
Wire Wire Line
	1100 5100 850  5100
Wire Wire Line
	1100 5100 1300 5100
Wire Wire Line
	1100 5150 1100 5100
Wire Wire Line
	1100 5400 1100 5350
Wire Wire Line
	1100 5400 1300 5400
Wire Wire Line
	1600 1000 2550 1000
Wire Wire Line
	1600 1100 2450 1100
Wire Wire Line
	1600 1200 2350 1200
Wire Wire Line
	1600 1300 2250 1300
Wire Wire Line
	1200 7450 1800 7450
Wire Wire Line
	1200 7550 1200 7450
Wire Wire Line
	1300 3500 1300 3600
Wire Wire Line
	1300 5100 1300 5200
Wire Wire Line
	1300 5700 950  5700
Wire Wire Line
	1700 7100 1700 7000
Wire Wire Line
	2250 1300 2250 1350
Wire Wire Line
	1800 7000 1800 7200
Wire Wire Line
	1800 7450 1800 7200
Wire Wire Line
	2350 1200 2350 1350
Wire Wire Line
	1900 7300 1900 7000
Wire Wire Line
	1900 7550 1900 7300
Wire Wire Line
	2450 1100 2450 1350
Wire Wire Line
	2000 7000 2000 7100
Wire Wire Line
	2000 7100 2000 7400
Wire Wire Line
	2000 7100 2100 7100
Wire Wire Line
	2550 1000 2550 1350
Wire Wire Line
	2100 7100 2100 7000
Wire Wire Line
	2300 7600 2300 7000
Wire Wire Line
	2400 7600 2400 7000
Wire Wire Line
	2500 7600 2500 7000
Wire Wire Line
	2600 7600 2600 7000
Wire Wire Line
	2700 7600 2700 7000
Wire Wire Line
	2800 7600 2800 7000
Wire Wire Line
	2900 7600 2900 7000
Wire Wire Line
	3000 7600 3000 7000
Wire Wire Line
	2800 800  2800 1350
Wire Wire Line
	3200 7500 3200 7000
Wire Wire Line
	2900 800  2900 1350
Wire Wire Line
	3300 7500 3300 7000
Wire Wire Line
	3000 800  3000 1350
Wire Wire Line
	3400 7500 3400 7000
Wire Wire Line
	3100 800  3100 1350
Wire Wire Line
	3500 7500 3500 7000
Wire Wire Line
	3200 800  3200 1350
Wire Wire Line
	3600 7500 3600 7000
Wire Wire Line
	3300 800  3300 1350
Wire Wire Line
	3700 7500 3700 7000
Wire Wire Line
	3400 800  3400 1350
Wire Wire Line
	3800 7500 3800 7000
Wire Wire Line
	3500 800  3500 1350
Wire Wire Line
	3900 7500 3900 7000
Wire Wire Line
	3600 800  3600 1350
Wire Wire Line
	4000 7500 4000 7000
Wire Wire Line
	3700 800  3700 1350
Wire Wire Line
	4100 7500 4100 7000
Wire Wire Line
	3800 800  3800 1350
Wire Wire Line
	4200 7500 4200 7000
Wire Wire Line
	3900 800  3900 1350
Wire Wire Line
	4300 7500 4300 7000
Wire Wire Line
	4000 800  4000 1350
Wire Wire Line
	4400 7500 4400 7000
Wire Wire Line
	4100 800  4100 1350
Wire Wire Line
	4200 800  4200 1350
Wire Wire Line
	4550 7500 4550 7000
Wire Wire Line
	4300 800  4300 1350
Wire Wire Line
	4650 7500 4650 7000
Wire Wire Line
	4750 7500 4750 7000
Wire Wire Line
	4850 7500 4850 7000
Wire Wire Line
	4550 1350 4550 800 
Wire Wire Line
	4950 7500 4950 7000
Wire Wire Line
	4650 1350 4650 800 
Wire Wire Line
	5050 7500 5050 7000
Wire Wire Line
	4750 1350 4750 800 
Wire Wire Line
	5150 7500 5150 7000
Wire Wire Line
	4850 1350 4850 800 
Wire Wire Line
	5250 7500 5250 7000
Wire Wire Line
	4950 1350 4950 800 
Wire Wire Line
	5350 7500 5350 7000
Wire Wire Line
	5050 1350 5050 800 
Wire Wire Line
	5450 7500 5450 7000
Wire Wire Line
	5150 1350 5150 800 
Wire Wire Line
	5550 7500 5550 7000
Wire Wire Line
	5250 1350 5250 800 
Wire Wire Line
	5650 7500 5650 7000
Wire Wire Line
	5350 1350 5350 800 
Wire Wire Line
	5750 7500 5750 7000
Wire Wire Line
	5450 1350 5450 800 
Wire Wire Line
	5850 7500 5850 7000
Wire Wire Line
	5550 1350 5550 800 
Wire Wire Line
	5950 7500 5950 7000
Wire Wire Line
	5650 1350 5650 800 
Wire Wire Line
	6050 7500 6050 7000
Wire Wire Line
	5750 1350 5750 800 
Wire Wire Line
	6250 7000 6250 7100
Wire Wire Line
	6350 7000 6350 7100
Wire Wire Line
	6450 7000 6450 7100
Wire Wire Line
	6550 7000 6550 7100
Wire Wire Line
	6950 3550 7400 3550
Wire Wire Line
	6950 3650 7400 3650
Wire Wire Line
	6950 3900 7450 3900
Wire Wire Line
	6950 4000 7450 4000
Wire Wire Line
	6950 4100 7450 4100
Wire Wire Line
	6950 4200 7450 4200
Wire Wire Line
	6950 4300 7450 4300
Wire Wire Line
	6950 4400 7450 4400
Wire Wire Line
	7000 3450 6950 3450
Wire Wire Line
	7050 5500 6950 5500
Wire Wire Line
	7050 5550 7050 5500
Wire Wire Line
	7050 5800 6950 5800
Wire Wire Line
	7050 5850 7050 5800
Wire Wire Line
	7150 3200 6950 3200
Wire Wire Line
	7150 4750 6950 4750
Wire Wire Line
	7150 4900 6950 4900
Wire Wire Line
	7150 5050 6950 5050
Wire Wire Line
	7150 5400 6950 5400
Wire Wire Line
	7150 5500 7050 5500
Wire Wire Line
	7150 5650 6950 5650
Wire Wire Line
	7150 5800 7050 5800
Wire Wire Line
	7150 5950 6950 5950
Wire Wire Line
	7150 6050 6950 6050
Wire Wire Line
	7400 3450 7200 3450
Wire Wire Line
	8750 3900 9300 3900
Wire Wire Line
	8750 4000 8800 4000
Wire Wire Line
	8750 4100 9300 4100
Wire Wire Line
	8750 4200 9300 4200
Wire Wire Line
	8750 4300 9300 4300
Wire Wire Line
	8800 3700 8800 4000
Wire Wire Line
	8800 4000 9300 4000
Wire Wire Line
	8850 3700 8800 3700
Wire Wire Line
	9300 4300 9300 4400
Wire Wire Line
	9300 4600 9200 4600
Wire Wire Line
	9300 5000 9300 4700
Wire Wire Line
	9500 3400 9800 3400
Wire Wire Line
	9800 5000 9300 5000
Wire Wire Line
	10150 3400 9800 3400
Wire Wire Line
	10300 3900 11050 3900
Wire Wire Line
	10300 4000 11050 4000
Wire Wire Line
	10300 4100 11050 4100
Wire Wire Line
	10300 4200 11050 4200
Wire Wire Line
	10300 4300 10450 4300
Wire Wire Line
	10300 4400 10400 4400
Wire Wire Line
	10400 4400 10400 4450
Wire Wire Line
	10400 4450 11050 4450
Wire Bus Line
	4450 7700 4550 7700
Wire Bus Line
	4550 7700 4550 7600
Wire Bus Line
	4500 600  4500 700 
Wire Bus Line
	4500 600  5950 600 
Wire Bus Line
	6100 7700 6200 7700
Wire Bus Line
	6200 7600 6200 7700
Wire Bus Line
	7550 3800 7700 3800
Wire Bus Line
	7700 3800 7700 4000
Wire Bus Line
	7700 4000 7800 4000
Wire Bus Line
	11150 4600 11000 4600
Text Label 1100 7100 0    50   ~ 0
SECURITY-IN2
Text Label 1100 7200 0    50   ~ 0
SECURITY-IN3
Text Label 1100 7300 0    50   ~ 0
SECURITY-IN4
Text Label 1100 7400 0    50   ~ 0
SECURITY-IN5
Text Label 1650 1000 0    50   ~ 0
SECURITY-OUT5
Text Label 1650 1100 0    50   ~ 0
SECURITY-OUT4
Text Label 1650 1200 0    50   ~ 0
SECURITY-OUT3
Text Label 1650 1300 0    50   ~ 0
SECURITY-OUT2
Text Label 2300 7550 1    50   ~ 0
CPU-ADDR16
Text Label 2400 7550 1    50   ~ 0
CPU-ADDR17
Text Label 2500 7550 1    50   ~ 0
CPU-ADDR18
Text Label 2600 7550 1    50   ~ 0
CPU-ADDR19
Text Label 2700 7550 1    50   ~ 0
CPU-ADDR20
Text Label 2800 7550 1    50   ~ 0
CPU-ADDR21
Text Label 2900 7550 1    50   ~ 0
CPU-ADDR22
Text Label 3000 7550 1    50   ~ 0
CPU-ADDR23
Text Label 3050 7700 0    50   ~ 0
CPU-ADDR[16..23]
Text Label 2800 1350 1    50   ~ 0
OBJRAM-D15
Text Label 3200 7450 1    50   ~ 0
SRAM-A0
Text Label 2900 1350 1    50   ~ 0
OBJRAM-D14
Text Label 3300 7450 1    50   ~ 0
SRAM-A1
Text Label 3000 1350 1    50   ~ 0
OBJRAM-D13
Text Label 3400 7450 1    50   ~ 0
SRAM-A2
Text Label 3100 1350 1    50   ~ 0
OBJRAM-D12
Text Label 3500 7450 1    50   ~ 0
SRAM-A3
Text Label 3200 1350 1    50   ~ 0
OBJRAM-D11
Text Label 3600 7450 1    50   ~ 0
SRAM-A4
Text Label 3300 1350 1    50   ~ 0
OBJRAM-D10
Text Label 3700 7450 1    50   ~ 0
SRAM-A5
Text Label 3400 1350 1    50   ~ 0
OBJRAM-D9
Text Label 3800 7450 1    50   ~ 0
SRAM-A6
Text Label 3500 1350 1    50   ~ 0
OBJRAM-D8
Text Label 3900 7450 1    50   ~ 0
SRAM-A7
Text Label 3600 1350 1    50   ~ 0
OBJRAM-D7
Text Label 4000 7450 1    50   ~ 0
SRAM-A8
Text Label 3700 1350 1    50   ~ 0
OBJRAM-D6
Text Label 4100 7450 1    50   ~ 0
SRAM-A9
Text Label 3800 1350 1    50   ~ 0
OBJRAM-D5
Text Label 4200 7450 1    50   ~ 0
SRAM-A10
Text Label 3900 1350 1    50   ~ 0
OBJRAM-D4
Text Label 4300 7450 1    50   ~ 0
SRAM-A11
Text Label 4000 1350 1    50   ~ 0
OBJRAM-D3
Text Label 4400 7450 1    50   ~ 0
SRAM-A12
Text Label 4100 1350 1    50   ~ 0
OBJRAM-D2
Text Label 4200 1350 1    50   ~ 0
OBJRAM-D1
Text Label 4550 7450 1    50   ~ 0
SRAM-D0
Text Label 4300 1350 1    50   ~ 0
OBJRAM-D0
Text Label 4650 7450 1    50   ~ 0
SRAM-D1
Text Label 4750 7450 1    50   ~ 0
SRAM-D2
Text Label 4850 7450 1    50   ~ 0
SRAM-D3
Text Label 4550 1350 1    50   ~ 0
OBJRAM-A12
Text Label 4950 7450 1    50   ~ 0
SRAM-D4
Text Label 4650 1350 1    50   ~ 0
OBJRAM-A11
Text Label 5050 7450 1    50   ~ 0
SRAM-D5
Text Label 4750 1350 1    50   ~ 0
OBJRAM-A10
Text Label 5150 7450 1    50   ~ 0
SRAM-D6
Text Label 4850 1350 1    50   ~ 0
OBJRAM-A9
Text Label 5250 7450 1    50   ~ 0
SRAM-D7
Text Label 4950 1350 1    50   ~ 0
OBJRAM-A8
Text Label 5350 7450 1    50   ~ 0
SRAM-D8
Text Label 5050 1350 1    50   ~ 0
OBJRAM-A7
Text Label 5450 7450 1    50   ~ 0
SRAM-D9
Text Label 5150 1350 1    50   ~ 0
OBJRAM-A6
Text Label 5550 7450 1    50   ~ 0
SRAM-D10
Text Label 5250 1350 1    50   ~ 0
OBJRAM-A5
Text Label 5650 7450 1    50   ~ 0
SRAM-D11
Text Label 5350 1350 1    50   ~ 0
OBJRAM-A4
Text Label 5750 7450 1    50   ~ 0
SRAM-D12
Text Label 5450 1350 1    50   ~ 0
OBJRAM-A3
Text Label 5850 7450 1    50   ~ 0
SRAM-D13
Text Label 5550 1350 1    50   ~ 0
OBJRAM-A2
Text Label 5950 7450 1    50   ~ 0
SRAM-D14
Text Label 5650 1350 1    50   ~ 0
OBJRAM-A1
Text Label 6050 7450 1    50   ~ 0
SRAM-D15
Text Label 5750 1350 1    50   ~ 0
OBJRAM-A0
Text Label 7000 3900 0    50   ~ 0
CONTROL1
Text Label 7000 4000 0    50   ~ 0
CONTROL2
Text Label 7000 4100 0    50   ~ 0
CONTROL3
Text Label 7000 4200 0    50   ~ 0
CONTROL4
Text Label 7000 4300 0    50   ~ 0
CONTROL5
Text Label 7000 4400 0    50   ~ 0
CONTROL6
Text Label 8850 3900 0    50   ~ 0
CONTROL2
Text Label 8850 4000 0    50   ~ 0
CONTROL4
Text Label 8850 4100 0    50   ~ 0
CONTROL1
Text Label 8850 4200 0    50   ~ 0
CONTROL6
Text Label 8850 4300 0    50   ~ 0
CONTROL3
Text Label 10450 3900 0    50   ~ 0
CONTROL-OUT2
Text Label 10450 4000 0    50   ~ 0
CONTROL-OUT4
Text Label 10450 4100 0    50   ~ 0
CONTROL-OUT1
Text Label 10450 4200 0    50   ~ 0
CONTROL-OUT6
Text Label 10450 4450 0    50   ~ 0
CONTROL-OUT3
Text HLabel 950  6900 1    50   Input ~ 0
SECURITY-IN[2..5]
Text HLabel 1600 750  2    50   Input ~ 0
SECURITY-OUT[2..5]
Text HLabel 2050 7700 0    50   Input ~ 0
CODE-ADDR[16..23]
Text HLabel 4450 7700 0    50   Output ~ 0
SRAM-A[0..12]
Text HLabel 6100 7700 0    50   BiDi ~ 0
SRAM-D[0..15]
Text HLabel 6250 7100 3    50   Output ~ 0
~SRAM-WH
Text HLabel 5950 600  2    50   BiDi ~ 0
OBJRAM-D[0..15]
Text HLabel 5950 700  2    50   Input ~ 0
OBJRAM-A[0..12]
Text HLabel 6350 7100 3    50   Output ~ 0
~SRAM-WL
Text HLabel 6450 7100 3    50   Output ~ 0
~SRAM-OE
Text HLabel 6550 7100 3    50   Output ~ 0
~SRAM-E
Text HLabel 7150 3200 2    50   Output ~ 0
~VBLANK-OUT
Text HLabel 7150 4750 2    50   Input ~ 0
DEBUG-RANGE
Text HLabel 7150 4900 2    50   Input ~ 0
OBJRAM-BANK
Text HLabel 7150 5050 2    50   Input ~ 0
OBJRAM-BANK-CLK
Text HLabel 7150 5400 2    50   Input ~ 0
~VBLANK
Text HLabel 7150 5650 2    50   Input ~ 0
ENABLE
Text HLabel 7150 5800 2    50   Input ~ 0
~Z80-BUS
Text HLabel 7150 5950 2    50   Input ~ 0
~CPSA-BR
Text HLabel 7150 6050 2    50   Input ~ 0
~REFRESH
Text HLabel 7400 3450 2    50   Input ~ 0
CLK16M
Text HLabel 7400 3550 2    50   Input ~ 0
CLK4M
Text HLabel 7400 3650 2    50   Output ~ 0
CLK-OUT
Text HLabel 7800 4000 2    50   Output ~ 0
BUS-CONTROL[1..7]
Text HLabel 8850 3700 2    50   Output ~ 0
~ROM-E
Text HLabel 10450 4300 2    50   Output ~ 0
~ROM-OE
Text HLabel 11000 4600 0    50   Output ~ 0
CONTROL-OUT[1..6]
$Comp
L power:VDD #PWR018
U 1 1 5E63F941
P 950 5700
F 0 "#PWR018" H 950 5550 50  0001 C CNN
F 1 "VDD" H 967 5873 50  0000 C CNN
F 2 "" H 950 5700 50  0001 C CNN
F 3 "" H 950 5700 50  0001 C CNN
	1    950  5700
	1    0    0    -1  
$EndComp
$Comp
L power:VCC #PWR?
U 1 1 5E362A1C
P 9200 4600
AR Path="/635BEEB0/5E362A1C" Ref="#PWR?"  Part="1" 
AR Path="/5E362A1C" Ref="#PWR?"  Part="1" 
AR Path="/5DC1E7F0/5E362A1C" Ref="#PWR?"  Part="1" 
AR Path="/5E1CA863/5E362A1C" Ref="#PWR?"  Part="1" 
AR Path="/5E35B989/5E362A1C" Ref="#PWR0277"  Part="1" 
F 0 "#PWR0277" H 9200 4450 50  0001 C CNN
F 1 "VCC" H 9218 4728 50  0000 L CNN
F 2 "" H 9200 4600 50  0001 C CNN
F 3 "" H 9200 4600 50  0001 C CNN
	1    9200 4600
	-1   0    0    -1  
$EndComp
$Comp
L power:VCC #PWR?
U 1 1 5E3629F8
P 10150 3400
AR Path="/635BEEB0/5E3629F8" Ref="#PWR?"  Part="1" 
AR Path="/5E3629F8" Ref="#PWR?"  Part="1" 
AR Path="/5DC1E7F0/5E3629F8" Ref="#PWR?"  Part="1" 
AR Path="/5E1CA863/5E3629F8" Ref="#PWR?"  Part="1" 
AR Path="/5E35B989/5E3629F8" Ref="#PWR0275"  Part="1" 
F 0 "#PWR0275" H 10150 3250 50  0001 C CNN
F 1 "VCC" H 9950 3500 50  0000 L CNN
F 2 "" H 10150 3400 50  0001 C CNN
F 3 "" H 10150 3400 50  0001 C CNN
	1    10150 3400
	-1   0    0    -1  
$EndComp
$Comp
L power:GND #PWR016
U 1 1 5E6B565A
P 950 3500
F 0 "#PWR016" H 950 3250 50  0001 C CNN
F 1 "GND" H 955 3327 50  0001 C CNN
F 2 "" H 950 3500 50  0001 C CNN
F 3 "" H 950 3500 50  0001 C CNN
	1    950  3500
	1    0    0    -1  
$EndComp
$Comp
L power:GND #PWR017
U 1 1 5E63F900
P 950 4400
F 0 "#PWR017" H 950 4150 50  0001 C CNN
F 1 "GND" H 955 4227 50  0001 C CNN
F 2 "" H 950 4400 50  0001 C CNN
F 3 "" H 950 4400 50  0001 C CNN
	1    950  4400
	1    0    0    -1  
$EndComp
$Comp
L power:GND #PWR?
U 1 1 5E97305E
P 1000 7550
AR Path="/635BEEB0/5E97305E" Ref="#PWR?"  Part="1" 
AR Path="/5E97305E" Ref="#PWR?"  Part="1" 
AR Path="/5DC1E7F0/5E97305E" Ref="#PWR?"  Part="1" 
AR Path="/5E1CA863/5E97305E" Ref="#PWR?"  Part="1" 
AR Path="/5E35B989/5E97305E" Ref="#PWR019"  Part="1" 
F 0 "#PWR019" H 1000 7300 50  0001 C CNN
F 1 "GND" H 1005 7377 50  0001 C CNN
F 2 "" H 1000 7550 50  0001 C CNN
F 3 "" H 1000 7550 50  0001 C CNN
	1    1000 7550
	-1   0    0    -1  
$EndComp
$Comp
L power:GND #PWR?
U 1 1 5E5861D8
P 1700 7550
AR Path="/635BEEB0/5E5861D8" Ref="#PWR?"  Part="1" 
AR Path="/5E5861D8" Ref="#PWR?"  Part="1" 
AR Path="/5DC1E7F0/5E5861D8" Ref="#PWR?"  Part="1" 
AR Path="/5E1CA863/5E5861D8" Ref="#PWR?"  Part="1" 
AR Path="/5E35B989/5E5861D8" Ref="#PWR027"  Part="1" 
F 0 "#PWR027" H 1700 7300 50  0001 C CNN
F 1 "GND" H 1705 7377 50  0001 C CNN
F 2 "" H 1700 7550 50  0001 C CNN
F 3 "" H 1700 7550 50  0001 C CNN
	1    1700 7550
	-1   0    0    -1  
$EndComp
$Comp
L power:GND #PWR?
U 1 1 5E362A0A
P 9300 3400
AR Path="/635BEEB0/5E362A0A" Ref="#PWR?"  Part="1" 
AR Path="/5E362A0A" Ref="#PWR?"  Part="1" 
AR Path="/5DC1E7F0/5E362A0A" Ref="#PWR?"  Part="1" 
AR Path="/5E1CA863/5E362A0A" Ref="#PWR?"  Part="1" 
AR Path="/5E35B989/5E362A0A" Ref="#PWR0276"  Part="1" 
F 0 "#PWR0276" H 9300 3150 50  0001 C CNN
F 1 "GND" H 9305 3227 50  0001 C CNN
F 2 "" H 9300 3400 50  0001 C CNN
F 3 "" H 9300 3400 50  0001 C CNN
	1    9300 3400
	1    0    0    -1  
$EndComp
$Comp
L power:GND #PWR?
U 1 1 5E3629F2
P 9800 5000
AR Path="/635BEEB0/5E3629F2" Ref="#PWR?"  Part="1" 
AR Path="/5E3629F2" Ref="#PWR?"  Part="1" 
AR Path="/5DC1E7F0/5E3629F2" Ref="#PWR?"  Part="1" 
AR Path="/5E1CA863/5E3629F2" Ref="#PWR?"  Part="1" 
AR Path="/5E35B989/5E3629F2" Ref="#PWR0274"  Part="1" 
F 0 "#PWR0274" H 9800 4750 50  0001 C CNN
F 1 "GND" H 9805 4827 50  0001 C CNN
F 2 "" H 9800 5000 50  0001 C CNN
F 3 "" H 9800 5000 50  0001 C CNN
	1    9800 5000
	1    0    0    -1  
$EndComp
$Comp
L Device:R_Small R?
U 1 1 5E973057
P 1100 7550
AR Path="/5D9F70E5/5E973057" Ref="R?"  Part="1" 
AR Path="/5E35B989/5E973057" Ref="R2"  Part="1" 
F 0 "R2" V 1000 7750 50  0000 C CNN
F 1 "4.7k" V 1100 7750 50  0000 C CNN
F 2 "" H 1100 7550 50  0001 C CNN
F 3 "~" H 1100 7550 50  0001 C CNN
	1    1100 7550
	0    -1   1    0   
$EndComp
$Comp
L Device:R_Small R?
U 1 1 5E5861D1
P 1800 7550
AR Path="/5D9F70E5/5E5861D1" Ref="R?"  Part="1" 
AR Path="/5E35B989/5E5861D1" Ref="R6"  Part="1" 
F 0 "R6" V 1700 7350 50  0000 C CNN
F 1 "4.7k" V 1800 7350 50  0000 C CNN
F 2 "" H 1800 7550 50  0001 C CNN
F 3 "~" H 1800 7550 50  0001 C CNN
	1    1800 7550
	0    -1   1    0   
$EndComp
$Comp
L Device:C_Small CX33
U 1 1 5E941052
P 1100 5250
F 0 "CX33" H 1192 5296 50  0001 L CNN
F 1 "0.1u" H 900 5150 50  0000 L CNN
F 2 "" H 1100 5250 50  0001 C CNN
F 3 "~" H 1100 5250 50  0001 C CNN
	1    1100 5250
	-1   0    0    -1  
$EndComp
$Comp
L Device:C_Small C?
U 1 1 5E362A04
P 9400 3400
AR Path="/635BEEB0/5E362A04" Ref="C?"  Part="1" 
AR Path="/5E362A04" Ref="C?"  Part="1" 
AR Path="/5DC1E7F0/5E362A04" Ref="C?"  Part="1" 
AR Path="/5E1CA863/5E362A04" Ref="C?"  Part="1" 
AR Path="/5E35B989/5E362A04" Ref="CX34"  Part="1" 
F 0 "CX34" V 9171 3400 50  0001 C CNN
F 1 "0.1u" V 9263 3400 50  0000 C TNN
F 2 "" H 9400 3400 50  0001 C CNN
F 3 "~" H 9400 3400 50  0001 C CNN
	1    9400 3400
	0    1    1    0   
$EndComp
$Comp
L Device:Ferrite_Bead_Small FB1
U 1 1 5DC9AE69
P 7100 3450
F 0 "FB1" V 7245 3450 50  0000 C CNN
F 1 "Ferrite_Bead_Small" V 7246 3450 50  0001 C CNN
F 2 "" V 7030 3450 50  0001 C CNN
F 3 "~" H 7100 3450 50  0001 C CNN
	1    7100 3450
	0    -1   -1   0   
$EndComp
$Comp
L Device:C EXC1
U 1 1 5DD51758
P 850 5250
F 0 "EXC1" H 850 5350 50  0000 L CNN
F 1 "1u" H 850 5150 50  0000 L CNN
F 2 "" H 888 5100 50  0001 C CNN
F 3 "~" H 850 5250 50  0001 C CNN
	1    850  5250
	1    0    0    -1  
$EndComp
$Comp
L 74xx:74LS245 U10F?
U 1 1 5E362A46
P 9800 4200
AR Path="/635BEEB0/5E362A46" Ref="U10F?"  Part="1" 
AR Path="/5E362A46" Ref="U10F?"  Part="1" 
AR Path="/5DC1E7F0/5E362A46" Ref="U10F?"  Part="1" 
AR Path="/5E1CA863/5E362A46" Ref="U10F?"  Part="1" 
AR Path="/5E35B989/5E362A46" Ref="UF10"  Part="1" 
F 0 "UF10" H 9800 5178 50  0000 C CNN
F 1 "74LS245" H 9800 5087 50  0000 C CNN
F 2 "" H 9800 4200 50  0001 C CNN
F 3 "http://www.ti.com/lit/gpn/sn74LS245" H 9800 4200 50  0001 C CNN
	1    9800 4200
	1    0    0    -1  
$EndComp
$Comp
L CPS2-Custom:DL-1827 U-CIF-B4
U 1 1 5E35B9B9
P 4100 4200
F 0 "U-CIF-B4" H 4100 4400 200 0000 C CNN
F 1 "DL-1827" H 4100 4150 200 0000 C CNN
F 2 "" H 7200 6100 50  0001 C CNN
F 3 "" H 7200 6100 50  0001 C CNN
	1    4100 4200
	1    0    0    -1  
$EndComp
Text Label 1300 2200 2    50   ~ 0
CPU-CONTROL-I0
Text Label 1300 2300 2    50   ~ 0
CPU-CONTROL-I1
Text Label 1300 2400 2    50   ~ 0
CPU-CONTROL-I2
Text Label 1300 2500 2    50   ~ 0
CPU-CONTROL-I3
Text Label 1300 2600 2    50   ~ 0
CPU-CONTROL-I4
Text Label 1300 2700 2    50   ~ 0
CPU-CONTROL-I5
Text Label 1300 2800 2    50   ~ 0
CPU-CONTROL-I6
Text Label 1300 2900 2    50   ~ 0
CPU-CONTROL-I7
Wire Wire Line
	1300 5400 1300 5500
Wire Wire Line
	1300 3900 1300 4000
Wire Wire Line
	1300 4400 1300 4500
Wire Wire Line
	1300 5700 1300 5800
Wire Wire Line
	1300 3200 1300 3400
Connection ~ 1300 3400
Wire Wire Line
	1300 3400 1300 3500
Connection ~ 1300 4000
Wire Wire Line
	1300 4000 1300 4100
Connection ~ 1300 4100
Wire Wire Line
	1300 4100 1300 4200
Connection ~ 1300 4200
Wire Wire Line
	1300 4200 1300 4300
Connection ~ 1300 4300
Wire Wire Line
	1300 4300 1300 4400
Connection ~ 1300 4500
Wire Wire Line
	1300 4500 1300 4600
Connection ~ 1300 4600
Wire Wire Line
	1300 4600 1300 4700
Connection ~ 1300 4700
Wire Wire Line
	1300 4700 1300 4800
Connection ~ 1300 4800
Wire Wire Line
	1300 4800 1300 4900
Connection ~ 1300 4900
Wire Wire Line
	1300 4900 1300 5000
Connection ~ 1300 5000
Wire Wire Line
	1300 5000 1300 5100
Connection ~ 1300 5400
Connection ~ 1300 5500
Wire Wire Line
	1300 5500 1300 5600
Connection ~ 1300 5600
Wire Wire Line
	1300 5600 1300 5700
Connection ~ 1300 5800
Wire Wire Line
	1300 5800 1300 5900
Connection ~ 1300 5900
Wire Wire Line
	1300 5900 1300 6000
Connection ~ 1300 6000
Wire Wire Line
	1300 6000 1300 6100
Wire Wire Line
	1300 3600 1300 3700
Connection ~ 1300 3600
Wire Bus Line
	1600 750  1500 750 
Wire Wire Line
	600  2200 1300 2200
Wire Wire Line
	600  2300 1300 2300
Wire Wire Line
	600  2400 1300 2400
Wire Wire Line
	600  2500 1300 2500
Wire Wire Line
	600  2600 1300 2600
Wire Wire Line
	600  2700 1300 2700
Wire Wire Line
	600  2800 1300 2800
Wire Wire Line
	600  2900 1300 2900
Entry Wire Line
	500  2100 600  2200
Entry Wire Line
	500  2200 600  2300
Entry Wire Line
	500  2300 600  2400
Entry Wire Line
	500  2400 600  2500
Entry Wire Line
	500  2500 600  2600
Entry Wire Line
	500  2600 600  2700
Entry Wire Line
	500  2700 600  2800
Entry Wire Line
	500  2800 600  2900
Text HLabel 600  1450 2    50   Input ~ 0
CPU-CONTROL-I[0..7]
Wire Bus Line
	600  1450 500  1450
Text HLabel 8000 2000 2    50   Output ~ 0
CPU-CONTROL-O[0..8]
Text Label 7000 2200 0    50   ~ 0
CPU-CONTROL-O0
Text Label 7000 2300 0    50   ~ 0
CPU-CONTROL-O1
Text Label 7000 2400 0    50   ~ 0
CPU-CONTROL-O2
Text Label 7000 2500 0    50   ~ 0
CPU-CONTROL-O3
Text Label 7000 2600 0    50   ~ 0
CPU-CONTROL-O4
Text Label 7000 2700 0    50   ~ 0
CPU-CONTROL-O5
Text Label 7000 2800 0    50   ~ 0
CPU-CONTROL-O6
Text Label 7000 2900 0    50   ~ 0
CPU-CONTROL-O7
Text Label 7000 3000 0    50   ~ 0
CPU-CONTROL-O8
Wire Wire Line
	6950 2200 7750 2200
Wire Wire Line
	6950 2300 7750 2300
Wire Wire Line
	6950 2400 7750 2400
Wire Wire Line
	6950 2500 7750 2500
Wire Wire Line
	6950 2600 7750 2600
Wire Wire Line
	6950 2700 7750 2700
Wire Wire Line
	6950 2800 7750 2800
Wire Wire Line
	6950 2900 7750 2900
Wire Wire Line
	6950 3000 7750 3000
Entry Wire Line
	7750 3000 7850 2900
Entry Wire Line
	7750 2900 7850 2800
Entry Wire Line
	7750 2800 7850 2700
Entry Wire Line
	7750 2700 7850 2600
Entry Wire Line
	7750 2600 7850 2500
Entry Wire Line
	7750 2500 7850 2400
Entry Wire Line
	7750 2400 7850 2300
Entry Wire Line
	7750 2300 7850 2200
Entry Wire Line
	7750 2200 7850 2100
Wire Bus Line
	7850 2000 8000 2000
Text Label 6350 950  0    50   ~ 0
OBJRAM-CONTROL0
Text Label 6350 1050 0    50   ~ 0
OBJRAM-CONTROL1
Text Label 6350 1150 0    50   ~ 0
OBJRAM-CONTROL2
Text Label 6350 1250 0    50   ~ 0
OBJRAM-CONTROL3
Wire Wire Line
	7200 950  5950 950 
Wire Wire Line
	5950 950  5950 1350
Wire Wire Line
	6050 1350 6050 1050
Wire Wire Line
	6050 1050 7200 1050
Wire Wire Line
	7200 1150 6150 1150
Wire Wire Line
	6150 1150 6150 1350
Wire Wire Line
	6250 1350 6250 1250
Wire Wire Line
	6250 1250 7200 1250
Entry Wire Line
	7200 1250 7300 1150
Entry Wire Line
	7200 1150 7300 1050
Entry Wire Line
	7200 1050 7300 950 
Entry Wire Line
	7200 950  7300 850 
Wire Bus Line
	7300 700  7400 700 
Text HLabel 7400 700  2    50   Output ~ 0
OBJRAM-CONTROL[0..3]
$Comp
L Device:R_Small R?
U 1 1 5E51192D
P 7850 5850
AR Path="/5D9F70E5/5E51192D" Ref="R?"  Part="1" 
AR Path="/5E35B989/5E51192D" Ref="R1"  Part="1" 
F 0 "R1" V 7650 5850 50  0000 C CNN
F 1 "4.7k" V 7750 5850 50  0000 C CNN
F 2 "" H 7850 5850 50  0001 C CNN
F 3 "~" H 7850 5850 50  0001 C CNN
	1    7850 5850
	0    1    1    0   
$EndComp
$Comp
L Device:R_Small R?
U 1 1 5E5504E6
P 7850 5550
AR Path="/5D9F70E5/5E5504E6" Ref="R?"  Part="1" 
AR Path="/5E35B989/5E5504E6" Ref="R11"  Part="1" 
F 0 "R11" V 7650 5550 50  0000 C CNN
F 1 "4.7k" V 7750 5550 50  0000 C CNN
F 2 "" H 7850 5550 50  0001 C CNN
F 3 "~" H 7850 5550 50  0001 C CNN
	1    7850 5550
	0    1    1    0   
$EndComp
$Comp
L power:VCC #PWR?
U 1 1 5E5433C6
P 8050 5850
AR Path="/635BEEB0/5E5433C6" Ref="#PWR?"  Part="1" 
AR Path="/5E5433C6" Ref="#PWR?"  Part="1" 
AR Path="/5DC1E7F0/5E5433C6" Ref="#PWR?"  Part="1" 
AR Path="/5E1CA863/5E5433C6" Ref="#PWR?"  Part="1" 
AR Path="/5E35B989/5E5433C6" Ref="#PWR029"  Part="1" 
F 0 "#PWR029" H 8050 5700 50  0001 C CNN
F 1 "VCC" H 7850 5950 50  0000 L CNN
F 2 "" H 8050 5850 50  0001 C CNN
F 3 "" H 8050 5850 50  0001 C CNN
	1    8050 5850
	-1   0    0    -1  
$EndComp
$Comp
L power:VCC #PWR?
U 1 1 5E5504EE
P 8050 5550
AR Path="/635BEEB0/5E5504EE" Ref="#PWR?"  Part="1" 
AR Path="/5E5504EE" Ref="#PWR?"  Part="1" 
AR Path="/5DC1E7F0/5E5504EE" Ref="#PWR?"  Part="1" 
AR Path="/5E1CA863/5E5504EE" Ref="#PWR?"  Part="1" 
AR Path="/5E35B989/5E5504EE" Ref="#PWR028"  Part="1" 
F 0 "#PWR028" H 8050 5400 50  0001 C CNN
F 1 "VCC" H 7850 5650 50  0000 L CNN
F 2 "" H 8050 5550 50  0001 C CNN
F 3 "" H 8050 5550 50  0001 C CNN
	1    8050 5550
	-1   0    0    -1  
$EndComp
Text HLabel 7150 5500 2    50   Input ~ 0
~CPSB-OBJUP
Wire Wire Line
	8050 5850 7950 5850
Wire Wire Line
	8050 5550 7950 5550
Wire Wire Line
	7050 5550 7750 5550
Wire Wire Line
	7050 5850 7750 5850
Entry Wire Line
	7550 4400 7450 4500
Wire Wire Line
	6950 4500 7450 4500
Text Label 7000 4500 0    50   ~ 0
CONTROL7
Connection ~ 7700 3800
Wire Bus Line
	7700 3800 8650 3800
Text Label 7900 3800 0    50   ~ 0
CONTROL[1..7]
Wire Bus Line
	7300 700  7300 1150
Wire Bus Line
	11150 4000 11150 4600
Wire Bus Line
	8650 3800 8650 4200
Wire Bus Line
	1500 750  1500 1200
Wire Bus Line
	950  6900 950  7300
Wire Bus Line
	7550 3800 7550 4400
Wire Bus Line
	500  1450 500  2800
Wire Bus Line
	2050 7700 3050 7700
Wire Bus Line
	3300 7600 4550 7600
Wire Bus Line
	4650 700  5950 700 
Wire Bus Line
	7850 2000 7850 2900
Wire Bus Line
	4650 7600 6200 7600
Wire Bus Line
	2900 700  4500 700 
$EndSCHEMATC
