EESchema Schematic File Version 4
EELAYER 30 0
EELAYER END
$Descr A4 11693 8268
encoding utf-8
Sheet 2 17
Title ""
Date "2019-10-17"
Rev ""
Comp ""
Comment1 ""
Comment2 "Licence: CC-BY"
Comment3 "Author: Loic *WydD* Petit"
Comment4 "Project: CPS2 Reverse Engineering: 93646B"
$EndDescr
Connection ~ 3900 1100
Connection ~ 3900 4400
Connection ~ 3900 4800
Connection ~ 3900 1600
Connection ~ 2850 2750
Connection ~ 2850 5650
Connection ~ 2850 4050
Connection ~ 2850 3250
Connection ~ 2850 3150
Connection ~ 2850 3050
Connection ~ 2850 2950
Connection ~ 2850 5550
Connection ~ 2850 2850
Connection ~ 2850 5450
Connection ~ 2850 5350
Connection ~ 2850 5250
Connection ~ 2850 3950
Connection ~ 2850 3850
Connection ~ 2850 3750
Connection ~ 2850 3650
Connection ~ 2850 3550
Connection ~ 3900 4900
Connection ~ 3900 4500
Connection ~ 3900 1200
Entry Wire Line
	2400 4150 2500 4250
Entry Wire Line
	2400 4250 2500 4350
Entry Wire Line
	2400 4350 2500 4450
Entry Wire Line
	2400 4450 2500 4550
Entry Wire Line
	2400 4550 2500 4650
Entry Wire Line
	2400 4650 2500 4750
Entry Wire Line
	2400 4750 2500 4850
Entry Wire Line
	2400 4850 2500 4950
Entry Wire Line
	2400 4950 2500 5050
Entry Wire Line
	4500 1800 4600 1700
Entry Wire Line
	4500 1900 4600 1800
Entry Wire Line
	4500 2000 4600 1900
Entry Wire Line
	4500 2100 4600 2000
Entry Wire Line
	4500 2200 4600 2100
Entry Wire Line
	4500 2300 4600 2200
Entry Wire Line
	4500 2400 4600 2300
Entry Wire Line
	4500 2500 4600 2400
Entry Wire Line
	4500 2600 4600 2500
Entry Wire Line
	4500 2700 4600 2600
Entry Wire Line
	4500 2800 4600 2700
Entry Wire Line
	4500 2900 4600 2800
Entry Wire Line
	4500 3000 4600 2900
Entry Wire Line
	4500 3100 4600 3000
Entry Wire Line
	4500 3200 4600 3100
Entry Wire Line
	4500 3300 4600 3200
Entry Wire Line
	4500 3400 4600 3300
Entry Wire Line
	4500 3500 4600 3400
Entry Wire Line
	4500 3600 4600 3500
Entry Wire Line
	4500 3700 4600 3600
Entry Wire Line
	4500 3800 4600 3700
Entry Wire Line
	4500 3900 4600 3800
Entry Wire Line
	4500 4000 4600 3900
Entry Wire Line
	4500 5100 4600 5000
Entry Wire Line
	4500 5200 4600 5100
Entry Wire Line
	4500 5300 4600 5200
Entry Wire Line
	4500 5400 4600 5300
Entry Wire Line
	4500 5500 4600 5400
Entry Wire Line
	4500 5600 4600 5500
Entry Wire Line
	4500 5700 4600 5600
Entry Wire Line
	4500 5800 4600 5700
Entry Wire Line
	4500 5900 4600 5800
Entry Wire Line
	4500 6000 4600 5900
Entry Wire Line
	4500 6100 4600 6000
Entry Wire Line
	4500 6200 4600 6100
Entry Wire Line
	4500 6300 4600 6200
Entry Wire Line
	4500 6400 4600 6300
Entry Wire Line
	4500 6500 4600 6400
Entry Wire Line
	4500 6600 4600 6500
Entry Wire Line
	7600 5900 7700 5800
Entry Wire Line
	7600 6000 7700 5900
Entry Wire Line
	7600 6100 7700 6000
Entry Wire Line
	7600 6200 7700 6100
Entry Wire Line
	7600 6300 7700 6200
Wire Wire Line
	2500 4250 2850 4250
Wire Wire Line
	2500 4350 2850 4350
Wire Wire Line
	2500 4450 2850 4450
Wire Wire Line
	2500 4550 2850 4550
Wire Wire Line
	2500 4650 2850 4650
Wire Wire Line
	2500 4750 2850 4750
Wire Wire Line
	2500 4850 2850 4850
Wire Wire Line
	2500 4950 2850 4950
Wire Wire Line
	2500 5050 2850 5050
Wire Wire Line
	2700 2750 2850 2750
Wire Wire Line
	2700 4050 2850 4050
Wire Wire Line
	2700 5650 2850 5650
Wire Wire Line
	2850 2650 2850 2750
Wire Wire Line
	2850 2750 2850 2850
Wire Wire Line
	2850 2850 2850 2950
Wire Wire Line
	2850 2950 2850 3050
Wire Wire Line
	2850 3050 2850 3150
Wire Wire Line
	2850 3150 2850 3250
Wire Wire Line
	2850 3250 2850 3350
Wire Wire Line
	2850 3450 2850 3550
Wire Wire Line
	2850 3550 2850 3650
Wire Wire Line
	2850 3650 2850 3750
Wire Wire Line
	2850 3750 2850 3850
Wire Wire Line
	2850 3850 2850 3950
Wire Wire Line
	2850 3950 2850 4050
Wire Wire Line
	2850 4050 2850 4150
Wire Wire Line
	2850 5250 2850 5150
Wire Wire Line
	2850 5350 2850 5250
Wire Wire Line
	2850 5350 2850 5450
Wire Wire Line
	2850 5450 2850 5550
Wire Wire Line
	2850 5550 2850 5650
Wire Wire Line
	2850 5650 2850 5750
Wire Wire Line
	3900 1000 3900 1100
Wire Wire Line
	3900 1100 3900 1200
Wire Wire Line
	3900 1200 3900 1300
Wire Wire Line
	3900 1500 3900 1600
Wire Wire Line
	3900 1600 3900 1700
Wire Wire Line
	3900 1800 4500 1800
Wire Wire Line
	3900 1900 4500 1900
Wire Wire Line
	3900 2000 4500 2000
Wire Wire Line
	3900 2100 4500 2100
Wire Wire Line
	3900 2200 4500 2200
Wire Wire Line
	3900 2300 4500 2300
Wire Wire Line
	3900 2400 4500 2400
Wire Wire Line
	3900 2500 4500 2500
Wire Wire Line
	3900 2600 4500 2600
Wire Wire Line
	3900 2700 4500 2700
Wire Wire Line
	3900 2800 4500 2800
Wire Wire Line
	3900 2900 4500 2900
Wire Wire Line
	3900 3000 4500 3000
Wire Wire Line
	3900 3100 4500 3100
Wire Wire Line
	3900 3200 4500 3200
Wire Wire Line
	3900 3300 4500 3300
Wire Wire Line
	3900 3400 4500 3400
Wire Wire Line
	3900 3500 4500 3500
Wire Wire Line
	3900 3600 4500 3600
Wire Wire Line
	3900 3700 4500 3700
Wire Wire Line
	3900 3800 4500 3800
Wire Wire Line
	3900 3900 4500 3900
Wire Wire Line
	3900 4000 4500 4000
Wire Wire Line
	3900 4100 4600 4100
Wire Wire Line
	3900 4300 3900 4400
Wire Wire Line
	3900 4400 3900 4500
Wire Wire Line
	3900 4500 3900 4600
Wire Wire Line
	3900 4700 3900 4800
Wire Wire Line
	3900 4800 3900 4900
Wire Wire Line
	3900 4900 3900 5000
Wire Wire Line
	3900 5100 4500 5100
Wire Wire Line
	3900 5200 4500 5200
Wire Wire Line
	3900 5300 4500 5300
Wire Wire Line
	3900 5400 4500 5400
Wire Wire Line
	3900 5500 4500 5500
Wire Wire Line
	3900 5600 4500 5600
Wire Wire Line
	3900 5700 4500 5700
Wire Wire Line
	3900 5800 4500 5800
Wire Wire Line
	3900 5900 4500 5900
Wire Wire Line
	3900 6000 4500 6000
Wire Wire Line
	3900 6100 4500 6100
Wire Wire Line
	3900 6200 4500 6200
Wire Wire Line
	3900 6300 4500 6300
Wire Wire Line
	3900 6400 4500 6400
Wire Wire Line
	3900 6500 4500 6500
Wire Wire Line
	3900 6600 4500 6600
Wire Wire Line
	3900 6700 4550 6700
Wire Wire Line
	3900 6800 4550 6800
Wire Wire Line
	3900 6900 4550 6900
Wire Wire Line
	3900 7400 3900 7450
Wire Wire Line
	3900 7450 4550 7450
Wire Wire Line
	4050 1100 3900 1100
Wire Wire Line
	4050 1600 3900 1600
Wire Wire Line
	4050 4400 3900 4400
Wire Wire Line
	4050 4800 3900 4800
Wire Wire Line
	4050 7000 3900 7000
Wire Wire Line
	4050 7100 3900 7100
Wire Wire Line
	4050 7200 3900 7200
Wire Wire Line
	4050 7300 3900 7300
Wire Wire Line
	4600 1400 3900 1400
Wire Wire Line
	6900 5900 7600 5900
Wire Wire Line
	6900 6000 7600 6000
Wire Wire Line
	6900 6100 7600 6100
Wire Wire Line
	6900 6200 7600 6200
Wire Wire Line
	6900 6300 7600 6300
Wire Bus Line
	2400 4000 1800 4000
Wire Bus Line
	4600 1700 5450 1700
Wire Bus Line
	4600 5000 5450 5000
Wire Bus Line
	7700 5600 7900 5600
Text Notes 4650 6700 0    50   ~ 0
~BUS-OE
Text Notes 4650 6800 0    50   ~ 0
~BUS-UDSW
Text Notes 4700 4100 0    50   ~ 0
~ROM-E
Text Label 2600 4250 0    50   ~ 0
C17
Text Label 2600 4350 0    50   ~ 0
C18
Text Label 2600 4450 0    50   ~ 0
C19
Text Label 2600 4550 0    50   ~ 0
C20
Text Label 2600 4650 0    50   ~ 0
C21
Text Label 2600 4750 0    50   ~ 0
C22
Text Label 2600 4850 0    50   ~ 0
C23
Text Label 2600 4950 0    50   ~ 0
C24
Text Label 2600 5050 0    50   ~ 0
C25
Text Label 3950 1800 0    50   ~ 0
CODE-ADDR23
Text Label 3950 1900 0    50   ~ 0
CODE-ADDR22
Text Label 3950 2000 0    50   ~ 0
CODE-ADDR21
Text Label 3950 2100 0    50   ~ 0
CODE-ADDR20
Text Label 3950 2200 0    50   ~ 0
CODE-ADDR19
Text Label 3950 2300 0    50   ~ 0
CODE-ADDR18
Text Label 3950 2400 0    50   ~ 0
CODE-ADDR17
Text Label 3950 2500 0    50   ~ 0
CODE-ADDR16
Text Label 3950 2600 0    50   ~ 0
CODE-ADDR15
Text Label 3950 2700 0    50   ~ 0
CODE-ADDR14
Text Label 3950 2800 0    50   ~ 0
CODE-ADDR13
Text Label 3950 2900 0    50   ~ 0
CODE-ADDR12
Text Label 3950 3000 0    50   ~ 0
CODE-ADDR11
Text Label 3950 3100 0    50   ~ 0
CODE-ADDR10
Text Label 3950 3200 0    50   ~ 0
CODE-ADDR9
Text Label 3950 3300 0    50   ~ 0
CODE-ADDR8
Text Label 3950 3400 0    50   ~ 0
CODE-ADDR7
Text Label 3950 3500 0    50   ~ 0
CODE-ADDR6
Text Label 3950 3600 0    50   ~ 0
CODE-ADDR5
Text Label 3950 3700 0    50   ~ 0
CODE-ADDR4
Text Label 3950 3800 0    50   ~ 0
CODE-ADDR3
Text Label 3950 3900 0    50   ~ 0
CODE-ADDR2
Text Label 3950 4000 0    50   ~ 0
CODE-ADDR1
Text Label 3950 4100 0    50   ~ 0
CONTROL-OUT4
Text Label 3950 5100 0    50   ~ 0
CODE-DATA15
Text Label 3950 5200 0    50   ~ 0
CODE-DATA14
Text Label 3950 5300 0    50   ~ 0
CODE-DATA13
Text Label 3950 5400 0    50   ~ 0
CODE-DATA12
Text Label 3950 5500 0    50   ~ 0
CODE-DATA11
Text Label 3950 5600 0    50   ~ 0
CODE-DATA10
Text Label 3950 5700 0    50   ~ 0
CODE-DATA9
Text Label 3950 5800 0    50   ~ 0
CODE-DATA8
Text Label 3950 5900 0    50   ~ 0
CODE-DATA7
Text Label 3950 6000 0    50   ~ 0
CODE-DATA6
Text Label 3950 6100 0    50   ~ 0
CODE-DATA5
Text Label 3950 6200 0    50   ~ 0
CODE-DATA4
Text Label 3950 6300 0    50   ~ 0
CODE-DATA3
Text Label 3950 6400 0    50   ~ 0
CODE-DATA2
Text Label 3950 6500 0    50   ~ 0
CODE-DATA1
Text Label 3950 6600 0    50   ~ 0
CODE-DATA0
Text Label 3950 6700 0    50   ~ 0
CONTROL-OUT3
Text Label 3950 6800 0    50   ~ 0
CONTROL-OUT1
Text Label 3950 6900 0    50   ~ 0
CONTROL-OUT2
Text Label 3950 7450 0    50   ~ 0
CONTROL-OUT6
Text Label 6950 5900 0    50   ~ 0
CONTROL-OUT1
Text Label 6950 6000 0    50   ~ 0
CONTROL-OUT2
Text Label 6950 6100 0    50   ~ 0
CONTROL-OUT3
Text Label 6950 6200 0    50   ~ 0
CONTROL-OUT4
Text Label 6950 6300 0    50   ~ 0
CONTROL-OUT6
Text HLabel 1800 4000 0    50   BiDi ~ 0
C[17..25]
Text HLabel 4050 7000 2    50   Output ~ 0
SECURITY5
Text HLabel 4050 7100 2    50   Output ~ 0
~Z80-BUS
Text HLabel 4050 7200 2    50   Output ~ 0
~CPSB-OBJUP
Text HLabel 4050 7300 2    50   Output ~ 0
~CPSA-BR
Text HLabel 4600 1400 2    50   Output ~ 0
A5
Text HLabel 5450 1700 2    50   BiDi ~ 0
CODE-ADDR[1..23]
Text HLabel 5450 5000 2    50   BiDi ~ 0
CODE-DATA[0..15]
Text HLabel 7900 5600 2    50   Input ~ 0
CONTROL-OUT[1..6]
$Comp
L power:VCC #PWR0159
U 1 1 5D9159E7
P 2700 2750
AR Path="/6492EFBF/5D9159E7" Ref="#PWR0159"  Part="1" 
AR Path="/5D9159E7" Ref="#PWR?"  Part="1" 
F 0 "#PWR0159" H 2700 2600 50  0001 C CNN
F 1 "VCC" H 2717 2923 50  0000 C CNN
F 2 "" H 2700 2750 50  0001 C CNN
F 3 "" H 2700 2750 50  0001 C CNN
	1    2700 2750
	-1   0    0    -1  
$EndComp
$Comp
L power:VCC #PWR0157
U 1 1 5D91596F
P 4050 1100
AR Path="/6492EFBF/5D91596F" Ref="#PWR0157"  Part="1" 
AR Path="/5D91596F" Ref="#PWR?"  Part="1" 
F 0 "#PWR0157" H 4050 950 50  0001 C CNN
F 1 "VCC" H 4067 1273 50  0000 C CNN
F 2 "" H 4050 1100 50  0001 C CNN
F 3 "" H 4050 1100 50  0001 C CNN
	1    4050 1100
	1    0    0    -1  
$EndComp
$Comp
L power:VCC #PWR0155
U 1 1 5D915948
P 4050 4400
AR Path="/6492EFBF/5D915948" Ref="#PWR0155"  Part="1" 
AR Path="/5D915948" Ref="#PWR?"  Part="1" 
F 0 "#PWR0155" H 4050 4250 50  0001 C CNN
F 1 "VCC" H 4067 4573 50  0000 C CNN
F 2 "" H 4050 4400 50  0001 C CNN
F 3 "" H 4050 4400 50  0001 C CNN
	1    4050 4400
	1    0    0    -1  
$EndComp
$Comp
L power:GND #PWR0160
U 1 1 5D9159ED
P 2700 4050
AR Path="/6492EFBF/5D9159ED" Ref="#PWR0160"  Part="1" 
AR Path="/5D9159ED" Ref="#PWR?"  Part="1" 
F 0 "#PWR0160" H 2700 3800 50  0001 C CNN
F 1 "GND" H 2705 3877 50  0001 C CNN
F 2 "" H 2700 4050 50  0001 C CNN
F 3 "" H 2700 4050 50  0001 C CNN
	1    2700 4050
	-1   0    0    -1  
$EndComp
$Comp
L power:GND #PWR0161
U 1 1 5D9159F5
P 2700 5650
AR Path="/6492EFBF/5D9159F5" Ref="#PWR0161"  Part="1" 
AR Path="/5D9159F5" Ref="#PWR?"  Part="1" 
F 0 "#PWR0161" H 2700 5400 50  0001 C CNN
F 1 "GND" H 2705 5477 50  0001 C CNN
F 2 "" H 2700 5650 50  0001 C CNN
F 3 "" H 2700 5650 50  0001 C CNN
	1    2700 5650
	-1   0    0    -1  
$EndComp
$Comp
L power:GND #PWR0158
U 1 1 5D915975
P 4050 1600
AR Path="/6492EFBF/5D915975" Ref="#PWR0158"  Part="1" 
AR Path="/5D915975" Ref="#PWR?"  Part="1" 
F 0 "#PWR0158" H 4050 1350 50  0001 C CNN
F 1 "GND" H 4055 1427 50  0001 C CNN
F 2 "" H 4050 1600 50  0001 C CNN
F 3 "" H 4050 1600 50  0001 C CNN
	1    4050 1600
	1    0    0    -1  
$EndComp
$Comp
L power:GND #PWR0156
U 1 1 5D91594E
P 4050 4800
AR Path="/6492EFBF/5D91594E" Ref="#PWR0156"  Part="1" 
AR Path="/5D91594E" Ref="#PWR?"  Part="1" 
F 0 "#PWR0156" H 4050 4550 50  0001 C CNN
F 1 "GND" H 4055 4627 50  0001 C CNN
F 2 "" H 4050 4800 50  0001 C CNN
F 3 "" H 4050 4800 50  0001 C CNN
	1    4050 4800
	1    0    0    -1  
$EndComp
$Comp
L CPS2-Custom:96PIN_Sep CN?
U 1 1 5D915959
P 3400 4200
AR Path="/5D915959" Ref="CN?"  Part="1" 
AR Path="/635BEEB0/5D915959" Ref="CN?"  Part="1" 
AR Path="/6492EFBF/5D915959" Ref="CN1"  Part="1" 
F 0 "CN1" V 73  4221 50  0000 R BNN
F 1 "96PIN_Sep" H 73  4130 50  0001 R CNN
F 2 "" H 2200 4500 50  0001 C CNN
F 3 "" H 2200 4500 50  0001 C CNN
	1    3400 4200
	0    1    1    0   
$EndComp
Text Notes 4650 6900 0    50   ~ 0
~BUS-WE
Text Notes 4650 7450 0    50   ~ 0
~CPSA-RD
Wire Bus Line
	7700 5600 7700 6200
Wire Bus Line
	2400 4000 2400 4950
Wire Bus Line
	4600 5000 4600 6500
Wire Bus Line
	4600 1700 4600 3900
$EndSCHEMATC
