EESchema Schematic File Version 5
EELAYER 33 0
EELAYER END
$Descr A4 11693 8268
encoding utf-8
Sheet 8 20
Title ""
Date "2020-04-12"
Rev ""
Comp ""
Comment1 ""
Comment2 "Licence: CC-BY"
Comment3 "Author: Loic *WydD* Petit"
Comment4 "Project: CPS2 Reverse Engineering: DL-1827"
Comment5 ""
Comment6 ""
Comment7 ""
Comment8 ""
Comment9 ""
$EndDescr
Connection ~ 4050 4450
Connection ~ 4150 5000
Connection ~ 4050 5350
Connection ~ 4150 5650
Connection ~ 3950 3900
Connection ~ 3850 3350
Connection ~ 7950 3250
Connection ~ 8050 3350
Connection ~ 7950 4500
Connection ~ 8050 4600
Connection ~ 9300 3850
Entry Wire Line
	2300 1000 2400 1100
Entry Wire Line
	2300 1550 2400 1650
Entry Wire Line
	2300 2100 2400 2200
Entry Wire Line
	2300 2650 2400 2750
Entry Wire Line
	2300 3250 2400 3350
Entry Wire Line
	2300 3800 2400 3900
Entry Wire Line
	2300 4350 2400 4450
Entry Wire Line
	2300 4900 2400 5000
Wire Wire Line
	2400 1100 3000 1100
Wire Wire Line
	2400 1650 3000 1650
Wire Wire Line
	2400 2200 3000 2200
Wire Wire Line
	2400 2750 3000 2750
Wire Wire Line
	2400 3350 3000 3350
Wire Wire Line
	2400 3900 3000 3900
Wire Wire Line
	2400 4450 3000 4450
Wire Wire Line
	2400 5000 3000 5000
Wire Wire Line
	3600 1100 4900 1100
Wire Wire Line
	3600 1650 4550 1650
Wire Wire Line
	3600 2200 4550 2200
Wire Wire Line
	3600 2750 4900 2750
Wire Wire Line
	3600 3350 3850 3350
Wire Wire Line
	3600 3900 3950 3900
Wire Wire Line
	3600 4450 4050 4450
Wire Wire Line
	3600 5000 4150 5000
Wire Wire Line
	3850 3350 3850 6700
Wire Wire Line
	3850 3350 4900 3350
Wire Wire Line
	3850 6700 4050 6700
Wire Wire Line
	3950 3900 4550 3900
Wire Wire Line
	3950 6600 3950 3900
Wire Wire Line
	4050 4450 4550 4450
Wire Wire Line
	4050 5350 4050 4450
Wire Wire Line
	4050 6350 4050 5350
Wire Wire Line
	4050 6600 3950 6600
Wire Wire Line
	4150 5000 4900 5000
Wire Wire Line
	4150 5650 4150 5000
Wire Wire Line
	4150 5650 4150 6200
Wire Wire Line
	4150 6200 5950 6200
Wire Wire Line
	4550 1850 4550 1650
Wire Wire Line
	4550 1950 4900 1950
Wire Wire Line
	4550 2200 4550 1950
Wire Wire Line
	4550 3900 4550 4100
Wire Wire Line
	4550 4100 4900 4100
Wire Wire Line
	4550 4200 4900 4200
Wire Wire Line
	4550 4450 4550 4200
Wire Wire Line
	4600 6650 4650 6650
Wire Wire Line
	4650 6350 4050 6350
Wire Wire Line
	4650 6450 4650 6350
Wire Wire Line
	4650 6650 4650 6550
Wire Wire Line
	4900 1750 4900 1100
Wire Wire Line
	4900 1850 4550 1850
Wire Wire Line
	4900 2050 4900 2750
Wire Wire Line
	4900 3350 4900 4000
Wire Wire Line
	4900 4300 4900 5000
Wire Wire Line
	5150 5650 4150 5650
Wire Wire Line
	5200 6500 5950 6500
Wire Wire Line
	5500 1900 5900 1900
Wire Wire Line
	5500 4150 5900 4150
Wire Wire Line
	5900 3100 5900 1900
Wire Wire Line
	5900 3200 5950 3200
Wire Wire Line
	5900 4150 5900 3200
Wire Wire Line
	5950 3100 5900 3100
Wire Wire Line
	5950 5350 4050 5350
Wire Wire Line
	5950 5350 5950 5450
Wire Wire Line
	5950 5550 5950 5650
Wire Wire Line
	5950 5650 5750 5650
Wire Wire Line
	5950 6300 5950 6200
Wire Wire Line
	5950 6400 5950 6500
Wire Wire Line
	6500 3150 8150 3150
Wire Wire Line
	6500 6350 8150 6350
Wire Wire Line
	6900 1500 7000 1500
Wire Wire Line
	7000 950  6900 950 
Wire Wire Line
	7250 4400 7250 5500
Wire Wire Line
	7250 4400 8150 4400
Wire Wire Line
	7250 5500 6500 5500
Wire Wire Line
	7600 1500 7950 1500
Wire Wire Line
	7950 1500 7950 3250
Wire Wire Line
	7950 3250 7950 4500
Wire Wire Line
	7950 3250 8150 3250
Wire Wire Line
	7950 4500 7950 6150
Wire Wire Line
	7950 4500 8150 4500
Wire Wire Line
	7950 6150 8150 6150
Wire Wire Line
	8050 950  7600 950 
Wire Wire Line
	8050 950  8050 3350
Wire Wire Line
	8050 3350 8050 4600
Wire Wire Line
	8050 3350 8150 3350
Wire Wire Line
	8050 4600 8050 6250
Wire Wire Line
	8050 4600 8150 4600
Wire Wire Line
	8050 6250 8150 6250
Wire Wire Line
	8700 3250 9400 3250
Wire Wire Line
	8700 4500 9400 4500
Wire Wire Line
	9200 3850 9300 3850
Wire Wire Line
	9300 3350 9300 3850
Wire Wire Line
	9300 3850 9300 4400
Wire Wire Line
	9400 3350 9300 3350
Wire Wire Line
	9400 4400 9300 4400
Wire Wire Line
	9950 3300 10100 3300
Wire Wire Line
	9950 4450 10150 4450
Wire Bus Line
	1900 850  2300 850 
Wire Bus Line
	2300 850  2300 1000
Wire Bus Line
	2300 1000 2300 2100
Wire Bus Line
	2300 2100 2300 2650
Wire Bus Line
	2300 2650 2300 3800
Wire Bus Line
	2300 3800 2300 4900
Text Notes 7200 4800 2    50   ~ 0
HIGH if > 0x800000\n OR if < 0x400000
Text Notes 7300 3100 2    50   ~ 0
HIGH if 0xFFxxxx
Text Notes 7600 6300 2    50   ~ 0
HIGH if > 0x800000\n OR if < 0x500000
Text Notes 10150 6350 2    50   ~ 0
LOW if > 0x800000\n OR if < 0x500000
Text Notes 10650 3100 2    50   ~ 0
CONTROL-BUS46
Text Notes 10750 4300 2    50   ~ 0
CONTROL-BUS127
Text Notes 11000 4900 2    50   ~ 0
This is called CPS1 because this is similar to the BUS-RANGE\n  of what CPS1 was programmed in PRG1 pin 14
Text Label 3000 1100 2    50   ~ 0
CPU-ADDR16
Text Label 3000 1650 2    50   ~ 0
CPU-ADDR17
Text Label 3000 2200 2    50   ~ 0
CPU-ADDR18
Text Label 3000 2750 2    50   ~ 0
CPU-ADDR19
Text Label 3000 3350 2    50   ~ 0
CPU-ADDR20
Text Label 3000 3900 2    50   ~ 0
CPU-ADDR21
Text Label 3000 4450 2    50   ~ 0
CPU-ADDR22
Text Label 3000 5000 2    50   ~ 0
CPU-ADDR23
Text HLabel 1900 850  0    50   Input ~ 0
CPU-ADDR[16..23]
Text HLabel 6900 950  0    50   Input ~ 0
ENABLE1
Text HLabel 6900 1500 0    50   Input ~ 0
ENABLE2
Text HLabel 8600 3850 0    50   Input ~ 0
DEBUG-E
Text HLabel 8700 6250 2    50   Output ~ 0
~BUS-RANGE
Text HLabel 10100 3300 2    50   Output ~ 0
~DEBUG-RAM-E
Text HLabel 10150 4450 2    50   Output ~ 0
~DEBUG-CPS1-E
$Comp
L CG24-cells:R2P U36R112
U 1 1 5E8AE1E4
P 4300 6650
F 0 "U36R112" H 4275 6384 50  0000 C CNN
F 1 "R2P" H 4275 6475 50  0000 C CNN
F 2 "" H 4300 6650 50  0001 C CNN
F 3 "" H 4300 6650 50  0001 C CNN
	1    4300 6650
	1    0    0    -1  
$EndComp
$Comp
L CG24-cells:N2N U39R113
U 1 1 5E899012
P 4900 6500
F 0 "U39R113" H 4925 6234 50  0000 C CNN
F 1 "N2N" H 4925 6325 50  0000 C CNN
F 2 "" H 4900 6500 50  0001 C CNN
F 3 "" H 4900 6500 50  0001 C CNN
	1    4900 6500
	1    0    0    -1  
$EndComp
$Comp
L CG24-cells:R2N U32R113
U 1 1 5EAC9103
P 6200 3150
F 0 "U32R113" H 6175 2884 50  0000 C CNN
F 1 "R2N" H 6175 2975 50  0000 C CNN
F 2 "" H 6200 3150 50  0001 C CNN
F 3 "" H 6200 3150 50  0001 C CNN
	1    6200 3150
	1    0    0    1   
$EndComp
$Comp
L CG24-cells:N2N U38R123
U 1 1 5EACCB44
P 6200 5500
F 0 "U38R123" H 6175 5234 50  0000 C CNN
F 1 "N2N" H 6175 5325 50  0000 C CNN
F 2 "" H 6200 5500 50  0001 C CNN
F 3 "" H 6200 5500 50  0001 C CNN
	1    6200 5500
	1    0    0    1   
$EndComp
$Comp
L CG24-cells:R2P U40R112
U 1 1 5EACEC51
P 6200 6350
F 0 "U40R112" H 6175 6084 50  0000 C CNN
F 1 "R2P" H 6175 6175 50  0000 C CNN
F 2 "" H 6200 6350 50  0001 C CNN
F 3 "" H 6200 6350 50  0001 C CNN
	1    6200 6350
	1    0    0    1   
$EndComp
$Comp
L CG24-cells:R2P U36R132
U 1 1 5EBA812A
P 9650 3300
F 0 "U36R132" H 9625 3034 50  0000 C CNN
F 1 "R2P" H 9625 3125 50  0000 C CNN
F 2 "" H 9650 3300 50  0001 C CNN
F 3 "" H 9650 3300 50  0001 C CNN
	1    9650 3300
	1    0    0    1   
$EndComp
$Comp
L CG24-cells:R2P U36R122
U 1 1 5EBA39F7
P 9650 4450
F 0 "U36R122" H 9625 4184 50  0000 C CNN
F 1 "R2P" H 9625 4275 50  0000 C CNN
F 2 "" H 9650 4450 50  0001 C CNN
F 3 "" H 9650 4450 50  0001 C CNN
	1    9650 4450
	1    0    0    1   
$EndComp
$Comp
L CG24-cells:N3N U34R132
U 1 1 5EA40FFD
P 8400 3250
F 0 "U34R132" H 8425 3564 50  0000 C CNN
F 1 "N3N" H 8425 3473 50  0000 C CNN
F 2 "" H 8400 3250 50  0001 C CNN
F 3 "" H 8400 3250 50  0001 C CNN
	1    8400 3250
	1    0    0    -1  
$EndComp
$Comp
L CG24-cells:N3N U34R122
U 1 1 5EAB25A9
P 8400 4500
F 0 "U34R122" H 8425 4814 50  0000 C CNN
F 1 "N3N" H 8425 4723 50  0000 C CNN
F 2 "" H 8400 4500 50  0001 C CNN
F 3 "" H 8400 4500 50  0001 C CNN
	1    8400 4500
	1    0    0    -1  
$EndComp
$Comp
L CG24-cells:N3N U24R106
U 1 1 5EAB33C0
P 8400 6250
F 0 "U24R106" H 8425 6564 50  0000 C CNN
F 1 "N3N" H 8425 6473 50  0000 C CNN
F 2 "" H 8400 6250 50  0001 C CNN
F 3 "" H 8400 6250 50  0001 C CNN
	1    8400 6250
	1    0    0    -1  
$EndComp
$Comp
L CG24-cells:B1N U12R41
U 1 1 5E8E31CF
P 3300 1100
F 0 "U12R41" H 3300 784 50  0000 C CNN
F 1 "B1N" H 3300 875 50  0000 C CNN
F 2 "" H 3300 1100 50  0001 C CNN
F 3 "" H 3300 1100 50  0001 C CNN
	1    3300 1100
	1    0    0    1   
$EndComp
$Comp
L CG24-cells:B1N U16R41
U 1 1 5E8E31DE
P 3300 1650
F 0 "U16R41" H 3300 1334 50  0000 C CNN
F 1 "B1N" H 3300 1425 50  0000 C CNN
F 2 "" H 3300 1650 50  0001 C CNN
F 3 "" H 3300 1650 50  0001 C CNN
	1    3300 1650
	1    0    0    1   
$EndComp
$Comp
L CG24-cells:B1N U19R31
U 1 1 5E8E31FC
P 3300 2200
F 0 "U19R31" H 3300 1884 50  0000 C CNN
F 1 "B1N" H 3300 1975 50  0000 C CNN
F 2 "" H 3300 2200 50  0001 C CNN
F 3 "" H 3300 2200 50  0001 C CNN
	1    3300 2200
	1    0    0    1   
$EndComp
$Comp
L CG24-cells:B1N U18R31
U 1 1 5E8E31ED
P 3300 2750
F 0 "U18R31" H 3300 2434 50  0000 C CNN
F 1 "B1N" H 3300 2525 50  0000 C CNN
F 2 "" H 3300 2750 50  0001 C CNN
F 3 "" H 3300 2750 50  0001 C CNN
	1    3300 2750
	1    0    0    1   
$EndComp
$Comp
L CG24-cells:B1N U17R102
U 1 1 5E8CBDFD
P 3300 3350
F 0 "U17R102" H 3300 3034 50  0000 C CNN
F 1 "B1N" H 3300 3125 50  0000 C CNN
F 2 "" H 3300 3350 50  0001 C CNN
F 3 "" H 3300 3350 50  0001 C CNN
	1    3300 3350
	1    0    0    1   
$EndComp
$Comp
L CG24-cells:B1N U32R51
U 1 1 5E8D63B1
P 3300 3900
F 0 "U32R51" H 3300 3584 50  0000 C CNN
F 1 "B1N" H 3300 3675 50  0000 C CNN
F 2 "" H 3300 3900 50  0001 C CNN
F 3 "" H 3300 3900 50  0001 C CNN
	1    3300 3900
	1    0    0    1   
$EndComp
$Comp
L CG24-cells:B1N U16R102
U 1 1 5E8BACFD
P 3300 4450
F 0 "U16R102" H 3300 4134 50  0000 C CNN
F 1 "B1N" H 3300 4225 50  0000 C CNN
F 2 "" H 3300 4450 50  0001 C CNN
F 3 "" H 3300 4450 50  0001 C CNN
	1    3300 4450
	1    0    0    1   
$EndComp
$Comp
L CG24-cells:B1N U38R61
U 1 1 5E898877
P 3300 5000
F 0 "U38R61" H 3300 4684 50  0000 C CNN
F 1 "B1N" H 3300 4775 50  0000 C CNN
F 2 "" H 3300 5000 50  0001 C CNN
F 3 "" H 3300 5000 50  0001 C CNN
	1    3300 5000
	1    0    0    1   
$EndComp
$Comp
L CG24-cells:V1N U38R113
U 1 1 5E8B3949
P 5450 5650
F 0 "U38R113" H 5450 5334 50  0000 C CNN
F 1 "V1N" H 5450 5425 50  0000 C CNN
F 2 "" H 5450 5450 50  0001 C CNN
F 3 "" H 5450 5450 50  0001 C CNN
	1    5450 5650
	1    0    0    -1  
$EndComp
$Comp
L CG24-cells:B1N U32R133
U 1 1 5EB871D3
P 7300 950
F 0 "U32R133" H 7300 1267 50  0000 C CNN
F 1 "B1N" H 7300 1176 50  0000 C CNN
F 2 "" H 7300 950 50  0001 C CNN
F 3 "" H 7300 950 50  0001 C CNN
	1    7300 950 
	1    0    0    -1  
$EndComp
$Comp
L CG24-cells:B1N U38R143
U 1 1 5EAA0717
P 7300 1500
F 0 "U38R143" H 7300 1184 50  0000 C CNN
F 1 "B1N" H 7300 1275 50  0000 C CNN
F 2 "" H 7300 1500 50  0001 C CNN
F 3 "" H 7300 1500 50  0001 C CNN
	1    7300 1500
	1    0    0    1   
$EndComp
$Comp
L CG24-cells:V1N U39R133
U 1 1 5EBA66D6
P 8900 3850
AR Path="/5E919108/5EBA66D6" Ref="U39R133"  Part="1" 
AR Path="/5E90DB79/5EBA66D6" Ref="U39R133"  Part="1" 
AR Path="/5E92D339/5EBA66D6" Ref="U39R133"  Part="1" 
F 0 "U39R133" H 8900 3534 50  0000 C CNN
F 1 "V1N" H 8900 3625 50  0000 C CNN
F 2 "" H 8900 3650 50  0001 C CNN
F 3 "" H 8900 3650 50  0001 C CNN
	1    8900 3850
	1    0    0    1   
$EndComp
$Comp
L CG24-cells:N4B U18R40
U 1 1 5E8DDE8D
P 5200 1900
F 0 "U18R40" H 5200 1559 50  0000 C CNN
F 1 "N4B" H 5200 1650 50  0000 C CNN
F 2 "" H 5150 1900 50  0001 C CNN
F 3 "" H 5150 1900 50  0001 C CNN
	1    5200 1900
	1    0    0    1   
$EndComp
$Comp
L CG24-cells:N4B U34R112
U 1 1 5E892CCB
P 5200 4150
F 0 "U34R112" H 5200 3809 50  0000 C CNN
F 1 "N4B" H 5200 3900 50  0000 C CNN
F 2 "" H 5150 4150 50  0001 C CNN
F 3 "" H 5150 4150 50  0001 C CNN
	1    5200 4150
	1    0    0    1   
$EndComp
$EndSCHEMATC
