EESchema Schematic File Version 5
EELAYER 33 0
EELAYER END
$Descr A4 11693 8268
encoding utf-8
Sheet 13 20
Title ""
Date "2020-04-12"
Rev ""
Comp ""
Comment1 ""
Comment2 "Licence: CC-BY"
Comment3 "Author: Loic *WydD* Petit"
Comment4 "Project: CPS2 Reverse Engineering: DL-1827"
Comment5 ""
Comment6 ""
Comment7 ""
Comment8 ""
Comment9 ""
$EndDescr
Connection ~ 2450 6400
Connection ~ 2450 2200
Connection ~ 2450 2900
Connection ~ 2450 5000
Connection ~ 2450 5700
Connection ~ 5750 2200
Connection ~ 2450 3600
Connection ~ 2450 4300
Connection ~ 1850 6400
Connection ~ 5750 2900
Connection ~ 5750 5900
Connection ~ 5750 5200
Connection ~ 5750 4500
Connection ~ 4850 5900
Wire Wire Line
	1700 6400 1850 6400
Wire Wire Line
	1850 6400 1850 7450
Wire Wire Line
	1850 7450 4850 7450
Wire Wire Line
	2450 1500 2450 2200
Wire Wire Line
	2450 1500 3600 1500
Wire Wire Line
	2450 2200 2450 2900
Wire Wire Line
	2450 2200 3600 2200
Wire Wire Line
	2450 2900 2450 3600
Wire Wire Line
	2450 2900 3600 2900
Wire Wire Line
	2450 3600 2450 4300
Wire Wire Line
	2450 3600 3600 3600
Wire Wire Line
	2450 4300 2450 5000
Wire Wire Line
	2450 4300 3600 4300
Wire Wire Line
	2450 5000 2450 5700
Wire Wire Line
	2450 5000 3600 5000
Wire Wire Line
	2450 5700 2450 6400
Wire Wire Line
	2450 5700 3600 5700
Wire Wire Line
	2450 6400 2450 7100
Wire Wire Line
	2450 6400 3600 6400
Wire Wire Line
	2450 7100 3600 7100
Wire Wire Line
	4850 2900 4850 5900
Wire Wire Line
	4850 2900 5150 2900
Wire Wire Line
	4850 5900 4850 7450
Wire Wire Line
	4850 5900 5150 5900
Wire Wire Line
	5750 1500 5750 2200
Wire Wire Line
	5750 1500 6900 1500
Wire Wire Line
	5750 2200 5750 2900
Wire Wire Line
	5750 2200 6900 2200
Wire Wire Line
	5750 2900 6900 2900
Wire Wire Line
	5750 3800 5750 4500
Wire Wire Line
	5750 3800 6900 3800
Wire Wire Line
	5750 4500 5750 5200
Wire Wire Line
	5750 5200 5750 5900
Wire Wire Line
	5750 5200 6900 5200
Wire Wire Line
	6900 4500 5750 4500
Wire Wire Line
	6900 5900 5750 5900
Text HLabel 1700 6400 0    50   Input ~ 0
ENABLE
Text HLabel 3300 1250 0    50   Input ~ 0
~BUS-UDSW
Text HLabel 3300 1950 0    50   Input ~ 0
~BUS-LDSW
Text HLabel 3300 2650 0    50   Input ~ 0
~BUS-R
Text HLabel 3300 3350 0    50   Input ~ 0
~BUS-W
Text HLabel 3300 4050 0    50   Input ~ 0
~BUS-AS
Text HLabel 3300 4750 0    50   Input ~ 0
~BUS-E
Text HLabel 3300 5450 0    50   Input ~ 0
~BUS-BGACK
Text HLabel 3300 6150 0    50   Input ~ 0
~DEBUG-UDSW
Text HLabel 3300 6850 0    50   Input ~ 0
~DEBUG-LDSW
Text HLabel 3900 1250 2    50   Output ~ 0
~_BUS-UDSW
Text HLabel 3900 1950 2    50   Output ~ 0
~_BUS-LDSW
Text HLabel 3900 2650 2    50   Output ~ 0
~_BUS-R
Text HLabel 3900 3350 2    50   Output ~ 0
~_BUS-W
Text HLabel 3900 4050 2    50   Output ~ 0
~_BUS-AS
Text HLabel 3900 4750 2    50   Output ~ 0
~_BUS-E
Text HLabel 3900 5450 2    50   Output ~ 0
~_BUS-BGACK
Text HLabel 3900 6150 2    50   Output ~ 0
~_DEBUG-UDSW
Text HLabel 3900 6850 2    50   Output ~ 0
~_DEBUG-LDSW
Text HLabel 6600 1250 0    50   Input ~ 0
~DEBUG-RAM-E
Text HLabel 6600 1950 0    50   Input ~ 0
~SRAM-WL
Text HLabel 6600 2650 0    50   Input ~ 0
~SRAM-WH
Text HLabel 6600 3550 0    50   Input ~ 0
~SRAM-OE
Text HLabel 6600 4250 0    50   Input ~ 0
~SRAM-E
Text HLabel 6600 4950 0    50   Input ~ 0
BUS-DIR
Text HLabel 6600 5650 0    50   Input ~ 0
~DEBUG-CPS1-E
Text HLabel 7200 1250 2    50   Output ~ 0
~_DEBUG-RAM-E
Text HLabel 7200 1950 2    50   Output ~ 0
~_SRAM-WL
Text HLabel 7200 2650 2    50   Output ~ 0
~_SRAM-WH
Text HLabel 7200 3550 2    50   Output ~ 0
~_SRAM-OE
Text HLabel 7200 4250 2    50   Output ~ 0
~_SRAM-E
Text HLabel 7200 4950 2    50   Output ~ 0
_BUS-DIR
Text HLabel 7200 5650 2    50   Output ~ 0
~_DEBUG-CPS1-E
$Comp
L CG24-cells:V2B U40R?
U 1 1 5E832722
P 2150 6400
AR Path="/5F7DAEE5/5E832722" Ref="U40R?"  Part="1" 
AR Path="/5F26E386/5E832722" Ref="U40R?"  Part="1" 
AR Path="/5E829CEF/5E832722" Ref="U13R143"  Part="1" 
F 0 "U13R143" H 2150 6717 50  0000 C CNN
F 1 "V2B" H 2150 6626 50  0000 C CNN
F 2 "" H 2150 6200 50  0001 C CNN
F 3 "" H 2150 6200 50  0001 C CNN
	1    2150 6400
	1    0    0    -1  
$EndComp
$Comp
L CG24-cells:V2B U39R?
U 1 1 5E8998A6
P 5450 2900
AR Path="/5E8998A6" Ref="U39R?"  Part="1" 
AR Path="/5E829CEF/5E8998A6" Ref="U39R143"  Part="1" 
F 0 "U39R143" H 5450 2583 50  0000 C CNN
F 1 "V2B" H 5450 2674 50  0000 C CNN
F 2 "" H 5450 2700 50  0001 C CNN
F 3 "" H 5450 2700 50  0001 C CNN
	1    5450 2900
	1    0    0    1   
$EndComp
$Comp
L CG24-cells:V2B U38R41
U 1 1 5F319566
P 5450 5900
F 0 "U38R41" H 5450 5583 50  0000 C CNN
F 1 "V2B" H 5450 5674 50  0000 C CNN
F 2 "" H 5450 5700 50  0001 C CNN
F 3 "" H 5450 5700 50  0001 C CNN
	1    5450 5900
	1    0    0    1   
$EndComp
$Comp
L CG24-cells:O4R U40R?
U 1 1 5E832728
P 3600 1250
AR Path="/5E832728" Ref="U40R?"  Part="1" 
AR Path="/5F7DAEE5/5E832728" Ref="U40R?"  Part="1" 
AR Path="/5F26E386/5E832728" Ref="U40R?"  Part="1" 
AR Path="/5E829CEF/5E832728" Ref="U2R172"  Part="1" 
F 0 "U2R172" H 3600 1567 50  0000 C CNN
F 1 "O4R" H 3600 1476 50  0000 C CNN
F 2 "" H 3600 1250 50  0001 C CNN
F 3 "" H 3600 1250 50  0001 C CNN
	1    3600 1250
	1    0    0    -1  
$EndComp
$Comp
L CG24-cells:O4R U42R?
U 1 1 5E8327A8
P 3600 1950
AR Path="/5E8327A8" Ref="U42R?"  Part="1" 
AR Path="/5F7DAEE5/5E8327A8" Ref="U42R?"  Part="1" 
AR Path="/5F26E386/5E8327A8" Ref="U42R?"  Part="1" 
AR Path="/5E829CEF/5E8327A8" Ref="U2R175"  Part="1" 
F 0 "U2R175" H 3600 2267 50  0000 C CNN
F 1 "O4R" H 3600 2176 50  0000 C CNN
F 2 "" H 3600 1950 50  0001 C CNN
F 3 "" H 3600 1950 50  0001 C CNN
	1    3600 1950
	1    0    0    -1  
$EndComp
$Comp
L CG24-cells:O4R U42R?
U 1 1 5E83278A
P 3600 2650
AR Path="/5E83278A" Ref="U42R?"  Part="1" 
AR Path="/5F7DAEE5/5E83278A" Ref="U42R?"  Part="1" 
AR Path="/5F26E386/5E83278A" Ref="U42R?"  Part="1" 
AR Path="/5E829CEF/5E83278A" Ref="U2R177"  Part="1" 
F 0 "U2R177" H 3600 2967 50  0000 C CNN
F 1 "O4R" H 3600 2876 50  0000 C CNN
F 2 "" H 3600 2650 50  0001 C CNN
F 3 "" H 3600 2650 50  0001 C CNN
	1    3600 2650
	1    0    0    -1  
$EndComp
$Comp
L CG24-cells:O4R U42R?
U 1 1 5E832784
P 3600 3350
AR Path="/5E832784" Ref="U42R?"  Part="1" 
AR Path="/5F7DAEE5/5E832784" Ref="U42R?"  Part="1" 
AR Path="/5F26E386/5E832784" Ref="U42R?"  Part="1" 
AR Path="/5E829CEF/5E832784" Ref="U2R180"  Part="1" 
F 0 "U2R180" H 3600 3667 50  0000 C CNN
F 1 "O4R" H 3600 3576 50  0000 C CNN
F 2 "" H 3600 3350 50  0001 C CNN
F 3 "" H 3600 3350 50  0001 C CNN
	1    3600 3350
	1    0    0    -1  
$EndComp
$Comp
L CG24-cells:O4R U40R?
U 1 1 5E8327A2
P 3600 4050
AR Path="/5E8327A2" Ref="U40R?"  Part="1" 
AR Path="/5F7DAEE5/5E8327A2" Ref="U40R?"  Part="1" 
AR Path="/5F26E386/5E8327A2" Ref="U40R?"  Part="1" 
AR Path="/5E829CEF/5E8327A2" Ref="U2R182"  Part="1" 
F 0 "U2R182" H 3600 4367 50  0000 C CNN
F 1 "O4R" H 3600 4276 50  0000 C CNN
F 2 "" H 3600 4050 50  0001 C CNN
F 3 "" H 3600 4050 50  0001 C CNN
	1    3600 4050
	1    0    0    -1  
$EndComp
$Comp
L CG24-cells:O4R U42R?
U 1 1 5E83279C
P 3600 4750
AR Path="/5E83279C" Ref="U42R?"  Part="1" 
AR Path="/5F7DAEE5/5E83279C" Ref="U42R?"  Part="1" 
AR Path="/5F26E386/5E83279C" Ref="U42R?"  Part="1" 
AR Path="/5E829CEF/5E83279C" Ref="U4R182"  Part="1" 
F 0 "U4R182" H 3600 5067 50  0000 C CNN
F 1 "O4R" H 3600 4976 50  0000 C CNN
F 2 "" H 3600 4750 50  0001 C CNN
F 3 "" H 3600 4750 50  0001 C CNN
	1    3600 4750
	1    0    0    -1  
$EndComp
$Comp
L CG24-cells:O4R U42R?
U 1 1 5E832796
P 3600 5450
AR Path="/5E832796" Ref="U42R?"  Part="1" 
AR Path="/5F7DAEE5/5E832796" Ref="U42R?"  Part="1" 
AR Path="/5F26E386/5E832796" Ref="U42R?"  Part="1" 
AR Path="/5E829CEF/5E832796" Ref="U4R180"  Part="1" 
F 0 "U4R180" H 3600 5767 50  0000 C CNN
F 1 "O4R" H 3600 5676 50  0000 C CNN
F 2 "" H 3600 5450 50  0001 C CNN
F 3 "" H 3600 5450 50  0001 C CNN
	1    3600 5450
	1    0    0    -1  
$EndComp
$Comp
L CG24-cells:O4R U42R?
U 1 1 5E832790
P 3600 6150
AR Path="/5E832790" Ref="U42R?"  Part="1" 
AR Path="/5F7DAEE5/5E832790" Ref="U42R?"  Part="1" 
AR Path="/5F26E386/5E832790" Ref="U42R?"  Part="1" 
AR Path="/5E829CEF/5E832790" Ref="U6R182"  Part="1" 
F 0 "U6R182" H 3600 6467 50  0000 C CNN
F 1 "O4R" H 3600 6376 50  0000 C CNN
F 2 "" H 3600 6150 50  0001 C CNN
F 3 "" H 3600 6150 50  0001 C CNN
	1    3600 6150
	1    0    0    -1  
$EndComp
$Comp
L CG24-cells:O4R U8R?
U 1 1 5E842285
P 3600 6850
AR Path="/5E842285" Ref="U8R?"  Part="1" 
AR Path="/5F7DAEE5/5E842285" Ref="U8R?"  Part="1" 
AR Path="/5E7C51BB/5E842285" Ref="U8R?"  Part="1" 
AR Path="/5F26E386/5E842285" Ref="U8R?"  Part="1" 
AR Path="/5E829CEF/5E842285" Ref="U2R105"  Part="1" 
F 0 "U2R105" H 3600 7167 50  0000 C CNN
F 1 "O4R" H 3600 7076 50  0000 C CNN
F 2 "" H 3600 6850 50  0001 C CNN
F 3 "" H 3600 6850 50  0001 C CNN
	1    3600 6850
	1    0    0    -1  
$EndComp
$Comp
L CG24-cells:O4R U42R?
U 1 1 5E8327C2
P 6900 1250
AR Path="/5E8327C2" Ref="U42R?"  Part="1" 
AR Path="/5F7DAEE5/5E8327C2" Ref="U42R?"  Part="1" 
AR Path="/5E7C51BB/5E8327C2" Ref="U42R?"  Part="1" 
AR Path="/5F26E386/5E8327C2" Ref="U42R?"  Part="1" 
AR Path="/5E829CEF/5E8327C2" Ref="U6R180"  Part="1" 
F 0 "U6R180" H 6900 1567 50  0000 C CNN
F 1 "O4R" H 6900 1476 50  0000 C CNN
F 2 "" H 6900 1250 50  0001 C CNN
F 3 "" H 6900 1250 50  0001 C CNN
	1    6900 1250
	1    0    0    -1  
$EndComp
$Comp
L CG24-cells:O4R U42R?
U 1 1 5E8327BC
P 6900 1950
AR Path="/5E8327BC" Ref="U42R?"  Part="1" 
AR Path="/5F7DAEE5/5E8327BC" Ref="U42R?"  Part="1" 
AR Path="/5E7C51BB/5E8327BC" Ref="U42R?"  Part="1" 
AR Path="/5F26E386/5E8327BC" Ref="U42R?"  Part="1" 
AR Path="/5E829CEF/5E8327BC" Ref="U8R182"  Part="1" 
F 0 "U8R182" H 6900 2267 50  0000 C CNN
F 1 "O4R" H 6900 2176 50  0000 C CNN
F 2 "" H 6900 1950 50  0001 C CNN
F 3 "" H 6900 1950 50  0001 C CNN
	1    6900 1950
	1    0    0    -1  
$EndComp
$Comp
L CG24-cells:O4R U8R?
U 1 1 5E846CE4
P 6900 2650
AR Path="/5E846CE4" Ref="U8R?"  Part="1" 
AR Path="/5F7DAEE5/5E846CE4" Ref="U8R?"  Part="1" 
AR Path="/5E7C51BB/5E846CE4" Ref="U8R?"  Part="1" 
AR Path="/5F26E386/5E846CE4" Ref="U8R?"  Part="1" 
AR Path="/5E829CEF/5E846CE4" Ref="U8R180"  Part="1" 
F 0 "U8R180" H 6900 2967 50  0000 C CNN
F 1 "O4R" H 6900 2876 50  0000 C CNN
F 2 "" H 6900 2650 50  0001 C CNN
F 3 "" H 6900 2650 50  0001 C CNN
	1    6900 2650
	1    0    0    -1  
$EndComp
$Comp
L CG24-cells:O4R U40R28
U 1 1 6063EA93
P 6900 3550
AR Path="/6063EA93" Ref="U40R28"  Part="1" 
AR Path="/5F7DAEE5/6063EA93" Ref="U40R?"  Part="1" 
AR Path="/5E829CEF/6063EA93" Ref="U40R28"  Part="1" 
F 0 "U40R28" H 6900 3867 50  0000 C CNN
F 1 "O4R" H 6900 3776 50  0000 C CNN
F 2 "" H 6900 3550 50  0001 C CNN
F 3 "" H 6900 3550 50  0001 C CNN
	1    6900 3550
	1    0    0    -1  
$EndComp
$Comp
L CG24-cells:O4R U38R27
U 1 1 5E980026
P 6900 4250
AR Path="/5E980026" Ref="U38R27"  Part="1" 
AR Path="/5F7DAEE5/5E980026" Ref="U40R?"  Part="1" 
AR Path="/5E829CEF/5E980026" Ref="U38R27"  Part="1" 
F 0 "U38R27" H 6900 4567 50  0000 C CNN
F 1 "O4R" H 6900 4476 50  0000 C CNN
F 2 "" H 6900 4250 50  0001 C CNN
F 3 "" H 6900 4250 50  0001 C CNN
	1    6900 4250
	1    0    0    -1  
$EndComp
$Comp
L CG24-cells:O4R U38R24
U 1 1 5EC805AE
P 6900 4950
AR Path="/5EC805AE" Ref="U38R24"  Part="1" 
AR Path="/5F7DAEE5/5EC805AE" Ref="U40R?"  Part="1" 
AR Path="/5E829CEF/5EC805AE" Ref="U38R24"  Part="1" 
F 0 "U38R24" H 6900 5267 50  0000 C CNN
F 1 "O4R" H 6900 5176 50  0000 C CNN
F 2 "" H 6900 4950 50  0001 C CNN
F 3 "" H 6900 4950 50  0001 C CNN
	1    6900 4950
	1    0    0    -1  
$EndComp
$Comp
L CG24-cells:O4R U36R23
U 1 1 5E8FE1C8
P 6900 5650
AR Path="/5E8FE1C8" Ref="U36R23"  Part="1" 
AR Path="/5F7DAEE5/5E8FE1C8" Ref="U38R?"  Part="1" 
AR Path="/5E829CEF/5E8FE1C8" Ref="U36R23"  Part="1" 
F 0 "U36R23" H 6900 5967 50  0000 C CNN
F 1 "O4R" H 6900 5876 50  0000 C CNN
F 2 "" H 6900 5650 50  0001 C CNN
F 3 "" H 6900 5650 50  0001 C CNN
	1    6900 5650
	1    0    0    -1  
$EndComp
$EndSCHEMATC
