EESchema Schematic File Version 5
EELAYER 33 0
EELAYER END
$Descr A2 23386 16535
encoding utf-8
Sheet 1 20
Title "DL-1827"
Date "2020-04-12"
Rev ""
Comp ""
Comment1 ""
Comment2 "Licence: CC-BY"
Comment3 "Author: Loic *WydD* Petit"
Comment4 "Project: CPS2 Reverse Engineering: DL-1827"
Comment5 ""
Comment6 ""
Comment7 ""
Comment8 ""
Comment9 ""
$EndDescr
Connection ~ 12550 4300
Connection ~ 11100 4300
Connection ~ 8250 6200
Connection ~ 5300 9050
Connection ~ 11050 1850
Connection ~ 5300 4150
Connection ~ 7350 7100
Connection ~ 14900 11500
Connection ~ 14900 11150
Connection ~ 5300 7300
Connection ~ 14450 14400
Connection ~ 5300 5650
Connection ~ 2050 7400
Connection ~ 2050 7500
Connection ~ 2050 7600
Connection ~ 2050 7700
Connection ~ 2050 7800
Connection ~ 2050 7900
Connection ~ 2050 8000
Connection ~ 2050 8100
Connection ~ 2050 8200
Connection ~ 2050 8300
Connection ~ 2050 8400
Connection ~ 2050 8500
Connection ~ 2050 7300
Connection ~ 2750 7300
Connection ~ 2750 7400
Connection ~ 2750 7500
Connection ~ 2750 7600
Connection ~ 2750 7700
Connection ~ 2750 7800
Connection ~ 2750 7900
Connection ~ 2750 8000
Entry Wire Line
	3900 12300 3800 12400
Entry Wire Line
	3900 12400 3800 12500
Entry Wire Line
	3900 12500 3800 12600
Entry Wire Line
	3900 12600 3800 12700
Entry Wire Line
	3900 12700 3800 12800
Entry Wire Line
	3900 12800 3800 12900
Entry Wire Line
	3900 12900 3800 13000
Entry Wire Line
	3900 13000 3800 13100
Entry Wire Line
	4400 12300 4300 12400
Entry Wire Line
	4400 12400 4300 12500
Entry Wire Line
	4400 12500 4300 12600
Entry Wire Line
	4400 12600 4300 12700
Entry Wire Line
	4400 12700 4300 12800
Entry Wire Line
	4400 12800 4300 12900
Entry Wire Line
	4400 12900 4300 13000
Entry Wire Line
	4400 13000 4300 13100
Wire Wire Line
	1850 7300 2050 7300
Wire Wire Line
	1850 7400 2050 7400
Wire Wire Line
	1850 7500 2050 7500
Wire Wire Line
	1850 7600 2050 7600
Wire Wire Line
	1850 7700 2050 7700
Wire Wire Line
	1850 7800 2050 7800
Wire Wire Line
	1850 7900 2050 7900
Wire Wire Line
	1850 8000 2050 8000
Wire Wire Line
	1850 8100 2050 8100
Wire Wire Line
	1850 8200 2050 8200
Wire Wire Line
	1850 8300 2050 8300
Wire Wire Line
	1850 8400 2050 8400
Wire Wire Line
	1850 8500 2050 8500
Wire Wire Line
	2050 7200 2050 7300
Wire Wire Line
	2050 7300 2050 7400
Wire Wire Line
	2050 7400 2050 7500
Wire Wire Line
	2050 7500 2050 7600
Wire Wire Line
	2050 7600 2050 7700
Wire Wire Line
	2050 7700 2050 7800
Wire Wire Line
	2050 7800 2050 7900
Wire Wire Line
	2050 7900 2050 8000
Wire Wire Line
	2050 8000 2050 8100
Wire Wire Line
	2050 8100 2050 8200
Wire Wire Line
	2050 8200 2050 8300
Wire Wire Line
	2050 8300 2050 8400
Wire Wire Line
	2050 8400 2050 8500
Wire Wire Line
	2050 8500 2050 8600
Wire Wire Line
	2200 12500 2100 12500
Wire Wire Line
	2200 12600 2100 12600
Wire Wire Line
	2200 12700 2100 12700
Wire Wire Line
	2200 12800 2100 12800
Wire Wire Line
	2200 12900 2100 12900
Wire Wire Line
	2200 13000 2100 13000
Wire Wire Line
	2200 13100 2100 13100
Wire Wire Line
	2200 13200 2100 13200
Wire Wire Line
	2550 7300 2750 7300
Wire Wire Line
	2550 7400 2750 7400
Wire Wire Line
	2550 7500 2750 7500
Wire Wire Line
	2550 7600 2750 7600
Wire Wire Line
	2550 7700 2750 7700
Wire Wire Line
	2550 7800 2750 7800
Wire Wire Line
	2550 7900 2750 7900
Wire Wire Line
	2550 8000 2750 8000
Wire Wire Line
	2750 7200 2750 7300
Wire Wire Line
	2750 7300 2750 7400
Wire Wire Line
	2750 7400 2750 7500
Wire Wire Line
	2750 7500 2750 7600
Wire Wire Line
	2750 7600 2750 7700
Wire Wire Line
	2750 7700 2750 7800
Wire Wire Line
	2750 7800 2750 7900
Wire Wire Line
	2750 7900 2750 8000
Wire Wire Line
	2750 8000 2750 8100
Wire Wire Line
	2950 12500 2850 12500
Wire Wire Line
	2950 12600 2850 12600
Wire Wire Line
	2950 12700 2850 12700
Wire Wire Line
	3050 13700 2850 13700
Wire Wire Line
	3050 13700 3050 14800
Wire Wire Line
	3050 14800 15800 14800
Wire Wire Line
	3900 12300 4100 12300
Wire Wire Line
	3900 12400 4100 12400
Wire Wire Line
	3900 12500 4100 12500
Wire Wire Line
	3900 12600 4100 12600
Wire Wire Line
	3900 12700 4100 12700
Wire Wire Line
	3900 12800 4100 12800
Wire Wire Line
	3900 12900 4100 12900
Wire Wire Line
	3900 13000 4100 13000
Wire Wire Line
	4400 12300 4600 12300
Wire Wire Line
	4400 12400 4600 12400
Wire Wire Line
	4400 12500 4600 12500
Wire Wire Line
	4400 12600 4600 12600
Wire Wire Line
	4400 12700 4600 12700
Wire Wire Line
	4400 12800 4600 12800
Wire Wire Line
	4400 12900 4600 12900
Wire Wire Line
	4400 13000 4600 13000
Wire Wire Line
	5300 2550 5300 4150
Wire Wire Line
	5300 2550 5850 2550
Wire Wire Line
	5300 4150 5300 5650
Wire Wire Line
	5300 4150 5850 4150
Wire Wire Line
	5300 5650 5300 7300
Wire Wire Line
	5300 5650 5850 5650
Wire Wire Line
	5300 7300 5300 9050
Wire Wire Line
	5300 7300 5850 7300
Wire Wire Line
	5300 9050 5300 14600
Wire Wire Line
	5300 9050 5850 9050
Wire Wire Line
	5300 14600 15800 14600
Wire Wire Line
	5650 14000 5850 14000
Wire Wire Line
	5650 14500 5650 14000
Wire Wire Line
	5650 14500 15800 14500
Wire Wire Line
	5750 1400 5850 1400
Wire Wire Line
	5750 1500 5850 1500
Wire Wire Line
	5750 1600 5850 1600
Wire Wire Line
	5750 1850 5850 1850
Wire Wire Line
	5750 1950 5850 1950
Wire Wire Line
	5750 2150 5850 2150
Wire Wire Line
	5750 2250 5850 2250
Wire Wire Line
	5750 2350 5850 2350
Wire Wire Line
	5750 3050 5850 3050
Wire Wire Line
	5750 3150 5850 3150
Wire Wire Line
	5750 3250 5850 3250
Wire Wire Line
	5750 3450 5850 3450
Wire Wire Line
	5750 3600 5850 3600
Wire Wire Line
	5750 3750 5850 3750
Wire Wire Line
	5750 4750 5850 4750
Wire Wire Line
	5750 4850 5850 4850
Wire Wire Line
	5750 4950 5850 4950
Wire Wire Line
	5750 5050 5850 5050
Wire Wire Line
	5750 5150 5850 5150
Wire Wire Line
	5750 5250 5850 5250
Wire Wire Line
	5750 5350 5850 5350
Wire Wire Line
	5750 5450 5850 5450
Wire Wire Line
	5750 6300 5850 6300
Wire Wire Line
	5750 6400 5850 6400
Wire Wire Line
	5750 6500 5850 6500
Wire Wire Line
	5750 6700 5850 6700
Wire Wire Line
	5750 6800 5850 6800
Wire Wire Line
	5750 6900 5850 6900
Wire Wire Line
	5750 7100 5850 7100
Wire Wire Line
	5750 7900 5850 7900
Wire Wire Line
	5750 8000 5850 8000
Wire Wire Line
	5750 8100 5850 8100
Wire Wire Line
	5750 8350 5850 8350
Wire Wire Line
	5750 8450 5850 8450
Wire Wire Line
	5750 8550 5850 8550
Wire Wire Line
	5750 8650 5850 8650
Wire Wire Line
	5750 8850 5850 8850
Wire Wire Line
	5750 11200 5850 11200
Wire Wire Line
	5750 11500 5750 11200
Wire Wire Line
	5750 11500 14900 11500
Wire Wire Line
	5750 14100 5750 14400
Wire Wire Line
	5750 14400 14450 14400
Wire Wire Line
	5850 9650 5750 9650
Wire Wire Line
	5850 9750 5750 9750
Wire Wire Line
	5850 9850 5750 9850
Wire Wire Line
	5850 9950 5750 9950
Wire Wire Line
	5850 10050 5750 10050
Wire Wire Line
	5850 10150 5750 10150
Wire Wire Line
	5850 10250 5750 10250
Wire Wire Line
	5850 10350 5750 10350
Wire Wire Line
	5850 10450 5750 10450
Wire Wire Line
	5850 10550 5750 10550
Wire Wire Line
	5850 10650 5750 10650
Wire Wire Line
	5850 10750 5750 10750
Wire Wire Line
	5850 12300 5750 12300
Wire Wire Line
	5850 12400 5750 12400
Wire Wire Line
	5850 12500 5750 12500
Wire Wire Line
	5850 12600 5750 12600
Wire Wire Line
	5850 12700 5750 12700
Wire Wire Line
	5850 12800 5750 12800
Wire Wire Line
	5850 12900 5750 12900
Wire Wire Line
	5850 13000 5750 13000
Wire Wire Line
	5850 13100 5750 13100
Wire Wire Line
	5850 13200 5750 13200
Wire Wire Line
	5850 13300 5750 13300
Wire Wire Line
	5850 13400 5750 13400
Wire Wire Line
	5850 13500 5750 13500
Wire Wire Line
	5850 13600 5750 13600
Wire Wire Line
	5850 13700 5750 13700
Wire Wire Line
	5850 13800 5750 13800
Wire Wire Line
	5850 14100 5750 14100
Wire Wire Line
	7150 1400 13100 1400
Wire Wire Line
	7150 1500 13100 1500
Wire Wire Line
	7150 1600 13100 1600
Wire Wire Line
	7150 1850 11050 1850
Wire Wire Line
	7150 1950 10950 1950
Wire Wire Line
	7150 2150 10600 2150
Wire Wire Line
	7150 2250 10500 2250
Wire Wire Line
	7150 2350 10400 2350
Wire Wire Line
	7250 6300 7850 6300
Wire Wire Line
	7250 6400 10800 6400
Wire Wire Line
	7250 6500 10800 6500
Wire Wire Line
	7250 6700 10800 6700
Wire Wire Line
	7250 6800 10800 6800
Wire Wire Line
	7250 6900 10800 6900
Wire Wire Line
	7250 7100 7350 7100
Wire Wire Line
	7350 7100 7350 7250
Wire Wire Line
	7350 7100 7950 7100
Wire Wire Line
	7350 7250 7550 7250
Wire Wire Line
	7400 7900 8250 7900
Wire Wire Line
	7400 8000 8350 8000
Wire Wire Line
	7400 8100 8450 8100
Wire Wire Line
	7400 8350 12850 8350
Wire Wire Line
	7400 8450 12850 8450
Wire Wire Line
	7400 8550 12850 8550
Wire Wire Line
	7400 8650 12850 8650
Wire Wire Line
	7400 8850 8100 8850
Wire Wire Line
	7400 8950 7650 8950
Wire Wire Line
	7550 3150 9000 3150
Wire Wire Line
	7550 3450 8700 3450
Wire Wire Line
	7550 3600 8150 3600
Wire Wire Line
	7550 3750 8050 3750
Wire Wire Line
	8050 6100 8050 3750
Wire Wire Line
	8100 8850 8100 10150
Wire Wire Line
	8100 10150 9600 10150
Wire Wire Line
	8150 3600 8150 5150
Wire Wire Line
	8150 5150 8550 5150
Wire Wire Line
	8250 4300 8250 4950
Wire Wire Line
	8250 4950 8550 4950
Wire Wire Line
	8250 5550 8250 6200
Wire Wire Line
	8250 5550 8550 5550
Wire Wire Line
	8250 6200 8250 7900
Wire Wire Line
	8250 6200 10800 6200
Wire Wire Line
	8350 7000 10800 7000
Wire Wire Line
	8350 8000 8350 7000
Wire Wire Line
	8450 7100 10800 7100
Wire Wire Line
	8450 8100 8450 7100
Wire Wire Line
	8700 9800 9600 9800
Wire Wire Line
	8700 9900 9600 9900
Wire Wire Line
	8700 10000 9600 10000
Wire Wire Line
	8900 3250 7550 3250
Wire Wire Line
	8900 3750 8900 3250
Wire Wire Line
	9000 3150 9000 3650
Wire Wire Line
	9000 3650 11200 3650
Wire Wire Line
	9100 3050 7550 3050
Wire Wire Line
	9100 3550 9100 3050
Wire Wire Line
	10100 5100 12850 5100
Wire Wire Line
	10100 5200 12850 5200
Wire Wire Line
	10100 5350 10300 5350
Wire Wire Line
	10300 6000 10300 5350
Wire Wire Line
	10400 2350 10400 5800
Wire Wire Line
	10400 5800 10800 5800
Wire Wire Line
	10500 2250 10500 5600
Wire Wire Line
	10600 2150 10600 5500
Wire Wire Line
	10600 5500 10800 5500
Wire Wire Line
	10800 5600 10500 5600
Wire Wire Line
	10800 6000 10300 6000
Wire Wire Line
	10800 6100 8050 6100
Wire Wire Line
	10950 1950 10950 3350
Wire Wire Line
	11050 1850 11050 3250
Wire Wire Line
	11050 1850 13100 1850
Wire Wire Line
	11050 3250 11200 3250
Wire Wire Line
	11100 3950 11100 4300
Wire Wire Line
	11100 4300 8250 4300
Wire Wire Line
	11100 4300 12550 4300
Wire Wire Line
	11200 3350 10950 3350
Wire Wire Line
	11200 3550 9100 3550
Wire Wire Line
	11200 3750 8900 3750
Wire Wire Line
	11200 3950 11100 3950
Wire Wire Line
	12150 3550 12850 3550
Wire Wire Line
	12150 3650 12850 3650
Wire Wire Line
	12150 5500 12550 5500
Wire Wire Line
	12150 5700 12750 5700
Wire Wire Line
	12150 6000 12850 6000
Wire Wire Line
	12150 6100 12850 6100
Wire Wire Line
	12150 6200 12850 6200
Wire Wire Line
	12150 6300 12850 6300
Wire Wire Line
	12150 6400 12850 6400
Wire Wire Line
	12150 6500 12850 6500
Wire Wire Line
	12150 6600 12850 6600
Wire Wire Line
	12150 6700 12850 6700
Wire Wire Line
	12150 6900 12850 6900
Wire Wire Line
	12150 7000 12850 7000
Wire Wire Line
	12250 2100 12250 3250
Wire Wire Line
	12250 2100 13100 2100
Wire Wire Line
	12250 3250 12150 3250
Wire Wire Line
	12550 3850 12850 3850
Wire Wire Line
	12550 4300 12550 3850
Wire Wire Line
	12550 4300 12550 5500
Wire Wire Line
	12650 2300 13100 2300
Wire Wire Line
	12650 2400 13100 2400
Wire Wire Line
	12650 3950 12650 5600
Wire Wire Line
	12650 5600 12150 5600
Wire Wire Line
	12750 4050 12750 5700
Wire Wire Line
	12750 4050 12850 4050
Wire Wire Line
	12850 3950 12650 3950
Wire Wire Line
	14350 2700 15250 2700
Wire Wire Line
	14350 2900 15200 2900
Wire Wire Line
	14350 3000 15100 3000
Wire Wire Line
	14350 4200 15000 4200
Wire Wire Line
	14350 5100 14450 5100
Wire Wire Line
	14350 5200 14450 5200
Wire Wire Line
	14350 6000 14450 6000
Wire Wire Line
	14350 6100 14450 6100
Wire Wire Line
	14350 6200 14450 6200
Wire Wire Line
	14350 6300 14450 6300
Wire Wire Line
	14350 6400 14450 6400
Wire Wire Line
	14350 6500 14450 6500
Wire Wire Line
	14350 6600 14450 6600
Wire Wire Line
	14350 6700 14450 6700
Wire Wire Line
	14350 7000 14450 7000
Wire Wire Line
	14350 8350 14450 8350
Wire Wire Line
	14350 8450 14450 8450
Wire Wire Line
	14350 8550 14450 8550
Wire Wire Line
	14350 8650 14450 8650
Wire Wire Line
	14350 9000 14900 9000
Wire Wire Line
	14350 11150 14900 11150
Wire Wire Line
	14350 14000 14550 14000
Wire Wire Line
	14350 14100 14450 14100
Wire Wire Line
	14450 1400 14350 1400
Wire Wire Line
	14450 1500 14350 1500
Wire Wire Line
	14450 1600 14350 1600
Wire Wire Line
	14450 1700 14350 1700
Wire Wire Line
	14450 1850 14350 1850
Wire Wire Line
	14450 2100 14350 2100
Wire Wire Line
	14450 2300 14350 2300
Wire Wire Line
	14450 2400 14350 2400
Wire Wire Line
	14450 3550 14350 3550
Wire Wire Line
	14450 3650 14350 3650
Wire Wire Line
	14450 3850 14350 3850
Wire Wire Line
	14450 3950 14350 3950
Wire Wire Line
	14450 4050 14350 4050
Wire Wire Line
	14450 6900 14350 6900
Wire Wire Line
	14450 9650 14350 9650
Wire Wire Line
	14450 9750 14350 9750
Wire Wire Line
	14450 9850 14350 9850
Wire Wire Line
	14450 9950 14350 9950
Wire Wire Line
	14450 10050 14350 10050
Wire Wire Line
	14450 10150 14350 10150
Wire Wire Line
	14450 10250 14350 10250
Wire Wire Line
	14450 10350 14350 10350
Wire Wire Line
	14450 10450 14350 10450
Wire Wire Line
	14450 10550 14350 10550
Wire Wire Line
	14450 10650 14350 10650
Wire Wire Line
	14450 10750 14350 10750
Wire Wire Line
	14450 10850 14350 10850
Wire Wire Line
	14450 12300 14350 12300
Wire Wire Line
	14450 12400 14350 12400
Wire Wire Line
	14450 12500 14350 12500
Wire Wire Line
	14450 12600 14350 12600
Wire Wire Line
	14450 12700 14350 12700
Wire Wire Line
	14450 12800 14350 12800
Wire Wire Line
	14450 12900 14350 12900
Wire Wire Line
	14450 13000 14350 13000
Wire Wire Line
	14450 13100 14350 13100
Wire Wire Line
	14450 13200 14350 13200
Wire Wire Line
	14450 13300 14350 13300
Wire Wire Line
	14450 13400 14350 13400
Wire Wire Line
	14450 13500 14350 13500
Wire Wire Line
	14450 13600 14350 13600
Wire Wire Line
	14450 13700 14350 13700
Wire Wire Line
	14450 13800 14350 13800
Wire Wire Line
	14450 14100 14450 14400
Wire Wire Line
	14450 14400 15800 14400
Wire Wire Line
	14550 14000 14550 14300
Wire Wire Line
	14550 14300 15800 14300
Wire Wire Line
	14900 9000 14900 11150
Wire Wire Line
	14900 11150 14900 11500
Wire Wire Line
	14900 11500 14900 14000
Wire Wire Line
	14900 14000 15800 14000
Wire Wire Line
	15000 4200 15000 13900
Wire Wire Line
	15000 13900 15800 13900
Wire Wire Line
	15100 3000 15100 13800
Wire Wire Line
	15100 13800 15800 13800
Wire Wire Line
	15200 13700 15200 2900
Wire Wire Line
	15200 13700 15800 13700
Wire Wire Line
	15800 13350 15700 13350
Wire Wire Line
	15800 13450 15700 13450
Wire Wire Line
	17150 14450 17750 14450
Wire Wire Line
	17250 13350 17150 13350
Wire Wire Line
	17250 14800 17150 14800
Wire Bus Line
	2850 13000 3500 13000
Wire Bus Line
	2850 13100 3600 13100
Wire Bus Line
	2850 13400 4200 13400
Wire Bus Line
	2850 13500 4300 13500
Wire Bus Line
	3400 11700 7050 11700
Wire Bus Line
	3400 12900 2850 12900
Wire Bus Line
	3400 12900 3400 11700
Wire Bus Line
	3500 11800 7150 11800
Wire Bus Line
	3500 13000 3500 11800
Wire Bus Line
	3600 11900 13100 11900
Wire Bus Line
	3600 13100 3600 11900
Wire Bus Line
	3700 12000 13000 12000
Wire Bus Line
	3700 13200 2850 13200
Wire Bus Line
	3700 13200 3700 12000
Wire Bus Line
	3800 12400 3800 12600
Wire Bus Line
	3800 12600 3800 12800
Wire Bus Line
	3800 12800 3800 13000
Wire Bus Line
	3800 13000 3800 13300
Wire Bus Line
	3800 13300 2850 13300
Wire Bus Line
	4200 5800 4200 13400
Wire Bus Line
	4200 5800 5850 5800
Wire Bus Line
	4300 12400 4300 12600
Wire Bus Line
	4300 12600 4300 12800
Wire Bus Line
	4300 12800 4300 13000
Wire Bus Line
	4300 13000 4300 13500
Wire Bus Line
	6950 10300 9600 10300
Wire Bus Line
	6950 12300 7050 12300
Wire Bus Line
	6950 13000 9600 13000
Wire Bus Line
	6950 13150 9600 13150
Wire Bus Line
	7050 5350 8550 5350
Wire Bus Line
	7050 11700 7050 12300
Wire Bus Line
	7150 12400 6950 12400
Wire Bus Line
	7150 12400 7150 11800
Wire Bus Line
	10800 10300 13200 10300
Wire Bus Line
	10800 13000 13200 13000
Wire Bus Line
	10800 13150 13200 13150
Wire Bus Line
	13000 12400 13000 12000
Wire Bus Line
	13100 11900 13100 12300
Wire Bus Line
	13200 12300 13100 12300
Wire Bus Line
	13200 12400 13000 12400
Text Notes 2450 2150 0    50   ~ 0
~CPSA-E~ is a signal that enables reading \n  control signals coming from the CPSA board.\n  On CPS2, this is bound to GND so all control signals are available.
Text Notes 2550 3600 0    50   ~ 0
DEBUG-RANGE enables the output of two unused additional ranges\n  of the address decoder.\n  On CPS2, if the A-board is plugged, this is plugged to GND
Text Notes 3300 12050 2    50   ~ 0
This bus multiplexer is a way to see various inputs after buffers\n\nOn CPS2, the output is not enabled so pins are just NC,\n  also S0-S2 are bound to GND
Text Notes 14850 1900 0    50   ~ 0
~SEC-E2~ is duplicated on two 3-state outputs\nIf SEC-E2 is active and ENABLE-3STATE is active\n  then outputs are LOW and BANK-RESET is inactive\nElse\n  Outputs are Hi-Z, and CPS2 have pull-up resistors on those pins\n  and BANK-RESET is active, disabling OBJRAM bank behaviour
Text Notes 15250 5250 0    50   ~ 0
Note: All the DEBUG output pins are just NC\n  so they can be completely ignored
Text Notes 15400 7400 0    50   ~ 0
All pins here are 3 states,\n  they will be Hi-Z if ENABLE is LOW.
Text Notes 15400 10150 0    50   ~ 0
All pins here are 3 states,\n  they will be Hi-Z if ENABLE is LOW.
Text Notes 15800 13000 0    50   ~ 0
~RESET~ Drives all "ENABLE" pins which will all be active if ~RESET~ is inactive\n\nOn CPS2, this is bound to a signal coming from MIF\n  which is driven by the voltage detector of VCC\n  i.e. if CPS2 has a voltage > 4.2V then this chip will work as intended\n\n\nDEBUG is a signal that enables a mode where all outputs are enabled \n  including the debug mux.\n\nOn CPS2, this is directly bound to GND
Text Label 3800 13300 0    50   ~ 0
DE[0..7]
Text Label 4100 12300 2    50   ~ 0
DE0
Text Label 4100 12400 2    50   ~ 0
DE1
Text Label 4100 12500 2    50   ~ 0
DE2
Text Label 4100 12600 2    50   ~ 0
DE3
Text Label 4100 12700 2    50   ~ 0
DE4
Text Label 4100 12800 2    50   ~ 0
DE5
Text Label 4100 12900 2    50   ~ 0
DE6
Text Label 4100 13000 2    50   ~ 0
DE7
Text Label 4300 13300 0    50   ~ 0
DG[0..7]
Text Label 4600 12300 2    50   ~ 0
DG0
Text Label 4600 12400 2    50   ~ 0
DG1
Text Label 4600 12500 2    50   ~ 0
DG2
Text Label 4600 12600 2    50   ~ 0
DG3
Text Label 4600 12700 2    50   ~ 0
DG4
Text Label 4600 12800 2    50   ~ 0
DG5
Text Label 4600 12900 2    50   ~ 0
DG6
Text Label 4600 13000 2    50   ~ 0
DG7
Text Label 7300 6300 0    50   ~ 0
SEC-CLK
Text Label 7350 1950 2    50   ~ 0
DG4
Text Label 7350 2150 2    50   ~ 0
DG3
Text Label 7350 2250 2    50   ~ 0
DG6
Text Label 7350 2350 2    50   ~ 0
DG5
Text Label 7450 6500 2    50   ~ 0
DG7
Text Label 7450 6700 2    50   ~ 0
DE0
Text Label 7450 6800 2    50   ~ 0
DE1
Text Label 7450 8100 0    50   ~ 0
DE5
Text Label 7450 8550 0    50   ~ 0
OBJRAM-W~R
Text Label 7450 8950 0    50   ~ 0
DE2
Text Label 7550 7250 2    50   ~ 0
DG2
Text Label 7600 6400 2    50   ~ 0
CLK16M
Text Label 7600 8850 2    50   ~ 0
DE3
Text Label 7750 3050 2    50   ~ 0
DE6
Text Label 7750 3150 2    50   ~ 0
DE7
Text Label 7750 3250 2    50   ~ 0
DE4
Text Label 7750 3450 2    50   ~ 0
DG1
Text Label 7750 3600 2    50   ~ 0
DG0
Text Label 7950 3450 0    50   ~ 0
OBJRAM-BANK-CLK
Text Label 7950 7100 2    50   ~ 0
~OBJRAM-BANK
Text Label 9550 9800 2    50   ~ 0
~OBJRAM-BANK
Text Label 9550 9900 2    50   ~ 0
OBJRAM-BANK-CLK
Text Label 9550 10000 2    50   ~ 0
~OBJRAM-BANK-RESET
Text Label 13050 2300 2    50   ~ 0
SEC-CLK
Text Label 13050 2400 2    50   ~ 0
CLK16M
Text Label 14400 2700 0    50   ~ 0
~OBJRAM-BANK-RESET
Text Label 17650 14450 2    50   ~ 0
OBJRAM-W~R
Text GLabel 1850 7300 0    50   Input ~ 0
1
Text GLabel 1850 7400 0    50   Input ~ 0
10
Text GLabel 1850 7500 0    50   Input ~ 0
30
Text GLabel 1850 7600 0    50   Input ~ 0
41
Text GLabel 1850 7700 0    50   Input ~ 0
50
Text GLabel 1850 7800 0    50   Input ~ 0
70
Text GLabel 1850 7900 0    50   Input ~ 0
81
Text GLabel 1850 8000 0    50   Input ~ 0
90
Text GLabel 1850 8100 0    50   Input ~ 0
110
Text GLabel 1850 8200 0    50   Input ~ 0
121
Text GLabel 1850 8300 0    50   Input ~ 0
130
Text GLabel 1850 8400 0    50   Input ~ 0
139
Text GLabel 1850 8500 0    50   Input ~ 0
150
Text GLabel 2100 12500 0    50   Output ~ 0
159
Text GLabel 2100 12600 0    50   Output ~ 0
142
Text GLabel 2100 12700 0    50   Output ~ 0
141
Text GLabel 2100 12800 0    50   Output ~ 0
128
Text GLabel 2100 12900 0    50   Output ~ 0
99
Text GLabel 2100 13000 0    50   Output ~ 0
74
Text GLabel 2100 13100 0    50   Output ~ 0
51
Text GLabel 2100 13200 0    50   Output ~ 0
52
Text GLabel 2550 7300 0    50   Input ~ 0
20
Text GLabel 2550 7400 0    50   Input ~ 0
40
Text GLabel 2550 7500 0    50   Input ~ 0
60
Text GLabel 2550 7600 0    50   Input ~ 0
80
Text GLabel 2550 7700 0    50   Input ~ 0
100
Text GLabel 2550 7800 0    50   Input ~ 0
120
Text GLabel 2550 7900 0    50   Input ~ 0
140
Text GLabel 2550 8000 0    50   Input ~ 0
160
Text GLabel 2950 12500 2    50   Input ~ 0
105
Text GLabel 2950 12600 2    50   Input ~ 0
106
Text GLabel 2950 12700 2    50   Input ~ 0
107
Text GLabel 5750 1400 0    50   Input ~ 0
131
Text GLabel 5750 1500 0    50   Input ~ 0
132
Text GLabel 5750 1600 0    50   Input ~ 0
151
Text GLabel 5750 1850 0    50   Input ~ 0
152
Text GLabel 5750 1950 0    50   Input ~ 0
153
Text GLabel 5750 2150 0    50   Input ~ 0
104
Text GLabel 5750 2250 0    50   Input ~ 0
157
Text GLabel 5750 2350 0    50   Input ~ 0
158
Text GLabel 5750 3050 0    50   Input ~ 0
73
Text GLabel 5750 3150 0    50   Input ~ 0
72
Text GLabel 5750 3250 0    50   Input ~ 0
71
Text GLabel 5750 3450 0    50   Input ~ 0
103
Text GLabel 5750 3600 0    50   Input ~ 0
101
Text GLabel 5750 3750 0    50   Input ~ 0
79
Text GLabel 5750 4750 0    50   Input ~ 0
149
Text GLabel 5750 4850 0    50   Input ~ 0
148
Text GLabel 5750 4950 0    50   Input ~ 0
147
Text GLabel 5750 5050 0    50   Input ~ 0
146
Text GLabel 5750 5150 0    50   Input ~ 0
145
Text GLabel 5750 5250 0    50   Input ~ 0
144
Text GLabel 5750 5350 0    50   Input ~ 0
143
Text GLabel 5750 5450 0    50   Input ~ 0
137
Text GLabel 5750 6300 0    50   Input ~ 0
69
Text GLabel 5750 6400 0    50   Input ~ 0
138
Text GLabel 5750 6500 0    50   Input ~ 0
58
Text GLabel 5750 6700 0    50   Input ~ 0
156
Text GLabel 5750 6800 0    50   Input ~ 0
155
Text GLabel 5750 6900 0    50   Input ~ 0
77
Text GLabel 5750 7100 0    50   Input ~ 0
102
Text GLabel 5750 7900 0    50   Input ~ 0
78
Text GLabel 5750 8000 0    50   Input ~ 0
76
Text GLabel 5750 8100 0    50   Input ~ 0
75
Text GLabel 5750 8350 0    50   Input ~ 0
133
Text GLabel 5750 8450 0    50   Input ~ 0
134
Text GLabel 5750 8550 0    50   Input ~ 0
135
Text GLabel 5750 8650 0    50   Input ~ 0
136
Text GLabel 5750 8850 0    50   Input ~ 0
53
Text GLabel 5750 9650 0    50   Input ~ 0
68
Text GLabel 5750 9750 0    50   Input ~ 0
67
Text GLabel 5750 9850 0    50   Input ~ 0
66
Text GLabel 5750 9950 0    50   Input ~ 0
65
Text GLabel 5750 10050 0    50   Input ~ 0
64
Text GLabel 5750 10150 0    50   Input ~ 0
63
Text GLabel 5750 10250 0    50   Input ~ 0
62
Text GLabel 5750 10350 0    50   Input ~ 0
61
Text GLabel 5750 10450 0    50   Input ~ 0
57
Text GLabel 5750 10550 0    50   Input ~ 0
56
Text GLabel 5750 10650 0    50   Input ~ 0
55
Text GLabel 5750 10750 0    50   Input ~ 0
54
Text GLabel 5750 12300 0    50   BiDi ~ 0
18
Text GLabel 5750 12400 0    50   BiDi ~ 0
17
Text GLabel 5750 12500 0    50   BiDi ~ 0
16
Text GLabel 5750 12600 0    50   BiDi ~ 0
15
Text GLabel 5750 12700 0    50   BiDi ~ 0
14
Text GLabel 5750 12800 0    50   BiDi ~ 0
13
Text GLabel 5750 12900 0    50   BiDi ~ 0
12
Text GLabel 5750 13000 0    50   BiDi ~ 0
11
Text GLabel 5750 13100 0    50   BiDi ~ 0
9
Text GLabel 5750 13200 0    50   BiDi ~ 0
8
Text GLabel 5750 13300 0    50   BiDi ~ 0
7
Text GLabel 5750 13400 0    50   BiDi ~ 0
6
Text GLabel 5750 13500 0    50   BiDi ~ 0
5
Text GLabel 5750 13600 0    50   BiDi ~ 0
4
Text GLabel 5750 13700 0    50   BiDi ~ 0
3
Text GLabel 5750 13800 0    50   BiDi ~ 0
2
Text GLabel 14450 1400 2    50   Output ~ 0
23
Text GLabel 14450 1500 2    50   Output ~ 0
24
Text GLabel 14450 1600 2    50   3State ~ 0
25
Text GLabel 14450 1700 2    50   3State ~ 0
26
Text GLabel 14450 1850 2    50   Output ~ 0
22
Text GLabel 14450 2100 2    50   Output ~ 0
27
Text GLabel 14450 2300 2    50   Output ~ 0
129
Text GLabel 14450 2400 2    50   Output ~ 0
49
Text GLabel 14450 3550 2    50   Output ~ 0
31
Text GLabel 14450 3650 2    50   Output ~ 0
29
Text GLabel 14450 3850 2    50   Output ~ 0
33
Text GLabel 14450 3950 2    50   Output ~ 0
34
Text GLabel 14450 4050 2    50   Output ~ 0
35
Text GLabel 14450 5100 2    50   3State ~ 0
46
Text GLabel 14450 5200 2    50   3State ~ 0
127
Text GLabel 14450 6000 2    50   3State ~ 0
36
Text GLabel 14450 6100 2    50   3State ~ 0
37
Text GLabel 14450 6200 2    50   3State ~ 0
38
Text GLabel 14450 6300 2    50   3State ~ 0
39
Text GLabel 14450 6400 2    50   3State ~ 0
42
Text GLabel 14450 6500 2    50   3State ~ 0
43
Text GLabel 14450 6600 2    50   3State ~ 0
44
Text GLabel 14450 6700 2    50   3State ~ 0
126
Text GLabel 14450 6900 2    50   3State ~ 0
21
Text GLabel 14450 7000 2    50   3State ~ 0
45
Text GLabel 14450 8350 2    50   3State ~ 0
47
Text GLabel 14450 8450 2    50   3State ~ 0
48
Text GLabel 14450 8550 2    50   3State ~ 0
124
Text GLabel 14450 8650 2    50   3State ~ 0
125
Text GLabel 14450 9650 2    50   3State ~ 0
123
Text GLabel 14450 9750 2    50   3State ~ 0
122
Text GLabel 14450 9850 2    50   3State ~ 0
119
Text GLabel 14450 9950 2    50   3State ~ 0
118
Text GLabel 14450 10050 2    50   3State ~ 0
117
Text GLabel 14450 10150 2    50   3State ~ 0
116
Text GLabel 14450 10250 2    50   3State ~ 0
115
Text GLabel 14450 10350 2    50   3State ~ 0
114
Text GLabel 14450 10450 2    50   3State ~ 0
113
Text GLabel 14450 10550 2    50   3State ~ 0
112
Text GLabel 14450 10650 2    50   3State ~ 0
111
Text GLabel 14450 10750 2    50   3State ~ 0
109
Text GLabel 14450 10850 2    50   3State ~ 0
108
Text GLabel 14450 12300 2    50   BiDi ~ 0
98
Text GLabel 14450 12400 2    50   BiDi ~ 0
97
Text GLabel 14450 12500 2    50   BiDi ~ 0
96
Text GLabel 14450 12600 2    50   BiDi ~ 0
95
Text GLabel 14450 12700 2    50   BiDi ~ 0
94
Text GLabel 14450 12800 2    50   BiDi ~ 0
93
Text GLabel 14450 12900 2    50   BiDi ~ 0
92
Text GLabel 14450 13000 2    50   BiDi ~ 0
91
Text GLabel 14450 13100 2    50   BiDi ~ 0
89
Text GLabel 14450 13200 2    50   BiDi ~ 0
88
Text GLabel 14450 13300 2    50   BiDi ~ 0
87
Text GLabel 14450 13400 2    50   BiDi ~ 0
86
Text GLabel 14450 13500 2    50   BiDi ~ 0
85
Text GLabel 14450 13600 2    50   BiDi ~ 0
84
Text GLabel 14450 13700 2    50   BiDi ~ 0
83
Text GLabel 14450 13800 2    50   BiDi ~ 0
82
Text GLabel 15700 13350 0    50   Output ~ 0
28
Text GLabel 15700 13450 0    50   Output ~ 0
32
Text GLabel 17250 13350 2    50   Input ~ 0
154
Text GLabel 17250 14800 2    50   Input ~ 0
19
$Comp
L power:PWR_FLAG #FLG0102
U 1 1 5F08FFF3
P 2050 7200
F 0 "#FLG0102" H 2050 7275 50  0001 C CNN
F 1 "PWR_FLAG" H 2050 7373 50  0001 C CNN
F 2 "" H 2050 7200 50  0001 C CNN
F 3 "~" H 2050 7200 50  0001 C CNN
	1    2050 7200
	1    0    0    -1  
$EndComp
$Comp
L power:PWR_FLAG #FLG0101
U 1 1 5F09315E
P 2750 8100
F 0 "#FLG0101" H 2750 8175 50  0001 C CNN
F 1 "PWR_FLAG" H 2750 8273 50  0001 C CNN
F 2 "" H 2750 8100 50  0001 C CNN
F 3 "~" H 2750 8100 50  0001 C CNN
	1    2750 8100
	-1   0    0    1   
$EndComp
$Comp
L power:VCC #PWR0112
U 1 1 5F093FC9
P 2750 7200
F 0 "#PWR0112" H 2750 7050 50  0001 C CNN
F 1 "VCC" H 2764 7373 50  0001 C CNN
F 2 "" H 2750 7200 50  0001 C CNN
F 3 "" H 2750 7200 50  0001 C CNN
	1    2750 7200
	1    0    0    -1  
$EndComp
$Comp
L power:GND #PWR0113
U 1 1 5F08E682
P 2050 8600
F 0 "#PWR0113" H 2050 8350 50  0001 C CNN
F 1 "GND" H 2054 8427 50  0001 C CNN
F 2 "" H 2050 8600 50  0001 C CNN
F 3 "" H 2050 8600 50  0001 C CNN
	1    2050 8600
	1    0    0    -1  
$EndComp
$Sheet
S 8550 4850 1550 800 
U 5E92D339
F0 "addr-decoder" 50
F1 "addr-decoder.sch" 50
F2 "~BUS-RANGE" O R 10100 5350 50 
F3 "ENABLE2" I L 8550 5550 50 
F4 "ENABLE1" I L 8550 4950 50 
F5 "CPU-ADDR[16..23]" I L 8550 5350 50 
F6 "~DEBUG-CPS1-E" O R 10100 5200 50 
F7 "~DEBUG-RAM-E" O R 10100 5100 50 
F8 "DEBUG-E" I L 8550 5150 50 
$EndSheet
$Sheet
S 5850 6150 1400 1300
U 5E954161
F0 "clock-in" 50
F1 "clock-in.sch" 50
F2 "~_CPSA-RESET" I L 5850 6700 50 
F3 "_CLK16M" I L 5850 6400 50 
F4 "_CLK4M" I L 5850 6500 50 
F5 "_SEC-CLK" I L 5850 6300 50 
F6 "CLK4M" O R 7250 6500 50 
F7 "CLK16M" O R 7250 6400 50 
F8 "SEC-CLK" O R 7250 6300 50 
F9 "~CPSA-RESET" O R 7250 6700 50 
F10 "ENABLE" I L 5850 7300 50 
F11 "~_CPU-UDSW" I L 5850 6900 50 
F12 "~CPU-UDSW" O R 7250 6900 50 
F13 "_OBJRAM-BANK" I L 5850 7100 50 
F14 "OBJRAM-BANK" O R 7250 7100 50 
F15 "~Z80-BUS" O R 7250 6800 50 
F16 "~_Z80-BUS" I L 5850 6800 50 
$EndSheet
$Sheet
S 12850 4950 1500 4200
U 5E829CEF
F0 "control-out" 50
F1 "control-out.sch" 50
F2 "~_DEBUG-UDSW" O R 14350 7000 50 
F3 "~_BUS-E" O R 14350 6500 50 
F4 "~_BUS-AS" O R 14350 6400 50 
F5 "~_BUS-W" O R 14350 6300 50 
F6 "~_BUS-R" O R 14350 6200 50 
F7 "~_BUS-LDSW" O R 14350 6100 50 
F8 "~_BUS-UDSW" O R 14350 6000 50 
F9 "~_SRAM-WL" O R 14350 8350 50 
F10 "ENABLE" I R 14350 9000 50 
F11 "~_DEBUG-LDSW" O R 14350 6900 50 
F12 "~_SRAM-WH" O R 14350 8450 50 
F13 "~_SRAM-OE" O R 14350 8550 50 
F14 "~_DEBUG-CPS1-E" O R 14350 5200 50 
F15 "~_SRAM-E" O R 14350 8650 50 
F16 "_BUS-DIR" O R 14350 6700 50 
F17 "~BUS-R" I L 12850 6200 50 
F18 "~BUS-AS" I L 12850 6400 50 
F19 "~BUS-UDSW" I L 12850 6000 50 
F20 "~BUS-LDSW" I L 12850 6100 50 
F21 "~BUS-W" I L 12850 6300 50 
F22 "~SRAM-WH" I L 12850 8450 50 
F23 "BUS-DIR" I L 12850 6700 50 
F24 "~DEBUG-CPS1-E" I L 12850 5200 50 
F25 "~SRAM-E" I L 12850 8650 50 
F26 "~SRAM-OE" I L 12850 8550 50 
F27 "~SRAM-WL" I L 12850 8350 50 
F28 "~DEBUG-UDSW" I L 12850 7000 50 
F29 "~BUS-E" I L 12850 6500 50 
F30 "~DEBUG-LDSW" I L 12850 6900 50 
F31 "~_DEBUG-RAM-E" O R 14350 5100 50 
F32 "~DEBUG-RAM-E" I L 12850 5100 50 
F33 "~BUS-BGACK" I L 12850 6600 50 
F34 "~_BUS-BGACK" O R 14350 6600 50 
$EndSheet
$Sheet
S 10800 5350 1350 1900
U 5E87023F
F0 "control-states" 50
F1 "control-states.sch" 50
F2 "CLK4M" I L 10800 6500 50 
F3 "CLK16M" I L 10800 6400 50 
F4 "~Z80-BUS" I L 10800 6800 50 
F5 "~CPU-BG" I L 10800 7100 50 
F6 "~BUS-AS" O R 12150 6400 50 
F7 "~CPU-BR" O R 12150 5600 50 
F8 "~BUS-RANGE" I L 10800 6000 50 
F9 "~CPSA-RESET" I L 10800 6700 50 
F10 "~CPSA-BR" I L 10800 5600 50 
F11 "~BUS-R" O R 12150 6200 50 
F12 "~DEBUG-UDSW" O R 12150 7000 50 
F13 "~BUS-UDSW" O R 12150 6000 50 
F14 "~REFRESH" I L 10800 5800 50 
F15 "~DEBUG-LDSW" O R 12150 6900 50 
F16 "~CPU-UDSW" I L 10800 6900 50 
F17 "CPU-R~W" I L 10800 6100 50 
F18 "~CPU-LDSW" I L 10800 7000 50 
F19 "~BUS-LDSW" O R 12150 6100 50 
F20 "~BUS-W" O R 12150 6300 50 
F21 "~CPU-DTACK" O R 12150 5700 50 
F22 "~CPU-BGACK" O R 12150 5500 50 
F23 "~CPSA-E" I L 10800 5500 50 
F24 "CPU-AS" I L 10800 6200 50 
F25 "~BUS-BGACK" O R 12150 6600 50 
F26 "~BUS-E" O R 12150 6500 50 
F27 "BUS-DIR" O R 12150 6700 50 
$EndSheet
$Sheet
S 5850 4600 1200 1300
U 5E981F8B
F0 "cpu-addr" 50
F1 "cpu-addr.sch" 50
F2 "ENABLE" I L 5850 5650 50 
F3 "ADDR16" I L 5850 4750 50 
F4 "ADDR17" I L 5850 4850 50 
F5 "ADDR18" I L 5850 4950 50 
F6 "ADDR19" I L 5850 5050 50 
F7 "ADDR20" I L 5850 5150 50 
F8 "ADDR21" I L 5850 5250 50 
F9 "ADDR22" I L 5850 5350 50 
F10 "ADDR23" I L 5850 5450 50 
F11 "CPU-ADDR[16..23]" O R 7050 5350 50 
F12 "DF[0..7]" O L 5850 5800 50 
$EndSheet
$Sheet
S 5850 2900 1700 1350
U 5E90DB79
F0 "cpu-state-in" 50
F1 "cpu-state-in.sch" 50
F2 "OBJRAM-BANK-CLK" O R 7550 3450 50 
F3 "_OBJRAM-BANK-CLK" I L 5850 3450 50 
F4 "ENABLE" I L 5850 4150 50 
F5 "_CPU-R~W" I L 5850 3750 50 
F6 "CPU-R~W" O R 7550 3750 50 
F7 "_DEBUG-RANGE" I L 5850 3600 50 
F8 "DEBUG-RANGE" O R 7550 3600 50 
F9 "_CPU-FC0" I L 5850 3050 50 
F10 "_CPU-FC2" I L 5850 3250 50 
F11 "_CPU-FC1" I L 5850 3150 50 
F12 "CPU-FC1" O R 7550 3150 50 
F13 "CPU-FC2" O R 7550 3250 50 
F14 "CPU-FC0" O R 7550 3050 50 
$EndSheet
$Sheet
S 2200 12350 650  1500
U 5ECC80BE
F0 "debug-mux" 50
F1 "debug-mux.sch" 50
F2 "S0" I R 2850 12500 50 
F3 "S1" I R 2850 12600 50 
F4 "S2" I R 2850 12700 50 
F5 "~OUT" I R 2850 13700 50 
F6 "C[0..7]" I R 2850 13100 50 
F7 "E[0..7]" I R 2850 13300 50 
F8 "A[0..7]" I R 2850 12900 50 
F9 "F[0..7]" I R 2850 13400 50 
F10 "G[0..7]" I R 2850 13500 50 
F11 "D[0..7]" I R 2850 13200 50 
F12 "B[0..7]" I R 2850 13000 50 
F13 "Q0" O L 2200 12500 50 
F14 "Q1" O L 2200 12600 50 
F15 "Q7" O L 2200 13200 50 
F16 "Q3" O L 2200 12800 50 
F17 "Q2" O L 2200 12700 50 
F18 "Q6" O L 2200 13100 50 
F19 "Q4" O L 2200 12900 50 
F20 "Q5" O L 2200 13000 50 
$EndSheet
$Sheet
S 15800 13200 1350 1750
U 5EC877A9
F0 "enable" 50
F1 "enable.sch" 50
F2 "IN-ENABLE2" O L 15800 14400 50 
F3 "IN-ENABLE1" O L 15800 14600 50 
F4 "OBJRAM-W~R" I R 17150 14450 50 
F5 "OUT-SRAM" O L 15800 14300 50 
F6 "OUT-OBJRAM" O L 15800 14500 50 
F7 "DEBUG" I R 17150 14800 50 
F8 "OUT-ENABLE2" O L 15800 13900 50 
F9 "OUT-ENABLE1" O L 15800 13800 50 
F10 "~OUT-DEBUG" O L 15800 14800 50 
F11 "OUT-ENABLE4" O L 15800 13700 50 
F12 "OUT-ENABLE3" O L 15800 14000 50 
F13 "~RESET" I R 17150 13350 50 
F14 "~CPU-IPL0" O L 15800 13450 50 
F15 "~CPU-BGERR" O L 15800 13350 50 
$EndSheet
$Sheet
S 11200 3100 950  950 
U 5EB2C70F
F0 "interrupt" 50
F1 "interrupt.sch" 50
F2 "~IPL2" O R 12150 3650 50 
F3 "~BGACK" I L 11200 3950 50 
F4 "~VBLANK" I L 11200 3250 50 
F5 "~IPL1" O R 12150 3550 50 
F6 "~VPA" O R 12150 3250 50 
F7 "FC2" I L 11200 3750 50 
F8 "FC0" I L 11200 3550 50 
F9 "FC1" I L 11200 3650 50 
F10 "~CPSB-OBJUP" I L 11200 3350 50 
$EndSheet
$Sheet
S 12850 3400 1500 950 
U 5E9E0BE1
F0 "interrupt-out" 50
F1 "interrupt-out.sch" 50
F2 "~CPU-IPL2" I L 12850 3650 50 
F3 "~CPU-IPL1" I L 12850 3550 50 
F4 "~CPU-BGACK" I L 12850 3850 50 
F5 "~_CPU-DTACK" O R 14350 4050 50 
F6 "~CPU-DTACK" I L 12850 4050 50 
F7 "ENABLE" I R 14350 4200 50 
F8 "~CPU-BR" I L 12850 3950 50 
F9 "~_CPU-IPL2" O R 14350 3650 50 
F10 "~_CPU-IPL1" O R 14350 3550 50 
F11 "~_CPU-BGACK" O R 14350 3850 50 
F12 "~_CPU-BR" O R 14350 3950 50 
$EndSheet
$Sheet
S 5850 9500 1100 1850
U 5E7F68AA
F0 "objram-addr" 50
F1 "objram-addr.sch" 50
F2 "ADDR7" I L 5850 10350 50 
F3 "ADDR6" I L 5850 10250 50 
F4 "ADDR5" I L 5850 10150 50 
F5 "ADDR4" I L 5850 10050 50 
F6 "ADDR3" I L 5850 9950 50 
F7 "ADDR2" I L 5850 9850 50 
F8 "ADDR1" I L 5850 9750 50 
F9 "ADDR0" I L 5850 9650 50 
F10 "ADDR11" I L 5850 10750 50 
F11 "ADDR10" I L 5850 10650 50 
F12 "ADDR9" I L 5850 10550 50 
F13 "ADDR8" I L 5850 10450 50 
F14 "ADDR-IN[0..11]" O R 6950 10300 50 
F15 "ENABLE" I L 5850 11200 50 
$EndSheet
$Sheet
S 9600 9650 1200 800 
U 5F205B9A
F0 "objram-addr-buffer" 50
F1 "objram-addr-buffer.sch" 50
F2 "IN[0..11]" I L 9600 10300 50 
F3 "OUT[0..12]" O R 10800 10300 50 
F4 "BANK-CLK" I L 9600 9900 50 
F5 "~BANK-RESET" I L 9600 10000 50 
F6 "BANK-SELECT" I L 9600 9800 50 
F7 "IN12" I L 9600 10150 50 
$EndSheet
$Sheet
S 9600 12850 1200 450 
U 5F1C1FED
F0 "objram-bus-buffer" 50
F1 "objram-bus-buffer.sch" 50
F2 "IN-A[0..15]" I L 9600 13000 50 
F3 "IN-B[0..15]" I R 10800 13150 50 
F4 "OUT-A[0..15]" O R 10800 13000 50 
F5 "OUT-B[0..15]" O L 9600 13150 50 
$EndSheet
$Sheet
S 5850 7750 1550 1400
U 5E9D3BEC
F0 "objram-control-in" 50
F1 "objram-control-in.sch" 50
F2 "OBJRAM-ADDR12" O R 7400 8850 50 
F3 "_OBJRAM-ADDR12" I L 5850 8850 50 
F4 "ENABLE" I L 5850 9050 50 
F5 "~_OBJRAM-WH" I L 5850 8450 50 
F6 "~_OBJRAM-WL" I L 5850 8350 50 
F7 "~OBJRAM-OE" O R 7400 8550 50 
F8 "~OBJRAM-WH" O R 7400 8450 50 
F9 "~OBJRAM-WL" O R 7400 8350 50 
F10 "~OBJRAM-E" O R 7400 8650 50 
F11 "~_OBJRAM-OE" I L 5850 8550 50 
F12 "~_OBJRAM-E" I L 5850 8650 50 
F13 "~_CPU-LDSW" I L 5850 8000 50 
F14 "~_CPU-AS" I L 5850 7900 50 
F15 "~CPU-LDSW" O R 7400 8000 50 
F16 "CPU-AS" O R 7400 7900 50 
F17 "~_CPU-BG" I L 5850 8100 50 
F18 "~CPU-BG" O R 7400 8100 50 
F19 "~CPU-AS" O R 7400 8950 50 
$EndSheet
$Sheet
S 5850 12150 1100 2100
U 5E7C51BB
F0 "objram-data" 50
F1 "objram-data.sch" 50
F2 "DATA15" B L 5850 13800 50 
F3 "DATA14" B L 5850 13700 50 
F4 "DATA13" B L 5850 13600 50 
F5 "DATA12" B L 5850 13500 50 
F6 "DATA11" B L 5850 13400 50 
F7 "DATA10" B L 5850 13300 50 
F8 "DATA9" B L 5850 13200 50 
F9 "DATA8" B L 5850 13100 50 
F10 "DATA7" B L 5850 13000 50 
F11 "DATA6" B L 5850 12900 50 
F12 "DATA5" B L 5850 12800 50 
F13 "DATA4" B L 5850 12700 50 
F14 "IN-ENABLE" I L 5850 14100 50 
F15 "DATA3" B L 5850 12600 50 
F16 "DATA2" B L 5850 12500 50 
F17 "DATA1" B L 5850 12400 50 
F18 "DATA0" B L 5850 12300 50 
F19 "DATA-IN[0..15]" O R 6950 13000 50 
F20 "DATA-OUT[0..15]" I R 6950 13150 50 
F21 "OUT-ENABLE" I L 5850 14000 50 
F22 "DA[0..7]" O R 6950 12300 50 
F23 "DB[0..7]" O R 6950 12400 50 
$EndSheet
$Sheet
S 5850 1250 1300 1400
U 5E963B59
F0 "security-in" 50
F1 "security-in.sch" 50
F2 "~CPSB-OBJUP" O R 7150 1950 50 
F3 "SEC-DATA" O R 7150 1400 50 
F4 "~SEC-E2" O R 7150 1600 50 
F5 "~VBLANK" O R 7150 1850 50 
F6 "~CPSA-E" O R 7150 2150 50 
F7 "~CPSA-BR" O R 7150 2250 50 
F8 "~SEC-E1" O R 7150 1500 50 
F9 "~REFRESH" O R 7150 2350 50 
F10 "ENABLE" I L 5850 2550 50 
F11 "~_CPSA-E" I L 5850 2150 50 
F12 "~_REFRESH" I L 5850 2350 50 
F13 "~_CPSA-BR" I L 5850 2250 50 
F14 "~_SEC-E2" I L 5850 1600 50 
F15 "~_VBLANK" I L 5850 1850 50 
F16 "~_SEC-E1" I L 5850 1500 50 
F17 "~_CPSB-OBJUP" I L 5850 1950 50 
F18 "_SEC-DATA" I L 5850 1400 50 
$EndSheet
$Sheet
S 13100 1250 1250 1900
U 5EA0618B
F0 "security-out" 50
F1 "security-out.sch" 50
F2 "CLK16M" I L 13100 2400 50 
F3 "SEC-CLK" I L 13100 2300 50 
F4 "~SEC-E1" I L 13100 1500 50 
F5 "SEC-DATA" I L 13100 1400 50 
F6 "~VBLANK" I L 13100 1850 50 
F7 "~CPU-VPA" I L 13100 2100 50 
F8 "_SEC-CLK" O R 14350 2300 50 
F9 "_CLK16M" O R 14350 2400 50 
F10 "~_VBLANK" O R 14350 1850 50 
F11 "~_CPU-VPA" O R 14350 2100 50 
F12 "~_SEC-E1" O R 14350 1500 50 
F13 "_SEC-DATA" O R 14350 1400 50 
F14 "ENABLE" I R 14350 3000 50 
F15 "ENABLE-3STATE" I R 14350 2900 50 
F16 "~SEC-E2" I L 13100 1600 50 
F17 "~_SEC-E2" T R 14350 1600 50 
F18 "~__SEC-E2" T R 14350 1700 50 
F19 "~BANK-RESET" O R 14350 2700 50 
$EndSheet
$Sheet
S 13200 9500 1150 1850
U 5F26E386
F0 "sram-addr" 50
F1 "sram-addr.sch" 50
F2 "ADDR7" O R 14350 10350 50 
F3 "ADDR6" O R 14350 10250 50 
F4 "ADDR5" O R 14350 10150 50 
F5 "ADDR4" O R 14350 10050 50 
F6 "ADDR3" O R 14350 9950 50 
F7 "ADDR2" O R 14350 9850 50 
F8 "ADDR1" O R 14350 9750 50 
F9 "ADDR0" O R 14350 9650 50 
F10 "ADDR12" O R 14350 10850 50 
F11 "ADDR11" O R 14350 10750 50 
F12 "ADDR10" O R 14350 10650 50 
F13 "ADDR9" O R 14350 10550 50 
F14 "ADDR8" O R 14350 10450 50 
F15 "ENABLE" I R 14350 11150 50 
F16 "ADDR-OUT[0..12]" I L 13200 10300 50 
$EndSheet
$Sheet
S 13200 12150 1150 2100
U 5F7DAEE5
F0 "sram-data" 50
F1 "sram-data.sch" 50
F2 "DATA0" B R 14350 12300 50 
F3 "DATA1" B R 14350 12400 50 
F4 "DATA2" B R 14350 12500 50 
F5 "DATA3" B R 14350 12600 50 
F6 "DATA4" B R 14350 12700 50 
F7 "DATA5" B R 14350 12800 50 
F8 "DATA6" B R 14350 12900 50 
F9 "DATA7" B R 14350 13000 50 
F10 "DATA8" B R 14350 13100 50 
F11 "DATA9" B R 14350 13200 50 
F12 "DATA10" B R 14350 13300 50 
F13 "DATA11" B R 14350 13400 50 
F14 "DATA12" B R 14350 13500 50 
F15 "DATA13" B R 14350 13600 50 
F16 "DATA14" B R 14350 13700 50 
F17 "DATA15" B R 14350 13800 50 
F18 "IN-ENABLE" I R 14350 14100 50 
F19 "DATA-IN[0..15]" O L 13200 13150 50 
F20 "DATA-OUT[0..15]" I L 13200 13000 50 
F21 "OUT-ENABLE" I R 14350 14000 50 
F22 "DC[0..7]" O L 13200 12300 50 
F23 "DD[0..7]" O L 13200 12400 50 
$EndSheet
$EndSCHEMATC
