EESchema Schematic File Version 5
EELAYER 33 0
EELAYER END
$Descr A4 11693 8268
encoding utf-8
Sheet 11 20
Title ""
Date "2020-04-12"
Rev ""
Comp ""
Comment1 ""
Comment2 "Licence: CC-BY"
Comment3 "Author: Loic *WydD* Petit"
Comment4 "Project: CPS2 Reverse Engineering: DL-1827"
Comment5 ""
Comment6 ""
Comment7 ""
Comment8 ""
Comment9 ""
$EndDescr
Connection ~ 6000 3650
Connection ~ 6000 4200
Connection ~ 6000 3100
Connection ~ 6000 4850
Wire Wire Line
	6000 2550 6000 3100
Wire Wire Line
	6000 2550 6100 2550
Wire Wire Line
	6000 3100 6000 3650
Wire Wire Line
	6000 3650 6000 4200
Wire Wire Line
	6000 3650 6100 3650
Wire Wire Line
	6000 4200 6000 4850
Wire Wire Line
	6000 4200 6100 4200
Wire Wire Line
	6000 4850 4650 4850
Wire Wire Line
	6100 2450 5500 2450
Wire Wire Line
	6100 3000 5500 3000
Wire Wire Line
	6100 3100 6000 3100
Wire Wire Line
	6100 3550 5500 3550
Wire Wire Line
	6100 4100 5500 4100
Wire Wire Line
	6100 4750 5500 4750
Wire Wire Line
	6100 4850 6000 4850
Text HLabel 4650 4850 0    50   Input ~ 0
ENABLE
Text HLabel 5500 2450 0    50   Input ~ 0
~CPU-IPL2
Text HLabel 5500 3000 0    50   Input ~ 0
~CPU-IPL1
Text HLabel 5500 3550 0    50   Input ~ 0
~CPU-BGACK
Text HLabel 5500 4100 0    50   Input ~ 0
~CPU-BR
Text HLabel 5500 4750 0    50   Input ~ 0
~CPU-DTACK
Text HLabel 7250 2500 2    50   Output ~ 0
~_CPU-IPL2
Text HLabel 7250 3050 2    50   Output ~ 0
~_CPU-IPL1
Text HLabel 7250 3600 2    50   Output ~ 0
~_CPU-BGACK
Text HLabel 7250 4150 2    50   Output ~ 0
~_CPU-BR
Text HLabel 7250 4800 2    50   Output ~ 0
~_CPU-DTACK
$Comp
L CG24-cells:N2P U6R153
U 1 1 5E72775E
P 6350 2500
F 0 "U6R153" H 6375 2767 50  0000 C CNN
F 1 "N2P" H 6375 2676 50  0000 C CNN
F 2 "" H 6350 2500 50  0001 C CNN
F 3 "" H 6350 2500 50  0001 C CNN
	1    6350 2500
	1    0    0    -1  
$EndComp
$Comp
L CG24-cells:N2P U4R163
U 1 1 5E71BBE1
P 6350 3050
F 0 "U4R163" H 6375 3317 50  0000 C CNN
F 1 "N2P" H 6375 3226 50  0000 C CNN
F 2 "" H 6350 3050 50  0001 C CNN
F 3 "" H 6350 3050 50  0001 C CNN
	1    6350 3050
	1    0    0    -1  
$EndComp
$Comp
L CG24-cells:N2P U6R173
U 1 1 5E729BF9
P 6350 3600
F 0 "U6R173" H 6375 3867 50  0000 C CNN
F 1 "N2P" H 6375 3776 50  0000 C CNN
F 2 "" H 6350 3600 50  0001 C CNN
F 3 "" H 6350 3600 50  0001 C CNN
	1    6350 3600
	1    0    0    -1  
$EndComp
$Comp
L CG24-cells:N2P U8R173
U 1 1 5E72C5B1
P 6350 4150
F 0 "U8R173" H 6375 4417 50  0000 C CNN
F 1 "N2P" H 6375 4326 50  0000 C CNN
F 2 "" H 6350 4150 50  0001 C CNN
F 3 "" H 6350 4150 50  0001 C CNN
	1    6350 4150
	1    0    0    -1  
$EndComp
$Comp
L CG24-cells:N2P U6R163
U 1 1 5E73E205
P 6350 4800
F 0 "U6R163" H 6375 5067 50  0000 C CNN
F 1 "N2P" H 6375 4976 50  0000 C CNN
F 2 "" H 6350 4800 50  0001 C CNN
F 3 "" H 6350 4800 50  0001 C CNN
	1    6350 4800
	1    0    0    -1  
$EndComp
$Comp
L CG24-cells:O1B U2R148
U 1 1 5E7AC6D4
P 6950 2500
F 0 "U2R148" H 6950 2817 50  0000 C CNN
F 1 "O1B" H 6950 2726 50  0000 C CNN
F 2 "" H 6950 2300 50  0001 C CNN
F 3 "" H 6950 2300 50  0001 C CNN
	1    6950 2500
	1    0    0    -1  
$EndComp
$Comp
L CG24-cells:O1B U2R158
U 1 1 5E7C3D6E
P 6950 3050
F 0 "U2R158" H 6950 3367 50  0000 C CNN
F 1 "O1B" H 6950 3276 50  0000 C CNN
F 2 "" H 6950 2850 50  0001 C CNN
F 3 "" H 6950 2850 50  0001 C CNN
	1    6950 3050
	1    0    0    -1  
$EndComp
$Comp
L CG24-cells:O1B U2R168
U 1 1 5E7C403A
P 6950 3600
F 0 "U2R168" H 6950 3917 50  0000 C CNN
F 1 "O1B" H 6950 3826 50  0000 C CNN
F 2 "" H 6950 3400 50  0001 C CNN
F 3 "" H 6950 3400 50  0001 C CNN
	1    6950 3600
	1    0    0    -1  
$EndComp
$Comp
L CG24-cells:O1B U2R169
U 1 1 5E7C43CF
P 6950 4150
F 0 "U2R169" H 6950 4467 50  0000 C CNN
F 1 "O1B" H 6950 4376 50  0000 C CNN
F 2 "" H 6950 3950 50  0001 C CNN
F 3 "" H 6950 3950 50  0001 C CNN
	1    6950 4150
	1    0    0    -1  
$EndComp
$Comp
L CG24-cells:O1B U2R171
U 1 1 5E7C4774
P 6950 4800
F 0 "U2R171" H 6950 5117 50  0000 C CNN
F 1 "O1B" H 6950 5026 50  0000 C CNN
F 2 "" H 6950 4600 50  0001 C CNN
F 3 "" H 6950 4600 50  0001 C CNN
	1    6950 4800
	1    0    0    -1  
$EndComp
$EndSCHEMATC
