EESchema Schematic File Version 5
EELAYER 33 0
EELAYER END
$Descr A4 11693 8268
encoding utf-8
Sheet 6 20
Title ""
Date "2020-04-12"
Rev ""
Comp ""
Comment1 ""
Comment2 "Licence: CC-BY"
Comment3 "Author: Loic *WydD* Petit"
Comment4 "Project: CPS2 Reverse Engineering: DL-1827"
Comment5 ""
Comment6 ""
Comment7 ""
Comment8 ""
Comment9 ""
$EndDescr
Connection ~ 3800 2850
Connection ~ 3800 3550
Connection ~ 3800 4250
Connection ~ 3800 4950
Connection ~ 3800 5650
Connection ~ 3800 6350
Connection ~ 7300 2850
Connection ~ 7300 3550
Connection ~ 7300 2150
Connection ~ 3800 2150
Connection ~ 5550 1350
Connection ~ 3800 7050
Entry Wire Line
	5450 1900 5550 1800
Entry Wire Line
	5450 2600 5550 2500
Entry Wire Line
	5450 3300 5550 3200
Entry Wire Line
	5450 4000 5550 3900
Entry Wire Line
	5450 4700 5550 4600
Entry Wire Line
	5450 5400 5550 5300
Entry Wire Line
	5450 6100 5550 6000
Entry Wire Line
	5450 6800 5550 6700
Entry Wire Line
	8950 1900 9050 1800
Entry Wire Line
	8950 2600 9050 2500
Entry Wire Line
	8950 3300 9050 3200
Entry Wire Line
	8950 4000 9050 3900
Wire Wire Line
	3800 1450 3800 2150
Wire Wire Line
	3800 2150 3800 2850
Wire Wire Line
	3800 2850 3800 3550
Wire Wire Line
	3800 2850 4650 2850
Wire Wire Line
	3800 3550 3800 4250
Wire Wire Line
	3800 3550 4650 3550
Wire Wire Line
	3800 4250 3800 4950
Wire Wire Line
	3800 4250 4650 4250
Wire Wire Line
	3800 4950 3800 5650
Wire Wire Line
	3800 5650 3800 6350
Wire Wire Line
	3800 5650 4650 5650
Wire Wire Line
	3800 6350 3800 7050
Wire Wire Line
	3800 6350 4650 6350
Wire Wire Line
	3800 7050 4650 7050
Wire Wire Line
	4300 1900 4350 1900
Wire Wire Line
	4300 2600 4350 2600
Wire Wire Line
	4300 3300 4350 3300
Wire Wire Line
	4300 4000 4350 4000
Wire Wire Line
	4300 4700 4350 4700
Wire Wire Line
	4300 5400 4350 5400
Wire Wire Line
	4300 6100 4350 6100
Wire Wire Line
	4300 6800 4350 6800
Wire Wire Line
	4650 2150 3800 2150
Wire Wire Line
	4650 4950 3800 4950
Wire Wire Line
	4950 1900 5450 1900
Wire Wire Line
	4950 2600 5450 2600
Wire Wire Line
	4950 3300 5450 3300
Wire Wire Line
	4950 4000 5450 4000
Wire Wire Line
	4950 4700 5450 4700
Wire Wire Line
	4950 5400 5450 5400
Wire Wire Line
	4950 6100 5450 6100
Wire Wire Line
	4950 6800 5450 6800
Wire Wire Line
	7300 1450 3800 1450
Wire Wire Line
	7300 2150 7300 1450
Wire Wire Line
	7300 2850 7300 2150
Wire Wire Line
	7300 2850 8150 2850
Wire Wire Line
	7300 3550 7300 2850
Wire Wire Line
	7300 3550 8150 3550
Wire Wire Line
	7300 4250 7300 3550
Wire Wire Line
	7300 4250 8150 4250
Wire Wire Line
	7800 1900 7850 1900
Wire Wire Line
	7800 2600 7850 2600
Wire Wire Line
	7800 3300 7850 3300
Wire Wire Line
	7800 4000 7850 4000
Wire Wire Line
	8150 2150 7300 2150
Wire Wire Line
	8450 1900 8950 1900
Wire Wire Line
	8450 2600 8950 2600
Wire Wire Line
	8450 3300 8950 3300
Wire Wire Line
	8450 4000 8950 4000
Wire Bus Line
	5550 1350 3250 1350
Wire Bus Line
	5550 1350 5550 2500
Wire Bus Line
	5550 2500 5550 3900
Wire Bus Line
	5550 3900 5550 5300
Wire Bus Line
	5550 5300 5550 6700
Wire Bus Line
	9050 1350 5550 1350
Wire Bus Line
	9050 1350 9050 2500
Wire Bus Line
	9050 2500 9050 3900
Text Label 5000 1900 0    50   ~ 0
ADDR-IN0
Text Label 5000 2600 0    50   ~ 0
ADDR-IN1
Text Label 5000 3300 0    50   ~ 0
ADDR-IN2
Text Label 5000 4000 0    50   ~ 0
ADDR-IN3
Text Label 5000 4700 0    50   ~ 0
ADDR-IN4
Text Label 5000 5400 0    50   ~ 0
ADDR-IN5
Text Label 5000 6100 0    50   ~ 0
ADDR-IN6
Text Label 5000 6800 0    50   ~ 0
ADDR-IN7
Text Label 8500 1900 0    50   ~ 0
ADDR-IN8
Text Label 8500 2600 0    50   ~ 0
ADDR-IN9
Text Label 8500 3300 0    50   ~ 0
ADDR-IN10
Text Label 8500 4000 0    50   ~ 0
ADDR-IN11
Text HLabel 3200 7050 0    50   Input ~ 0
ENABLE
Text HLabel 3250 1350 0    50   Output ~ 0
ADDR-IN[0..11]
Text HLabel 4300 1900 0    50   Input ~ 0
ADDR0
Text HLabel 4300 2600 0    50   Input ~ 0
ADDR1
Text HLabel 4300 3300 0    50   Input ~ 0
ADDR2
Text HLabel 4300 4000 0    50   Input ~ 0
ADDR3
Text HLabel 4300 4700 0    50   Input ~ 0
ADDR4
Text HLabel 4300 5400 0    50   Input ~ 0
ADDR5
Text HLabel 4300 6100 0    50   Input ~ 0
ADDR6
Text HLabel 4300 6800 0    50   Input ~ 0
ADDR7
Text HLabel 7800 1900 0    50   Input ~ 0
ADDR8
Text HLabel 7800 2600 0    50   Input ~ 0
ADDR9
Text HLabel 7800 3300 0    50   Input ~ 0
ADDR10
Text HLabel 7800 4000 0    50   Input ~ 0
ADDR11
$Comp
L CG24-cells:V1L U22R181
U 1 1 5F137641
P 3500 7050
F 0 "U22R181" H 3500 7367 50  0000 C CNN
F 1 "V1L" H 3500 7276 50  0000 C CNN
F 2 "" H 3500 6850 50  0001 C CNN
F 3 "" H 3500 6850 50  0001 C CNN
	1    3500 7050
	1    0    0    -1  
$EndComp
$Comp
L CG24-cells:B12 U42R?
U 1 1 5E820C72
P 4650 1900
AR Path="/5E820C72" Ref="U42R?"  Part="1" 
AR Path="/5F7DAEE5/5E820C72" Ref="U42R?"  Part="1" 
AR Path="/5E7C51BB/5E820C72" Ref="U42R?"  Part="1" 
AR Path="/5E7F68AA/5E820C72" Ref="U30R181"  Part="1" 
F 0 "U30R181" H 4650 2265 50  0000 C CNN
F 1 "B12" H 4650 2174 50  0000 C CNN
F 2 "" H 4650 1900 50  0001 C CNN
F 3 "" H 4650 1900 50  0001 C CNN
	1    4650 1900
	1    0    0    -1  
$EndComp
$Comp
L CG24-cells:B12 U42R?
U 1 1 5E820C6B
P 4650 2600
AR Path="/5E820C6B" Ref="U42R?"  Part="1" 
AR Path="/5F7DAEE5/5E820C6B" Ref="U42R?"  Part="1" 
AR Path="/5E7C51BB/5E820C6B" Ref="U42R?"  Part="1" 
AR Path="/5E7F68AA/5E820C6B" Ref="U32R183"  Part="1" 
F 0 "U32R183" H 4650 2965 50  0000 C CNN
F 1 "B12" H 4650 2874 50  0000 C CNN
F 2 "" H 4650 2600 50  0001 C CNN
F 3 "" H 4650 2600 50  0001 C CNN
	1    4650 2600
	1    0    0    -1  
$EndComp
$Comp
L CG24-cells:B12 U42R?
U 1 1 5E820C65
P 4650 3300
AR Path="/5E820C65" Ref="U42R?"  Part="1" 
AR Path="/5F7DAEE5/5E820C65" Ref="U42R?"  Part="1" 
AR Path="/5E7C51BB/5E820C65" Ref="U42R?"  Part="1" 
AR Path="/5E7F68AA/5E820C65" Ref="U28R181"  Part="1" 
F 0 "U28R181" H 4650 3665 50  0000 C CNN
F 1 "B12" H 4650 3574 50  0000 C CNN
F 2 "" H 4650 3300 50  0001 C CNN
F 3 "" H 4650 3300 50  0001 C CNN
	1    4650 3300
	1    0    0    -1  
$EndComp
$Comp
L CG24-cells:B12 U42R?
U 1 1 5E820C5F
P 4650 4000
AR Path="/5E820C5F" Ref="U42R?"  Part="1" 
AR Path="/5F7DAEE5/5E820C5F" Ref="U42R?"  Part="1" 
AR Path="/5E7C51BB/5E820C5F" Ref="U42R?"  Part="1" 
AR Path="/5E7F68AA/5E820C5F" Ref="U30R183"  Part="1" 
F 0 "U30R183" H 4650 4365 50  0000 C CNN
F 1 "B12" H 4650 4274 50  0000 C CNN
F 2 "" H 4650 4000 50  0001 C CNN
F 3 "" H 4650 4000 50  0001 C CNN
	1    4650 4000
	1    0    0    -1  
$EndComp
$Comp
L CG24-cells:B12 U42R?
U 1 1 5E820C52
P 4650 4700
AR Path="/5E820C52" Ref="U42R?"  Part="1" 
AR Path="/5F7DAEE5/5E820C52" Ref="U42R?"  Part="1" 
AR Path="/5E7C51BB/5E820C52" Ref="U42R?"  Part="1" 
AR Path="/5E7F68AA/5E820C52" Ref="U28R183"  Part="1" 
F 0 "U28R183" H 4650 5065 50  0000 C CNN
F 1 "B12" H 4650 4974 50  0000 C CNN
F 2 "" H 4650 4700 50  0001 C CNN
F 3 "" H 4650 4700 50  0001 C CNN
	1    4650 4700
	1    0    0    -1  
$EndComp
$Comp
L CG24-cells:B12 U42R?
U 1 1 5E820C4B
P 4650 5400
AR Path="/5E820C4B" Ref="U42R?"  Part="1" 
AR Path="/5F7DAEE5/5E820C4B" Ref="U42R?"  Part="1" 
AR Path="/5E7C51BB/5E820C4B" Ref="U42R?"  Part="1" 
AR Path="/5E7F68AA/5E820C4B" Ref="U26R183"  Part="1" 
F 0 "U26R183" H 4650 5765 50  0000 C CNN
F 1 "B12" H 4650 5674 50  0000 C CNN
F 2 "" H 4650 5400 50  0001 C CNN
F 3 "" H 4650 5400 50  0001 C CNN
	1    4650 5400
	1    0    0    -1  
$EndComp
$Comp
L CG24-cells:B12 U42R?
U 1 1 5E820C45
P 4650 6100
AR Path="/5E820C45" Ref="U42R?"  Part="1" 
AR Path="/5F7DAEE5/5E820C45" Ref="U42R?"  Part="1" 
AR Path="/5E7C51BB/5E820C45" Ref="U42R?"  Part="1" 
AR Path="/5E7F68AA/5E820C45" Ref="U24R183"  Part="1" 
F 0 "U24R183" H 4650 6465 50  0000 C CNN
F 1 "B12" H 4650 6374 50  0000 C CNN
F 2 "" H 4650 6100 50  0001 C CNN
F 3 "" H 4650 6100 50  0001 C CNN
	1    4650 6100
	1    0    0    -1  
$EndComp
$Comp
L CG24-cells:B12 U42R?
U 1 1 5E820C3F
P 4650 6800
AR Path="/5E820C3F" Ref="U42R?"  Part="1" 
AR Path="/5F7DAEE5/5E820C3F" Ref="U42R?"  Part="1" 
AR Path="/5E7C51BB/5E820C3F" Ref="U42R?"  Part="1" 
AR Path="/5E7F68AA/5E820C3F" Ref="U22R183"  Part="1" 
F 0 "U22R183" H 4650 7165 50  0000 C CNN
F 1 "B12" H 4650 7074 50  0000 C CNN
F 2 "" H 4650 6800 50  0001 C CNN
F 3 "" H 4650 6800 50  0001 C CNN
	1    4650 6800
	1    0    0    -1  
$EndComp
$Comp
L CG24-cells:B12 U42R?
U 1 1 5E82E393
P 8150 1900
AR Path="/5E82E393" Ref="U42R?"  Part="1" 
AR Path="/5F7DAEE5/5E82E393" Ref="U42R?"  Part="1" 
AR Path="/5E7F68AA/5E82E393" Ref="U20R183"  Part="1" 
F 0 "U20R183" H 8150 2265 50  0000 C CNN
F 1 "B12" H 8150 2174 50  0000 C CNN
F 2 "" H 8150 1900 50  0001 C CNN
F 3 "" H 8150 1900 50  0001 C CNN
	1    8150 1900
	1    0    0    -1  
$EndComp
$Comp
L CG24-cells:B12 U42R?
U 1 1 5E82E38C
P 8150 2600
AR Path="/5E82E38C" Ref="U42R?"  Part="1" 
AR Path="/5F7DAEE5/5E82E38C" Ref="U42R?"  Part="1" 
AR Path="/5E7F68AA/5E82E38C" Ref="U18R181"  Part="1" 
F 0 "U18R181" H 8150 2965 50  0000 C CNN
F 1 "B12" H 8150 2874 50  0000 C CNN
F 2 "" H 8150 2600 50  0001 C CNN
F 3 "" H 8150 2600 50  0001 C CNN
	1    8150 2600
	1    0    0    -1  
$EndComp
$Comp
L CG24-cells:B12 U42R?
U 1 1 5E82E386
P 8150 3300
AR Path="/5E82E386" Ref="U42R?"  Part="1" 
AR Path="/5F7DAEE5/5E82E386" Ref="U42R?"  Part="1" 
AR Path="/5E7F68AA/5E82E386" Ref="U18R183"  Part="1" 
F 0 "U18R183" H 8150 3665 50  0000 C CNN
F 1 "B12" H 8150 3574 50  0000 C CNN
F 2 "" H 8150 3300 50  0001 C CNN
F 3 "" H 8150 3300 50  0001 C CNN
	1    8150 3300
	1    0    0    -1  
$EndComp
$Comp
L CG24-cells:B12 U42R?
U 1 1 5E82E380
P 8150 4000
AR Path="/5E82E380" Ref="U42R?"  Part="1" 
AR Path="/5F7DAEE5/5E82E380" Ref="U42R?"  Part="1" 
AR Path="/5E7F68AA/5E82E380" Ref="U16R181"  Part="1" 
F 0 "U16R181" H 8150 4365 50  0000 C CNN
F 1 "B12" H 8150 4274 50  0000 C CNN
F 2 "" H 8150 4000 50  0001 C CNN
F 3 "" H 8150 4000 50  0001 C CNN
	1    8150 4000
	1    0    0    -1  
$EndComp
$EndSCHEMATC
