EESchema Schematic File Version 5
EELAYER 33 0
EELAYER END
$Descr A4 11693 8268
encoding utf-8
Sheet 14 20
Title ""
Date "2020-04-12"
Rev ""
Comp ""
Comment1 ""
Comment2 "Licence: CC-BY"
Comment3 "Author: Loic *WydD* Petit"
Comment4 "Project: CPS2 Reverse Engineering: DL-1827"
Comment5 ""
Comment6 ""
Comment7 ""
Comment8 ""
Comment9 ""
$EndDescr
Connection ~ 5300 3150
Connection ~ 5300 1650
Connection ~ 5300 2150
Connection ~ 5300 2650
Connection ~ 5300 3700
Connection ~ 5250 5950
Connection ~ 6250 5250
Wire Wire Line
	3600 5900 4400 5900
Wire Wire Line
	4200 6400 4300 6400
Wire Wire Line
	4300 6000 4300 6400
Wire Wire Line
	4400 1050 5400 1050
Wire Wire Line
	4400 1550 5400 1550
Wire Wire Line
	4400 2050 5400 2050
Wire Wire Line
	4400 2550 5400 2550
Wire Wire Line
	4400 3050 5400 3050
Wire Wire Line
	4400 6000 4300 6000
Wire Wire Line
	5000 3600 5400 3600
Wire Wire Line
	5250 5950 4950 5950
Wire Wire Line
	5250 5950 5250 5250
Wire Wire Line
	5300 1150 5400 1150
Wire Wire Line
	5300 1650 5300 1150
Wire Wire Line
	5300 2150 5300 1650
Wire Wire Line
	5300 2650 5300 2150
Wire Wire Line
	5300 3150 5300 2650
Wire Wire Line
	5300 3150 5300 3700
Wire Wire Line
	5300 3700 5400 3700
Wire Wire Line
	5300 4000 4300 4000
Wire Wire Line
	5300 4000 5300 3700
Wire Wire Line
	5400 1650 5300 1650
Wire Wire Line
	5400 2150 5300 2150
Wire Wire Line
	5400 2650 5300 2650
Wire Wire Line
	5400 3150 5300 3150
Wire Wire Line
	5800 4700 5950 4700
Wire Wire Line
	5800 5700 5950 5700
Wire Wire Line
	6250 4950 6250 5250
Wire Wire Line
	6250 5250 5850 5250
Wire Wire Line
	6250 5250 6900 5250
Wire Wire Line
	6250 5950 5250 5950
Wire Wire Line
	6550 1100 6750 1100
Wire Wire Line
	6550 1600 6750 1600
Wire Wire Line
	6550 2100 6750 2100
Wire Wire Line
	6550 2600 6750 2600
Wire Wire Line
	6550 3100 6750 3100
Wire Wire Line
	6550 3650 6750 3650
Text Label 6200 5250 2    50   ~ 0
2R133-Q
Text HLabel 3600 5900 0    50   Input ~ 0
ENABLE-3STATE
Text HLabel 3600 6400 0    50   Input ~ 0
~SEC-E2
Text HLabel 4300 4000 0    50   Input ~ 0
ENABLE
Text HLabel 4400 1050 0    50   Input ~ 0
~VBLANK
Text HLabel 4400 1550 0    50   Input ~ 0
~CPU-VPA
Text HLabel 4400 2050 0    50   Input ~ 0
SEC-DATA
Text HLabel 4400 2550 0    50   Input ~ 0
~SEC-E1
Text HLabel 4400 3050 0    50   Input ~ 0
SEC-CLK
Text HLabel 4400 3600 0    50   Input ~ 0
CLK16M
Text HLabel 6550 4700 2    50   3State ~ 0
~_SEC-E2
Text HLabel 6550 5700 2    50   3State ~ 0
~__SEC-E2
Text HLabel 6750 1100 2    50   Output ~ 0
~_VBLANK
Text HLabel 6750 1600 2    50   Output ~ 0
~_CPU-VPA
Text HLabel 6750 2100 2    50   Output ~ 0
_SEC-DATA
Text HLabel 6750 2600 2    50   Output ~ 0
~_SEC-E1
Text HLabel 6750 3100 2    50   Output ~ 0
_SEC-CLK
Text HLabel 6750 3650 2    50   Output ~ 0
_CLK16M
Text HLabel 6900 5250 2    50   Output ~ 0
~BANK-RESET
$Comp
L power:GND #PWR0101
U 1 1 5E71F4A7
P 5800 4700
AR Path="/5EB9AB9A/5E71F4A7" Ref="#PWR0101"  Part="1" 
AR Path="/5EA0618B/5E71F4A7" Ref="#PWR0101"  Part="1" 
F 0 "#PWR0101" H 5800 4450 50  0001 C CNN
F 1 "GND" H 5805 4527 50  0001 C CNN
F 2 "" H 5800 4700 50  0001 C CNN
F 3 "" H 5800 4700 50  0001 C CNN
	1    5800 4700
	-1   0    0    -1  
$EndComp
$Comp
L power:GND #PWR0102
U 1 1 5E72076D
P 5800 5700
AR Path="/5EB9AB9A/5E72076D" Ref="#PWR0102"  Part="1" 
AR Path="/5EA0618B/5E72076D" Ref="#PWR0102"  Part="1" 
F 0 "#PWR0102" H 5800 5450 50  0001 C CNN
F 1 "GND" H 5805 5527 50  0001 C CNN
F 2 "" H 5800 5700 50  0001 C CNN
F 3 "" H 5800 5700 50  0001 C CNN
	1    5800 5700
	-1   0    0    -1  
$EndComp
$Comp
L CG24-cells:N2N U6R133
U 1 1 5E70DF88
P 4650 5950
AR Path="/5EB9AB9A/5E70DF88" Ref="U6R133"  Part="1" 
AR Path="/5EA0618B/5E70DF88" Ref="U6R133"  Part="1" 
F 0 "U6R133" H 4675 5683 50  0000 C CNN
F 1 "N2N" H 4675 5774 50  0000 C CNN
F 2 "" H 4650 5950 50  0001 C CNN
F 3 "" H 4650 5950 50  0001 C CNN
	1    4650 5950
	1    0    0    1   
$EndComp
$Comp
L CG24-cells:N2P U4R112
U 1 1 5E6F89D5
P 5650 1100
AR Path="/5EB9AB9A/5E6F89D5" Ref="U4R112"  Part="1" 
AR Path="/5EA0618B/5E6F89D5" Ref="U4R112"  Part="1" 
F 0 "U4R112" H 5675 1367 50  0000 C CNN
F 1 "N2P" H 5675 1276 50  0000 C CNN
F 2 "" H 5650 1100 50  0001 C CNN
F 3 "" H 5650 1100 50  0001 C CNN
	1    5650 1100
	1    0    0    -1  
$EndComp
$Comp
L CG24-cells:N2P U4R142
U 1 1 5E701C4A
P 5650 1600
AR Path="/5EB9AB9A/5E701C4A" Ref="U4R142"  Part="1" 
AR Path="/5EA0618B/5E701C4A" Ref="U4R142"  Part="1" 
F 0 "U4R142" H 5675 1867 50  0000 C CNN
F 1 "N2P" H 5675 1776 50  0000 C CNN
F 2 "" H 5650 1600 50  0001 C CNN
F 3 "" H 5650 1600 50  0001 C CNN
	1    5650 1600
	1    0    0    -1  
$EndComp
$Comp
L CG24-cells:N2P U12R122
U 1 1 5E702640
P 5650 2100
AR Path="/5EB9AB9A/5E702640" Ref="U12R122"  Part="1" 
AR Path="/5EA0618B/5E702640" Ref="U12R122"  Part="1" 
F 0 "U12R122" H 5675 2367 50  0000 C CNN
F 1 "N2P" H 5675 2276 50  0000 C CNN
F 2 "" H 5650 2100 50  0001 C CNN
F 3 "" H 5650 2100 50  0001 C CNN
	1    5650 2100
	1    0    0    -1  
$EndComp
$Comp
L CG24-cells:N2P U14R122
U 1 1 5E703E45
P 5650 2600
AR Path="/5EB9AB9A/5E703E45" Ref="U14R122"  Part="1" 
AR Path="/5EA0618B/5E703E45" Ref="U14R122"  Part="1" 
F 0 "U14R122" H 5675 2867 50  0000 C CNN
F 1 "N2P" H 5675 2776 50  0000 C CNN
F 2 "" H 5650 2600 50  0001 C CNN
F 3 "" H 5650 2600 50  0001 C CNN
	1    5650 2600
	1    0    0    -1  
$EndComp
$Comp
L CG24-cells:N2P U32R142
U 1 1 5E707D8D
P 5650 3100
AR Path="/5EB9AB9A/5E707D8D" Ref="U32R142"  Part="1" 
AR Path="/5EA0618B/5E707D8D" Ref="U32R142"  Part="1" 
F 0 "U32R142" H 5675 3367 50  0000 C CNN
F 1 "N2P" H 5675 3276 50  0000 C CNN
F 2 "" H 5650 3100 50  0001 C CNN
F 3 "" H 5650 3100 50  0001 C CNN
	1    5650 3100
	1    0    0    -1  
$EndComp
$Comp
L CG24-cells:N2P U18R142
U 1 1 5E9291A8
P 5650 3650
AR Path="/5EB9AB9A/5E9291A8" Ref="U18R142"  Part="1" 
AR Path="/5EA0618B/5E9291A8" Ref="U18R142"  Part="1" 
F 0 "U18R142" H 5675 3917 50  0000 C CNN
F 1 "N2P" H 5675 3826 50  0000 C CNN
F 2 "" H 5650 3650 50  0001 C CNN
F 3 "" H 5650 3650 50  0001 C CNN
	1    5650 3650
	1    0    0    -1  
$EndComp
$Comp
L CG24-cells:V1N U8R133
U 1 1 5E70D350
P 3900 6400
AR Path="/5E908797/5E70D350" Ref="U8R133"  Part="1" 
AR Path="/5E963B59/5E70D350" Ref="U8R133"  Part="1" 
AR Path="/5EA0618B/5E70D350" Ref="U8R133"  Part="1" 
F 0 "U8R133" H 3900 6717 50  0000 C CNN
F 1 "V1N" H 3900 6626 50  0000 C CNN
F 2 "" H 3900 6200 50  0001 C CNN
F 3 "" H 3900 6200 50  0001 C CNN
	1    3900 6400
	1    0    0    -1  
$EndComp
$Comp
L CG24-cells:K1B U26R25
U 1 1 5E921FFF
P 4700 3600
AR Path="/5EB9AB9A/5E921FFF" Ref="U26R25"  Part="1" 
AR Path="/5EA0618B/5E921FFF" Ref="U26R25"  Part="1" 
F 0 "U26R25" H 4700 3917 50  0000 C CNN
F 1 "K1B" H 4700 3826 50  0000 C CNN
F 2 "" H 4700 3600 50  0001 C CNN
F 3 "" H 4700 3600 50  0001 C CNN
	1    4700 3600
	1    0    0    -1  
$EndComp
$Comp
L CG24-cells:B1N U2R133
U 1 1 5E70C9BC
P 5550 5250
AR Path="/5EB9AB9A/5E70C9BC" Ref="U2R133"  Part="1" 
AR Path="/5EA0618B/5E70C9BC" Ref="U2R133"  Part="1" 
F 0 "U2R133" H 5550 4933 50  0000 C CNN
F 1 "B1N" H 5550 5024 50  0000 C CNN
F 2 "" H 5550 5250 50  0001 C CNN
F 3 "" H 5550 5250 50  0001 C CNN
	1    5550 5250
	1    0    0    1   
$EndComp
$Comp
L CG24-cells:O1B U2R107
U 1 1 5E6F7266
P 6250 1100
AR Path="/5EB9AB9A/5E6F7266" Ref="U2R107"  Part="1" 
AR Path="/5EA0618B/5E6F7266" Ref="U2R107"  Part="1" 
F 0 "U2R107" H 6250 1417 50  0000 C CNN
F 1 "O1B" H 6250 1326 50  0000 C CNN
F 2 "" H 6250 900 50  0001 C CNN
F 3 "" H 6250 900 50  0001 C CNN
	1    6250 1100
	1    0    0    -1  
$EndComp
$Comp
L CG24-cells:O1B U2R137
U 1 1 5E702514
P 6250 1600
AR Path="/5EB9AB9A/5E702514" Ref="U2R137"  Part="1" 
AR Path="/5EA0618B/5E702514" Ref="U2R137"  Part="1" 
F 0 "U2R137" H 6250 1917 50  0000 C CNN
F 1 "O1B" H 6250 1826 50  0000 C CNN
F 2 "" H 6250 1400 50  0001 C CNN
F 3 "" H 6250 1400 50  0001 C CNN
	1    6250 1600
	1    0    0    -1  
$EndComp
$Comp
L CG24-cells:O1B U2R116
U 1 1 5E7050FF
P 6250 2100
AR Path="/5EB9AB9A/5E7050FF" Ref="U2R116"  Part="1" 
AR Path="/5EA0618B/5E7050FF" Ref="U2R116"  Part="1" 
F 0 "U2R116" H 6250 2417 50  0000 C CNN
F 1 "O1B" H 6250 2326 50  0000 C CNN
F 2 "" H 6250 1900 50  0001 C CNN
F 3 "" H 6250 1900 50  0001 C CNN
	1    6250 2100
	1    0    0    -1  
$EndComp
$Comp
L CG24-cells:O1B U2R117
U 1 1 5E706628
P 6250 2600
AR Path="/5EB9AB9A/5E706628" Ref="U2R117"  Part="1" 
AR Path="/5EA0618B/5E706628" Ref="U2R117"  Part="1" 
F 0 "U2R117" H 6250 2917 50  0000 C CNN
F 1 "O1B" H 6250 2826 50  0000 C CNN
F 2 "" H 6250 2400 50  0001 C CNN
F 3 "" H 6250 2400 50  0001 C CNN
	1    6250 2600
	1    0    0    -1  
$EndComp
$Comp
L CG24-cells:O1B U36R22
U 1 1 5E87545B
P 6250 3100
AR Path="/5EB9AB9A/5E87545B" Ref="U36R22"  Part="1" 
AR Path="/5EA0618B/5E87545B" Ref="U36R22"  Part="1" 
F 0 "U36R22" H 6250 3417 50  0000 C CNN
F 1 "O1B" H 6250 3326 50  0000 C CNN
F 2 "" H 6250 2900 50  0001 C CNN
F 3 "" H 6250 2900 50  0001 C CNN
	1    6250 3100
	1    0    0    -1  
$EndComp
$Comp
L CG24-cells:O1B U10R183
U 1 1 5E929B73
P 6250 3650
AR Path="/5EB9AB9A/5E929B73" Ref="U10R183"  Part="1" 
AR Path="/5EA0618B/5E929B73" Ref="U10R183"  Part="1" 
F 0 "U10R183" H 6250 3967 50  0000 C CNN
F 1 "O1B" H 6250 3876 50  0000 C CNN
F 2 "" H 6250 3450 50  0001 C CNN
F 3 "" H 6250 3450 50  0001 C CNN
	1    6250 3650
	1    0    0    -1  
$EndComp
$Comp
L CG24-cells:O4R U2R125
U 1 1 5E703737
P 6250 4700
AR Path="/5EB9AB9A/5E703737" Ref="U2R125"  Part="1" 
AR Path="/5EA0618B/5E703737" Ref="U2R125"  Part="1" 
F 0 "U2R125" H 6250 5017 50  0000 C CNN
F 1 "O4R" H 6250 4926 50  0000 C CNN
F 2 "" H 6250 4700 50  0001 C CNN
F 3 "" H 6250 4700 50  0001 C CNN
	1    6250 4700
	1    0    0    -1  
$EndComp
$Comp
L CG24-cells:O4R U2R127
U 1 1 5E70C146
P 6250 5700
AR Path="/5EB9AB9A/5E70C146" Ref="U2R127"  Part="1" 
AR Path="/5EA0618B/5E70C146" Ref="U2R127"  Part="1" 
F 0 "U2R127" H 6250 6017 50  0000 C CNN
F 1 "O4R" H 6250 5926 50  0000 C CNN
F 2 "" H 6250 5700 50  0001 C CNN
F 3 "" H 6250 5700 50  0001 C CNN
	1    6250 5700
	1    0    0    -1  
$EndComp
$EndSCHEMATC
