EESchema Schematic File Version 5
EELAYER 33 0
EELAYER END
$Descr A4 11693 8268
encoding utf-8
Sheet 4 20
Title ""
Date "2020-04-12"
Rev ""
Comp ""
Comment1 ""
Comment2 "Licence: CC-BY"
Comment3 "Author: Loic *WydD* Petit"
Comment4 "Project: CPS2 Reverse Engineering: DL-1827"
Comment5 ""
Comment6 ""
Comment7 ""
Comment8 ""
Comment9 ""
$EndDescr
Connection ~ 4000 2450
Connection ~ 4000 6700
Connection ~ 4000 5300
Connection ~ 4000 6000
Connection ~ 4000 3200
Connection ~ 4000 3900
Connection ~ 4000 4600
Wire Wire Line
	3550 6700 4000 6700
Wire Wire Line
	4000 1700 4000 2450
Wire Wire Line
	4000 1700 5250 1700
Wire Wire Line
	4000 2450 4000 3200
Wire Wire Line
	4000 2450 5250 2450
Wire Wire Line
	4000 3200 4000 3900
Wire Wire Line
	4000 3200 5250 3200
Wire Wire Line
	4000 3900 4000 4600
Wire Wire Line
	4000 3900 5250 3900
Wire Wire Line
	4000 4600 4000 5300
Wire Wire Line
	4000 4600 5250 4600
Wire Wire Line
	4000 5300 4000 6000
Wire Wire Line
	4000 5300 5250 5300
Wire Wire Line
	4000 6000 4000 6700
Wire Wire Line
	4000 6000 5250 6000
Wire Wire Line
	4000 6700 5250 6700
Wire Wire Line
	5550 1450 6300 1450
Wire Wire Line
	5550 2200 6300 2200
Wire Wire Line
	5550 2950 6300 2950
Wire Wire Line
	5550 3650 6300 3650
Wire Wire Line
	5550 4350 6300 4350
Wire Wire Line
	5550 5050 6300 5050
Wire Wire Line
	5550 5750 6300 5750
Wire Wire Line
	5550 6450 6300 6450
Text HLabel 2950 6700 0    50   Input ~ 0
ENABLE
Text HLabel 4950 1450 0    50   Input ~ 0
~_SEC-E2
Text HLabel 4950 2200 0    50   Input ~ 0
~_VBLANK
Text HLabel 4950 2950 0    50   Input ~ 0
_SEC-DATA
Text HLabel 4950 3650 0    50   Input ~ 0
~_SEC-E1
Text HLabel 4950 4350 0    50   Input ~ 0
~_CPSA-E
Text HLabel 4950 5050 0    50   Input ~ 0
~_CPSB-OBJUP
Text HLabel 4950 5750 0    50   Input ~ 0
~_REFRESH
Text HLabel 4950 6450 0    50   Input ~ 0
~_CPSA-BR
Text HLabel 6300 1450 2    50   Output ~ 0
~SEC-E2
Text HLabel 6300 2200 2    50   Output ~ 0
~VBLANK
Text HLabel 6300 2950 2    50   Output ~ 0
SEC-DATA
Text HLabel 6300 3650 2    50   Output ~ 0
~SEC-E1
Text HLabel 6300 4350 2    50   Output ~ 0
~CPSA-E
Text HLabel 6300 5050 2    50   Output ~ 0
~CPSB-OBJUP
Text HLabel 6300 5750 2    50   Output ~ 0
~REFRESH
Text HLabel 6300 6450 2    50   Output ~ 0
~CPSA-BR
$Comp
L CG24-cells:V1L U10R50
U 1 1 5F096847
P 3250 6700
AR Path="/5E908797/5F096847" Ref="U10R50"  Part="1" 
AR Path="/5E963B59/5F096847" Ref="U10R50"  Part="1" 
F 0 "U10R50" H 3250 6383 50  0000 C CNN
F 1 "V1L" H 3250 6474 50  0000 C CNN
F 2 "" H 3250 6500 50  0001 C CNN
F 3 "" H 3250 6500 50  0001 C CNN
	1    3250 6700
	1    0    0    1   
$EndComp
$Comp
L CG24-cells:B12 U10R24
U 1 1 5E710AA8
P 5250 1450
AR Path="/5E908797/5E710AA8" Ref="U10R24"  Part="1" 
AR Path="/5E963B59/5E710AA8" Ref="U10R24"  Part="1" 
F 0 "U10R24" H 5250 1815 50  0000 C CNN
F 1 "B12" H 5250 1724 50  0000 C CNN
F 2 "" H 5250 1450 50  0001 C CNN
F 3 "" H 5250 1450 50  0001 C CNN
	1    5250 1450
	1    0    0    -1  
$EndComp
$Comp
L CG24-cells:B12 U10R22
U 1 1 5E6FBD72
P 5250 2200
AR Path="/5E908797/5E6FBD72" Ref="U10R22"  Part="1" 
AR Path="/5E963B59/5E6FBD72" Ref="U10R22"  Part="1" 
F 0 "U10R22" H 5250 2565 50  0000 C CNN
F 1 "B12" H 5250 2474 50  0000 C CNN
F 2 "" H 5250 2200 50  0001 C CNN
F 3 "" H 5250 2200 50  0001 C CNN
	1    5250 2200
	1    0    0    -1  
$EndComp
$Comp
L CG24-cells:B12 U32R24
U 1 1 5E7645EC
P 5250 2950
AR Path="/5E908797/5E7645EC" Ref="U32R24"  Part="1" 
AR Path="/5E963B59/5E7645EC" Ref="U32R24"  Part="1" 
F 0 "U32R24" H 5250 3315 50  0000 C CNN
F 1 "B12" H 5250 3224 50  0000 C CNN
F 2 "" H 5250 2950 50  0001 C CNN
F 3 "" H 5250 2950 50  0001 C CNN
	1    5250 2950
	1    0    0    -1  
$EndComp
$Comp
L CG24-cells:B12 U34R22
U 1 1 5E766DCE
P 5250 3650
AR Path="/5E908797/5E766DCE" Ref="U34R22"  Part="1" 
AR Path="/5E963B59/5E766DCE" Ref="U34R22"  Part="1" 
F 0 "U34R22" H 5250 4015 50  0000 C CNN
F 1 "B12" H 5250 3924 50  0000 C CNN
F 2 "" H 5250 3650 50  0001 C CNN
F 3 "" H 5250 3650 50  0001 C CNN
	1    5250 3650
	1    0    0    -1  
$EndComp
$Comp
L CG24-cells:B12 U42R84
U 1 1 5E767D26
P 5250 4350
AR Path="/5E908797/5E767D26" Ref="U42R84"  Part="1" 
AR Path="/5E963B59/5E767D26" Ref="U42R84"  Part="1" 
F 0 "U42R84" H 5250 4715 50  0000 C CNN
F 1 "B12" H 5250 4624 50  0000 C CNN
F 2 "" H 5250 4350 50  0001 C CNN
F 3 "" H 5250 4350 50  0001 C CNN
	1    5250 4350
	1    0    0    -1  
$EndComp
$Comp
L CG24-cells:B12 U6R26
U 1 1 5E76183D
P 5250 5050
AR Path="/5E908797/5E76183D" Ref="U6R26"  Part="1" 
AR Path="/5E963B59/5E76183D" Ref="U6R26"  Part="1" 
F 0 "U6R26" H 5250 5415 50  0000 C CNN
F 1 "B12" H 5250 5324 50  0000 C CNN
F 2 "" H 5250 5050 50  0001 C CNN
F 3 "" H 5250 5050 50  0001 C CNN
	1    5250 5050
	1    0    0    -1  
$EndComp
$Comp
L CG24-cells:B12 U4R40
U 1 1 604B592F
P 5250 5750
AR Path="/5E908797/604B592F" Ref="U4R40"  Part="1" 
AR Path="/5E963B59/604B592F" Ref="U4R40"  Part="1" 
F 0 "U4R40" H 5250 6115 50  0000 C CNN
F 1 "B12" H 5250 6024 50  0000 C CNN
F 2 "" H 5250 5750 50  0001 C CNN
F 3 "" H 5250 5750 50  0001 C CNN
	1    5250 5750
	1    0    0    -1  
$EndComp
$Comp
L CG24-cells:B12 U4R42
U 1 1 604B5935
P 5250 6450
AR Path="/5E908797/604B5935" Ref="U4R42"  Part="1" 
AR Path="/5E963B59/604B5935" Ref="U4R42"  Part="1" 
F 0 "U4R42" H 5250 6815 50  0000 C CNN
F 1 "B12" H 5250 6724 50  0000 C CNN
F 2 "" H 5250 6450 50  0001 C CNN
F 3 "" H 5250 6450 50  0001 C CNN
	1    5250 6450
	1    0    0    -1  
$EndComp
$EndSCHEMATC
